=======================================================================================
MOD DEFINITION DATA FILE - Warp10 Mod v3
=======================================================================================

=======================================================================================
*BEGIN*
=======================================================================================

Mod Name                                 := Warp10 Mod v3 - dev
Description                              := Star Trek Mod
Picture Filename                         := ModLogo.bmp
Allow Main Empires                       := FALSE
Override InvConfiguration Slots          := FALSE

=======================================================================================
*END*
=======================================================================================
