xof 0303txt 0032
template VertexDuplicationIndices {
 <b8d65549-d7c9-4995-89cf-53a9a8b031e3>
 DWORD nIndices;
 DWORD nOriginalVertices;
 array DWORD indices[nIndices];
}

template FVFData {
 <b6e70a0e-8ef9-4e83-94ad-ecc8b0c04897>
 DWORD dwFVF;
 DWORD nDWords;
 array DWORD data[nDWords];
}

template VertexElement {
 <f752461c-1e23-48f6-b9f8-8350850f336f>
 DWORD Type;
 DWORD Method;
 DWORD Usage;
 DWORD UsageIndex;
}

template DeclData {
 <bf22e553-292c-4781-9fea-62bd554bdd93>
 DWORD nElements;
 array VertexElement Elements[nElements];
 DWORD nDWords;
 array DWORD data[nDWords];
}

template EffectParamFloats {
 <3014b9a0-62f5-478c-9b86-e4ac9f4e418b>
 STRING ParamName;
 DWORD nFloats;
 array FLOAT Floats[nFloats];
}

template EffectParamString {
 <1dbc4c88-94c1-46ee-9076-2c28818c9481>
 STRING ParamName;
 STRING Value;
}

template EffectParamDWord {
 <e13963bc-ae51-4c5d-b00f-cfa3a9d97ce5>
 STRING ParamName;
 DWORD Value;
}

template EffectInstance {
 <e331f7e4-0559-4cc2-8e99-1cec1657928f>
 STRING EffectFilename;
 [...]
}


Mesh {
 542;
 4.423633;13.777380;4.604566;,
 4.423633;12.086094;4.604566;,
 6.079595;12.086093;4.600914;,
 6.079595;12.086095;-4.568368;,
 4.423633;12.086095;-4.572021;,
 4.423633;13.777380;-4.572020;,
 -6.076926;12.086095;4.600914;,
 -4.420964;12.086094;4.604566;,
 -4.420963;13.777379;4.604566;,
 -4.420963;13.777380;-4.572020;,
 -4.420964;12.086095;-4.572021;,
 -6.076926;12.086093;-4.568368;,
 6.079597;-11.875068;4.600912;,
 4.423634;-11.875067;4.604564;,
 4.423634;-13.566354;4.604564;,
 4.423634;-13.566353;-4.572021;,
 4.423634;-11.875065;-4.572021;,
 6.079597;-11.875065;-4.568369;,
 -4.420962;-13.566354;4.604564;,
 -4.420962;-11.875067;4.604564;,
 -6.076925;-11.875065;4.600912;,
 -6.076925;-11.875068;-4.568369;,
 -4.420962;-11.875067;-4.572021;,
 -4.420962;-13.566354;-4.572021;,
 7.857856;-9.439377;0.016272;,
 8.001863;-9.614333;-1.509399;,
 8.001863;-6.374383;-1.509399;,
 7.857855;-6.257747;0.016272;,
 8.001863;-9.614332;1.541943;,
 8.001863;-6.374384;1.541943;,
 6.600811;-2.789770;0.016272;,
 6.721776;-2.842840;1.541943;,
 6.721776;-2.842840;-1.509399;,
 -7.855184;-9.439378;0.016272;,
 -7.999191;-9.614334;1.541943;,
 -7.999191;-6.374384;1.541943;,
 -7.855184;-6.257748;0.016272;,
 -7.999191;-9.614334;-1.509399;,
 -7.999191;-6.374384;-1.509399;,
 -6.598140;-2.789771;0.016272;,
 -6.719106;-2.842841;-1.509399;,
 -6.719106;-2.842841;1.541943;,
 -6.719106;-2.842841;1.541943;,
 -6.719106;3.053867;1.541944;,
 -6.598140;3.000798;0.016272;,
 -6.598140;-2.789771;0.016272;,
 -6.719106;3.053867;-1.509399;,
 -6.719106;-2.842841;-1.509399;,
 6.600811;-2.789770;0.016272;,
 6.721776;3.053867;1.541944;,
 6.721776;-2.842840;1.541943;,
 6.600810;3.000798;0.016272;,
 6.721776;-2.842840;-1.509399;,
 6.721776;3.053867;-1.509399;,
 -6.598140;3.000798;0.016272;,
 -6.719106;3.053867;1.541944;,
 -7.999193;6.585410;1.541944;,
 -7.855185;6.468774;0.016273;,
 -6.719106;3.053867;-1.509399;,
 -7.999193;6.585410;-1.509398;,
 -7.855185;9.650404;0.016273;,
 -7.999192;9.825359;-1.509398;,
 -7.999192;9.825359;1.541944;,
 -7.999193;13.789518;-1.509398;,
 -7.999192;9.825359;-1.509398;,
 -7.855185;9.650404;0.016273;,
 -7.855185;13.543209;0.016273;,
 -5.427202;16.013666;0.016273;,
 -5.526706;16.305258;-1.509398;,
 -7.999192;9.825359;1.541944;,
 -7.999193;13.789516;1.541944;,
 -5.526706;16.305258;1.541944;,
 5.429872;16.013666;0.016273;,
 0.001334;16.305258;1.541944;,
 5.529375;16.305258;1.541944;,
 0.001334;16.013666;0.016273;,
 -5.526706;16.305258;1.541944;,
 -5.427202;16.013666;0.016273;,
 0.001334;16.305258;-1.509398;,
 -5.526706;16.305258;-1.509398;,
 5.529375;16.305260;-1.509398;,
 8.001862;13.789520;1.541944;,
 8.001862;9.825361;1.541944;,
 7.857855;9.650406;0.016273;,
 7.857855;13.543209;0.016273;,
 5.429872;16.013666;0.016273;,
 5.529375;16.305258;1.541944;,
 8.001862;9.825359;-1.509398;,
 8.001862;13.789520;-1.509398;,
 5.529375;16.305260;-1.509398;,
 6.600810;3.000798;0.016272;,
 6.721776;3.053867;-1.509399;,
 8.001862;6.585411;-1.509398;,
 7.857854;6.468775;0.016273;,
 6.721776;3.053867;1.541944;,
 8.001862;6.585412;1.541944;,
 7.857855;9.650406;0.016273;,
 8.001862;9.825361;1.541944;,
 8.001862;9.825359;-1.509398;,
 8.001863;-13.578492;-1.509399;,
 5.429873;-15.802640;0.016272;,
 5.529376;-16.094231;-1.509400;,
 7.857855;-13.332182;0.016272;,
 5.529376;-16.094231;1.541943;,
 8.001863;-13.578491;1.541943;,
 8.001863;-9.614332;1.541943;,
 7.857856;-9.439377;0.016272;,
 8.001863;-9.614333;-1.509399;,
 -7.999192;-13.578492;1.541943;,
 -5.427201;-15.802641;0.016272;,
 -5.526705;-16.094231;1.541943;,
 -7.855185;-13.332184;0.016272;,
 -5.526705;-16.094231;-1.509400;,
 -7.999192;-13.578492;-1.509399;,
 -7.999191;-9.614334;-1.509399;,
 -7.855184;-9.439378;0.016272;,
 -7.999191;-9.614334;1.541943;,
 5.429873;-15.802640;0.016272;,
 0.001336;-16.094231;-1.509400;,
 5.529376;-16.094231;-1.509400;,
 0.001336;-15.802641;0.016272;,
 -5.526705;-16.094231;-1.509400;,
 -5.427201;-15.802641;0.016272;,
 0.001336;-16.094231;1.541943;,
 -5.526705;-16.094231;1.541943;,
 5.529376;-16.094231;1.541943;,
 -5.526706;16.305258;1.541944;,
 -6.076926;12.086095;4.600914;,
 -4.420963;13.777379;4.604566;,
 -7.999193;13.789516;1.541944;,
 -6.076925;9.028332;4.600913;,
 -7.999192;9.825359;1.541944;,
 8.001862;13.789520;1.541944;,
 4.423633;13.777380;4.604566;,
 6.079595;12.086093;4.600914;,
 5.529375;16.305258;1.541944;,
 -5.104403;2.812102;4.536475;,
 -4.420963;6.054059;4.604565;,
 -6.076925;6.054059;4.600913;,
 -3.713394;2.812102;4.540076;,
 -6.076926;12.086095;4.600914;,
 -4.420963;9.028331;4.604566;,
 -4.420964;12.086094;4.604566;,
 -6.076925;9.028332;4.600913;,
 3.716065;2.812102;4.540076;,
 6.079595;6.054060;4.600913;,
 4.423633;6.054060;4.604565;,
 5.107073;2.812102;4.536475;,
 4.423633;12.086094;4.604566;,
 6.079595;9.028333;4.600913;,
 6.079595;12.086093;4.600914;,
 4.423633;9.028333;4.604566;,
 5.107073;2.812103;-4.503930;,
 4.423633;6.054060;-4.572021;,
 6.079595;6.054060;-4.568368;,
 3.716065;2.812103;-4.507531;,
 6.079595;12.086095;-4.568368;,
 4.423633;9.028332;-4.572021;,
 4.423633;12.086095;-4.572021;,
 6.079595;9.028332;-4.568368;,
 -3.713394;2.812102;-4.507531;,
 -6.076925;6.054060;-4.568368;,
 -4.420963;6.054060;-4.572021;,
 -5.104403;2.812102;-4.503930;,
 -4.420964;12.086095;-4.572021;,
 -6.076925;9.028332;-4.568368;,
 -6.076926;12.086093;-4.568368;,
 -4.420963;9.028333;-4.572021;,
 6.721776;3.053867;-1.509399;,
 6.079595;6.054060;-4.568368;,
 8.001862;6.585411;-1.509398;,
 5.107073;2.812103;-4.503930;,
 8.001862;13.789520;-1.509398;,
 6.079595;9.028332;-4.568368;,
 6.079595;12.086095;-4.568368;,
 8.001862;9.825359;-1.509398;,
 5.107073;2.812102;4.536475;,
 8.001862;6.585412;1.541944;,
 6.079595;6.054060;4.600913;,
 6.721776;3.053867;1.541944;,
 6.079595;12.086093;4.600914;,
 8.001862;9.825361;1.541944;,
 8.001862;13.789520;1.541944;,
 6.079595;9.028333;4.600913;,
 -7.999193;13.789518;-1.509398;,
 -5.526706;16.305258;-1.509398;,
 -4.420963;13.777380;-4.572020;,
 -6.076926;12.086093;-4.568368;,
 -7.999192;9.825359;-1.509398;,
 -6.076925;9.028332;-4.568368;,
 5.529375;16.305260;-1.509398;,
 6.079595;12.086095;-4.568368;,
 4.423633;13.777380;-4.572020;,
 8.001862;13.789520;-1.509398;,
 -5.526706;16.305258;-1.509398;,
 0.001335;13.777380;-4.572020;,
 -4.420963;13.777380;-4.572020;,
 0.001334;16.305258;-1.509398;,
 4.423633;13.777380;-4.572020;,
 5.529375;16.305260;-1.509398;,
 -4.420963;13.777379;4.604566;,
 0.001334;16.305258;1.541944;,
 -5.526706;16.305258;1.541944;,
 0.001335;13.777380;4.604566;,
 5.529375;16.305258;1.541944;,
 4.423633;13.777380;4.604566;,
 4.423633;12.086094;4.604566;,
 0.001335;9.028332;4.604566;,
 4.423633;9.028333;4.604566;,
 0.001335;12.086094;4.604566;,
 -4.420963;9.028331;4.604566;,
 0.001335;12.086094;4.604566;,
 -4.420964;12.086094;4.604566;,
 0.001335;9.028332;4.604566;,
 -5.104403;2.812102;-4.503930;,
 -7.999193;6.585410;-1.509398;,
 -6.076925;6.054060;-4.568368;,
 -6.719106;3.053867;-1.509399;,
 -6.719106;3.053867;1.541944;,
 -6.076925;6.054059;4.600913;,
 -7.999193;6.585410;1.541944;,
 -5.104403;2.812102;4.536475;,
 -4.420964;12.086094;4.604566;,
 0.001335;13.777380;4.604566;,
 -4.420963;13.777379;4.604566;,
 0.001335;12.086094;4.604566;,
 4.423633;13.777380;4.604566;,
 0.001335;12.086094;4.604566;,
 4.423633;12.086094;4.604566;,
 0.001335;13.777380;4.604566;,
 4.423633;9.028333;4.604566;,
 0.001335;6.054059;4.604565;,
 4.423633;6.054060;4.604565;,
 0.001335;9.028332;4.604566;,
 -3.713394;2.812102;4.540076;,
 0.001335;6.054059;4.604565;,
 -4.420963;6.054059;4.604565;,
 0.001335;2.812102;4.540076;,
 4.423633;12.086095;-4.572021;,
 0.001335;13.777380;-4.572020;,
 4.423633;13.777380;-4.572020;,
 0.001335;12.086095;-4.572021;,
 -4.420963;13.777380;-4.572020;,
 0.001335;12.086095;-4.572021;,
 -4.420964;12.086095;-4.572021;,
 0.001335;13.777380;-4.572020;,
 6.721776;-2.842840;1.541943;,
 5.107073;-2.601075;4.536475;,
 6.079595;-5.843032;4.600913;,
 8.001863;-6.374384;1.541943;,
 4.423633;9.028332;-4.572021;,
 0.001335;12.086095;-4.572021;,
 4.423633;12.086095;-4.572021;,
 0.001335;9.028333;-4.572021;,
 -4.420964;12.086095;-4.572021;,
 0.001335;9.028333;-4.572021;,
 -4.420963;9.028333;-4.572021;,
 0.001335;12.086095;-4.572021;,
 3.716065;2.812103;-4.507531;,
 0.001335;6.054059;-4.572021;,
 4.423633;6.054060;-4.572021;,
 0.001335;2.812102;-4.507531;,
 -4.420963;9.028333;-4.572021;,
 0.001335;6.054059;-4.572021;,
 -4.420963;6.054060;-4.572021;,
 0.001335;9.028333;-4.572021;,
 6.079595;9.028333;4.600913;,
 4.423633;6.054060;4.604565;,
 6.079595;6.054060;4.600913;,
 4.423633;9.028333;4.604566;,
 0.001335;2.812102;4.540076;,
 4.423633;6.054060;4.604565;,
 0.001335;6.054059;4.604565;,
 3.716065;2.812102;4.540076;,
 0.001335;9.028332;4.604566;,
 -4.420963;6.054059;4.604565;,
 0.001335;6.054059;4.604565;,
 -4.420963;9.028331;4.604566;,
 -4.420963;9.028331;4.604566;,
 -6.076925;6.054059;4.600913;,
 -4.420963;6.054059;4.604565;,
 -6.076925;9.028332;4.600913;,
 -3.713394;2.812102;-4.507531;,
 0.001335;-2.601075;-4.507532;,
 -3.713394;-2.601075;-4.507532;,
 0.001335;2.812102;-4.507531;,
 3.716065;-2.601075;-4.507532;,
 0.001335;2.812102;-4.507531;,
 3.716065;2.812103;-4.507531;,
 0.001335;-2.601075;-4.507532;,
 -3.713394;-2.601075;4.540076;,
 0.001335;2.812102;4.540076;,
 -3.713394;2.812102;4.540076;,
 0.001335;-2.601075;4.540076;,
 3.716065;2.812102;4.540076;,
 0.001335;-2.601075;4.540076;,
 3.716065;-2.601075;4.540076;,
 0.001335;2.812102;4.540076;,
 -3.713394;-2.601075;4.540076;,
 -5.104403;2.812102;4.536475;,
 -5.104403;-2.601075;4.536475;,
 -3.713394;2.812102;4.540076;,
 5.107073;-2.601075;4.536475;,
 3.716065;2.812102;4.540076;,
 3.716065;-2.601075;4.540076;,
 5.107073;2.812102;4.536475;,
 3.716065;-2.601075;-4.507532;,
 5.107073;2.812103;-4.503930;,
 5.107073;-2.601075;-4.503931;,
 3.716065;2.812103;-4.507531;,
 -5.104403;-2.601075;-4.503931;,
 -3.713394;2.812102;-4.507531;,
 -3.713394;-2.601075;-4.507532;,
 -5.104403;2.812102;-4.503930;,
 5.107073;-2.601075;-4.503931;,
 6.721776;3.053867;-1.509399;,
 6.721776;-2.842840;-1.509399;,
 5.107073;2.812103;-4.503930;,
 6.721776;-2.842840;1.541943;,
 5.107073;2.812102;4.536475;,
 5.107073;-2.601075;4.536475;,
 6.721776;3.053867;1.541944;,
 -6.719106;-2.842841;-1.509399;,
 -5.104403;2.812102;-4.503930;,
 -5.104403;-2.601075;-4.503931;,
 -6.719106;3.053867;-1.509399;,
 -5.104403;-2.601075;4.536475;,
 -6.719106;3.053867;1.541944;,
 -6.719106;-2.842841;1.541943;,
 -5.104403;2.812102;4.536475;,
 -6.076925;9.028332;4.600913;,
 -7.999193;6.585410;1.541944;,
 -6.076925;6.054059;4.600913;,
 -7.999192;9.825359;1.541944;,
 -7.999192;9.825359;-1.509398;,
 -6.076925;6.054060;-4.568368;,
 -7.999193;6.585410;-1.509398;,
 -6.076925;9.028332;-4.568368;,
 -6.076925;9.028332;-4.568368;,
 -4.420963;6.054060;-4.572021;,
 -6.076925;6.054060;-4.568368;,
 -4.420963;9.028333;-4.572021;,
 0.001335;2.812102;-4.507531;,
 -4.420963;6.054060;-4.572021;,
 0.001335;6.054059;-4.572021;,
 -3.713394;2.812102;-4.507531;,
 -3.713394;-2.601075;-4.507532;,
 0.001335;-5.843032;-4.572021;,
 -4.420963;-5.843032;-4.572021;,
 0.001335;-2.601075;-4.507532;,
 4.423633;-8.817305;-4.572021;,
 0.001335;-5.843032;-4.572021;,
 4.423633;-5.843032;-4.572021;,
 0.001336;-8.817305;-4.572021;,
 -4.420962;-8.817306;4.604565;,
 0.001335;-5.843033;4.604565;,
 -4.420963;-5.843033;4.604565;,
 0.001336;-8.817306;4.604565;,
 3.716065;-2.601075;4.540076;,
 0.001335;-5.843033;4.604565;,
 4.423633;-5.843032;4.604565;,
 0.001335;-2.601075;4.540076;,
 -6.076925;-8.817305;4.600913;,
 -4.420963;-5.843033;4.604565;,
 -6.076925;-5.843033;4.600913;,
 -4.420962;-8.817306;4.604565;,
 4.423633;-8.817305;4.604565;,
 6.079595;-5.843032;4.600913;,
 4.423633;-5.843032;4.604565;,
 6.079596;-8.817305;4.600913;,
 6.079596;-8.817305;-4.568369;,
 4.423633;-5.843032;-4.572021;,
 6.079595;-5.843032;-4.568368;,
 4.423633;-8.817305;-4.572021;,
 -4.420962;-8.817305;-4.572021;,
 -6.076925;-5.843032;-4.568368;,
 -4.420963;-5.843032;-4.572021;,
 -6.076925;-8.817305;-4.568369;,
 8.001863;-9.614333;-1.509399;,
 6.079595;-5.843032;-4.568368;,
 8.001863;-6.374383;-1.509399;,
 6.079596;-8.817305;-4.568369;,
 6.079596;-8.817305;4.600913;,
 8.001863;-6.374384;1.541943;,
 6.079595;-5.843032;4.600913;,
 8.001863;-9.614332;1.541943;,
 -6.076925;-8.817305;-4.568369;,
 -7.999191;-6.374384;-1.509399;,
 -6.076925;-5.843032;-4.568368;,
 -7.999191;-9.614334;-1.509399;,
 -7.999191;-9.614334;1.541943;,
 -6.076925;-5.843033;4.600913;,
 -7.999191;-6.374384;1.541943;,
 -6.076925;-8.817305;4.600913;,
 0.001335;9.028333;-4.572021;,
 4.423633;6.054060;-4.572021;,
 0.001335;6.054059;-4.572021;,
 4.423633;9.028332;-4.572021;,
 4.423633;9.028332;-4.572021;,
 6.079595;6.054060;-4.568368;,
 4.423633;6.054060;-4.572021;,
 6.079595;9.028332;-4.568368;,
 6.079595;9.028332;-4.568368;,
 8.001862;6.585411;-1.509398;,
 6.079595;6.054060;-4.568368;,
 8.001862;9.825359;-1.509398;,
 8.001862;9.825361;1.541944;,
 6.079595;6.054060;4.600913;,
 8.001862;6.585412;1.541944;,
 6.079595;9.028333;4.600913;,
 -4.420962;-8.817305;-4.572021;,
 0.001336;-11.875065;-4.572021;,
 -4.420962;-11.875067;-4.572021;,
 0.001336;-8.817305;-4.572021;,
 4.423634;-11.875065;-4.572021;,
 0.001336;-8.817305;-4.572021;,
 4.423633;-8.817305;-4.572021;,
 0.001336;-11.875065;-4.572021;,
 -4.420962;-11.875067;4.604564;,
 0.001336;-8.817306;4.604565;,
 -4.420962;-8.817306;4.604565;,
 0.001336;-11.875067;4.604564;,
 4.423633;-8.817305;4.604565;,
 0.001336;-11.875067;4.604564;,
 4.423634;-11.875067;4.604564;,
 0.001336;-8.817306;4.604565;,
 -4.420962;-13.566354;4.604564;,
 0.001336;-11.875067;4.604564;,
 -4.420962;-11.875067;4.604564;,
 0.001336;-13.566354;4.604564;,
 4.423634;-11.875067;4.604564;,
 0.001336;-13.566354;4.604564;,
 4.423634;-13.566354;4.604564;,
 0.001336;-11.875067;4.604564;,
 -5.526705;-16.094231;-1.509400;,
 -6.076925;-11.875068;-4.568369;,
 -4.420962;-13.566354;-4.572021;,
 -7.999192;-13.578492;-1.509399;,
 -6.076925;-8.817305;-4.568369;,
 -7.999191;-9.614334;-1.509399;,
 8.001863;-13.578492;-1.509399;,
 4.423634;-13.566353;-4.572021;,
 6.079597;-11.875065;-4.568369;,
 5.529376;-16.094231;-1.509400;,
 5.529376;-16.094231;1.541943;,
 6.079597;-11.875068;4.600912;,
 4.423634;-13.566354;4.604564;,
 8.001863;-13.578491;1.541943;,
 -7.999192;-13.578492;1.541943;,
 -5.526705;-16.094231;1.541943;,
 -4.420962;-13.566354;4.604564;,
 -6.076925;-11.875065;4.600912;,
 -7.999191;-9.614334;1.541943;,
 -6.076925;-8.817305;4.600913;,
 -4.420962;-11.875067;4.604564;,
 -6.076925;-8.817305;4.600913;,
 -6.076925;-11.875065;4.600912;,
 -4.420962;-8.817306;4.604565;,
 6.079597;-11.875068;4.600912;,
 4.423633;-8.817305;4.604565;,
 4.423634;-11.875067;4.604564;,
 6.079596;-8.817305;4.600913;,
 4.423634;-11.875065;-4.572021;,
 6.079596;-8.817305;-4.568369;,
 6.079597;-11.875065;-4.568369;,
 4.423633;-8.817305;-4.572021;,
 -6.076925;-11.875068;-4.568369;,
 -4.420962;-8.817305;-4.572021;,
 -4.420962;-11.875067;-4.572021;,
 -6.076925;-8.817305;-4.568369;,
 -4.420962;-13.566354;-4.572021;,
 0.001336;-16.094231;-1.509400;,
 -5.526705;-16.094231;-1.509400;,
 0.001336;-13.566353;-4.572021;,
 5.529376;-16.094231;-1.509400;,
 4.423634;-13.566353;-4.572021;,
 -5.526705;-16.094231;1.541943;,
 0.001336;-13.566354;4.604564;,
 -4.420962;-13.566354;4.604564;,
 0.001336;-16.094231;1.541943;,
 4.423634;-13.566354;4.604564;,
 5.529376;-16.094231;1.541943;,
 5.107073;-2.601075;4.536475;,
 4.423633;-5.843032;4.604565;,
 6.079595;-5.843032;4.600913;,
 3.716065;-2.601075;4.540076;,
 0.001336;-8.817306;4.604565;,
 4.423633;-5.843032;4.604565;,
 0.001335;-5.843033;4.604565;,
 4.423633;-8.817305;4.604565;,
 6.079597;-11.875065;-4.568369;,
 8.001863;-9.614333;-1.509399;,
 8.001863;-13.578492;-1.509399;,
 6.079596;-8.817305;-4.568369;,
 8.001863;-13.578491;1.541943;,
 6.079596;-8.817305;4.600913;,
 6.079597;-11.875068;4.600912;,
 8.001863;-9.614332;1.541943;,
 0.001335;-2.601075;4.540076;,
 -4.420963;-5.843033;4.604565;,
 0.001335;-5.843033;4.604565;,
 -3.713394;-2.601075;4.540076;,
 -3.713394;-2.601075;4.540076;,
 -6.076925;-5.843033;4.600913;,
 -4.420963;-5.843033;4.604565;,
 -5.104403;-2.601075;4.536475;,
 -4.420962;-11.875067;-4.572021;,
 0.001336;-13.566353;-4.572021;,
 -4.420962;-13.566354;-4.572021;,
 0.001336;-11.875065;-4.572021;,
 4.423634;-13.566353;-4.572021;,
 0.001336;-11.875065;-4.572021;,
 4.423634;-11.875065;-4.572021;,
 0.001336;-13.566353;-4.572021;,
 -5.104403;-2.601075;4.536475;,
 -7.999191;-6.374384;1.541943;,
 -6.076925;-5.843033;4.600913;,
 -6.719106;-2.842841;1.541943;,
 -6.719106;-2.842841;-1.509399;,
 -6.076925;-5.843032;-4.568368;,
 -7.999191;-6.374384;-1.509399;,
 -5.104403;-2.601075;-4.503931;,
 -5.104403;-2.601075;-4.503931;,
 -4.420963;-5.843032;-4.572021;,
 -6.076925;-5.843032;-4.568368;,
 -3.713394;-2.601075;-4.507532;,
 0.001336;-8.817305;-4.572021;,
 -4.420963;-5.843032;-4.572021;,
 0.001335;-5.843032;-4.572021;,
 -4.420962;-8.817305;-4.572021;,
 0.001335;-2.601075;-4.507532;,
 4.423633;-5.843032;-4.572021;,
 0.001335;-5.843032;-4.572021;,
 3.716065;-2.601075;-4.507532;,
 3.716065;-2.601075;-4.507532;,
 6.079595;-5.843032;-4.568368;,
 4.423633;-5.843032;-4.572021;,
 5.107073;-2.601075;-4.503931;,
 5.107073;-2.601075;-4.503931;,
 8.001863;-6.374383;-1.509399;,
 6.079595;-5.843032;-4.568368;,
 6.721776;-2.842840;-1.509399;;
 312;
 3;0,1,2;,
 3;3,4,5;,
 3;6,7,8;,
 3;9,10,11;,
 3;12,13,14;,
 3;15,16,17;,
 3;18,19,20;,
 3;21,22,23;,
 3;24,25,26;,
 3;24,26,27;,
 3;28,24,27;,
 3;28,27,29;,
 3;30,29,27;,
 3;30,31,29;,
 3;32,27,26;,
 3;32,30,27;,
 3;33,34,35;,
 3;33,35,36;,
 3;37,33,36;,
 3;37,36,38;,
 3;39,38,36;,
 3;39,40,38;,
 3;41,36,35;,
 3;41,39,36;,
 3;42,43,44;,
 3;42,44,45;,
 3;45,44,46;,
 3;45,46,47;,
 3;48,49,50;,
 3;48,51,49;,
 3;52,51,48;,
 3;52,53,51;,
 3;54,55,56;,
 3;54,56,57;,
 3;58,54,57;,
 3;58,57,59;,
 3;60,59,57;,
 3;60,61,59;,
 3;62,57,56;,
 3;62,60,57;,
 3;63,64,65;,
 3;63,65,66;,
 3;63,66,67;,
 3;63,67,68;,
 3;66,65,69;,
 3;66,69,70;,
 3;71,66,70;,
 3;71,67,66;,
 3;72,73,74;,
 3;72,75,73;,
 3;76,73,75;,
 3;76,75,77;,
 3;77,75,78;,
 3;77,78,79;,
 3;80,75,72;,
 3;80,78,75;,
 3;81,82,83;,
 3;81,83,84;,
 3;81,84,85;,
 3;81,85,86;,
 3;84,83,87;,
 3;84,87,88;,
 3;89,84,88;,
 3;89,85,84;,
 3;90,91,92;,
 3;90,92,93;,
 3;94,90,93;,
 3;94,93,95;,
 3;96,95,93;,
 3;96,97,95;,
 3;98,93,92;,
 3;98,96,93;,
 3;99,100,101;,
 3;99,102,100;,
 3;103,100,102;,
 3;103,102,104;,
 3;102,105,104;,
 3;102,106,105;,
 3;99,106,102;,
 3;99,107,106;,
 3;108,109,110;,
 3;108,111,109;,
 3;112,109,111;,
 3;112,111,113;,
 3;111,114,113;,
 3;111,115,114;,
 3;108,115,111;,
 3;108,116,115;,
 3;117,118,119;,
 3;117,120,118;,
 3;121,118,120;,
 3;121,120,122;,
 3;122,120,123;,
 3;122,123,124;,
 3;125,120,117;,
 3;125,123,120;,
 3;126,127,128;,
 3;126,129,127;,
 3;129,130,127;,
 3;129,131,130;,
 3;132,133,134;,
 3;132,135,133;,
 3;136,137,138;,
 3;136,139,137;,
 3;140,141,142;,
 3;140,143,141;,
 3;144,145,146;,
 3;144,147,145;,
 3;148,149,150;,
 3;148,151,149;,
 3;152,153,154;,
 3;152,155,153;,
 3;156,157,158;,
 3;156,159,157;,
 3;160,161,162;,
 3;160,163,161;,
 3;164,165,166;,
 3;164,167,165;,
 3;168,169,170;,
 3;168,171,169;,
 3;172,173,174;,
 3;172,175,173;,
 3;176,177,178;,
 3;176,179,177;,
 3;180,181,182;,
 3;180,183,181;,
 3;184,185,186;,
 3;184,186,187;,
 3;187,188,184;,
 3;187,189,188;,
 3;190,191,192;,
 3;190,193,191;,
 3;194,195,196;,
 3;194,197,195;,
 3;198,195,197;,
 3;198,197,199;,
 3;200,201,202;,
 3;200,203,201;,
 3;204,201,203;,
 3;204,203,205;,
 3;206,207,208;,
 3;206,209,207;,
 3;210,211,212;,
 3;210,213,211;,
 3;214,215,216;,
 3;214,217,215;,
 3;218,219,220;,
 3;218,221,219;,
 3;222,223,224;,
 3;222,225,223;,
 3;226,227,228;,
 3;226,229,227;,
 3;230,231,232;,
 3;230,233,231;,
 3;234,235,236;,
 3;234,237,235;,
 3;238,239,240;,
 3;238,241,239;,
 3;242,243,244;,
 3;242,245,243;,
 3;246,247,248;,
 3;246,248,249;,
 3;250,251,252;,
 3;250,253,251;,
 3;254,255,256;,
 3;254,257,255;,
 3;258,259,260;,
 3;258,261,259;,
 3;262,263,264;,
 3;262,265,263;,
 3;266,267,268;,
 3;266,269,267;,
 3;270,271,272;,
 3;270,273,271;,
 3;274,275,276;,
 3;274,277,275;,
 3;278,279,280;,
 3;278,281,279;,
 3;282,283,284;,
 3;282,285,283;,
 3;286,287,288;,
 3;286,289,287;,
 3;290,291,292;,
 3;290,293,291;,
 3;294,295,296;,
 3;294,297,295;,
 3;298,299,300;,
 3;298,301,299;,
 3;302,303,304;,
 3;302,305,303;,
 3;306,307,308;,
 3;306,309,307;,
 3;310,311,312;,
 3;310,313,311;,
 3;314,315,316;,
 3;314,317,315;,
 3;318,319,320;,
 3;318,321,319;,
 3;322,323,324;,
 3;322,325,323;,
 3;326,327,328;,
 3;326,329,327;,
 3;330,331,332;,
 3;330,333,331;,
 3;334,335,336;,
 3;334,337,335;,
 3;338,339,340;,
 3;338,341,339;,
 3;342,343,344;,
 3;342,345,343;,
 3;346,347,348;,
 3;346,349,347;,
 3;350,351,352;,
 3;350,353,351;,
 3;354,355,356;,
 3;354,357,355;,
 3;358,359,360;,
 3;358,361,359;,
 3;362,363,364;,
 3;362,365,363;,
 3;366,367,368;,
 3;366,369,367;,
 3;370,371,372;,
 3;370,373,371;,
 3;374,375,376;,
 3;374,377,375;,
 3;378,379,380;,
 3;378,381,379;,
 3;382,383,384;,
 3;382,385,383;,
 3;386,387,388;,
 3;386,389,387;,
 3;390,391,392;,
 3;390,393,391;,
 3;394,395,396;,
 3;394,397,395;,
 3;398,399,400;,
 3;398,401,399;,
 3;402,403,404;,
 3;402,405,403;,
 3;406,407,408;,
 3;406,409,407;,
 3;410,411,412;,
 3;410,413,411;,
 3;414,415,416;,
 3;414,417,415;,
 3;418,419,420;,
 3;418,421,419;,
 3;422,423,424;,
 3;422,425,423;,
 3;426,427,428;,
 3;426,429,427;,
 3;430,431,432;,
 3;430,433,431;,
 3;434,435,436;,
 3;434,437,435;,
 3;437,438,435;,
 3;437,439,438;,
 3;440,441,442;,
 3;440,443,441;,
 3;444,445,446;,
 3;444,447,445;,
 3;448,449,450;,
 3;448,450,451;,
 3;451,452,448;,
 3;451,453,452;,
 3;454,455,456;,
 3;454,457,455;,
 3;458,459,460;,
 3;458,461,459;,
 3;462,463,464;,
 3;462,465,463;,
 3;466,467,468;,
 3;466,469,467;,
 3;470,471,472;,
 3;470,473,471;,
 3;474,471,473;,
 3;474,473,475;,
 3;476,477,478;,
 3;476,479,477;,
 3;480,477,479;,
 3;480,479,481;,
 3;482,483,484;,
 3;482,485,483;,
 3;486,487,488;,
 3;486,489,487;,
 3;490,491,492;,
 3;490,493,491;,
 3;494,495,496;,
 3;494,497,495;,
 3;498,499,500;,
 3;498,501,499;,
 3;502,503,504;,
 3;502,505,503;,
 3;506,507,508;,
 3;506,509,507;,
 3;510,511,512;,
 3;510,513,511;,
 3;514,515,516;,
 3;514,517,515;,
 3;518,519,520;,
 3;518,521,519;,
 3;522,523,524;,
 3;522,525,523;,
 3;526,527,528;,
 3;526,529,527;,
 3;530,531,532;,
 3;530,533,531;,
 3;534,535,536;,
 3;534,537,535;,
 3;538,539,540;,
 3;538,541,539;;

 MeshTextureCoords {
  542;
  0.667729;-0.261461;,
  0.520907;-0.464623;,
  0.369023;-0.261461;,
  0.667729;-0.261461;,
  0.520907;-0.464623;,
  0.369023;-0.261461;,
  0.667729;-0.261461;,
  0.520907;-0.464623;,
  0.369023;-0.261461;,
  0.667729;-0.261461;,
  0.520907;-0.464623;,
  0.369023;-0.261461;,
  0.667729;-0.261461;,
  0.520907;-0.464623;,
  0.369023;-0.261461;,
  0.667729;-0.261461;,
  0.520907;-0.464623;,
  0.369023;-0.261461;,
  0.667729;-0.261461;,
  0.520907;-0.464623;,
  0.369023;-0.261461;,
  0.667729;-0.261461;,
  0.520907;-0.464623;,
  0.369023;-0.261461;,
  0.562351;-0.768051;,
  0.289982;-0.768051;,
  0.283573;-0.281631;,
  0.555943;-0.286331;,
  0.289982;-0.768051;,
  0.283573;-0.281631;,
  0.562351;-0.768051;,
  0.289982;-0.768051;,
  0.289982;-0.768051;,
  0.562351;-0.768051;,
  0.289982;-0.768051;,
  0.283573;-0.281631;,
  0.555943;-0.286331;,
  0.289982;-0.768051;,
  0.283573;-0.281631;,
  0.562351;-0.768051;,
  0.289982;-0.768051;,
  0.289982;-0.768051;,
  0.598654;-0.794729;,
  0.604482;-0.287588;,
  0.866744;-0.287588;,
  0.866744;-0.794729;,
  0.604482;-0.287588;,
  0.598654;-0.794729;,
  0.866744;-0.794729;,
  0.604482;-0.287588;,
  0.598654;-0.794729;,
  0.866744;-0.287588;,
  0.598654;-0.794729;,
  0.604482;-0.287588;,
  0.562351;-0.768051;,
  0.289982;-0.768051;,
  0.283573;-0.281631;,
  0.555943;-0.286331;,
  0.289982;-0.768051;,
  0.283573;-0.281631;,
  0.562351;-0.768051;,
  0.289982;-0.768051;,
  0.289982;-0.768051;,
  0.241307;-0.330319;,
  0.237041;-0.686986;,
  0.589791;-0.688634;,
  0.594057;-0.331968;,
  0.589791;-0.688634;,
  0.237041;-0.686986;,
  0.237041;-0.686986;,
  0.241307;-0.330319;,
  0.237041;-0.686986;,
  0.393129;-0.772121;,
  0.127769;-0.242303;,
  0.127769;-0.772121;,
  0.393129;-0.245699;,
  0.127769;-0.772121;,
  0.393129;-0.772121;,
  0.127769;-0.242303;,
  0.127769;-0.772121;,
  0.127769;-0.772121;,
  0.241307;-0.330319;,
  0.237041;-0.686986;,
  0.589791;-0.688634;,
  0.594057;-0.331968;,
  0.589791;-0.688634;,
  0.237041;-0.686986;,
  0.237041;-0.686986;,
  0.241307;-0.330319;,
  0.237041;-0.686986;,
  0.562351;-0.768051;,
  0.289982;-0.768051;,
  0.283573;-0.281631;,
  0.555943;-0.286331;,
  0.289982;-0.768051;,
  0.283573;-0.281631;,
  0.562351;-0.768051;,
  0.289982;-0.768051;,
  0.289982;-0.768051;,
  0.241307;-0.330319;,
  0.589791;-0.688634;,
  0.237041;-0.686986;,
  0.594057;-0.331968;,
  0.237041;-0.686986;,
  0.241307;-0.330319;,
  0.237041;-0.686986;,
  0.589791;-0.688634;,
  0.237041;-0.686986;,
  0.241307;-0.330319;,
  0.589791;-0.688634;,
  0.237041;-0.686986;,
  0.594057;-0.331968;,
  0.237041;-0.686986;,
  0.241307;-0.330319;,
  0.237041;-0.686986;,
  0.589791;-0.688634;,
  0.237041;-0.686986;,
  0.393129;-0.772121;,
  0.127769;-0.242303;,
  0.127769;-0.772121;,
  0.393129;-0.245699;,
  0.127769;-0.772121;,
  0.393129;-0.772121;,
  0.127769;-0.242303;,
  0.127769;-0.772121;,
  0.127769;-0.772121;,
  0.236839;-0.167238;,
  0.550981;-0.534962;,
  0.264832;-0.533398;,
  0.629653;-0.159519;,
  0.264832;-0.533398;,
  0.236839;-0.167238;,
  0.629653;-0.159519;,
  0.264832;-0.533398;,
  0.550981;-0.534962;,
  0.236839;-0.167238;,
  0.074425;-0.229282;,
  0.296739;-0.121076;,
  0.295163;-0.231272;,
  0.076008;-0.118566;,
  0.076008;-0.118566;,
  0.295163;-0.231272;,
  0.074425;-0.229282;,
  0.296739;-0.121076;,
  0.074425;-0.229282;,
  0.296739;-0.121076;,
  0.295163;-0.231272;,
  0.076008;-0.118566;,
  0.076008;-0.118566;,
  0.295163;-0.231272;,
  0.074425;-0.229282;,
  0.296739;-0.121076;,
  0.074425;-0.229282;,
  0.296739;-0.121076;,
  0.295163;-0.231272;,
  0.076008;-0.118566;,
  0.076008;-0.118566;,
  0.295163;-0.231272;,
  0.074425;-0.229282;,
  0.296739;-0.121076;,
  0.821932;-0.968655;,
  0.511177;-0.816766;,
  0.508932;-0.965972;,
  0.824166;-0.820149;,
  0.824166;-0.820149;,
  0.508932;-0.965972;,
  0.821932;-0.968655;,
  0.511177;-0.816766;,
  0.590246;-0.167238;,
  0.264832;-0.533398;,
  0.236839;-0.167238;,
  0.555255;-0.533398;,
  0.590246;-0.167238;,
  0.264832;-0.533398;,
  0.555255;-0.533398;,
  0.236839;-0.167238;,
  0.555255;-0.533398;,
  0.254450;-0.159519;,
  0.264832;-0.533398;,
  0.563084;-0.159519;,
  0.555255;-0.533398;,
  0.236839;-0.167238;,
  0.590246;-0.167238;,
  0.264832;-0.533398;,
  0.629653;-0.159519;,
  0.236839;-0.167238;,
  0.264832;-0.533398;,
  0.550981;-0.534962;,
  0.236839;-0.167238;,
  0.264832;-0.533398;,
  0.236839;-0.167238;,
  0.550981;-0.534962;,
  0.264832;-0.533398;,
  0.629653;-0.159519;,
  0.663862;-0.575864;,
  0.214015;-0.966764;,
  0.573892;-0.966764;,
  0.214015;-0.566980;,
  0.573892;-0.966764;,
  0.663862;-0.575864;,
  0.573892;-0.966764;,
  0.214015;-0.566980;,
  0.663862;-0.575864;,
  0.214015;-0.966764;,
  0.663862;-0.575864;,
  0.573892;-0.966764;,
  0.396267;-0.355386;,
  0.778979;-0.576143;,
  0.391926;-0.575089;,
  0.778272;-0.358033;,
  0.038250;-0.265035;,
  0.420962;-0.485791;,
  0.033909;-0.484737;,
  0.420255;-0.267682;,
  0.623601;-0.541117;,
  0.236839;-0.167238;,
  0.264832;-0.533398;,
  0.623601;-0.159519;,
  0.623601;-0.159519;,
  0.264832;-0.533398;,
  0.236839;-0.167238;,
  0.623601;-0.541117;,
  0.076008;-0.118566;,
  0.295163;-0.231272;,
  0.074425;-0.229282;,
  0.296739;-0.121076;,
  0.824166;-0.820149;,
  0.508932;-0.965972;,
  0.821932;-0.968655;,
  0.511177;-0.816766;,
  0.356487;-0.498886;,
  0.739199;-0.719642;,
  0.352146;-0.718588;,
  0.738492;-0.501533;,
  0.240765;-0.291609;,
  0.623476;-0.512365;,
  0.236424;-0.511311;,
  0.622770;-0.294256;,
  0.824166;-0.820149;,
  0.508932;-0.965972;,
  0.821932;-0.968655;,
  0.511177;-0.816766;,
  0.076008;-0.118566;,
  0.295163;-0.231272;,
  0.074425;-0.229282;,
  0.296739;-0.121076;,
  0.563084;-0.159519;,
  0.555255;-0.533398;,
  0.264832;-0.533398;,
  0.254450;-0.159519;,
  0.396267;-0.355386;,
  0.778979;-0.576143;,
  0.391926;-0.575089;,
  0.778272;-0.358033;,
  0.038250;-0.265035;,
  0.420962;-0.485791;,
  0.033909;-0.484737;,
  0.420255;-0.267682;,
  0.153973;-0.597210;,
  0.536685;-0.817966;,
  0.149632;-0.816912;,
  0.535978;-0.599857;,
  0.490291;-0.666302;,
  0.873003;-0.887058;,
  0.485950;-0.886004;,
  0.872296;-0.668949;,
  0.511177;-0.816766;,
  0.821932;-0.968655;,
  0.824166;-0.820149;,
  0.508932;-0.965972;,
  0.153973;-0.597210;,
  0.536685;-0.817966;,
  0.149632;-0.816912;,
  0.535978;-0.599857;,
  0.490291;-0.666302;,
  0.873003;-0.887058;,
  0.485950;-0.886004;,
  0.872296;-0.668949;,
  0.508932;-0.965972;,
  0.824166;-0.820149;,
  0.821932;-0.968655;,
  0.511177;-0.816766;,
  0.433076;-0.365807;,
  0.821768;-0.756442;,
  0.428667;-0.754577;,
  0.821050;-0.370491;,
  0.433076;-0.365807;,
  0.821768;-0.756442;,
  0.428667;-0.754577;,
  0.821050;-0.370491;,
  0.433076;-0.365807;,
  0.821768;-0.756442;,
  0.428667;-0.754577;,
  0.821050;-0.370491;,
  0.433076;-0.365807;,
  0.821768;-0.756442;,
  0.428667;-0.754577;,
  0.821050;-0.370491;,
  0.365027;-0.815271;,
  0.968087;-0.970143;,
  0.360670;-0.967408;,
  0.972424;-0.818720;,
  0.365027;-0.815271;,
  0.968087;-0.970143;,
  0.360670;-0.967408;,
  0.972424;-0.818720;,
  0.824166;-0.820149;,
  0.508932;-0.965972;,
  0.821932;-0.968655;,
  0.511177;-0.816766;,
  0.076008;-0.118566;,
  0.295163;-0.231272;,
  0.074425;-0.229282;,
  0.296739;-0.121076;,
  0.884095;-0.828025;,
  0.390762;-0.597271;,
  0.910351;-0.597271;,
  0.419490;-0.828025;,
  0.910351;-0.597271;,
  0.419490;-0.828025;,
  0.884095;-0.828025;,
  0.390762;-0.597271;,
  0.910351;-0.597271;,
  0.419490;-0.828025;,
  0.884095;-0.828025;,
  0.390762;-0.597271;,
  0.419490;-0.828025;,
  0.910351;-0.597271;,
  0.390762;-0.597271;,
  0.884095;-0.828025;,
  0.480157;-0.576111;,
  0.815816;-0.297692;,
  0.778979;-0.576143;,
  0.451283;-0.297692;,
  0.451283;-0.297692;,
  0.778979;-0.576143;,
  0.815816;-0.297692;,
  0.480157;-0.576111;,
  0.074425;-0.229282;,
  0.296739;-0.121076;,
  0.295163;-0.231272;,
  0.076008;-0.118566;,
  0.240765;-0.291609;,
  0.623476;-0.512365;,
  0.236424;-0.511311;,
  0.622770;-0.294256;,
  0.153973;-0.597210;,
  0.536685;-0.817966;,
  0.149632;-0.816912;,
  0.535978;-0.599857;,
  0.490291;-0.666302;,
  0.873003;-0.887058;,
  0.485950;-0.886004;,
  0.872296;-0.668949;,
  0.321309;-0.893952;,
  0.027961;-0.608916;,
  0.022353;-0.889608;,
  0.324775;-0.609542;,
  0.415333;-0.636184;,
  0.121985;-0.351149;,
  0.116377;-0.631841;,
  0.418799;-0.351774;,
  0.508932;-0.965972;,
  0.824166;-0.820149;,
  0.821932;-0.968655;,
  0.511177;-0.816766;,
  0.508932;-0.965972;,
  0.824166;-0.820149;,
  0.821932;-0.968655;,
  0.511177;-0.816766;,
  0.821932;-0.968655;,
  0.511177;-0.816766;,
  0.508932;-0.965972;,
  0.824166;-0.820149;,
  0.074425;-0.229282;,
  0.296739;-0.121076;,
  0.295163;-0.231272;,
  0.076008;-0.118566;,
  0.451283;-0.297692;,
  0.778979;-0.576143;,
  0.815816;-0.297692;,
  0.480157;-0.576111;,
  0.480157;-0.576111;,
  0.815816;-0.297692;,
  0.778979;-0.576143;,
  0.451283;-0.297692;,
  0.480157;-0.576111;,
  0.815816;-0.297692;,
  0.778979;-0.576143;,
  0.451283;-0.297692;,
  0.451283;-0.297692;,
  0.778979;-0.576143;,
  0.815816;-0.297692;,
  0.480157;-0.576111;,
  0.356487;-0.498886;,
  0.739199;-0.719642;,
  0.352146;-0.718588;,
  0.738492;-0.501533;,
  0.821932;-0.968655;,
  0.511177;-0.816766;,
  0.508932;-0.965972;,
  0.824166;-0.820149;,
  0.480157;-0.576111;,
  0.815816;-0.297692;,
  0.778979;-0.576143;,
  0.451283;-0.297692;,
  0.451283;-0.297692;,
  0.778979;-0.576143;,
  0.815816;-0.297692;,
  0.480157;-0.576111;,
  0.396267;-0.355386;,
  0.778979;-0.576143;,
  0.391926;-0.575089;,
  0.778272;-0.358033;,
  0.038250;-0.265035;,
  0.420962;-0.485791;,
  0.033909;-0.484737;,
  0.420255;-0.267682;,
  0.686069;-0.898463;,
  0.303312;-0.677750;,
  0.690365;-0.678761;,
  0.304064;-0.895859;,
  0.452696;-0.637155;,
  0.755118;-0.357089;,
  0.751652;-0.641499;,
  0.458304;-0.356464;,
  0.511177;-0.816766;,
  0.821932;-0.968655;,
  0.508932;-0.965972;,
  0.824166;-0.820149;,
  0.076008;-0.118566;,
  0.295163;-0.231272;,
  0.074425;-0.229282;,
  0.296739;-0.121076;,
  0.236839;-0.167238;,
  0.550981;-0.534962;,
  0.264832;-0.533398;,
  0.629653;-0.159519;,
  0.264832;-0.533398;,
  0.236839;-0.167238;,
  0.629653;-0.159519;,
  0.264832;-0.533398;,
  0.550981;-0.534962;,
  0.236839;-0.167238;,
  0.236839;-0.167238;,
  0.550981;-0.534962;,
  0.264832;-0.533398;,
  0.629653;-0.159519;,
  0.629653;-0.159519;,
  0.236839;-0.167238;,
  0.264832;-0.533398;,
  0.550981;-0.534962;,
  0.236839;-0.167238;,
  0.264832;-0.533398;,
  0.076008;-0.118566;,
  0.295163;-0.231272;,
  0.074425;-0.229282;,
  0.296739;-0.121076;,
  0.076008;-0.118566;,
  0.295163;-0.231272;,
  0.074425;-0.229282;,
  0.296739;-0.121076;,
  0.076008;-0.118566;,
  0.295163;-0.231272;,
  0.074425;-0.229282;,
  0.296739;-0.121076;,
  0.824166;-0.820149;,
  0.508932;-0.965972;,
  0.821932;-0.968655;,
  0.511177;-0.816766;,
  0.573892;-0.966764;,
  0.214015;-0.566980;,
  0.663862;-0.575864;,
  0.214015;-0.966764;,
  0.663862;-0.575864;,
  0.573892;-0.966764;,
  0.663862;-0.575864;,
  0.214015;-0.966764;,
  0.573892;-0.966764;,
  0.214015;-0.566980;,
  0.573892;-0.966764;,
  0.663862;-0.575864;,
  0.074425;-0.229282;,
  0.296739;-0.121076;,
  0.295163;-0.231272;,
  0.076008;-0.118566;,
  0.595661;-0.619437;,
  0.212904;-0.398723;,
  0.599957;-0.399734;,
  0.213656;-0.616832;,
  0.555255;-0.533398;,
  0.236839;-0.167238;,
  0.590246;-0.167238;,
  0.264832;-0.533398;,
  0.590246;-0.167238;,
  0.264832;-0.533398;,
  0.555255;-0.533398;,
  0.236839;-0.167238;,
  0.488859;-0.669044;,
  0.791281;-0.388978;,
  0.787815;-0.673388;,
  0.494467;-0.388352;,
  0.074425;-0.229282;,
  0.296739;-0.121076;,
  0.295163;-0.231272;,
  0.076008;-0.118566;,
  0.076008;-0.118566;,
  0.295163;-0.231272;,
  0.074425;-0.229282;,
  0.296739;-0.121076;,
  0.824166;-0.820149;,
  0.508932;-0.965972;,
  0.821932;-0.968655;,
  0.511177;-0.816766;,
  0.623601;-0.541117;,
  0.236839;-0.167238;,
  0.264832;-0.533398;,
  0.623601;-0.159519;,
  0.623601;-0.159519;,
  0.264832;-0.533398;,
  0.236839;-0.167238;,
  0.623601;-0.541117;,
  0.821932;-0.968655;,
  0.511177;-0.816766;,
  0.508932;-0.965972;,
  0.824166;-0.820149;,
  0.356487;-0.498886;,
  0.739199;-0.719642;,
  0.352146;-0.718588;,
  0.738492;-0.501533;,
  0.240765;-0.291609;,
  0.623476;-0.512365;,
  0.236424;-0.511311;,
  0.622770;-0.294256;,
  0.074425;-0.229282;,
  0.296739;-0.121076;,
  0.295163;-0.231272;,
  0.076008;-0.118566;,
  0.555255;-0.533398;,
  0.236839;-0.167238;,
  0.264832;-0.533398;,
  0.590246;-0.167238;;
 }

 MeshMaterialList {
  1;
  312;
  0,
  0,
  0,
  0,
  0,
  0,
  0,
  0,
  0,
  0,
  0,
  0,
  0,
  0,
  0,
  0,
  0,
  0,
  0,
  0,
  0,
  0,
  0,
  0,
  0,
  0,
  0,
  0,
  0,
  0,
  0,
  0,
  0,
  0,
  0,
  0,
  0,
  0,
  0,
  0,
  0,
  0,
  0,
  0,
  0,
  0,
  0,
  0,
  0,
  0,
  0,
  0,
  0,
  0,
  0,
  0,
  0,
  0,
  0,
  0,
  0,
  0,
  0,
  0,
  0,
  0,
  0,
  0,
  0,
  0,
  0,
  0,
  0,
  0,
  0,
  0,
  0,
  0,
  0,
  0,
  0,
  0,
  0,
  0,
  0,
  0,
  0,
  0,
  0,
  0,
  0,
  0,
  0,
  0,
  0,
  0,
  0,
  0,
  0,
  0,
  0,
  0,
  0,
  0,
  0,
  0,
  0,
  0,
  0,
  0,
  0,
  0,
  0,
  0,
  0,
  0,
  0,
  0,
  0,
  0,
  0,
  0,
  0,
  0,
  0,
  0,
  0,
  0,
  0,
  0,
  0,
  0,
  0,
  0,
  0,
  0,
  0,
  0,
  0,
  0,
  0,
  0,
  0,
  0,
  0,
  0,
  0,
  0,
  0,
  0,
  0,
  0,
  0,
  0,
  0,
  0,
  0,
  0,
  0,
  0,
  0,
  0,
  0,
  0,
  0,
  0,
  0,
  0,
  0,
  0,
  0,
  0,
  0,
  0,
  0,
  0,
  0,
  0,
  0,
  0,
  0,
  0,
  0,
  0,
  0,
  0,
  0,
  0,
  0,
  0,
  0,
  0,
  0,
  0,
  0,
  0,
  0,
  0,
  0,
  0,
  0,
  0,
  0,
  0,
  0,
  0,
  0,
  0,
  0,
  0,
  0,
  0,
  0,
  0,
  0,
  0,
  0,
  0,
  0,
  0,
  0,
  0,
  0,
  0,
  0,
  0,
  0,
  0,
  0,
  0,
  0,
  0,
  0,
  0,
  0,
  0,
  0,
  0,
  0,
  0,
  0,
  0,
  0,
  0,
  0,
  0,
  0,
  0,
  0,
  0,
  0,
  0,
  0,
  0,
  0,
  0,
  0,
  0,
  0,
  0,
  0,
  0,
  0,
  0,
  0,
  0,
  0,
  0,
  0,
  0,
  0,
  0,
  0,
  0,
  0,
  0,
  0,
  0,
  0,
  0,
  0,
  0,
  0,
  0,
  0,
  0,
  0,
  0,
  0,
  0,
  0,
  0,
  0,
  0,
  0,
  0,
  0,
  0,
  0,
  0,
  0,
  0,
  0,
  0,
  0,
  0,
  0,
  0,
  0,
  0,
  0,
  0;

  Material {
   0.309804;0.309804;0.309804;1.000000;;
   0.000000;
   0.000000;0.000000;0.000000;;
   0.000000;0.000000;0.000000;;

   TextureFilename {
    "BORG03.bmp";
   }
  }
 }
}