xof 0303txt 0032
template VertexDuplicationIndices {
 <b8d65549-d7c9-4995-89cf-53a9a8b031e3>
 DWORD nIndices;
 DWORD nOriginalVertices;
 array DWORD indices[nIndices];
}

template FVFData {
 <b6e70a0e-8ef9-4e83-94ad-ecc8b0c04897>
 DWORD dwFVF;
 DWORD nDWords;
 array DWORD data[nDWords];
}

template VertexElement {
 <f752461c-1e23-48f6-b9f8-8350850f336f>
 DWORD Type;
 DWORD Method;
 DWORD Usage;
 DWORD UsageIndex;
}

template DeclData {
 <bf22e553-292c-4781-9fea-62bd554bdd93>
 DWORD nElements;
 array VertexElement Elements[nElements];
 DWORD nDWords;
 array DWORD data[nDWords];
}

template EffectParamFloats {
 <3014b9a0-62f5-478c-9b86-e4ac9f4e418b>
 STRING ParamName;
 DWORD nFloats;
 array FLOAT Floats[nFloats];
}

template EffectParamString {
 <1dbc4c88-94c1-46ee-9076-2c28818c9481>
 STRING ParamName;
 STRING Value;
}

template EffectParamDWord {
 <e13963bc-ae51-4c5d-b00f-cfa3a9d97ce5>
 STRING ParamName;
 DWORD Value;
}

template EffectInstance {
 <e331f7e4-0559-4cc2-8e99-1cec1657928f>
 STRING EffectFilename;
 [...]
}


Mesh {
 24;
 37.314613;-36.257565;-37.297344;,
 37.314613;-36.257565;37.311378;,
 -37.316124;-36.257565;37.311378;,
 -37.316124;-36.257565;-37.297344;,
 37.314617;38.373222;37.318932;,
 37.314617;38.373222;-37.311825;,
 -37.316128;38.373222;-37.311825;,
 -37.316128;38.373222;37.318932;,
 37.314613;-36.257565;37.311378;,
 37.314617;38.373222;37.318932;,
 -37.316128;38.373222;37.318932;,
 -37.316124;-36.257565;37.311378;,
 -37.316128;38.373222;-37.311825;,
 37.314617;38.373222;-37.311825;,
 37.314613;-36.257565;-37.297344;,
 -37.316124;-36.257565;-37.297344;,
 -37.316124;-36.257565;-37.297344;,
 -37.316124;-36.257565;37.311378;,
 -37.316128;38.373222;37.318932;,
 -37.316128;38.373222;-37.311825;,
 37.314613;-36.257565;-37.297344;,
 37.314617;38.373222;-37.311825;,
 37.314617;38.373222;37.318932;,
 37.314613;-36.257565;37.311378;;
 12;
 3;0,1,2;,
 3;2,3,0;,
 3;4,5,6;,
 3;6,7,4;,
 3;8,9,10;,
 3;10,11,8;,
 3;12,13,14;,
 3;14,15,12;,
 3;16,17,18;,
 3;18,19,16;,
 3;20,21,22;,
 3;22,23,20;;

 MeshTextureCoords {
  24;
  0.400304;-0.100368;,
  0.400304;-0.599199;,
  0.899632;-0.599199;,
  0.899632;-0.100368;,
  0.595591;-0.903435;,
  0.595591;-0.403914;,
  0.096123;-0.403914;,
  0.096124;-0.903436;,
  0.000500;-0.000500;,
  -0.000177;-0.500011;,
  0.500001;-0.500002;,
  0.500092;-0.000499;,
  -0.000177;-0.999992;,
  0.499905;-0.999500;,
  0.500001;-0.500002;,
  -0.000177;-0.500011;,
  0.999404;-0.000499;,
  0.500092;-0.000499;,
  0.500001;-0.500002;,
  0.999450;-0.500002;,
  0.500001;-0.500002;,
  0.499905;-0.999500;,
  0.999500;-0.999500;,
  0.999450;-0.500002;;
 }

 MeshMaterialList {
  1;
  12;
  0,
  0,
  0,
  0,
  0,
  0,
  0,
  0,
  0,
  0,
  0,
  0;

  Material {
   0.207843;0.207843;0.207843;1.000000;;
   0.000000;
   0.000000;0.000000;0.000000;;
   0.000000;0.000000;0.000000;;

   TextureFilename {
    "BORG03.bmp";
   }
  }
 }
}