===================================================================================================================================
XFILES CLASSES MASTER DATA FILE - Warp10 Mod v3
===================================================================================================================================

Firing Point Arcs
 315  0  45
     \|/
 270 -+- 90
     /|\
 225 180 135


===================================================================================================================================
*BEGIN*
===================================================================================================================================

Name                                                 := Borg Frigate
XFile                                                := Borg_frigate.X
Override Texture Filename                            :=
Base Model Radius                                    := 1.5
Starting Rotate X                                    := 75
Starting Rotate Y                                    := 0
Starting Rotate Z                                    := 25
Starting Scale X                                     := 0.27
Starting Scale Y                                     := 0.27
Starting Scale Z                                     := 0.27
Starting Position Offset X                           := 0
Starting Position Offset Y                           := 0
Starting Position Offset Z                           := 0
Continual Rotation Vector X                          := 0
Continual Rotation Vector Y                          := 0
Continual Rotation Vector Z                          := 0
Continual Rotation Speed                             := 0
Star Glow Color                                      := 0, 0, 0
Firing Flash Color                                   := 76, 190, 80
Explosion Effect                                     := Ring Explosion Green
Explosion Center Color                               := 76, 190, 80
Explosion Radius                                     := 4.5
Light Point Effect                                   :=
Engine Glow Effect                                   := Engine Glow Standard
Firing Flare Effect                                  := Main Firing Flare
Number Of Firing Points                              := 4
Firing Point 1 X                                     := -2.7
Firing Point 1 Y                                     := 2.5
Firing Point 1 Z                                     := 2.5
Firing Point 1 Arc Start                             := 325
Firing Point 1 Arc End                               := 75
Firing Point 2 X                                     := -2.8
Firing Point 2 Y                                     := -2.8
Firing Point 2 Z                                     := 2.5
Firing Point 2 Arc Start                             := 280
Firing Point 2 Arc End                               := 45
Firing Point 3 X                                     := -2.7
Firing Point 3 Y                                     := 2.5
Firing Point 3 Z                                     := -2.85
Firing Point 3 Arc Start                             := 115
Firing Point 3 Arc End                               := 225
Firing Point 4 X                                     := -2.7
Firing Point 4 Y                                     := -2.7
Firing Point 4 Z                                     := -2.85
Firing Point 4 Arc Start                             := 135
Firing Point 4 Arc End                               := 260
Firing Point 5 X                                     := -179.667297
Firing Point 5 Y                                     := -315.554413
Firing Point 5 Z                                     := 39.239872
Firing Point 5 Arc Start                             := 135
Firing Point 5 Arc End                               := 225
Firing Point 6 X                                     := 179.505096
Firing Point 6 Y                                     := -315.554413
Firing Point 6 Z                                     := 39.239872
Firing Point 6 Arc Start                             := 135
Firing Point 6 Arc End                               := 225
Number Of Engine Points                              := 0
Number Of Lights                                     := 0

Name                                                 := Borg Destroyer
XFile                                                := Borg_destroyer.X
Override Texture Filename                            :=
Base Model Radius                                    := 2.2
Starting Rotate X                                    := 50
Starting Rotate Y                                    := 0
Starting Rotate Z                                    := 0
Starting Scale X                                     := 0.026
Starting Scale Y                                     := 0.026
Starting Scale Z                                     := 0.026
Starting Position Offset X                           := 0
Starting Position Offset Y                           := 0
Starting Position Offset Z                           := 0
Continual Rotation Vector X                          := 0
Continual Rotation Vector Y                          := 0
Continual Rotation Vector Z                          := 0
Continual Rotation Speed                             := 0
Star Glow Color                                      := 0, 0, 0
Firing Flash Color                                   := 76, 190, 80
Explosion Effect                                     := Ring Explosion Green
Explosion Center Color                               := 76, 190, 80
Explosion Radius                                     := 6.6
Light Point Effect                                   :=
Engine Glow Effect                                   := Engine Glow Standard
Firing Flare Effect                                  := Main Firing Flare
Number Of Firing Points                              := 2
Firing Point 1 X                                     := 0
Firing Point 1 Y                                     := 32
Firing Point 1 Z                                     := 5
Firing Point 1 Arc Start                             := 270
Firing Point 1 Arc End                               := 90
Firing Point 2 X                                     := 0
Firing Point 2 Y                                     := -30
Firing Point 2 Z                                     := 0
Firing Point 2 Arc Start                             := 90
Firing Point 2 Arc End                               := 270
Firing Point 3 X                                     := 90.188812
Firing Point 3 Y                                     := -57.157372
Firing Point 3 Z                                     := 16.0
Firing Point 3 Arc Start                             := 0
Firing Point 3 Arc End                               := 90
Firing Point 4 X                                     := -94.049530
Firing Point 4 Y                                     := -57.157372
Firing Point 4 Z                                     := 16.0
Firing Point 4 Arc Start                             := 270
Firing Point 4 Arc End                               := 90
Number Of Engine Points                              := 0
Number Of Lights                                     := 0

Name                                                 := Borg Light Cruiser
XFile                                                := Borg_lightcruiser.X
Override Texture Filename                            :=
Base Model Radius                                    := 2.5
Starting Rotate X                                    := 0
Starting Rotate Y                                    := 0
Starting Rotate Z                                    := 0
Starting Scale X                                     := 0.024
Starting Scale Y                                     := 0.024
Starting Scale Z                                     := 0.024
Starting Position Offset X                           := 0
Starting Position Offset Y                           := 0
Starting Position Offset Z                           := 0
Continual Rotation Vector X                          := 0
Continual Rotation Vector Y                          := 0
Continual Rotation Vector Z                          := 0
Continual Rotation Speed                             := 0
Star Glow Color                                      := 0, 0, 0
Firing Flash Color                                   := 76, 190, 80
Explosion Effect                                     := Ring Explosion Green
Explosion Center Color                               := 76, 190, 80
Explosion Radius                                     := 7.5
Light Point Effect                                   :=
Engine Glow Effect                                   := Engine Glow Standard
Firing Flare Effect                                  := Main Firing Flare
Number Of Firing Points                              := 4
Firing Point 1 X                                     := 0
Firing Point 1 Y                                     := 57
Firing Point 1 Z                                     := -30
Firing Point 1 Arc Start                             := 280
Firing Point 1 Arc End                               := 80
Firing Point 2 X                                     := 0
Firing Point 2 Y                                     := -57
Firing Point 2 Z                                     := -30
Firing Point 2 Arc Start                             := 100
Firing Point 2 Arc End                               := 260
Firing Point 3 X                                     := 57
Firing Point 3 Y                                     := 0
Firing Point 3 Z                                     := -30
Firing Point 3 Arc Start                             := 10
Firing Point 3 Arc End                               := 170
Firing Point 4 X                                     := -57
Firing Point 4 Y                                     := 0
Firing Point 4 Z                                     := -30
Firing Point 4 Arc Start                             := 190
Firing Point 4 Arc End                               := 350
Number Of Engine Points                              := 0
Number Of Lights                                     := 0

Name                                                 := Borg Cruiser
XFile                                                := Borg_cruiser.X
Override Texture Filename                            :=
Base Model Radius                                    := 2.5
Starting Rotate X                                    := 0
Starting Rotate Y                                    := 0
Starting Rotate Z                                    := 0
Starting Scale X                                     := 0.055
Starting Scale Y                                     := 0.055
Starting Scale Z                                     := 0.055
Starting Position Offset X                           := 0
Starting Position Offset Y                           := 0
Starting Position Offset Z                           := 0
Continual Rotation Vector X                          := 0
Continual Rotation Vector Y                          := 0
Continual Rotation Vector Z                          := 0
Continual Rotation Speed                             := 0
Star Glow Color                                      := 0, 0, 0
Firing Flash Color                                   := 76, 190, 80
Explosion Effect                                     := Ring Explosion Green
Explosion Center Color                               := 76, 190, 80
Explosion Radius                                     := 6.5
Light Point Effect                                   :=
Engine Glow Effect                                   := Engine Glow Standard
Firing Flare Effect                                  := Main Firing Flare
Number Of Firing Points                              := 1
Firing Point 1 X                                     := 0
Firing Point 1 Y                                     := -2
Firing Point 1 Z                                     := -40
Firing Point 1 Arc Start                             := 360
Firing Point 1 Arc End                               := 0
Number Of Engine Points                              := 0
Number Of Lights                                     := 0

Name                                                 := Borg Battleship
XFile                                                := Borg_battleship.X
Override Texture Filename                            :=
Base Model Radius                                    := 4
Starting Rotate X                                    := 0
Starting Rotate Y                                    := 0
Starting Rotate Z                                    := 0
Starting Scale X                                     := 0.075
Starting Scale Y                                     := 0.075
Starting Scale Z                                     := 0.075
Starting Position Offset X                           := 0
Starting Position Offset Y                           := 0
Starting Position Offset Z                           := 0
Continual Rotation Vector X                          := 0
Continual Rotation Vector Y                          := 0
Continual Rotation Vector Z                          := 0
Continual Rotation Speed                             := 0
Star Glow Color                                      := 0, 0, 0
Firing Flash Color                                   := 76, 190, 80
Explosion Effect                                     := Ring Explosion Green
Explosion Center Color                               := 76, 190, 80
Explosion Radius                                     := 12
Light Point Effect                                   :=
Engine Glow Effect                                   := Engine Glow Standard
Firing Flare Effect                                  := Main Firing Flare
Number Of Firing Points                              := 4
Firing Point 1 X                                     := 0
Firing Point 1 Y                                     := 38
Firing Point 1 Z                                     := 0
Firing Point 1 Arc Start                             := 280
Firing Point 1 Arc End                               := 80
Firing Point 2 X                                     := 0
Firing Point 2 Y                                     := -36
Firing Point 2 Z                                     := 0
Firing Point 2 Arc Start                             := 100
Firing Point 2 Arc End                               := 260
Firing Point 3 X                                     := 37
Firing Point 3 Y                                     := 0
Firing Point 3 Z                                     := 0
Firing Point 3 Arc Start                             := 350
Firing Point 3 Arc End                               := 170
Firing Point 4 X                                     := -37
Firing Point 4 Y                                     := 0
Firing Point 4 Z                                     := 0
Firing Point 4 Arc Start                             := 170
Firing Point 4 Arc End                               := 10
Number Of Engine Points                              := 0
Number Of Lights                                     := 0

Name                                                 := Borg Dreadnought
XFile                                                := Borg_dreadnought.X
Override Texture Filename                            :=
Base Model Radius                                    := 7.5
Starting Rotate X                                    := 0
Starting Rotate Y                                    := 0
Starting Rotate Z                                    := 0
Starting Scale X                                     := 0.15
Starting Scale Y                                     := 0.15
Starting Scale Z                                     := 0.15
Starting Position Offset X                           := 0
Starting Position Offset Y                           := 0
Starting Position Offset Z                           := 0
Continual Rotation Vector X                          := 0
Continual Rotation Vector Y                          := 0
Continual Rotation Vector Z                          := 0
Continual Rotation Speed                             := 0
Star Glow Color                                      := 0, 0, 0
Firing Flash Color                                   := 76, 190, 80
Explosion Effect                                     := Ring Explosion Green
Explosion Center Color                               := 76, 190, 80
Explosion Radius                                     := 12
Light Point Effect                                   :=
Engine Glow Effect                                   :=
Firing Flare Effect                                  := Main Firing Flare
Number Of Firing Points                              := 4
Firing Point 1 X                                     := 0
Firing Point 1 Y                                     := 38
Firing Point 1 Z                                     := 0
Firing Point 1 Arc Start                             := 280
Firing Point 1 Arc End                               := 80
Firing Point 2 X                                     := 0
Firing Point 2 Y                                     := -36
Firing Point 2 Z                                     := 0
Firing Point 2 Arc Start                             := 100
Firing Point 2 Arc End                               := 260
Firing Point 3 X                                     := 37
Firing Point 3 Y                                     := 0
Firing Point 3 Z                                     := 0
Firing Point 3 Arc Start                             := 10
Firing Point 3 Arc End                               := 170
Firing Point 4 X                                     := -37
Firing Point 4 Y                                     := 0
Firing Point 4 Z                                     := 0
Firing Point 4 Arc Start                             := 190
Firing Point 4 Arc End                               := 360
Number Of Engine Points                              := 0
Number Of Lights                                     := 0

Name                                                 := Borg Carrier
XFile                                                := Borg_carrier.X
Override Texture Filename                            :=
Base Model Radius                                    := 4
Starting Rotate X                                    := 50
Starting Rotate Y                                    := 0
Starting Rotate Z                                    := 0
Starting Scale X                                     := 0.053
Starting Scale Y                                     := 0.053
Starting Scale Z                                     := 0.053
Starting Position Offset X                           := 0
Starting Position Offset Y                           := 0
Starting Position Offset Z                           := 0
Continual Rotation Vector X                          := 0
Continual Rotation Vector Y                          := 0
Continual Rotation Vector Z                          := 0
Continual Rotation Speed                             := 0
Star Glow Color                                      := 0, 0, 0
Firing Flash Color                                   := 76, 190, 80
Explosion Effect                                     := Ring Explosion Green
Explosion Center Color                               := 76, 190, 80
Explosion Radius                                     := 12
Light Point Effect                                   :=
Engine Glow Effect                                   := Engine Glow Standard
Firing Flare Effect                                  := Main Firing Flare
Number Of Firing Points                              := 5
Firing Point 1 X                                     := 50
Firing Point 1 Y                                     := 15
Firing Point 1 Z                                     := 0
Firing Point 1 Arc Start                             := 225
Firing Point 1 Arc End                               := 345
Firing Point 2 X                                     := 0
Firing Point 2 Y                                     := 50
Firing Point 2 Z                                     := 0
Firing Point 2 Arc Start                             := 290
Firing Point 2 Arc End                               := 70
Firing Point 3 X                                     := -50
Firing Point 3 Y                                     := 15
Firing Point 3 Z                                     := 0
Firing Point 3 Arc Start                             := 25
Firing Point 3 Arc End                               := 145
Firing Point 4 X                                     := -31
Firing Point 4 Y                                     := -43
Firing Point 4 Z                                     := 0
Firing Point 4 Arc Start                             := 70
Firing Point 4 Arc End                               := 210
Firing Point 5 X                                     := 31
Firing Point 5 Y                                     := -43
Firing Point 5 Z                                     := 0
Firing Point 5 Arc Start                             := 160
Firing Point 5 Arc End                               := 290
Number Of Engine Points                              := 0
Number Of Lights                                     := 0

Name                                                 := Borg Colony Ship
XFile                                                := Borg_colonyship.X
Override Texture Filename                            :=
Base Model Radius                                    := 4
Starting Rotate X                                    := 0
Starting Rotate Y                                    := 50
Starting Rotate Z                                    := 0
Starting Scale X                                     := 0.04
Starting Scale Y                                     := 0.04
Starting Scale Z                                     := 0.04
Starting Position Offset X                           := 0
Starting Position Offset Y                           := 0
Starting Position Offset Z                           := 0
Continual Rotation Vector X                          := 0
Continual Rotation Vector Y                          := 0
Continual Rotation Vector Z                          := 0
Continual Rotation Speed                             := 0
Star Glow Color                                      := 0, 0, 0
Firing Flash Color                                   := 76, 190, 80
Explosion Effect                                     := Ring Explosion Green
Explosion Center Color                               := 76, 190, 80
Explosion Radius                                     := 12
Light Point Effect                                   :=
Engine Glow Effect                                   := Engine Glow Standard
Firing Flare Effect                                  := Main Firing Flare
Number Of Firing Points                              := 4
Firing Point 1 X                                     := 0
Firing Point 1 Y                                     := -85
Firing Point 1 Z                                     := 0
Firing Point 1 Arc Start                             := 315
Firing Point 1 Arc End                               := 45
Firing Point 2 X                                     := 0
Firing Point 2 Y                                     := 85
Firing Point 2 Z                                     := -20
Firing Point 2 Arc Start                             := 135
Firing Point 2 Arc End                               := 225
Firing Point 3 X                                     := -67
Firing Point 3 Y                                     := 0
Firing Point 3 Z                                     := 0
Firing Point 3 Arc Start                             := 45
Firing Point 3 Arc End                               := 135
Firing Point 4 X                                     := 67
Firing Point 4 Y                                     := 0
Firing Point 4 Z                                     := 0
Firing Point 4 Arc Start                             := 225
Firing Point 4 Arc End                               := 315
Number Of Engine Points                              := 1
Engine Point 1 X                                     := 0
Engine Point 1 Y                                     := 95
Engine Point 1 Z                                     := 0
Engine Point 1 Glow Offset X                         := 0
Engine Point 1 Glow Offset Y                         := 3
Engine Point 1 Glow Offset Z                         := 0
Engine Point 1 Glow Color                            := 76, 190, 80
Engine Point 1 Glow Radius                           := 0.7
Number Of Lights                                     := 0

Name                                                 := Borg Freighter
XFile                                                := Borg_freighter.X
Override Texture Filename                            :=
Base Model Radius                                    := 4
Starting Rotate X                                    := 0
Starting Rotate Y                                    := 0
Starting Rotate Z                                    := 0
Starting Scale X                                     := 0.085
Starting Scale Y                                     := 0.085
Starting Scale Z                                     := 0.085
Starting Position Offset X                           := -.25
Starting Position Offset Y                           := -1
Starting Position Offset Z                           := 0
Continual Rotation Vector X                          := 0
Continual Rotation Vector Y                          := 0
Continual Rotation Vector Z                          := 0
Continual Rotation Speed                             := 0
Star Glow Color                                      := 0, 0, 0
Firing Flash Color                                   := 76, 190, 80
Explosion Effect                                     := Ring Explosion Green
Explosion Center Color                               := 76, 190, 80
Explosion Radius                                     := 12
Light Point Effect                                   :=
Engine Glow Effect                                   := Engine Glow Standard
Firing Flare Effect                                  := Main Firing Flare
Number Of Firing Points                              := 2
Firing Point 1 X                                     := 0
Firing Point 1 Y                                     := 46.5
Firing Point 1 Z                                     := -6
Firing Point 1 Arc Start                             := 270
Firing Point 1 Arc End                               := 90
Firing Point 2 X                                     := 0
Firing Point 2 Y                                     := 34
Firing Point 2 Z                                     := -10.5
Firing Point 2 Arc Start                             := 90
Firing Point 2 Arc End                               := 270
Number Of Engine Points                              := 0
Number Of Lights                                     := 0

Name                                                 := Borg Spacestation
XFile                                                := Borg_spacestation.X
Override Texture Filename                            :=
Base Model Radius                                    := 11
Starting Rotate X                                    := 0
Starting Rotate Y                                    := 0
Starting Rotate Z                                    := 0
Starting Scale X                                     := 0.29
Starting Scale Y                                     := 0.29
Starting Scale Z                                     := 0.29
Starting Position Offset X                           := 0
Starting Position Offset Y                           := 0
Starting Position Offset Z                           := 0
Continual Rotation Vector X                          := 0
Continual Rotation Vector Y                          := 0
Continual Rotation Vector Z                          := 0
Continual Rotation Speed                             := 0
Star Glow Color                                      := 0, 0, 0
Firing Flash Color                                   := 76, 190, 80
Explosion Effect                                     := Ring Explosion Green
Explosion Center Color                               := 76, 190, 80
Explosion Radius                                     := 33
Light Point Effect                                   :=
Engine Glow Effect                                   := Engine Glow Standard
Firing Flare Effect                                  := Main Firing Flare
Number Of Firing Points                              := 4
Firing Point 1 X                                     := 41
Firing Point 1 Y                                     := 0
Firing Point 1 Z                                     := 0
Firing Point 1 Arc Start                             := 45
Firing Point 1 Arc End                               := 135
Firing Point 2 X                                     := -41
Firing Point 2 Y                                     := 0
Firing Point 2 Z                                     := 0
Firing Point 2 Arc Start                             := 225
Firing Point 2 Arc End                               := 315
Firing Point 3 X                                     := 0
Firing Point 3 Y                                     := 41
Firing Point 3 Z                                     := 0
Firing Point 3 Arc Start                             := 315
Firing Point 3 Arc End                               := 45
Firing Point 4 X                                     := 0
Firing Point 4 Y                                     := -41
Firing Point 4 Z                                     := 0
Firing Point 4 Arc Start                             := 135
Firing Point 4 Arc End                               := 225
Number Of Engine Points                              := 0
Number Of Lights                                     := 0

Name                                                 := Borg Starbase
XFile                                                := Borg_starbase.X
Override Texture Filename                            :=
Base Model Radius                                    := 20
Starting Rotate X                                    := 50
Starting Rotate Y                                    := 0
Starting Rotate Z                                    := 0
Starting Scale X                                     := 0.055
Starting Scale Y                                     := 0.055
Starting Scale Z                                     := 0.055
Starting Position Offset X                           := 0
Starting Position Offset Y                           := 0
Starting Position Offset Z                           := 0
Continual Rotation Vector X                          := 0
Continual Rotation Vector Y                          := 0
Continual Rotation Vector Z                          := 0
Continual Rotation Speed                             := 0
Star Glow Color                                      := 0, 0, 0
Firing Flash Color                                   := 76, 190, 80
Explosion Effect                                     := Ring Explosion Green
Explosion Center Color                               := 76, 190, 80
Explosion Radius                                     := 55
Light Point Effect                                   :=
Engine Glow Effect                                   := Engine Glow Standard
Firing Flare Effect                                  := Main Firing Flare
Number Of Firing Points                              := 4
Firing Point 1 X                                     := 102
Firing Point 1 Y                                     := 18
Firing Point 1 Z                                     := 250
Firing Point 1 Arc Start                             := 270
Firing Point 1 Arc End                               := 55
Firing Point 2 X                                     := 102
Firing Point 2 Y                                     := -14
Firing Point 2 Z                                     := 250
Firing Point 2 Arc Start                             := 125
Firing Point 2 Arc End                               := 270
Firing Point 3 X                                     := -208
Firing Point 3 Y                                     := 25
Firing Point 3 Z                                     := 325
Firing Point 3 Arc Start                             := 300
Firing Point 3 Arc End                               := 90
Firing Point 4 X                                     := -208
Firing Point 4 Y                                     := -22
Firing Point 4 Z                                     := 325
Firing Point 4 Arc Start                             := 90
Firing Point 4 Arc End                               := 255
Number Of Engine Points                              := 0
Number Of Lights                                     := 0

Name                                                 := Borg Drone
XFile                                                := Borg_drone.X
Override Texture Filename                            :=
Base Model Radius                                    := 1.5
Starting Rotate X                                    := 50
Starting Rotate Y                                    := 0
Starting Rotate Z                                    := 0
Starting Scale X                                     := 0.028
Starting Scale Y                                     := 0.028
Starting Scale Z                                     := 0.028
Starting Position Offset X                           := 0
Starting Position Offset Y                           := -.2
Starting Position Offset Z                           := 0
Continual Rotation Vector X                          := 0
Continual Rotation Vector Y                          := 0
Continual Rotation Vector Z                          := 0
Continual Rotation Speed                             := 0
Star Glow Color                                      := 0, 0, 0
Firing Flash Color                                   := 76, 190, 80
Explosion Effect                                     := Ring Explosion Green
Explosion Center Color                               := 76, 190, 80
Explosion Radius                                     := 1.8
Light Point Effect                                   :=
Engine Glow Effect                                   := Engine Glow Standard
Firing Flare Effect                                  := Main Firing Flare
Number Of Firing Points                              := 1
Firing Point 1 X                                     := 0
Firing Point 1 Y                                     := 48
Firing Point 1 Z                                     := 0
Firing Point 1 Arc Start                             := 315
Firing Point 1 Arc End                               := 45
Number Of Engine Points                              := 0
Number Of Lights                                     := 0

Name                                                 := Borg Fighter
XFile                                                := Borg_fighter.X
Override Texture Filename                            :=
Base Model Radius                                    := 2
Starting Rotate X                                    := 50
Starting Rotate Y                                    := 0
Starting Rotate Z                                    := 0
Starting Scale X                                     := 0.08
Starting Scale Y                                     := 0.08
Starting Scale Z                                     := 0.08
Starting Position Offset X                           := 0
Starting Position Offset Y                           := 0
Starting Position Offset Z                           := 0
Continual Rotation Vector X                          := 0
Continual Rotation Vector Y                          := 0
Continual Rotation Vector Z                          := 0
Continual Rotation Speed                             := 0
Star Glow Color                                      := 0, 0, 0
Firing Flash Color                                   := 76, 190, 80
Explosion Effect                                     := Ring Explosion Green
Explosion Center Color                               := 76, 190, 80
Explosion Radius                                     := 6.0
Light Point Effect                                   :=
Engine Glow Effect                                   := Engine Glow Standard
Firing Flare Effect                                  := Main Firing Flare
Number Of Firing Points                              := 2
Firing Point 1 X                                     := -7
Firing Point 1 Y                                     := 10
Firing Point 1 Z                                     := 2
Firing Point 1 Arc Start                             := 0
Firing Point 1 Arc End                               := 55
Firing Point 2 X                                     := 3
Firing Point 2 Y                                     := 26
Firing Point 2 Z                                     := 0
Firing Point 2 Arc Start                             := 315
Firing Point 2 Arc End                               := 45
Number Of Engine Points                              := 0
Number Of Lights                                     := 0

Name                                                 := Borg Mine
XFile                                                := Borg_mine.X
Override Texture Filename                            :=
Base Model Radius                                    := 1.3
Starting Rotate X                                    := 0
Starting Rotate Y                                    := 0
Starting Rotate Z                                    := 0
Starting Scale X                                     := 1.3
Starting Scale Y                                     := 1.3
Starting Scale Z                                     := 1.3
Starting Position Offset X                           := 0
Starting Position Offset Y                           := 0
Starting Position Offset Z                           := 0
Continual Rotation Vector X                          := 0
Continual Rotation Vector Y                          := 0
Continual Rotation Vector Z                          := 0
Continual Rotation Speed                             := 0
Star Glow Color                                      := 0, 0, 0
Firing Flash Color                                   := 76, 190, 80
Explosion Effect                                     := Ring Explosion Green
Explosion Center Color                               := 76, 190, 80
Explosion Radius                                     := 3.2
Light Point Effect                                   :=
Engine Glow Effect                                   := Engine Glow Standard
Firing Flare Effect                                  := Main Firing Flare
Number Of Firing Points                              := 0
Number Of Engine Points                              := 0
Number Of Lights                                     := 0

Name                                                 := Borg Satellite
XFile                                                := Borg_satellite.X
Override Texture Filename                            :=
Base Model Radius                                    := 1.3
Starting Rotate X                                    := 0
Starting Rotate Y                                    := 0
Starting Rotate Z                                    := 0
Starting Scale X                                     := 1.3
Starting Scale Y                                     := 1.3
Starting Scale Z                                     := 1.3
Starting Position Offset X                           := 0
Starting Position Offset Y                           := 0
Starting Position Offset Z                           := 0
Continual Rotation Vector X                          := 0
Continual Rotation Vector Y                          := 0
Continual Rotation Vector Z                          := 0
Continual Rotation Speed                             := 0
Star Glow Color                                      := 0, 0, 0
Firing Flash Color                                   := 76, 190, 80
Explosion Effect                                     := Ring Explosion Green
Explosion Center Color                               := 76, 190, 80
Explosion Radius                                     := 3.2
Light Point Effect                                   :=
Engine Glow Effect                                   := Engine Glow Standard
Firing Flare Effect                                  := Main Firing Flare
Number Of Firing Points                              := 1
Firing Point 1 X                                     := 0
Firing Point 1 Y                                     := .7
Firing Point 1 Z                                     := 0
Firing Point 1 Arc Start                             := 315
Firing Point 1 Arc End                               := 45
Number Of Engine Points                              := 0
Number Of Lights                                     := 0

Name                                                 := Borg Troop
XFile                                                := Borg_troop.X
Override Texture Filename                            :=
Base Model Radius                                    := 3.0
Starting Rotate X                                    := 0
Starting Rotate Y                                    := 0
Starting Rotate Z                                    := 0
Starting Scale X                                     := 0.14
Starting Scale Y                                     := 0.14
Starting Scale Z                                     := 0.14
Starting Position Offset X                           := 0
Starting Position Offset Y                           := 0
Starting Position Offset Z                           := 0
Continual Rotation Vector X                          := 0
Continual Rotation Vector Y                          := 0
Continual Rotation Vector Z                          := 0
Continual Rotation Speed                             := 0
Star Glow Color                                      := 0, 0, 0
Firing Flash Color                                   := 76, 190, 80
Explosion Effect                                     := Ring Explosion Green
Explosion Center Color                               := 76, 190, 80
Explosion Radius                                     := 6.0
Light Point Effect                                   :=
Engine Glow Effect                                   := Engine Glow Standard
Firing Flare Effect                                  := Main Firing Flare
Number Of Firing Points                              := 1
Firing Point 1 X                                     := 0
Firing Point 1 Y                                     := 15
Firing Point 1 Z                                     := -3
Firing Point 1 Arc Start                             := 315
Firing Point 1 Arc End                               := 45
Number Of Engine Points                              := 0
Number Of Lights                                     := 0
Ground Position Offset Z                             := -2.0

Name                                                 := Borg Weapon Platform
XFile                                                := Borg_weaponplatform.X
Override Texture Filename                            :=
Base Model Radius                                    := 5.4
Starting Rotate X                                    := 0
Starting Rotate Y                                    := 0
Starting Rotate Z                                    := 0
Starting Scale X                                     := 0.024
Starting Scale Y                                     := 0.024
Starting Scale Z                                     := 0.024
Starting Position Offset X                           := 0
Starting Position Offset Y                           := 0
Starting Position Offset Z                           := -2.4
Continual Rotation Vector X                          := 0
Continual Rotation Vector Y                          := 0
Continual Rotation Vector Z                          := 0
Continual Rotation Speed                             := 0
Star Glow Color                                      := 0, 0, 0
Firing Flash Color                                   := 76, 190, 80
Explosion Effect                                     := Ring Explosion Green
Explosion Center Color                               := 76, 190, 80
Explosion Radius                                     := 10.8
Light Point Effect                                   :=
Engine Glow Effect                                   := Engine Glow Standard
Firing Flare Effect                                  := Main Firing Flare
Number Of Firing Points                              := 1
Firing Point 1 X                                     := -1.664082
Firing Point 1 Y                                     := 0.418076
Firing Point 1 Z                                     := -176.390594
Firing Point 1 Arc Start                             := 0
Firing Point 1 Arc End                               := 0
Number Of Engine Points                              := 0
Number Of Lights                                     := 0
Ground Position Offset Z                             := 0.0

Name                                                 := Borg Baseship
XFile                                                := Borg_baseship.x
Override Texture Filename                            :=
Base Model Radius                                    := 11
Starting Rotate X                                    := 0
Starting Rotate Y                                    := 0
Starting Rotate Z                                    := 0
Starting Scale X                                     := 0.05
Starting Scale Y                                     := 0.05
Starting Scale Z                                     := 0.05
Starting Position Offset X                           := 0
Starting Position Offset Y                           := 0
Starting Position Offset Z                           := -3
Continual Rotation Vector X                          := 0
Continual Rotation Vector Y                          := 0
Continual Rotation Vector Z                          := 0
Continual Rotation Speed                             := 0
Star Glow Color                                      := 0, 0, 0
Firing Flash Color                                   := 76, 190, 80
Explosion Effect                                     := Ring Explosion Green
Explosion Center Color                               := 76, 190, 80
Explosion Radius                                     := 33.0
Light Point Effect                                   :=
Engine Glow Effect                                   := Engine Glow Standard
Firing Flare Effect                                  := Main Firing Flare
Number Of Firing Points                              := 4
Firing Point 1 X                                     := 0
Firing Point 1 Y                                     := 166
Firing Point 1 Z                                     := -35
Firing Point 1 Arc Start                             := 280
Firing Point 1 Arc End                               := 80
Firing Point 2 X                                     := 0
Firing Point 2 Y                                     := -152
Firing Point 2 Z                                     := -35
Firing Point 2 Arc Start                             := 100
Firing Point 2 Arc End                               := 260
Firing Point 3 X                                     := 159
Firing Point 3 Y                                     := 5
Firing Point 3 Z                                     := -35
Firing Point 3 Arc Start                             := 10
Firing Point 3 Arc End                               := 170
Firing Point 4 X                                     := -159
Firing Point 4 Y                                     := 5
Firing Point 4 Z                                     := -35
Firing Point 4 Arc Start                             := 190
Firing Point 4 Arc End                               := 350
Number Of Engine Points                              := 0
Number Of Lights                                     := 0

===================================================================================================================================
*END*
===================================================================================================================================
