xof 0302txt 0064

Header {
 1;
 0;
 1;
}

Frame frm_Scene_Root {
 FrameTransformMatrix {
  1.000000,0.000000,0.000000,0.000000,
  0.000000,1.000000,0.000000,0.000000,
  0.000000,0.000000,1.000000,0.000000,
  0.000000,0.000000,0.000000,1.000000;;
 }

 Frame frm_Jraenar_Fighter {
  FrameTransformMatrix {
   1.000000,0.000000,0.000000,0.000000,
   0.000000,1.000000,0.000000,0.000000,
   0.000000,0.000000,1.000000,0.000000,
   0.000000,-34.434464,9.648449,1.000000;;
  }

  Mesh Jraenar_Fighter {
   756;
   -51.496037;23.548584;-5.127897;,
   -29.697039;3.854750;-11.363770;,
   -41.344959;76.488014;-9.698287;,
   -41.344959;76.488014;-9.698287;,
   -51.496033;75.959221;-5.127891;,
   -51.496037;23.548584;-5.127897;,
   -25.001463;10.186504;-22.020939;,
   -11.836464;12.913620;-32.707783;,
   -11.845456;76.485008;-30.907709;,
   -11.845456;76.485008;-30.907709;,
   -27.490519;76.487427;-22.652679;,
   -25.001463;10.186504;-22.020939;,
   -41.344959;76.488014;-9.698287;,
   -16.174002;76.484909;-15.871372;,
   -13.831249;93.270531;-15.871376;,
   -13.831249;93.270531;-15.871376;,
   -9.608443;115.996216;-15.871376;,
   -45.518703;91.354454;-5.769960;,
   -41.344959;76.488014;-9.698287;,
   -13.831249;93.270531;-15.871376;,
   -45.518703;91.354454;-5.769960;,
   -41.344959;76.488014;-9.698287;,
   -45.518703;91.354454;-5.769960;,
   -51.496033;75.959221;-5.127891;,
   -30.389147;120.017418;-2.552331;,
   -45.518703;91.354454;-5.769960;,
   -9.608443;115.996216;-15.871376;,
   -9.608443;115.996216;-15.871376;,
   -12.641252;138.851288;-3.271437;,
   -30.389147;120.017418;-2.552331;,
   -12.641252;138.851288;-3.271437;,
   0.000000;141.619812;-3.271437;,
   0.000000;157.261185;3.573055;,
   0.000000;157.261185;3.573055;,
   -11.707773;154.407211;3.573057;,
   -12.641252;138.851288;-3.271437;,
   -11.707773;154.407211;3.573057;,
   -39.644741;128.707047;3.573057;,
   -30.389147;120.017418;-2.552331;,
   -30.389147;120.017418;-2.552331;,
   -12.641252;138.851288;-3.271437;,
   -11.707773;154.407211;3.573057;,
   -39.644741;128.707047;3.573057;,
   -58.026226;96.978088;2.629936;,
   -45.518703;91.354454;-5.769960;,
   -45.518703;91.354454;-5.769960;,
   -30.389147;120.017418;-2.552331;,
   -39.644741;128.707047;3.573057;,
   -58.026226;96.978088;2.629936;,
   -65.291969;63.951435;0.707242;,
   -51.496033;75.959221;-5.127891;,
   -51.496033;75.959221;-5.127891;,
   -45.518703;91.354454;-5.769960;,
   -58.026226;96.978088;2.629936;,
   -65.291969;63.951435;0.707242;,
   -61.878464;36.335892;0.707241;,
   -51.496037;23.548584;-5.127897;,
   -51.496037;23.548584;-5.127897;,
   -51.496033;75.959221;-5.127891;,
   -65.291969;63.951435;0.707242;,
   -11.836464;12.913620;-32.707783;,
   0.000000;12.913631;-34.419426;,
   0.000000;76.486420;-33.413818;,
   0.000000;76.486420;-33.413818;,
   -11.845456;76.485008;-30.907709;,
   -11.836464;12.913620;-32.707783;,
   -9.608443;115.996216;-15.871376;,
   0.000000;125.699486;-15.871376;,
   0.000000;141.619812;-3.271437;,
   0.000000;141.619812;-3.271437;,
   -12.641252;138.851288;-3.271437;,
   -9.608443;115.996216;-15.871376;,
   0.000000;114.201187;-25.992386;,
   -5.581129;109.916824;-25.395006;,
   0.000000;76.486420;-33.413818;,
   -5.581129;109.916824;-25.395006;,
   -9.551081;93.294144;-28.177221;,
   -11.845456;76.485008;-30.907709;,
   -5.581129;109.916824;-25.395006;,
   -11.845456;76.485008;-30.907709;,
   0.000000;76.486420;-33.413818;,
   -41.344959;76.488014;-9.698287;,
   -29.697039;3.854750;-11.363770;,
   -25.001463;10.186504;-22.020939;,
   -25.001463;10.186504;-22.020939;,
   -27.490519;76.487427;-22.652679;,
   -41.344959;76.488014;-9.698287;,
   -29.697039;3.854750;-11.363770;,
   -51.496037;23.548584;-5.127897;,
   -47.110569;-35.608963;-4.269838;,
   -47.110569;-35.608963;-4.269838;,
   -30.106134;-65.288506;-9.960617;,
   -29.752306;-23.323584;-10.414724;,
   -30.106134;-65.288506;-9.960617;,
   -47.110569;-35.608963;-4.269838;,
   -41.568645;-78.347725;-0.271601;,
   -41.568645;-78.347725;-0.271601;,
   -29.075386;-91.482620;-1.797625;,
   -30.106134;-65.288506;-9.960617;,
   -47.110569;-35.608963;-4.269838;,
   -29.752306;-23.323584;-10.414724;,
   -29.697039;3.854750;-11.363770;,
   -29.752306;-23.323584;-10.414724;,
   -30.106134;-65.288506;-9.960617;,
   -23.439268;-64.484375;-8.208146;,
   -23.439268;-64.484375;-8.208146;,
   -23.264557;-24.262428;-8.429924;,
   -29.752306;-23.323584;-10.414724;,
   -23.439268;-64.484375;-8.208146;,
   -12.415412;-24.561306;-13.819056;,
   -23.264557;-24.262428;-8.429924;,
   -23.439268;-64.484375;-8.208146;,
   -12.415413;-64.022186;-13.819056;,
   -12.415412;-24.561306;-13.819056;,
   -12.415413;-64.022186;-13.819056;,
   0.000000;-24.561306;-6.583659;,
   -12.415412;-24.561306;-13.819056;,
   -12.415413;-64.022186;-13.819056;,
   0.000000;-64.022186;-6.583657;,
   0.000000;-24.561306;-6.583659;,
   -61.519150;36.064968;14.841320;,
   -62.984104;63.951435;14.841318;,
   -33.264267;40.643616;14.841320;,
   -33.264267;40.643616;14.841320;,
   -24.334766;1.231819;14.841320;,
   -29.083237;3.733173;14.841320;,
   -24.334766;1.231819;14.841320;,
   -33.264267;40.643616;14.841320;,
   -10.824943;40.643616;14.841320;,
   -62.984104;63.951435;14.841318;,
   -56.091019;96.978081;14.841320;,
   -38.657139;128.707062;14.841320;,
   -38.657139;128.707062;14.841320;,
   -33.264267;40.643616;14.841320;,
   -62.984104;63.951435;14.841318;,
   -33.264267;40.643616;14.841320;,
   -38.657139;128.707062;14.841320;,
   -11.707769;157.600906;14.841320;,
   -11.707769;157.600906;14.841320;,
   -10.824943;40.643616;14.841320;,
   -33.264267;40.643616;14.841320;,
   0.000000;40.893684;14.841318;,
   0.000000;-1.309036;14.841318;,
   -24.334766;1.231819;14.841320;,
   0.000000;40.893684;14.841318;,
   -24.334766;1.231819;14.841320;,
   -10.824943;40.643616;14.841320;,
   0.000000;94.675072;14.841320;,
   0.000000;40.893684;14.841318;,
   -10.824943;40.643616;14.841320;,
   0.000000;94.675072;14.841320;,
   -10.824943;40.643616;14.841320;,
   -11.707769;157.600906;14.841320;,
   0.000000;94.675072;14.841320;,
   -11.707769;157.600906;14.841320;,
   0.000000;160.454865;14.841320;,
   -33.264267;40.643616;14.841320;,
   -51.657288;23.744926;14.841320;,
   -61.519150;36.064968;14.841320;,
   -33.264267;40.643616;14.841320;,
   -29.083237;3.733173;14.841320;,
   -51.657288;23.744926;14.841320;,
   -51.657288;23.744926;14.841320;,
   -29.565002;-23.114395;14.531444;,
   -29.597794;-65.391830;14.371159;,
   -29.597794;-65.391830;14.371159;,
   -47.252228;-35.434586;14.371193;,
   -51.657288;23.744926;14.841320;,
   -47.252228;-35.434586;14.371193;,
   -29.597794;-65.391830;14.371159;,
   -28.567049;-91.585938;9.229321;,
   -28.567049;-91.585938;9.229321;,
   -41.704288;-78.173347;9.229340;,
   -47.252228;-35.434586;14.371193;,
   -51.657288;23.744926;14.841320;,
   -29.083237;3.733173;14.841320;,
   -29.565002;-23.114395;14.531444;,
   -29.597794;-65.391830;14.371159;,
   -29.565002;-23.114395;14.531444;,
   -23.174625;-24.160000;11.015657;,
   -23.174625;-24.160000;11.015657;,
   -23.188700;-64.534996;10.937355;,
   -29.597794;-65.391830;14.371159;,
   0.000000;-64.022186;7.887133;,
   -12.415415;-24.561306;15.122528;,
   0.000000;-24.561306;7.887131;,
   0.000000;-64.022186;7.887133;,
   -12.415415;-64.022186;15.122528;,
   -12.415415;-24.561306;15.122528;,
   -12.415415;-64.022186;15.122528;,
   -23.174625;-24.160000;11.015657;,
   -12.415415;-24.561306;15.122528;,
   -12.415415;-64.022186;15.122528;,
   -23.188700;-64.534996;10.937355;,
   -23.174625;-24.160000;11.015657;,
   -11.707773;154.407211;3.573057;,
   0.000000;157.261185;3.573055;,
   0.000000;160.454865;14.841320;,
   0.000000;160.454865;14.841320;,
   -11.707769;157.600906;14.841320;,
   -11.707773;154.407211;3.573057;,
   -11.707769;157.600906;14.841320;,
   -38.657139;128.707062;14.841320;,
   -39.644741;128.707047;3.573057;,
   -39.644741;128.707047;3.573057;,
   -11.707773;154.407211;3.573057;,
   -11.707769;157.600906;14.841320;,
   -38.657139;128.707062;14.841320;,
   -56.091019;96.978081;14.841320;,
   -58.026226;96.978088;2.629936;,
   -58.026226;96.978088;2.629936;,
   -39.644741;128.707047;3.573057;,
   -38.657139;128.707062;14.841320;,
   -56.091019;96.978081;14.841320;,
   -62.984104;63.951435;14.841318;,
   -65.291969;63.951435;0.707242;,
   -65.291969;63.951435;0.707242;,
   -58.026226;96.978088;2.629936;,
   -56.091019;96.978081;14.841320;,
   -62.984104;63.951435;14.841318;,
   -61.519150;36.064968;14.841320;,
   -61.878464;36.335892;0.707241;,
   -61.878464;36.335892;0.707241;,
   -65.291969;63.951435;0.707242;,
   -62.984104;63.951435;14.841318;,
   -13.831249;93.270531;-15.871376;,
   -16.174002;76.484909;-15.871372;,
   -11.845456;76.485008;-30.907709;,
   -13.831249;93.270531;-15.871376;,
   -11.845456;76.485008;-30.907709;,
   -9.551081;93.294144;-28.177221;,
   -9.551081;93.294144;-28.177221;,
   -5.581129;109.916824;-25.395006;,
   -9.608443;115.996216;-15.871376;,
   -13.831249;93.270531;-15.871376;,
   -9.551081;93.294144;-28.177221;,
   -9.608443;115.996216;-15.871376;,
   0.000000;125.699486;-15.871376;,
   -9.608443;115.996216;-15.871376;,
   -5.581129;109.916824;-25.395006;,
   -5.581129;109.916824;-25.395006;,
   0.000000;114.201187;-25.992386;,
   0.000000;125.699486;-15.871376;,
   -51.496037;23.548584;-5.127897;,
   -61.878464;36.335892;0.707241;,
   -61.519150;36.064968;14.841320;,
   -41.568645;-78.347725;-0.271601;,
   -28.567049;-91.585938;9.229321;,
   -29.075386;-91.482620;-1.797625;,
   -51.496037;23.548584;-5.127897;,
   -61.519150;36.064968;14.841320;,
   -51.657288;23.744926;14.841320;,
   -41.568645;-78.347725;-0.271601;,
   -41.704288;-78.173347;9.229340;,
   -28.567049;-91.585938;9.229321;,
   -51.496037;23.548584;-5.127897;,
   -51.657288;23.744926;14.841320;,
   -47.252228;-35.434586;14.371193;,
   -47.252228;-35.434586;14.371193;,
   -47.110569;-35.608963;-4.269838;,
   -51.496037;23.548584;-5.127897;,
   -29.597794;-65.391830;14.371159;,
   -30.106134;-65.288506;-9.960617;,
   -29.075386;-91.482620;-1.797625;,
   -29.075386;-91.482620;-1.797625;,
   -28.567049;-91.585938;9.229321;,
   -29.597794;-65.391830;14.371159;,
   -47.110569;-35.608963;-4.269838;,
   -47.252228;-35.434586;14.371193;,
   -41.704288;-78.173347;9.229340;,
   -41.704288;-78.173347;9.229340;,
   -41.568645;-78.347725;-0.271601;,
   -47.110569;-35.608963;-4.269838;,
   -29.083237;3.733173;14.841320;,
   -29.697039;3.854750;-11.363770;,
   -29.752306;-23.323584;-10.414724;,
   -29.752306;-23.323584;-10.414724;,
   -29.565002;-23.114395;14.531444;,
   -29.083237;3.733173;14.841320;,
   -16.174002;76.484909;-15.871372;,
   -41.344959;76.488014;-9.698287;,
   -27.490519;76.487427;-22.652679;,
   -27.490519;76.487427;-22.652679;,
   -11.845456;76.485008;-30.907709;,
   -16.174002;76.484909;-15.871372;,
   -29.565002;-23.114395;14.531444;,
   -29.752306;-23.323584;-10.414724;,
   -23.264557;-24.262428;-8.429924;,
   -23.264557;-24.262428;-8.429924;,
   -23.174625;-24.160000;11.015657;,
   -29.565002;-23.114395;14.531444;,
   -12.415413;-24.561306;0.651735;,
   0.000000;-24.561306;7.887131;,
   -12.415415;-24.561306;15.122528;,
   -12.415413;-24.561306;0.651735;,
   -12.415415;-24.561306;15.122528;,
   -23.174625;-24.160000;11.015657;,
   -12.415413;-24.561306;0.651735;,
   -23.174625;-24.160000;11.015657;,
   -23.264557;-24.262428;-8.429924;,
   -12.415413;-24.561306;0.651735;,
   -23.264557;-24.262428;-8.429924;,
   -12.415412;-24.561306;-13.819056;,
   -12.415413;-24.561306;0.651735;,
   -12.415412;-24.561306;-13.819056;,
   0.000000;-24.561306;-6.583659;,
   -12.415413;-24.561306;0.651735;,
   0.000000;-24.561306;-6.583659;,
   0.000000;-24.561306;7.887131;,
   -24.490208;1.170521;6.246805;,
   -29.083237;3.733173;14.841320;,
   -24.334766;1.231819;14.841320;,
   -29.697039;3.854750;-11.363770;,
   -29.083237;3.733173;14.841320;,
   -24.490208;1.170521;6.246805;,
   -13.723743;1.914436;-17.193295;,
   0.000000;-5.079472;3.031714;,
   -7.238710;3.176006;-22.463736;,
   -13.723743;1.914436;-17.193295;,
   -13.357038;-2.561417;3.115976;,
   0.000000;-5.079472;3.031714;,
   -7.238710;3.176006;-22.463736;,
   0.000000;-5.079472;3.031714;,
   0.000000;2.999695;-23.523729;,
   -30.106134;-65.288506;-9.960617;,
   -29.597794;-65.391830;14.371159;,
   -23.188700;-64.534996;10.937355;,
   -23.188700;-64.534996;10.937355;,
   -23.439268;-64.484375;-8.208146;,
   -30.106134;-65.288506;-9.960617;,
   -12.415415;-64.022186;0.651736;,
   -12.415415;-64.022186;15.122528;,
   0.000000;-64.022186;7.887133;,
   -12.415415;-64.022186;0.651736;,
   -23.188700;-64.534996;10.937355;,
   -12.415415;-64.022186;15.122528;,
   -12.415415;-64.022186;0.651736;,
   -23.439268;-64.484375;-8.208146;,
   -23.188700;-64.534996;10.937355;,
   -12.415415;-64.022186;0.651736;,
   -12.415413;-64.022186;-13.819056;,
   -23.439268;-64.484375;-8.208146;,
   -12.415415;-64.022186;0.651736;,
   0.000000;-64.022186;-6.583657;,
   -12.415413;-64.022186;-13.819056;,
   -12.415415;-64.022186;0.651736;,
   0.000000;-64.022186;7.887133;,
   0.000000;-64.022186;-6.583657;,
   -25.001463;10.186504;-22.020939;,
   -7.238710;3.176006;-22.463736;,
   -11.836464;12.913620;-32.707783;,
   -7.238710;3.176006;-22.463736;,
   -25.001463;10.186504;-22.020939;,
   -13.723743;1.914436;-17.193295;,
   0.000000;-1.309036;14.841318;,
   -13.357038;-2.561417;3.115976;,
   -24.334766;1.231819;14.841320;,
   -13.357038;-2.561417;3.115976;,
   0.000000;-1.309036;14.841318;,
   0.000000;-5.079472;3.031714;,
   -11.836464;12.913620;-32.707783;,
   0.000000;2.999695;-23.523729;,
   0.000000;12.913631;-34.419426;,
   0.000000;2.999695;-23.523729;,
   -11.836464;12.913620;-32.707783;,
   -7.238710;3.176006;-22.463736;,
   -24.334766;1.231819;14.841320;,
   -13.357038;-2.561417;3.115976;,
   -24.490208;1.170521;6.246805;,
   -13.723743;1.914436;-17.193295;,
   -24.490208;1.170521;6.246805;,
   -13.357038;-2.561417;3.115976;,
   -29.697039;3.854750;-11.363770;,
   -13.723743;1.914436;-17.193295;,
   -25.001463;10.186504;-22.020939;,
   -29.697039;3.854750;-11.363770;,
   -24.490208;1.170521;6.246805;,
   -13.723743;1.914436;-17.193295;,
   51.496037;23.548584;-5.127897;,
   41.344959;76.488014;-9.698287;,
   29.697039;3.854750;-11.363770;,
   41.344959;76.488014;-9.698287;,
   51.496037;23.548584;-5.127897;,
   51.496033;75.959221;-5.127891;,
   25.001463;10.186504;-22.020939;,
   11.845456;76.485008;-30.907709;,
   11.836464;12.913620;-32.707783;,
   11.845456;76.485008;-30.907709;,
   25.001463;10.186504;-22.020939;,
   27.490519;76.487427;-22.652679;,
   41.344959;76.488014;-9.698287;,
   13.831249;93.270531;-15.871376;,
   16.174002;76.484909;-15.871372;,
   13.831249;93.270531;-15.871376;,
   45.518703;91.354454;-5.769960;,
   9.608443;115.996216;-15.871376;,
   41.344959;76.488014;-9.698287;,
   45.518703;91.354454;-5.769960;,
   13.831249;93.270531;-15.871376;,
   41.344959;76.488014;-9.698287;,
   51.496033;75.959221;-5.127891;,
   45.518703;91.354454;-5.769960;,
   30.389147;120.017418;-2.552331;,
   9.608443;115.996216;-15.871376;,
   45.518703;91.354454;-5.769960;,
   9.608443;115.996216;-15.871376;,
   30.389147;120.017418;-2.552331;,
   12.641252;138.851288;-3.271437;,
   12.641252;138.851288;-3.271437;,
   0.000000;157.261185;3.573055;,
   0.000000;141.619812;-3.271437;,
   0.000000;157.261185;3.573055;,
   12.641252;138.851288;-3.271437;,
   11.707773;154.407211;3.573057;,
   11.707773;154.407211;3.573057;,
   30.389147;120.017418;-2.552331;,
   39.644741;128.707047;3.573057;,
   30.389147;120.017418;-2.552331;,
   11.707773;154.407211;3.573057;,
   12.641252;138.851288;-3.271437;,
   39.644741;128.707047;3.573057;,
   45.518703;91.354454;-5.769960;,
   58.026226;96.978088;2.629936;,
   45.518703;91.354454;-5.769960;,
   39.644741;128.707047;3.573057;,
   30.389147;120.017418;-2.552331;,
   58.026226;96.978088;2.629936;,
   51.496033;75.959221;-5.127891;,
   65.291969;63.951435;0.707242;,
   51.496033;75.959221;-5.127891;,
   58.026226;96.978088;2.629936;,
   45.518703;91.354454;-5.769960;,
   65.291969;63.951435;0.707242;,
   51.496037;23.548584;-5.127897;,
   61.878464;36.335892;0.707241;,
   51.496037;23.548584;-5.127897;,
   65.291969;63.951435;0.707242;,
   51.496033;75.959221;-5.127891;,
   11.836464;12.913620;-32.707783;,
   0.000000;76.486420;-33.413818;,
   0.000000;12.913631;-34.419426;,
   0.000000;76.486420;-33.413818;,
   11.836464;12.913620;-32.707783;,
   11.845456;76.485008;-30.907709;,
   9.608443;115.996216;-15.871376;,
   0.000000;141.619812;-3.271437;,
   0.000000;125.699486;-15.871376;,
   0.000000;141.619812;-3.271437;,
   9.608443;115.996216;-15.871376;,
   12.641252;138.851288;-3.271437;,
   0.000000;114.201187;-25.992386;,
   0.000000;76.486420;-33.413818;,
   5.581129;109.916824;-25.395006;,
   5.581129;109.916824;-25.395006;,
   11.845456;76.485008;-30.907709;,
   9.551081;93.294144;-28.177221;,
   5.581129;109.916824;-25.395006;,
   0.000000;76.486420;-33.413818;,
   11.845456;76.485008;-30.907709;,
   41.344959;76.488014;-9.698287;,
   25.001463;10.186504;-22.020939;,
   29.697039;3.854750;-11.363770;,
   25.001463;10.186504;-22.020939;,
   41.344959;76.488014;-9.698287;,
   27.490519;76.487427;-22.652679;,
   29.697039;3.854750;-11.363770;,
   47.110569;-35.608963;-4.269838;,
   51.496037;23.548584;-5.127897;,
   47.110569;-35.608963;-4.269838;,
   29.752306;-23.323584;-10.414724;,
   30.106134;-65.288506;-9.960617;,
   30.106134;-65.288506;-9.960617;,
   41.568645;-78.347725;-0.271601;,
   47.110569;-35.608963;-4.269838;,
   41.568645;-78.347725;-0.271601;,
   30.106134;-65.288506;-9.960617;,
   29.075386;-91.482620;-1.797625;,
   47.110569;-35.608963;-4.269838;,
   29.697039;3.854750;-11.363770;,
   29.752306;-23.323584;-10.414724;,
   29.752306;-23.323584;-10.414724;,
   23.439268;-64.484375;-8.208146;,
   30.106134;-65.288506;-9.960617;,
   23.439268;-64.484375;-8.208146;,
   29.752306;-23.323584;-10.414724;,
   23.264557;-24.262428;-8.429924;,
   23.439268;-64.484375;-8.208146;,
   23.264557;-24.262428;-8.429924;,
   12.415412;-24.561306;-13.819056;,
   23.439268;-64.484375;-8.208146;,
   12.415412;-24.561306;-13.819056;,
   12.415413;-64.022186;-13.819056;,
   12.415413;-64.022186;-13.819056;,
   12.415412;-24.561306;-13.819056;,
   0.000000;-24.561306;-6.583659;,
   12.415413;-64.022186;-13.819056;,
   0.000000;-24.561306;-6.583659;,
   0.000000;-64.022186;-6.583657;,
   61.519150;36.064968;14.841320;,
   33.264267;40.643616;14.841320;,
   62.984104;63.951435;14.841318;,
   33.264267;40.643616;14.841320;,
   29.083237;3.733173;14.841320;,
   24.334766;1.231819;14.841320;,
   24.334766;1.231819;14.841320;,
   10.824943;40.643616;14.841320;,
   33.264267;40.643616;14.841320;,
   62.984104;63.951435;14.841318;,
   38.657139;128.707062;14.841320;,
   56.091019;96.978081;14.841320;,
   38.657139;128.707062;14.841320;,
   62.984104;63.951435;14.841318;,
   33.264267;40.643616;14.841320;,
   33.264267;40.643616;14.841320;,
   11.707769;157.600906;14.841320;,
   38.657139;128.707062;14.841320;,
   11.707769;157.600906;14.841320;,
   33.264267;40.643616;14.841320;,
   10.824943;40.643616;14.841320;,
   0.000000;40.893684;14.841318;,
   24.334766;1.231819;14.841320;,
   0.000000;-1.309036;14.841318;,
   0.000000;40.893684;14.841318;,
   10.824943;40.643616;14.841320;,
   24.334766;1.231819;14.841320;,
   0.000000;94.675072;14.841320;,
   10.824943;40.643616;14.841320;,
   0.000000;40.893684;14.841318;,
   0.000000;94.675072;14.841320;,
   11.707769;157.600906;14.841320;,
   10.824943;40.643616;14.841320;,
   0.000000;94.675072;14.841320;,
   0.000000;160.454865;14.841320;,
   11.707769;157.600906;14.841320;,
   33.264267;40.643616;14.841320;,
   61.519150;36.064968;14.841320;,
   51.657288;23.744926;14.841320;,
   33.264267;40.643616;14.841320;,
   51.657288;23.744926;14.841320;,
   29.083237;3.733173;14.841320;,
   51.657288;23.744926;14.841320;,
   29.597794;-65.391830;14.371159;,
   29.565002;-23.114395;14.531444;,
   29.597794;-65.391830;14.371159;,
   51.657288;23.744926;14.841320;,
   47.252228;-35.434586;14.371193;,
   47.252228;-35.434586;14.371193;,
   28.567049;-91.585938;9.229321;,
   29.597794;-65.391830;14.371159;,
   28.567049;-91.585938;9.229321;,
   47.252228;-35.434586;14.371193;,
   41.704288;-78.173347;9.229340;,
   51.657288;23.744926;14.841320;,
   29.565002;-23.114395;14.531444;,
   29.083237;3.733173;14.841320;,
   29.597794;-65.391830;14.371159;,
   23.174625;-24.160000;11.015657;,
   29.565002;-23.114395;14.531444;,
   23.174625;-24.160000;11.015657;,
   29.597794;-65.391830;14.371159;,
   23.188700;-64.534996;10.937355;,
   0.000000;-64.022186;7.887133;,
   0.000000;-24.561306;7.887131;,
   12.415415;-24.561306;15.122528;,
   0.000000;-64.022186;7.887133;,
   12.415415;-24.561306;15.122528;,
   12.415415;-64.022186;15.122528;,
   12.415415;-64.022186;15.122528;,
   12.415415;-24.561306;15.122528;,
   23.174625;-24.160000;11.015657;,
   12.415415;-64.022186;15.122528;,
   23.174625;-24.160000;11.015657;,
   23.188700;-64.534996;10.937355;,
   11.707773;154.407211;3.573057;,
   0.000000;160.454865;14.841320;,
   0.000000;157.261185;3.573055;,
   0.000000;160.454865;14.841320;,
   11.707773;154.407211;3.573057;,
   11.707769;157.600906;14.841320;,
   11.707769;157.600906;14.841320;,
   39.644741;128.707047;3.573057;,
   38.657139;128.707062;14.841320;,
   39.644741;128.707047;3.573057;,
   11.707769;157.600906;14.841320;,
   11.707773;154.407211;3.573057;,
   38.657139;128.707062;14.841320;,
   58.026226;96.978088;2.629936;,
   56.091019;96.978081;14.841320;,
   58.026226;96.978088;2.629936;,
   38.657139;128.707062;14.841320;,
   39.644741;128.707047;3.573057;,
   56.091019;96.978081;14.841320;,
   65.291969;63.951435;0.707242;,
   62.984104;63.951435;14.841318;,
   65.291969;63.951435;0.707242;,
   56.091019;96.978081;14.841320;,
   58.026226;96.978088;2.629936;,
   62.984104;63.951435;14.841318;,
   61.878464;36.335892;0.707241;,
   61.519150;36.064968;14.841320;,
   61.878464;36.335892;0.707241;,
   62.984104;63.951435;14.841318;,
   65.291969;63.951435;0.707242;,
   13.831249;93.270531;-15.871376;,
   11.845456;76.485008;-30.907709;,
   16.174002;76.484909;-15.871372;,
   13.831249;93.270531;-15.871376;,
   9.551081;93.294144;-28.177221;,
   11.845456;76.485008;-30.907709;,
   9.551081;93.294144;-28.177221;,
   9.608443;115.996216;-15.871376;,
   5.581129;109.916824;-25.395006;,
   13.831249;93.270531;-15.871376;,
   9.608443;115.996216;-15.871376;,
   9.551081;93.294144;-28.177221;,
   0.000000;125.699486;-15.871376;,
   5.581129;109.916824;-25.395006;,
   9.608443;115.996216;-15.871376;,
   5.581129;109.916824;-25.395006;,
   0.000000;125.699486;-15.871376;,
   0.000000;114.201187;-25.992386;,
   51.496037;23.548584;-5.127897;,
   61.519150;36.064968;14.841320;,
   61.878464;36.335892;0.707241;,
   41.568645;-78.347725;-0.271601;,
   29.075386;-91.482620;-1.797625;,
   28.567049;-91.585938;9.229321;,
   51.496037;23.548584;-5.127897;,
   51.657288;23.744926;14.841320;,
   61.519150;36.064968;14.841320;,
   41.568645;-78.347725;-0.271601;,
   28.567049;-91.585938;9.229321;,
   41.704288;-78.173347;9.229340;,
   51.496037;23.548584;-5.127897;,
   47.252228;-35.434586;14.371193;,
   51.657288;23.744926;14.841320;,
   47.252228;-35.434586;14.371193;,
   51.496037;23.548584;-5.127897;,
   47.110569;-35.608963;-4.269838;,
   29.597794;-65.391830;14.371159;,
   29.075386;-91.482620;-1.797625;,
   30.106134;-65.288506;-9.960617;,
   29.075386;-91.482620;-1.797625;,
   29.597794;-65.391830;14.371159;,
   28.567049;-91.585938;9.229321;,
   47.110569;-35.608963;-4.269838;,
   41.704288;-78.173347;9.229340;,
   47.252228;-35.434586;14.371193;,
   41.704288;-78.173347;9.229340;,
   47.110569;-35.608963;-4.269838;,
   41.568645;-78.347725;-0.271601;,
   29.083237;3.733173;14.841320;,
   29.752306;-23.323584;-10.414724;,
   29.697039;3.854750;-11.363770;,
   29.752306;-23.323584;-10.414724;,
   29.083237;3.733173;14.841320;,
   29.565002;-23.114395;14.531444;,
   16.174002;76.484909;-15.871372;,
   27.490519;76.487427;-22.652679;,
   41.344959;76.488014;-9.698287;,
   27.490519;76.487427;-22.652679;,
   16.174002;76.484909;-15.871372;,
   11.845456;76.485008;-30.907709;,
   29.565002;-23.114395;14.531444;,
   23.264557;-24.262428;-8.429924;,
   29.752306;-23.323584;-10.414724;,
   23.264557;-24.262428;-8.429924;,
   29.565002;-23.114395;14.531444;,
   23.174625;-24.160000;11.015657;,
   12.415413;-24.561306;0.651735;,
   12.415415;-24.561306;15.122528;,
   0.000000;-24.561306;7.887131;,
   12.415413;-24.561306;0.651735;,
   23.174625;-24.160000;11.015657;,
   12.415415;-24.561306;15.122528;,
   12.415413;-24.561306;0.651735;,
   23.264557;-24.262428;-8.429924;,
   23.174625;-24.160000;11.015657;,
   12.415413;-24.561306;0.651735;,
   12.415412;-24.561306;-13.819056;,
   23.264557;-24.262428;-8.429924;,
   12.415413;-24.561306;0.651735;,
   0.000000;-24.561306;-6.583659;,
   12.415412;-24.561306;-13.819056;,
   12.415413;-24.561306;0.651735;,
   0.000000;-24.561306;7.887131;,
   0.000000;-24.561306;-6.583659;,
   24.490208;1.170521;6.246805;,
   24.334766;1.231819;14.841320;,
   29.083237;3.733173;14.841320;,
   29.697039;3.854750;-11.363770;,
   24.490208;1.170521;6.246805;,
   29.083237;3.733173;14.841320;,
   13.723743;1.914436;-17.193295;,
   7.238710;3.176006;-22.463736;,
   0.000000;-5.079472;3.031714;,
   13.723743;1.914436;-17.193295;,
   0.000000;-5.079472;3.031714;,
   13.357038;-2.561417;3.115976;,
   7.238710;3.176006;-22.463736;,
   0.000000;2.999695;-23.523729;,
   0.000000;-5.079472;3.031714;,
   30.106134;-65.288506;-9.960617;,
   23.188700;-64.534996;10.937355;,
   29.597794;-65.391830;14.371159;,
   23.188700;-64.534996;10.937355;,
   30.106134;-65.288506;-9.960617;,
   23.439268;-64.484375;-8.208146;,
   12.415415;-64.022186;0.651736;,
   0.000000;-64.022186;7.887133;,
   12.415415;-64.022186;15.122528;,
   12.415415;-64.022186;0.651736;,
   12.415415;-64.022186;15.122528;,
   23.188700;-64.534996;10.937355;,
   12.415415;-64.022186;0.651736;,
   23.188700;-64.534996;10.937355;,
   23.439268;-64.484375;-8.208146;,
   12.415415;-64.022186;0.651736;,
   23.439268;-64.484375;-8.208146;,
   12.415413;-64.022186;-13.819056;,
   12.415415;-64.022186;0.651736;,
   12.415413;-64.022186;-13.819056;,
   0.000000;-64.022186;-6.583657;,
   12.415415;-64.022186;0.651736;,
   0.000000;-64.022186;-6.583657;,
   0.000000;-64.022186;7.887133;,
   25.001463;10.186504;-22.020939;,
   11.836464;12.913620;-32.707783;,
   7.238710;3.176006;-22.463736;,
   7.238710;3.176006;-22.463736;,
   13.723743;1.914436;-17.193295;,
   25.001463;10.186504;-22.020939;,
   0.000000;-1.309036;14.841318;,
   24.334766;1.231819;14.841320;,
   13.357038;-2.561417;3.115976;,
   13.357038;-2.561417;3.115976;,
   0.000000;-5.079472;3.031714;,
   0.000000;-1.309036;14.841318;,
   11.836464;12.913620;-32.707783;,
   0.000000;12.913631;-34.419426;,
   0.000000;2.999695;-23.523729;,
   0.000000;2.999695;-23.523729;,
   7.238710;3.176006;-22.463736;,
   11.836464;12.913620;-32.707783;,
   24.334766;1.231819;14.841320;,
   24.490208;1.170521;6.246805;,
   13.357038;-2.561417;3.115976;,
   13.723743;1.914436;-17.193295;,
   13.357038;-2.561417;3.115976;,
   24.490208;1.170521;6.246805;,
   29.697039;3.854750;-11.363770;,
   25.001463;10.186504;-22.020939;,
   13.723743;1.914436;-17.193295;,
   29.697039;3.854750;-11.363770;,
   13.723743;1.914436;-17.193295;,
   24.490208;1.170521;6.246805;,

   252;
   3;0,2,1;,
   3;3,5,4;,
   3;6,8,7;,
   3;9,11,10;,
   3;12,14,13;,
   3;15,17,16;,
   3;18,20,19;,
   3;21,23,22;,
   3;24,26,25;,
   3;27,29,28;,
   3;30,32,31;,
   3;33,35,34;,
   3;36,38,37;,
   3;39,41,40;,
   3;42,44,43;,
   3;45,47,46;,
   3;48,50,49;,
   3;51,53,52;,
   3;54,56,55;,
   3;57,59,58;,
   3;60,62,61;,
   3;63,65,64;,
   3;66,68,67;,
   3;69,71,70;,
   3;72,74,73;,
   3;75,77,76;,
   3;78,80,79;,
   3;81,83,82;,
   3;84,86,85;,
   3;87,89,88;,
   3;90,92,91;,
   3;93,95,94;,
   3;96,98,97;,
   3;99,101,100;,
   3;102,104,103;,
   3;105,107,106;,
   3;108,110,109;,
   3;111,113,112;,
   3;114,116,115;,
   3;117,119,118;,
   3;120,122,121;,
   3;123,125,124;,
   3;126,128,127;,
   3;129,131,130;,
   3;132,134,133;,
   3;135,137,136;,
   3;138,140,139;,
   3;141,143,142;,
   3;144,146,145;,
   3;147,149,148;,
   3;150,152,151;,
   3;153,155,154;,
   3;156,158,157;,
   3;159,161,160;,
   3;162,164,163;,
   3;165,167,166;,
   3;168,170,169;,
   3;171,173,172;,
   3;174,176,175;,
   3;177,179,178;,
   3;180,182,181;,
   3;183,185,184;,
   3;186,188,187;,
   3;189,191,190;,
   3;192,194,193;,
   3;195,197,196;,
   3;198,200,199;,
   3;201,203,202;,
   3;204,206,205;,
   3;207,209,208;,
   3;210,212,211;,
   3;213,215,214;,
   3;216,218,217;,
   3;219,221,220;,
   3;222,224,223;,
   3;225,227,226;,
   3;228,230,229;,
   3;231,233,232;,
   3;234,236,235;,
   3;237,239,238;,
   3;240,242,241;,
   3;243,245,244;,
   3;246,248,247;,
   3;249,251,250;,
   3;252,254,253;,
   3;255,257,256;,
   3;258,260,259;,
   3;261,263,262;,
   3;264,266,265;,
   3;267,269,268;,
   3;270,272,271;,
   3;273,275,274;,
   3;276,278,277;,
   3;279,281,280;,
   3;282,284,283;,
   3;285,287,286;,
   3;288,290,289;,
   3;291,293,292;,
   3;294,296,295;,
   3;297,299,298;,
   3;300,302,301;,
   3;303,305,304;,
   3;306,308,307;,
   3;309,311,310;,
   3;312,314,313;,
   3;315,317,316;,
   3;318,320,319;,
   3;321,323,322;,
   3;324,326,325;,
   3;327,329,328;,
   3;330,332,331;,
   3;333,335,334;,
   3;336,338,337;,
   3;339,341,340;,
   3;342,344,343;,
   3;345,347,346;,
   3;348,350,349;,
   3;351,353,352;,
   3;354,356,355;,
   3;357,359,358;,
   3;360,362,361;,
   3;363,365,364;,
   3;366,368,367;,
   3;369,371,370;,
   3;372,374,373;,
   3;375,377,376;,
   3;378,380,379;,
   3;381,383,382;,
   3;384,386,385;,
   3;387,389,388;,
   3;390,392,391;,
   3;393,395,394;,
   3;396,398,397;,
   3;399,401,400;,
   3;402,404,403;,
   3;405,407,406;,
   3;408,410,409;,
   3;411,413,412;,
   3;414,416,415;,
   3;417,419,418;,
   3;420,422,421;,
   3;423,425,424;,
   3;426,428,427;,
   3;429,431,430;,
   3;432,434,433;,
   3;435,437,436;,
   3;438,440,439;,
   3;441,443,442;,
   3;444,446,445;,
   3;447,449,448;,
   3;450,452,451;,
   3;453,455,454;,
   3;456,458,457;,
   3;459,461,460;,
   3;462,464,463;,
   3;465,467,466;,
   3;468,470,469;,
   3;471,473,472;,
   3;474,476,475;,
   3;477,479,478;,
   3;480,482,481;,
   3;483,485,484;,
   3;486,488,487;,
   3;489,491,490;,
   3;492,494,493;,
   3;495,497,496;,
   3;498,500,499;,
   3;501,503,502;,
   3;504,506,505;,
   3;507,509,508;,
   3;510,512,511;,
   3;513,515,514;,
   3;516,518,517;,
   3;519,521,520;,
   3;522,524,523;,
   3;525,527,526;,
   3;528,530,529;,
   3;531,533,532;,
   3;534,536,535;,
   3;537,539,538;,
   3;540,542,541;,
   3;543,545,544;,
   3;546,548,547;,
   3;549,551,550;,
   3;552,554,553;,
   3;555,557,556;,
   3;558,560,559;,
   3;561,563,562;,
   3;564,566,565;,
   3;567,569,568;,
   3;570,572,571;,
   3;573,575,574;,
   3;576,578,577;,
   3;579,581,580;,
   3;582,584,583;,
   3;585,587,586;,
   3;588,590,589;,
   3;591,593,592;,
   3;594,596,595;,
   3;597,599,598;,
   3;600,602,601;,
   3;603,605,604;,
   3;606,608,607;,
   3;609,611,610;,
   3;612,614,613;,
   3;615,617,616;,
   3;618,620,619;,
   3;621,623,622;,
   3;624,626,625;,
   3;627,629,628;,
   3;630,632,631;,
   3;633,635,634;,
   3;636,638,637;,
   3;639,641,640;,
   3;642,644,643;,
   3;645,647,646;,
   3;648,650,649;,
   3;651,653,652;,
   3;654,656,655;,
   3;657,659,658;,
   3;660,662,661;,
   3;663,665,664;,
   3;666,668,667;,
   3;669,671,670;,
   3;672,674,673;,
   3;675,677,676;,
   3;678,680,679;,
   3;681,683,682;,
   3;684,686,685;,
   3;687,689,688;,
   3;690,692,691;,
   3;693,695,694;,
   3;696,698,697;,
   3;699,701,700;,
   3;702,704,703;,
   3;705,707,706;,
   3;708,710,709;,
   3;711,713,712;,
   3;714,716,715;,
   3;717,719,718;,
   3;720,722,721;,
   3;723,725,724;,
   3;726,728,727;,
   3;729,731,730;,
   3;732,734,733;,
   3;735,737,736;,
   3;738,740,739;,
   3;741,743,742;,
   3;744,746,745;,
   3;747,749,748;,
   3;750,752,751;,
   3;753,755,754;;

   MeshMaterialList {
    1;
    1;
    0;;
    Material {
     1.000000,1.000000,1.000000,1.000000;;
     9.999999;
     0.900000,0.900000,0.900000;;
     0.000000,0.000000,0.000000;;
     TextureFilename {
      "JRA_FITR.bmp";
     }
    }
   }

   MeshNormals {
    256;
    0.000000;0.492670;-0.870216;,
    0.000000;0.404148;-0.914693;,
    0.000000;0.962104;-0.272682;,
    0.000000;0.649918;-0.760005;,
    -0.000000;0.073485;-0.997296;,
    0.000000;0.335765;-0.941946;,
    0.000000;0.015816;-0.999875;,
    0.000000;-0.739644;-0.672998;,
    0.503511;-0.000000;-0.863989;,
    0.000000;-1.000000;0.000000;,
    -0.503511;-0.000000;-0.863989;,
    0.503511;-0.000000;-0.863989;,
    0.000000;1.000000;0.000000;,
    -0.503511;-0.000000;-0.863989;,
    -0.349343;-0.023629;-0.936697;,
    -0.982405;-0.186687;-0.005273;,
    -0.451557;-0.055563;-0.890510;,
    0.999721;-0.002851;-0.023430;,
    -0.282075;-0.931881;-0.228106;,
    -0.432990;0.059238;-0.899450;,
    -0.524662;-0.015147;-0.851176;,
    0.000152;1.000000;0.000117;,
    -0.581823;0.081204;-0.809251;,
    0.000168;1.000000;0.000091;,
    -0.391867;0.213424;-0.894925;,
    -0.402244;0.341155;-0.849596;,
    -0.288933;0.414055;-0.863178;,
    -0.304552;0.358683;-0.882380;,
    -0.507151;0.829196;-0.235014;,
    -0.363261;0.294957;-0.883766;,
    -0.762562;0.646505;-0.023010;,
    -0.475207;0.216042;-0.852938;,
    -0.908593;0.398868;0.123952;,
    -0.455229;0.032673;-0.889775;,
    -0.981764;0.104519;0.158796;,
    -0.551268;-0.068141;-0.831541;,
    -0.991865;-0.087182;0.092750;,
    -0.774614;-0.632389;0.007570;,
    -0.483462;0.319180;-0.815100;,
    -0.516840;0.046820;-0.854801;,
    0.000186;1.000000;0.000060;,
    -0.406740;0.313080;-0.858221;,
    -0.666976;-0.038078;-0.744106;,
    -0.309846;-0.755689;-0.577001;,
    -0.376553;0.022459;-0.926123;,
    -0.201702;-0.751397;-0.628267;,
    -0.583502;-0.029639;-0.811570;,
    0.000168;1.000000;0.000091;,
    -0.888703;0.206161;-0.409517;,
    -0.548588;0.118897;-0.827596;,
    -0.363023;-0.052607;-0.930294;,
    -0.994696;-0.102581;-0.007565;,
    -0.341581;-0.105555;-0.933906;,
    0.999245;0.032858;-0.020737;,
    0.125288;-0.992104;-0.005700;,
    -0.492663;-0.196534;-0.847737;,
    -0.718892;-0.694949;0.015458;,
    -0.991488;-0.129668;-0.011775;,
    -0.406983;-0.286327;-0.867400;,
    -0.722762;-0.690575;0.026849;,
    0.998884;0.037663;-0.028501;,
    -0.144832;-0.015546;-0.989334;,
    0.999826;-0.010124;-0.015641;,
    0.146026;0.989236;-0.009392;,
    0.273184;-0.009667;-0.961913;,
    -0.449279;-0.001501;-0.893390;,
    0.063375;-0.997987;-0.002442;,
    0.291675;-0.006541;-0.956495;,
    -0.444936;-0.003005;-0.895557;,
    0.083714;0.996476;-0.005217;,
    -0.453604;0.000000;-0.891203;,
    0.503511;-0.000000;-0.863989;,
    0.019715;-0.999806;0.000000;,
    -0.449279;-0.001501;-0.893390;,
    0.503511;-0.000000;-0.863989;,
    0.012846;0.999918;0.000000;,
    0.000000;0.000000;1.000000;,
    0.000000;-0.968047;0.250768;,
    -0.000000;-0.000000;1.000000;,
    0.000000;0.000000;1.000000;,
    0.000000;0.962104;-0.272683;,
    0.000000;-0.000000;1.000000;,
    0.503511;0.000000;0.863989;,
    0.000000;-1.000000;0.000000;,
    -0.503511;0.000000;0.863989;,
    0.503511;0.000000;0.863989;,
    0.000000;1.000000;0.000000;,
    -0.503511;0.000000;0.863989;,
    -0.000000;0.000000;1.000000;,
    -0.998326;-0.052445;0.024374;,
    -0.778106;-0.628125;0.003145;,
    0.000000;-0.000000;1.000000;,
    -0.190976;-0.969697;0.152366;,
    -0.000000;0.000000;1.000000;,
    -0.992677;0.022590;0.118665;,
    -0.000000;0.000000;1.000000;,
    0.000000;-0.000000;1.000000;,
    0.000000;-0.000000;1.000000;,
    -0.943017;0.296445;0.151128;,
    -0.000000;-0.000000;1.000000;,
    -0.825174;0.557090;0.093475;,
    0.000000;0.000000;1.000000;,
    -0.650020;0.753508;-0.098484;,
    -0.004074;-0.005225;0.999978;,
    -0.980658;-0.195640;-0.005995;,
    -0.004053;-0.004572;0.999981;,
    0.999826;-0.010124;-0.015641;,
    -0.474376;-0.880277;0.008961;,
    -0.127860;-0.089863;0.987713;,
    -0.996087;-0.088101;-0.006914;,
    0.044304;-0.037076;0.998330;,
    0.998884;0.037663;-0.028501;,
    0.128874;-0.991637;-0.006903;,
    -0.138893;-0.136043;0.980918;,
    -0.714399;-0.699733;0.002643;,
    -0.991669;-0.128550;-0.008179;,
    -0.232662;-0.165186;0.958427;,
    -0.718892;-0.694949;0.015458;,
    0.997799;0.048204;-0.045546;,
    0.080909;-0.006395;0.996701;,
    0.999813;-0.017856;-0.007357;,
    0.151377;0.988445;-0.007884;,
    0.472454;-0.001874;0.881353;,
    -0.362043;-0.001682;0.932160;,
    0.080851;-0.996720;-0.003545;,
    0.477127;-0.002807;0.878830;,
    -0.359364;-0.000852;0.933197;,
    0.066167;0.997801;-0.003839;,
    0.503511;0.000000;0.863989;,
    -0.359364;-0.000852;0.933197;,
    0.022109;-0.999756;0.000000;,
    0.503511;0.000000;0.863989;,
    -0.356611;0.000000;0.934253;,
    0.017314;0.999850;0.000000;,
    0.015890;0.999873;-0.001072;,
    0.000000;-0.987869;-0.155291;,
    0.000000;-0.852403;-0.522886;,
    0.022009;-0.999758;-0.000634;,
    -0.218531;-0.975796;0.008196;,
    -0.222462;-0.932436;-0.284737;,
    -0.174326;-0.868983;-0.463119;,
    -0.308518;-0.946714;-0.092457;,
    0.349343;-0.023629;-0.936697;,
    0.982405;-0.186687;-0.005273;,
    0.451557;-0.055563;-0.890510;,
    -0.999721;-0.002851;-0.023430;,
    0.282075;-0.931881;-0.228106;,
    0.432990;0.059238;-0.899450;,
    0.524662;-0.015147;-0.851176;,
    -0.000152;1.000000;0.000117;,
    0.581823;0.081204;-0.809251;,
    -0.000168;1.000000;0.000091;,
    0.391867;0.213424;-0.894925;,
    0.402244;0.341155;-0.849596;,
    0.288932;0.414055;-0.863178;,
    0.304552;0.358683;-0.882380;,
    0.507151;0.829196;-0.235014;,
    0.363261;0.294957;-0.883766;,
    0.762562;0.646505;-0.023010;,
    0.475207;0.216042;-0.852938;,
    0.908593;0.398868;0.123952;,
    0.455229;0.032673;-0.889775;,
    0.981764;0.104519;0.158796;,
    0.551268;-0.068141;-0.831541;,
    0.991865;-0.087182;0.092750;,
    0.774614;-0.632389;0.007570;,
    0.483462;0.319180;-0.815100;,
    0.516840;0.046820;-0.854801;,
    -0.000186;1.000000;0.000060;,
    0.406740;0.313080;-0.858221;,
    0.666976;-0.038078;-0.744106;,
    0.309846;-0.755689;-0.577001;,
    0.376553;0.022459;-0.926123;,
    0.201702;-0.751397;-0.628267;,
    0.583502;-0.029639;-0.811570;,
    -0.000168;1.000000;0.000091;,
    0.888703;0.206161;-0.409517;,
    0.548588;0.118897;-0.827596;,
    0.363023;-0.052607;-0.930294;,
    0.994696;-0.102581;-0.007565;,
    0.341581;-0.105555;-0.933906;,
    -0.999245;0.032858;-0.020737;,
    -0.125288;-0.992104;-0.005700;,
    0.492663;-0.196534;-0.847737;,
    0.718892;-0.694949;0.015458;,
    0.991488;-0.129668;-0.011775;,
    0.406983;-0.286327;-0.867400;,
    0.722762;-0.690575;0.026849;,
    -0.998884;0.037663;-0.028501;,
    0.144832;-0.015546;-0.989334;,
    -0.999826;-0.010124;-0.015641;,
    -0.146026;0.989236;-0.009392;,
    -0.273184;-0.009667;-0.961913;,
    0.449279;-0.001501;-0.893390;,
    -0.063375;-0.997987;-0.002442;,
    -0.291675;-0.006541;-0.956495;,
    0.444936;-0.003005;-0.895557;,
    -0.083714;0.996476;-0.005217;,
    0.453604;0.000000;-0.891203;,
    -0.503511;-0.000000;-0.863989;,
    -0.019715;-0.999806;0.000000;,
    0.449279;-0.001501;-0.893390;,
    -0.503511;-0.000000;-0.863989;,
    -0.012846;0.999918;0.000000;,
    0.000000;0.000000;1.000000;,
    0.998326;-0.052445;0.024374;,
    0.778106;-0.628125;0.003145;,
    -0.000000;-0.000000;1.000000;,
    0.190976;-0.969697;0.152366;,
    0.000000;0.000000;1.000000;,
    0.992677;0.022590;0.118665;,
    0.000000;0.000000;1.000000;,
    -0.000000;-0.000000;1.000000;,
    -0.000000;-0.000000;1.000000;,
    0.943017;0.296445;0.151128;,
    0.000000;-0.000000;1.000000;,
    0.825174;0.557090;0.093475;,
    0.000000;0.000000;1.000000;,
    0.650020;0.753508;-0.098484;,
    0.004074;-0.005225;0.999978;,
    0.980658;-0.195640;-0.005995;,
    0.004053;-0.004572;0.999981;,
    -0.999826;-0.010124;-0.015641;,
    0.474376;-0.880277;0.008961;,
    0.127860;-0.089863;0.987713;,
    0.996087;-0.088101;-0.006914;,
    -0.044304;-0.037076;0.998330;,
    -0.998884;0.037663;-0.028501;,
    -0.128874;-0.991637;-0.006903;,
    0.138893;-0.136043;0.980918;,
    0.714399;-0.699733;0.002643;,
    0.991669;-0.128550;-0.008179;,
    0.232662;-0.165186;0.958427;,
    0.718892;-0.694949;0.015458;,
    -0.997799;0.048204;-0.045546;,
    -0.080909;-0.006395;0.996701;,
    -0.999813;-0.017856;-0.007357;,
    -0.151377;0.988445;-0.007884;,
    -0.472454;-0.001874;0.881353;,
    0.362043;-0.001682;0.932160;,
    -0.080851;-0.996720;-0.003545;,
    -0.477127;-0.002807;0.878830;,
    0.359364;-0.000852;0.933197;,
    -0.066167;0.997801;-0.003839;,
    -0.503511;0.000000;0.863989;,
    0.359364;-0.000852;0.933197;,
    -0.022109;-0.999756;0.000000;,
    -0.503511;0.000000;0.863989;,
    0.356611;0.000000;0.934253;,
    -0.017314;0.999850;0.000000;,
    -0.015890;0.999873;-0.001072;,
    -0.022009;-0.999758;-0.000634;,
    0.218531;-0.975796;0.008196;,
    0.222462;-0.932435;-0.284737;,
    0.174326;-0.868983;-0.463119;,
    0.308518;-0.946714;-0.092457;,

    252;
    3;14,20,16;,
    3;20,14,19;,
    3;42,39,44;,
    3;39,42,46;,
    3;20,49,22;,
    3;49,24,38;,
    3;20,24,49;,
    3;20,19,24;,
    3;25,38,24;,
    3;38,25,26;,
    3;26,1,0;,
    3;1,26,27;,
    3;27,25,29;,
    3;25,27,26;,
    3;29,24,31;,
    3;24,29,25;,
    3;31,19,33;,
    3;19,31,24;,
    3;33,14,35;,
    3;14,33,19;,
    3;44,4,6;,
    3;4,44,39;,
    3;38,0,3;,
    3;0,38,26;,
    3;5,4,41;,
    3;41,39,48;,
    3;41,4,39;,
    3;20,42,16;,
    3;42,20,46;,
    3;16,50,14;,
    3;50,61,52;,
    3;52,55,50;,
    3;55,52,58;,
    3;50,16,61;,
    3;61,64,52;,
    3;64,61,67;,
    3;65,68,73;,
    3;65,73,70;,
    3;71,74,11;,
    3;71,11,8;,
    3;88,95,93;,
    3;95,105,91;,
    3;91,96,95;,
    3;93,99,97;,
    3;99,93,95;,
    3;95,101,99;,
    3;101,95,96;,
    3;78,91,76;,
    3;78,96,91;,
    3;81,96,78;,
    3;81,101,96;,
    3;81,79,101;,
    3;95,88,103;,
    3;95,103,105;,
    3;103,110,119;,
    3;110,103,108;,
    3;108,116,110;,
    3;116,108,113;,
    3;103,119,105;,
    3;110,125,119;,
    3;125,110,122;,
    3;82,85,131;,
    3;82,131,128;,
    3;129,132,126;,
    3;129,126,123;,
    3;28,80,2;,
    3;80,28,102;,
    3;102,30,100;,
    3;30,102,28;,
    3;100,32,98;,
    3;32,100,30;,
    3;98,34,94;,
    3;34,98,32;,
    3;94,36,89;,
    3;36,94,34;,
    3;49,39,22;,
    3;49,48,39;,
    3;48,38,41;,
    3;49,38,48;,
    3;3,41,38;,
    3;41,3,5;,
    3;15,90,37;,
    3;56,59,117;,
    3;15,104,90;,
    3;56,117,114;,
    3;15,109,104;,
    3;109,15,51;,
    3;111,60,53;,
    3;60,111,118;,
    3;51,115,109;,
    3;115,51,57;,
    3;106,62,17;,
    3;62,106,120;,
    3;23,47,21;,
    3;47,23,40;,
    3;121,69,63;,
    3;69,121,127;,
    3;134,133,86;,
    3;134,127,133;,
    3;134,69,127;,
    3;134,75,69;,
    3;134,12,75;,
    3;134,86,12;,
    3;141,92,107;,
    3;18,141,107;,
    3;139,140,135;,
    3;139,135,138;,
    3;140,136,135;,
    3;54,124,112;,
    3;124,54,66;,
    3;137,83,130;,
    3;137,130,124;,
    3;137,124,66;,
    3;137,66,72;,
    3;137,72,9;,
    3;137,9,83;,
    3;43,45,140;,
    3;140,139,43;,
    3;77,92,138;,
    3;138,135,77;,
    3;45,7,136;,
    3;136,140,45;,
    3;92,141,138;,
    3;139,138,141;,
    3;18,43,139;,
    3;18,139,141;,
    3;142,144,148;,
    3;148,147,142;,
    3;170,172,167;,
    3;167,174,170;,
    3;148,150,177;,
    3;177,166,152;,
    3;148,177,152;,
    3;148,152,147;,
    3;153,152,166;,
    3;166,154,153;,
    3;154,0,1;,
    3;1,155,154;,
    3;155,157,153;,
    3;153,154,155;,
    3;157,159,152;,
    3;152,153,157;,
    3;159,161,147;,
    3;147,152,159;,
    3;161,163,142;,
    3;142,147,161;,
    3;172,6,4;,
    3;4,167,172;,
    3;166,3,0;,
    3;0,154,166;,
    3;5,169,4;,
    3;169,176,167;,
    3;169,167,4;,
    3;148,144,170;,
    3;170,174,148;,
    3;144,142,178;,
    3;178,180,189;,
    3;180,178,183;,
    3;183,186,180;,
    3;178,189,144;,
    3;189,180,192;,
    3;192,195,189;,
    3;193,201,196;,
    3;193,198,201;,
    3;199,13,202;,
    3;199,10,13;,
    3;204,209,211;,
    3;211,207,221;,
    3;207,211,212;,
    3;209,213,215;,
    3;215,211,209;,
    3;211,215,217;,
    3;217,212,211;,
    3;78,76,207;,
    3;78,207,212;,
    3;81,78,212;,
    3;81,212,217;,
    3;81,217,79;,
    3;211,219,204;,
    3;211,221,219;,
    3;219,235,226;,
    3;226,224,219;,
    3;224,226,232;,
    3;232,229,224;,
    3;219,221,235;,
    3;226,235,241;,
    3;241,238,226;,
    3;84,247,87;,
    3;84,244,247;,
    3;245,242,248;,
    3;245,239,242;,
    3;156,2,80;,
    3;80,218,156;,
    3;218,216,158;,
    3;158,156,218;,
    3;216,214,160;,
    3;160,158,216;,
    3;214,210,162;,
    3;162,160,214;,
    3;210,205,164;,
    3;164,162,210;,
    3;177,150,167;,
    3;177,167,176;,
    3;176,169,166;,
    3;177,176,166;,
    3;3,166,169;,
    3;169,5,3;,
    3;143,165,206;,
    3;184,233,187;,
    3;143,206,220;,
    3;184,230,233;,
    3;143,220,225;,
    3;225,179,143;,
    3;227,181,188;,
    3;188,234,227;,
    3;179,225,231;,
    3;231,185,179;,
    3;222,145,190;,
    3;190,236,222;,
    3;151,149,175;,
    3;175,168,151;,
    3;237,191,197;,
    3;197,243,237;,
    3;250,86,249;,
    3;250,249,243;,
    3;250,243,197;,
    3;250,197,203;,
    3;250,203,12;,
    3;250,12,86;,
    3;255,223,208;,
    3;146,223,255;,
    3;253,135,254;,
    3;253,252,135;,
    3;254,135,136;,
    3;182,228,240;,
    3;240,194,182;,
    3;251,246,83;,
    3;251,240,246;,
    3;251,194,240;,
    3;251,200,194;,
    3;251,9,200;,
    3;251,83,9;,
    3;171,254,173;,
    3;254,171,253;,
    3;77,252,208;,
    3;252,77,135;,
    3;173,136,7;,
    3;136,173,254;,
    3;208,252,255;,
    3;253,255,252;,
    3;146,253,171;,
    3;146,255,253;;
   }

   MeshTextureCoords {
    756;
    0.539113;-0.753366;,
    0.617391;-0.852670;,
    0.328691;-0.799609;,
    0.328691;-0.799609;,
    0.330793;-0.753366;,
    0.539113;-0.753366;,
    0.592224;-0.874061;,
    0.581384;-0.934033;,
    0.328703;-0.933992;,
    0.328703;-0.933992;,
    0.328693;-0.862722;,
    0.592224;-0.874061;,
    0.328691;-0.799609;,
    0.328703;-0.914274;,
    0.261984;-0.924946;,
    0.261984;-0.924946;,
    0.171654;-0.944183;,
    0.269600;-0.780595;,
    0.328691;-0.799609;,
    0.261984;-0.924946;,
    0.269600;-0.780595;,
    0.328691;-0.799609;,
    0.269600;-0.780595;,
    0.330793;-0.753366;,
    0.155671;-0.849517;,
    0.269600;-0.780595;,
    0.171654;-0.944183;,
    0.171654;-0.944183;,
    0.080811;-0.930367;,
    0.155671;-0.849517;,
    0.080811;-0.930367;,
    0.069807;-0.987954;,
    0.007636;-0.987954;,
    0.007636;-0.987954;,
    0.018980;-0.934620;,
    0.080811;-0.930367;,
    0.018980;-0.934620;,
    0.121132;-0.807354;,
    0.155671;-0.849517;,
    0.155671;-0.849517;,
    0.080811;-0.930367;,
    0.018980;-0.934620;,
    0.121132;-0.807354;,
    0.247247;-0.723618;,
    0.269600;-0.780595;,
    0.269600;-0.780595;,
    0.155671;-0.849517;,
    0.121132;-0.807354;,
    0.247247;-0.723618;,
    0.378521;-0.690519;,
    0.330793;-0.753366;,
    0.330793;-0.753366;,
    0.269600;-0.780595;,
    0.247247;-0.723618;,
    0.378521;-0.690519;,
    0.488286;-0.706069;,
    0.539113;-0.753366;,
    0.539113;-0.753366;,
    0.330793;-0.753366;,
    0.378521;-0.690519;,
    0.581384;-0.934033;,
    0.581384;-0.987954;,
    0.328697;-0.987954;,
    0.328697;-0.987954;,
    0.328703;-0.933992;,
    0.581384;-0.934033;,
    0.171654;-0.944183;,
    0.133087;-0.987954;,
    0.069807;-0.987954;,
    0.069807;-0.987954;,
    0.080811;-0.930367;,
    0.171654;-0.944183;,
    0.178789;-0.987954;,
    0.195819;-0.962529;,
    0.328697;-0.987954;,
    0.195819;-0.962529;,
    0.261890;-0.944444;,
    0.328703;-0.933992;,
    0.195819;-0.962529;,
    0.328703;-0.933992;,
    0.328697;-0.987954;,
    0.328691;-0.799609;,
    0.617391;-0.852670;,
    0.592224;-0.874061;,
    0.592224;-0.874061;,
    0.328693;-0.862722;,
    0.328691;-0.799609;,
    0.617391;-0.852670;,
    0.539113;-0.753366;,
    0.774251;-0.773344;,
    0.774251;-0.773344;,
    0.892220;-0.850806;,
    0.725419;-0.852418;,
    0.892220;-0.850806;,
    0.774251;-0.773344;,
    0.944128;-0.798589;,
    0.944128;-0.798589;,
    0.996336;-0.855502;,
    0.892220;-0.850806;,
    0.774251;-0.773344;,
    0.725419;-0.852418;,
    0.617391;-0.852670;,
    0.725419;-0.852418;,
    0.892220;-0.850806;,
    0.889024;-0.881177;,
    0.889024;-0.881177;,
    0.729150;-0.881973;,
    0.725419;-0.852418;,
    0.889024;-0.881177;,
    0.730338;-0.931396;,
    0.729150;-0.881973;,
    0.889024;-0.881177;,
    0.887186;-0.931396;,
    0.730338;-0.931396;,
    0.887186;-0.931396;,
    0.730338;-0.987954;,
    0.730338;-0.931396;,
    0.887186;-0.931396;,
    0.887186;-0.987954;,
    0.730338;-0.987954;,
    0.504877;-0.234625;,
    0.612754;-0.240013;,
    0.522589;-0.130713;,
    0.522589;-0.130713;,
    0.370127;-0.097873;,
    0.379803;-0.115337;,
    0.370127;-0.097873;,
    0.522589;-0.130713;,
    0.522589;-0.048189;,
    0.612754;-0.240013;,
    0.740516;-0.214662;,
    0.863258;-0.150546;,
    0.863258;-0.150546;,
    0.522589;-0.130713;,
    0.612754;-0.240013;,
    0.522589;-0.130713;,
    0.863258;-0.150546;,
    0.975032;-0.051435;,
    0.975032;-0.051435;,
    0.522589;-0.048189;,
    0.522589;-0.130713;,
    0.523557;-0.008378;,
    0.360298;-0.008378;,
    0.370127;-0.097873;,
    0.523557;-0.008378;,
    0.370127;-0.097873;,
    0.522589;-0.048189;,
    0.731607;-0.008378;,
    0.523557;-0.008378;,
    0.522589;-0.048189;,
    0.731607;-0.008378;,
    0.522589;-0.048189;,
    0.975032;-0.051435;,
    0.731607;-0.008378;,
    0.975032;-0.051435;,
    0.986073;-0.008378;,
    0.522589;-0.130713;,
    0.457218;-0.198357;,
    0.504877;-0.234625;,
    0.522589;-0.130713;,
    0.379803;-0.115337;,
    0.457218;-0.198357;,
    0.457218;-0.198357;,
    0.275945;-0.117108;,
    0.112397;-0.117229;,
    0.112397;-0.117229;,
    0.228285;-0.182156;,
    0.457218;-0.198357;,
    0.228285;-0.182156;,
    0.112397;-0.117229;,
    0.011066;-0.113438;,
    0.011066;-0.113438;,
    0.062952;-0.161753;,
    0.228285;-0.182156;,
    0.457218;-0.198357;,
    0.379803;-0.115337;,
    0.275945;-0.117108;,
    0.112397;-0.117229;,
    0.275945;-0.117108;,
    0.271900;-0.093607;,
    0.271900;-0.093607;,
    0.115711;-0.093659;,
    0.112397;-0.117229;,
    0.117695;-0.008378;,
    0.270347;-0.054038;,
    0.270347;-0.008378;,
    0.117695;-0.008378;,
    0.117695;-0.054038;,
    0.270347;-0.054038;,
    0.117695;-0.054038;,
    0.271900;-0.093607;,
    0.270347;-0.054038;,
    0.117695;-0.054038;,
    0.115711;-0.093659;,
    0.271900;-0.093607;,
    0.024948;-0.573240;,
    0.013697;-0.573240;,
    0.001106;-0.527807;,
    0.001106;-0.527807;,
    0.012357;-0.527807;,
    0.024948;-0.573240;,
    0.012357;-0.527807;,
    0.126264;-0.527807;,
    0.126264;-0.573240;,
    0.126264;-0.573240;,
    0.024948;-0.573240;,
    0.012357;-0.527807;,
    0.126264;-0.527807;,
    0.251348;-0.527807;,
    0.251348;-0.577042;,
    0.251348;-0.577042;,
    0.126264;-0.573240;,
    0.126264;-0.527807;,
    0.251348;-0.527807;,
    0.381547;-0.527807;,
    0.381547;-0.584794;,
    0.381547;-0.584794;,
    0.251348;-0.577042;,
    0.251348;-0.527807;,
    0.381547;-0.527807;,
    0.491483;-0.527807;,
    0.490415;-0.584794;,
    0.490415;-0.584794;,
    0.381547;-0.584794;,
    0.381547;-0.527807;,
    0.425562;-0.598439;,
    0.491735;-0.598439;,
    0.491735;-0.659065;,
    0.425562;-0.598439;,
    0.491735;-0.659065;,
    0.425469;-0.648055;,
    0.425469;-0.648055;,
    0.359938;-0.636838;,
    0.335972;-0.598439;,
    0.425562;-0.598439;,
    0.425469;-0.648055;,
    0.335972;-0.598439;,
    0.297719;-0.598439;,
    0.335972;-0.598439;,
    0.359938;-0.636838;,
    0.359938;-0.636838;,
    0.343048;-0.639246;,
    0.297719;-0.598439;,
    0.540825;-0.608321;,
    0.490415;-0.584794;,
    0.491483;-0.527807;,
    0.942526;-0.588741;,
    0.994715;-0.550434;,
    0.994307;-0.594894;,
    0.540825;-0.608321;,
    0.491483;-0.527807;,
    0.540052;-0.527807;,
    0.942526;-0.588741;,
    0.941839;-0.550433;,
    0.994715;-0.550434;,
    0.540825;-0.608321;,
    0.540052;-0.527807;,
    0.773352;-0.529702;,
    0.773352;-0.529702;,
    0.774039;-0.604862;,
    0.540825;-0.608321;,
    0.860259;-0.613682;,
    0.859851;-0.711786;,
    0.963115;-0.678873;,
    0.963115;-0.678873;,
    0.963522;-0.634413;,
    0.860259;-0.613682;,
    0.774039;-0.604862;,
    0.773352;-0.529702;,
    0.941839;-0.550433;,
    0.941839;-0.550433;,
    0.942526;-0.588741;,
    0.774039;-0.604862;,
    0.612494;-0.622921;,
    0.612015;-0.728578;,
    0.719159;-0.724751;,
    0.719159;-0.724751;,
    0.718334;-0.624170;,
    0.612494;-0.622921;,
    0.308832;-0.388048;,
    0.153807;-0.350609;,
    0.239134;-0.429175;,
    0.239134;-0.429175;,
    0.335491;-0.479240;,
    0.308832;-0.388048;,
    0.226358;-0.203660;,
    0.225205;-0.354954;,
    0.265162;-0.342916;,
    0.265162;-0.342916;,
    0.265716;-0.224983;,
    0.226358;-0.203660;,
    0.331980;-0.287838;,
    0.408445;-0.243956;,
    0.331980;-0.200075;,
    0.331980;-0.287838;,
    0.331980;-0.200075;,
    0.265716;-0.224983;,
    0.331980;-0.287838;,
    0.265716;-0.224983;,
    0.265162;-0.342916;,
    0.331980;-0.287838;,
    0.265162;-0.342916;,
    0.331980;-0.375601;,
    0.331980;-0.287838;,
    0.331980;-0.375601;,
    0.408445;-0.331719;,
    0.331980;-0.287838;,
    0.408445;-0.331719;,
    0.408445;-0.243956;,
    0.713345;-0.281172;,
    0.691517;-0.236006;,
    0.714084;-0.236006;,
    0.688601;-0.373720;,
    0.691517;-0.236006;,
    0.713345;-0.281172;,
    0.764511;-0.404356;,
    0.829731;-0.298068;,
    0.795331;-0.432053;,
    0.764511;-0.404356;,
    0.766254;-0.297626;,
    0.829731;-0.298068;,
    0.795331;-0.432053;,
    0.829731;-0.298068;,
    0.829731;-0.437624;,
    0.842362;-0.366346;,
    0.844778;-0.238477;,
    0.875236;-0.256522;,
    0.875236;-0.256522;,
    0.874045;-0.357137;,
    0.842362;-0.366346;,
    0.926434;-0.310576;,
    0.926434;-0.234528;,
    0.985437;-0.272552;,
    0.926434;-0.310576;,
    0.875236;-0.256522;,
    0.926434;-0.234528;,
    0.926434;-0.310576;,
    0.874045;-0.357137;,
    0.875236;-0.256522;,
    0.926434;-0.310576;,
    0.926434;-0.386623;,
    0.874045;-0.357137;,
    0.926434;-0.310576;,
    0.985437;-0.348600;,
    0.926434;-0.386623;,
    0.926434;-0.310576;,
    0.985437;-0.272552;,
    0.985437;-0.348600;,
    0.710915;-0.429726;,
    0.795331;-0.432053;,
    0.773480;-0.485888;,
    0.795331;-0.432053;,
    0.710915;-0.429726;,
    0.764511;-0.404356;,
    0.829731;-0.236006;,
    0.766254;-0.297626;,
    0.714084;-0.236006;,
    0.766254;-0.297626;,
    0.829731;-0.236006;,
    0.829731;-0.298068;,
    0.773480;-0.485888;,
    0.829731;-0.437624;,
    0.829731;-0.494883;,
    0.829731;-0.437624;,
    0.773480;-0.485888;,
    0.795331;-0.432053;,
    0.714084;-0.236006;,
    0.766254;-0.297626;,
    0.713345;-0.281172;,
    0.764511;-0.404356;,
    0.713345;-0.281172;,
    0.766254;-0.297626;,
    0.688601;-0.373720;,
    0.764511;-0.404356;,
    0.710915;-0.429726;,
    0.688601;-0.373720;,
    0.713345;-0.281172;,
    0.764511;-0.404356;,
    0.539113;-0.753366;,
    0.328691;-0.799609;,
    0.617391;-0.852670;,
    0.328691;-0.799609;,
    0.539113;-0.753366;,
    0.330793;-0.753366;,
    0.592224;-0.874061;,
    0.328703;-0.933992;,
    0.581384;-0.934033;,
    0.328703;-0.933992;,
    0.592224;-0.874061;,
    0.328693;-0.862722;,
    0.328691;-0.799609;,
    0.261984;-0.924946;,
    0.328703;-0.914274;,
    0.261984;-0.924946;,
    0.269600;-0.780595;,
    0.171654;-0.944183;,
    0.328691;-0.799609;,
    0.269600;-0.780595;,
    0.261984;-0.924946;,
    0.328691;-0.799609;,
    0.330793;-0.753366;,
    0.269600;-0.780595;,
    0.155671;-0.849517;,
    0.171654;-0.944183;,
    0.269600;-0.780595;,
    0.171654;-0.944183;,
    0.155671;-0.849517;,
    0.080811;-0.930367;,
    0.080811;-0.930367;,
    0.007636;-0.987954;,
    0.069807;-0.987954;,
    0.007636;-0.987954;,
    0.080811;-0.930367;,
    0.018980;-0.934620;,
    0.018980;-0.934620;,
    0.155671;-0.849517;,
    0.121132;-0.807354;,
    0.155671;-0.849517;,
    0.018980;-0.934620;,
    0.080811;-0.930367;,
    0.121132;-0.807354;,
    0.269600;-0.780595;,
    0.247247;-0.723618;,
    0.269600;-0.780595;,
    0.121132;-0.807354;,
    0.155671;-0.849517;,
    0.247247;-0.723618;,
    0.330793;-0.753366;,
    0.378521;-0.690519;,
    0.330793;-0.753366;,
    0.247247;-0.723618;,
    0.269600;-0.780595;,
    0.378521;-0.690519;,
    0.539113;-0.753366;,
    0.488286;-0.706069;,
    0.539113;-0.753366;,
    0.378521;-0.690519;,
    0.330793;-0.753366;,
    0.581384;-0.934033;,
    0.328697;-0.987954;,
    0.581384;-0.987954;,
    0.328697;-0.987954;,
    0.581384;-0.934033;,
    0.328703;-0.933992;,
    0.171654;-0.944183;,
    0.069807;-0.987954;,
    0.133087;-0.987954;,
    0.069807;-0.987954;,
    0.171654;-0.944183;,
    0.080811;-0.930367;,
    0.178789;-0.987954;,
    0.328697;-0.987954;,
    0.195819;-0.962529;,
    0.195819;-0.962529;,
    0.328703;-0.933992;,
    0.261890;-0.944444;,
    0.195819;-0.962529;,
    0.328697;-0.987954;,
    0.328703;-0.933992;,
    0.328691;-0.799609;,
    0.592224;-0.874061;,
    0.617391;-0.852670;,
    0.592224;-0.874061;,
    0.328691;-0.799609;,
    0.328693;-0.862722;,
    0.617391;-0.852670;,
    0.774251;-0.773344;,
    0.539113;-0.753366;,
    0.774251;-0.773344;,
    0.725419;-0.852418;,
    0.892220;-0.850806;,
    0.892220;-0.850806;,
    0.944128;-0.798589;,
    0.774251;-0.773344;,
    0.944128;-0.798589;,
    0.892220;-0.850806;,
    0.996336;-0.855502;,
    0.774251;-0.773344;,
    0.617391;-0.852670;,
    0.725419;-0.852418;,
    0.725419;-0.852418;,
    0.889024;-0.881177;,
    0.892220;-0.850806;,
    0.889024;-0.881177;,
    0.725419;-0.852418;,
    0.729150;-0.881973;,
    0.889024;-0.881177;,
    0.729150;-0.881973;,
    0.730338;-0.931396;,
    0.889024;-0.881177;,
    0.730338;-0.931396;,
    0.887186;-0.931396;,
    0.887186;-0.931396;,
    0.730338;-0.931396;,
    0.730338;-0.987954;,
    0.887186;-0.931396;,
    0.730338;-0.987954;,
    0.887186;-0.987954;,
    0.504877;-0.234625;,
    0.522589;-0.130713;,
    0.612754;-0.240013;,
    0.522589;-0.130713;,
    0.379803;-0.115337;,
    0.370127;-0.097873;,
    0.370127;-0.097873;,
    0.522589;-0.048189;,
    0.522589;-0.130713;,
    0.612754;-0.240013;,
    0.863258;-0.150546;,
    0.740516;-0.214662;,
    0.863258;-0.150546;,
    0.612754;-0.240013;,
    0.522589;-0.130713;,
    0.522589;-0.130713;,
    0.975032;-0.051435;,
    0.863258;-0.150546;,
    0.975032;-0.051435;,
    0.522589;-0.130713;,
    0.522589;-0.048189;,
    0.523557;-0.008378;,
    0.370127;-0.097873;,
    0.360298;-0.008378;,
    0.523557;-0.008378;,
    0.522589;-0.048189;,
    0.370127;-0.097873;,
    0.731607;-0.008378;,
    0.522589;-0.048189;,
    0.523557;-0.008378;,
    0.731607;-0.008378;,
    0.975032;-0.051435;,
    0.522589;-0.048189;,
    0.731607;-0.008378;,
    0.986073;-0.008378;,
    0.975032;-0.051435;,
    0.522589;-0.130713;,
    0.504877;-0.234625;,
    0.457218;-0.198357;,
    0.522589;-0.130713;,
    0.457218;-0.198357;,
    0.379803;-0.115337;,
    0.457218;-0.198357;,
    0.112397;-0.117229;,
    0.275945;-0.117108;,
    0.112397;-0.117229;,
    0.457218;-0.198357;,
    0.228285;-0.182156;,
    0.228285;-0.182156;,
    0.011066;-0.113438;,
    0.112397;-0.117229;,
    0.011066;-0.113438;,
    0.228285;-0.182156;,
    0.062952;-0.161753;,
    0.457218;-0.198357;,
    0.275945;-0.117108;,
    0.379803;-0.115337;,
    0.112397;-0.117229;,
    0.271900;-0.093607;,
    0.275945;-0.117108;,
    0.271900;-0.093607;,
    0.112397;-0.117229;,
    0.115711;-0.093659;,
    0.117695;-0.008378;,
    0.270347;-0.008378;,
    0.270347;-0.054038;,
    0.117695;-0.008378;,
    0.270347;-0.054038;,
    0.117695;-0.054038;,
    0.117695;-0.054038;,
    0.270347;-0.054038;,
    0.271900;-0.093607;,
    0.117695;-0.054038;,
    0.271900;-0.093607;,
    0.115711;-0.093659;,
    0.024948;-0.573240;,
    0.001106;-0.527807;,
    0.013697;-0.573240;,
    0.001106;-0.527807;,
    0.024948;-0.573240;,
    0.012357;-0.527807;,
    0.012357;-0.527807;,
    0.126264;-0.573240;,
    0.126264;-0.527807;,
    0.126264;-0.573240;,
    0.012357;-0.527807;,
    0.024948;-0.573240;,
    0.126264;-0.527807;,
    0.251348;-0.577042;,
    0.251348;-0.527807;,
    0.251348;-0.577042;,
    0.126264;-0.527807;,
    0.126264;-0.573240;,
    0.251348;-0.527807;,
    0.381547;-0.584794;,
    0.381547;-0.527807;,
    0.381547;-0.584794;,
    0.251348;-0.527807;,
    0.251348;-0.577042;,
    0.381547;-0.527807;,
    0.490415;-0.584794;,
    0.491483;-0.527807;,
    0.490415;-0.584794;,
    0.381547;-0.527807;,
    0.381547;-0.584794;,
    0.425562;-0.598439;,
    0.491735;-0.659065;,
    0.491735;-0.598439;,
    0.425562;-0.598439;,
    0.425469;-0.648055;,
    0.491735;-0.659065;,
    0.425469;-0.648055;,
    0.335972;-0.598439;,
    0.359938;-0.636838;,
    0.425562;-0.598439;,
    0.335972;-0.598439;,
    0.425469;-0.648055;,
    0.297719;-0.598439;,
    0.359938;-0.636838;,
    0.335972;-0.598439;,
    0.359938;-0.636838;,
    0.297719;-0.598439;,
    0.343048;-0.639246;,
    0.540825;-0.608321;,
    0.491483;-0.527807;,
    0.490415;-0.584794;,
    0.942526;-0.588741;,
    0.994307;-0.594894;,
    0.994715;-0.550434;,
    0.540825;-0.608321;,
    0.540052;-0.527807;,
    0.491483;-0.527807;,
    0.942526;-0.588741;,
    0.994715;-0.550434;,
    0.941839;-0.550433;,
    0.540825;-0.608321;,
    0.773352;-0.529702;,
    0.540052;-0.527807;,
    0.773352;-0.529702;,
    0.540825;-0.608321;,
    0.774039;-0.604862;,
    0.860259;-0.613682;,
    0.963115;-0.678873;,
    0.859851;-0.711786;,
    0.963115;-0.678873;,
    0.860259;-0.613682;,
    0.963522;-0.634413;,
    0.774039;-0.604862;,
    0.941839;-0.550433;,
    0.773352;-0.529702;,
    0.941839;-0.550433;,
    0.774039;-0.604862;,
    0.942526;-0.588741;,
    0.612494;-0.622921;,
    0.719159;-0.724751;,
    0.612015;-0.728578;,
    0.719159;-0.724751;,
    0.612494;-0.622921;,
    0.718334;-0.624170;,
    0.308832;-0.388048;,
    0.239134;-0.429175;,
    0.153807;-0.350609;,
    0.239134;-0.429175;,
    0.308832;-0.388048;,
    0.335491;-0.479240;,
    0.226358;-0.203660;,
    0.265162;-0.342916;,
    0.225205;-0.354954;,
    0.265162;-0.342916;,
    0.226358;-0.203660;,
    0.265716;-0.224983;,
    0.331980;-0.287838;,
    0.331980;-0.200075;,
    0.408445;-0.243956;,
    0.331980;-0.287838;,
    0.265716;-0.224983;,
    0.331980;-0.200075;,
    0.331980;-0.287838;,
    0.265162;-0.342916;,
    0.265716;-0.224983;,
    0.331980;-0.287838;,
    0.331980;-0.375601;,
    0.265162;-0.342916;,
    0.331980;-0.287838;,
    0.408445;-0.331719;,
    0.331980;-0.375601;,
    0.331980;-0.287838;,
    0.408445;-0.243956;,
    0.408445;-0.331719;,
    0.713345;-0.281172;,
    0.714084;-0.236006;,
    0.691517;-0.236006;,
    0.688601;-0.373720;,
    0.713345;-0.281172;,
    0.691517;-0.236006;,
    0.764511;-0.404356;,
    0.795331;-0.432053;,
    0.829731;-0.298068;,
    0.764511;-0.404356;,
    0.829731;-0.298068;,
    0.766254;-0.297626;,
    0.795331;-0.432053;,
    0.829731;-0.437624;,
    0.829731;-0.298068;,
    0.842362;-0.366346;,
    0.875236;-0.256522;,
    0.844778;-0.238477;,
    0.875236;-0.256522;,
    0.842362;-0.366346;,
    0.874045;-0.357137;,
    0.926434;-0.310576;,
    0.985437;-0.272552;,
    0.926434;-0.234528;,
    0.926434;-0.310576;,
    0.926434;-0.234528;,
    0.875236;-0.256522;,
    0.926434;-0.310576;,
    0.875236;-0.256522;,
    0.874045;-0.357137;,
    0.926434;-0.310576;,
    0.874045;-0.357137;,
    0.926434;-0.386623;,
    0.926434;-0.310576;,
    0.926434;-0.386623;,
    0.985437;-0.348600;,
    0.926434;-0.310576;,
    0.985437;-0.348600;,
    0.985437;-0.272552;,
    0.710915;-0.429726;,
    0.773480;-0.485888;,
    0.795331;-0.432053;,
    0.795331;-0.432053;,
    0.764511;-0.404356;,
    0.710915;-0.429726;,
    0.829731;-0.236006;,
    0.714084;-0.236006;,
    0.766254;-0.297626;,
    0.766254;-0.297626;,
    0.829731;-0.298068;,
    0.829731;-0.236006;,
    0.773480;-0.485888;,
    0.829731;-0.494883;,
    0.829731;-0.437624;,
    0.829731;-0.437624;,
    0.795331;-0.432053;,
    0.773480;-0.485888;,
    0.714084;-0.236006;,
    0.713345;-0.281172;,
    0.766254;-0.297626;,
    0.764511;-0.404356;,
    0.766254;-0.297626;,
    0.713345;-0.281172;,
    0.688601;-0.373720;,
    0.710915;-0.429726;,
    0.764511;-0.404356;,
    0.688601;-0.373720;,
    0.764511;-0.404356;,
    0.713345;-0.281172;;
   }
  }
 }

 Frame frm_weapon_point_1 {
  FrameTransformMatrix {
   -0.739564,0.000000,0.000000,0.000000,
   0.000000,0.739564,0.000000,0.000000,
   0.000000,0.000000,-0.739564,0.000000,
   -0.445850,85.299774,-11.655933,1.000000;;
  }
 }

 Frame frm_engine_glow_01 {
  FrameTransformMatrix {
   -2.582518,-0.000000,0.000000,0.000000,
   0.000000,-2.582518,0.000000,0.000000,
   0.000000,0.000000,2.582518,0.000000,
   -11.916044,-101.941322,10.600769,1.000000;;
  }
 }

 Frame frm_engine_glow_02 {
  FrameTransformMatrix {
   -2.582518,-0.000000,0.000000,0.000000,
   0.000000,-2.582518,0.000000,0.000000,
   0.000000,0.000000,2.582518,0.000000,
   12.539061,-101.941322,10.600769,1.000000;;
  }
 }
}
