xof 0302txt 0064

Header {
 1;
 0;
 1;
}

Frame frm_Scene_Root {
 FrameTransformMatrix {
  1.000000,0.000000,0.000000,0.000000,
  0.000000,1.000000,0.000000,0.000000,
  0.000000,0.000000,1.000000,0.000000,
  0.000000,0.000000,0.000000,1.000000;;
 }

 Frame frm_Jraenar_Troop {
  FrameTransformMatrix {
   1.000000,0.000000,0.000000,0.000000,
   0.000000,1.000000,0.000000,0.000000,
   0.000000,0.000000,1.000000,0.000000,
   0.000000,-105.041199,8.539137,1.000000;;
  }

  Mesh Jraenar_Troop {
   642;
   -53.480900;90.988945;-12.545005;,
   -66.611618;21.829842;-6.633079;,
   -43.304295;0.002107;-13.576928;,
   -66.611618;21.829842;-6.633079;,
   -53.480900;90.988945;-12.545005;,
   -66.611618;100.131386;-7.352750;,
   -15.322440;90.984344;-34.196255;,
   -32.340107;0.113835;-18.950144;,
   -15.310807;0.125316;-29.836437;,
   -32.340107;0.113835;-18.950144;,
   -15.322440;90.984344;-34.196255;,
   -35.559780;90.988075;-26.024378;,
   -15.935183;105.648834;-21.427647;,
   -53.480900;90.988945;-12.545005;,
   -38.060841;90.986679;-16.326719;,
   -58.879761;123.812859;-9.640344;,
   -15.935183;105.648834;-21.427647;,
   -7.875386;165.847977;-19.225903;,
   -58.879761;123.812859;-9.640344;,
   -53.480900;90.988945;-12.545005;,
   -15.935183;105.648834;-21.427647;,
   -66.611618;100.131386;-7.352750;,
   -53.480900;90.988945;-12.545005;,
   -58.879761;123.812859;-9.640344;,
   -7.875386;165.847977;-19.225903;,
   -39.309242;167.903183;-5.478244;,
   -58.879761;123.812859;-9.640344;,
   -39.309242;167.903183;-5.478244;,
   -7.875386;165.847977;-19.225903;,
   -16.351824;196.874084;-6.408426;,
   0.000000;222.861496;5.378407;,
   -16.351824;196.874084;-6.408426;,
   0.000000;201.132721;-6.408425;,
   -16.351824;196.874084;-6.408426;,
   0.000000;222.861496;5.378407;,
   -15.085843;218.554779;5.378410;,
   -39.309242;167.903183;-5.478244;,
   -15.085843;218.554779;5.378410;,
   -46.217903;179.772385;5.378407;,
   -15.085843;218.554779;5.378410;,
   -39.309242;167.903183;-5.478244;,
   -16.351824;196.874084;-6.408426;,
   -58.879761;123.812859;-9.640344;,
   -46.217903;179.772385;5.378407;,
   -66.704247;131.892288;4.181608;,
   -46.217903;179.772385;5.378407;,
   -58.879761;123.812859;-9.640344;,
   -39.309242;167.903183;-5.478244;,
   -66.611618;100.131386;-7.352750;,
   -58.879761;123.812859;-9.640344;,
   -83.038300;107.381096;-1.273618;,
   -66.704247;131.892288;4.181608;,
   -83.038300;107.381096;-1.273618;,
   -58.879761;123.812859;-9.640344;,
   -66.611618;21.829842;-6.633079;,
   -83.038300;107.381096;-1.273618;,
   -78.751160;42.699413;-2.086515;,
   -83.038300;107.381096;-1.273618;,
   -66.611618;21.829842;-6.633079;,
   -66.611618;100.131386;-7.352750;,
   0.000000;90.986511;-37.437977;,
   -15.310807;0.125316;-29.836437;,
   0.000000;0.125328;-32.050495;,
   -15.310807;0.125316;-29.836437;,
   0.000000;90.986511;-37.437977;,
   -15.322440;90.984344;-34.196255;,
   0.000000;201.132721;-6.408425;,
   -7.875386;165.847977;-19.225903;,
   0.000000;166.690979;-19.315834;,
   -7.875386;165.847977;-19.225903;,
   0.000000;201.132721;-6.408425;,
   -16.351824;196.874084;-6.408426;,
   -15.935183;105.648834;-21.427647;,
   0.000000;166.690979;-19.315834;,
   -7.875386;165.847977;-19.225903;,
   -7.381695;105.532623;-21.550419;,
   0.000000;166.690979;-19.315834;,
   -15.935183;105.648834;-21.427647;,
   -32.340107;0.113835;-18.950144;,
   -53.480900;90.988945;-12.545005;,
   -43.304295;0.002107;-13.576928;,
   -53.480900;90.988945;-12.545005;,
   -32.340107;0.113835;-18.950144;,
   -35.559780;90.988075;-26.024378;,
   -15.310807;0.125316;-29.836437;,
   -32.340107;0.113835;-18.950144;,
   -9.363481;-19.002281;-16.585470;,
   -17.752060;-17.390139;-9.768006;,
   -9.363481;-19.002281;-16.585470;,
   -32.340107;0.113835;-18.950144;,
   0.000000;0.125328;-32.050495;,
   -15.310807;0.125316;-29.836437;,
   0.000000;-20.023026;-17.956604;,
   -9.363481;-19.002281;-16.585470;,
   0.000000;-20.023026;-17.956604;,
   -15.310807;0.125316;-29.836437;,
   -32.340107;0.113835;-18.950144;,
   -43.304295;0.002107;-13.576928;,
   -17.752060;-17.390139;-9.768006;,
   -97.245415;95.122437;3.536970;,
   -78.751160;42.699413;-2.086515;,
   -83.038300;107.381096;-1.273618;,
   -78.751160;42.699413;-2.086515;,
   -97.245415;95.122437;3.536970;,
   -92.593407;45.321888;3.534468;,
   -15.935183;105.648834;-21.427647;,
   -27.235651;90.985107;-18.981556;,
   -20.921539;90.984177;-20.530069;,
   -15.935183;105.648834;-21.427647;,
   -38.060841;90.986679;-16.326719;,
   -27.235651;90.985107;-18.981556;,
   0.000000;105.307571;-21.788134;,
   0.000000;166.690979;-19.315834;,
   -7.381695;105.532623;-21.550419;,
   -29.378578;151.261765;-19.486805;,
   -35.559780;90.988075;-26.024378;,
   -27.235651;90.985107;-18.981556;,
   -35.559780;90.988075;-26.024378;,
   -29.378578;151.261765;-19.486805;,
   -34.996292;151.263763;-24.239807;,
   0.000000;176.085754;-30.253918;,
   -3.757199;97.875679;-29.913498;,
   0.000000;97.171997;-30.838978;,
   -3.757199;97.875679;-29.913498;,
   0.000000;176.085754;-30.253918;,
   -2.846812;176.090515;-29.542551;,
   -43.028294;48.125992;19.197681;,
   -79.576805;41.082966;19.197680;,
   -81.426392;110.117775;19.197685;,
   -40.762772;-4.090408;19.197678;,
   -43.028294;48.125992;19.197681;,
   -24.686764;-12.498558;19.197678;,
   -14.002377;48.125999;19.197681;,
   -24.686764;-12.498558;19.197678;,
   -43.028294;48.125992;19.197681;,
   -50.004131;181.269867;19.197695;,
   -81.426392;110.117775;19.197685;,
   -72.555359;132.463272;19.197691;,
   -81.426392;110.117775;19.197685;,
   -50.004131;181.269867;19.197695;,
   -43.028294;48.125992;19.197681;,
   -15.144339;225.715347;19.197699;,
   -43.028294;48.125992;19.197681;,
   -50.004131;181.269867;19.197695;,
   -43.028294;48.125992;19.197681;,
   -15.144339;225.715347;19.197699;,
   -14.002377;48.125999;19.197681;,
   -24.686764;-12.498558;19.197678;,
   0.000000;48.510658;19.197680;,
   0.000000;-16.406990;19.197676;,
   -14.002377;48.125999;19.197681;,
   0.000000;48.510658;19.197680;,
   -24.686764;-12.498558;19.197678;,
   -14.002377;48.125999;19.197681;,
   0.000000;128.920731;19.197687;,
   0.000000;48.510658;19.197680;,
   -15.144339;225.715347;19.197699;,
   0.000000;128.920731;19.197687;,
   -14.002377;48.125999;19.197681;,
   0.000000;230.105423;19.197697;,
   0.000000;128.920731;19.197687;,
   -15.144339;225.715347;19.197699;,
   -79.576805;41.082966;19.197680;,
   -43.028294;48.125992;19.197681;,
   -66.820190;22.131866;19.197680;,
   -66.820190;22.131866;19.197680;,
   -43.028294;48.125992;19.197681;,
   -40.762772;-4.090408;19.197678;,
   -93.749603;43.762539;20.359703;,
   -81.426392;110.117775;19.197685;,
   -79.576805;41.082966;19.197680;,
   -81.426392;110.117775;19.197685;,
   -93.749603;43.762539;20.359703;,
   -95.971741;97.672791;20.357166;,
   -36.684181;151.262833;-17.695135;,
   -27.235651;90.985107;-18.981556;,
   -38.060841;90.986679;-16.326719;,
   -27.235651;90.985107;-18.981556;,
   -36.684181;151.262833;-17.695135;,
   -29.378578;151.261765;-19.486805;,
   -4.094885;176.038742;-22.854467;,
   0.000000;105.307571;-21.788134;,
   -7.381695;105.532623;-21.550419;,
   0.000000;105.307571;-21.788134;,
   -4.094885;176.038742;-22.854467;,
   0.000000;176.045334;-22.318316;,
   0.000000;230.105423;19.197697;,
   -15.085843;218.554779;5.378410;,
   0.000000;222.861496;5.378407;,
   -15.085843;218.554779;5.378410;,
   0.000000;230.105423;19.197697;,
   -15.144339;225.715347;19.197699;,
   -46.217903;179.772385;5.378407;,
   -15.144339;225.715347;19.197699;,
   -50.004131;181.269867;19.197695;,
   -15.144339;225.715347;19.197699;,
   -46.217903;179.772385;5.378407;,
   -15.085843;218.554779;5.378410;,
   -66.704247;131.892288;4.181608;,
   -50.004131;181.269867;19.197695;,
   -72.555359;132.463272;19.197691;,
   -50.004131;181.269867;19.197695;,
   -66.704247;131.892288;4.181608;,
   -46.217903;179.772385;5.378407;,
   -83.038300;107.381096;-1.273618;,
   -72.555359;132.463272;19.197691;,
   -81.426392;110.117775;19.197685;,
   -72.555359;132.463272;19.197691;,
   -83.038300;107.381096;-1.273618;,
   -66.704247;131.892288;4.181608;,
   -92.593407;45.321888;3.534468;,
   -95.971741;97.672791;20.357166;,
   -93.749603;43.762539;20.359703;,
   -95.971741;97.672791;20.357166;,
   -92.593407;45.321888;3.534468;,
   -97.245415;95.122437;3.536970;,
   -79.576805;41.082966;19.197680;,
   -66.611618;21.829842;-6.633079;,
   -78.751160;42.699413;-2.086515;,
   -66.820190;22.131866;19.197680;,
   -66.611618;21.829842;-6.633079;,
   -79.576805;41.082966;19.197680;,
   -95.971741;97.672791;20.357166;,
   -83.038300;107.381096;-1.273618;,
   -81.426392;110.117775;19.197685;,
   -83.038300;107.381096;-1.273618;,
   -95.971741;97.672791;20.357166;,
   -97.245415;95.122437;3.536970;,
   -40.762772;-4.090408;19.197678;,
   -66.611618;21.829842;-6.633079;,
   -66.820190;22.131866;19.197680;,
   -43.304295;0.002107;-13.576928;,
   -66.611618;21.829842;-6.633079;,
   -40.762772;-4.090408;19.197678;,
   -34.996292;151.263763;-24.239807;,
   -38.060841;90.986679;-16.326719;,
   -35.559780;90.988075;-26.024378;,
   -38.060841;90.986679;-16.326719;,
   -34.996292;151.263763;-24.239807;,
   -36.684181;151.262833;-17.695135;,
   -2.846812;176.090515;-29.542551;,
   -6.693346;102.167496;-25.225876;,
   -3.757199;97.875679;-29.913498;,
   -7.381695;105.532623;-21.550419;,
   -4.849736;176.068069;-26.642811;,
   -4.094885;176.038742;-22.854467;,
   -2.846812;176.090515;-29.542551;,
   -4.849736;176.068069;-26.642811;,
   -6.693346;102.167496;-25.225876;,
   -7.381695;105.532623;-21.550419;,
   -6.693346;102.167496;-25.225876;,
   -4.849736;176.068069;-26.642811;,
   -15.322440;90.984344;-34.196255;,
   0.000000;90.986511;-37.437977;,
   -3.757199;97.875679;-29.913498;,
   -15.322440;90.984344;-34.196255;,
   -15.935183;105.648834;-21.427647;,
   -20.921539;90.984177;-20.530069;,
   -35.559780;90.988075;-26.024378;,
   -38.060841;90.986679;-16.326719;,
   -53.480900;90.988945;-12.545005;,
   -20.921539;90.984177;-20.530069;,
   -35.559780;90.988075;-26.024378;,
   -15.322440;90.984344;-34.196255;,
   -15.322440;90.984344;-34.196255;,
   -6.693346;102.167496;-25.225876;,
   -15.935183;105.648834;-21.427647;,
   -35.559780;90.988075;-26.024378;,
   -20.921539;90.984177;-20.530069;,
   -27.235651;90.985107;-18.981556;,
   -34.996292;151.263763;-24.239807;,
   -29.378578;151.261765;-19.486805;,
   -36.684181;151.262833;-17.695135;,
   0.000000;176.085754;-30.253918;,
   0.000000;176.045334;-22.318316;,
   -4.094885;176.038742;-22.854467;,
   -4.849736;176.068069;-26.642811;,
   0.000000;176.085754;-30.253918;,
   -4.094885;176.038742;-22.854467;,
   -15.322440;90.984344;-34.196255;,
   -3.757199;97.875679;-29.913498;,
   -6.693346;102.167496;-25.225876;,
   0.000000;90.986511;-37.437977;,
   0.000000;97.171997;-30.838978;,
   -3.757199;97.875679;-29.913498;,
   -6.693346;102.167496;-25.225876;,
   -7.381695;105.532623;-21.550419;,
   -15.935183;105.648834;-21.427647;,
   -2.846812;176.090515;-29.542551;,
   0.000000;176.085754;-30.253918;,
   -4.849736;176.068069;-26.642811;,
   -24.686764;-12.498558;19.197678;,
   -43.304295;0.002107;-13.576928;,
   -40.762772;-4.090408;19.197678;,
   -17.752060;-17.390139;-9.768006;,
   -43.304295;0.002107;-13.576928;,
   -24.686764;-12.498558;19.197678;,
   -9.363481;-19.002281;-16.585470;,
   -17.752060;-17.390139;-9.768006;,
   0.000000;-19.797775;4.691439;,
   0.000000;-19.797775;4.691439;,
   -17.752060;-17.390139;-9.768006;,
   -17.178719;-15.997955;4.798366;,
   0.000000;-20.023026;-17.956604;,
   -9.363481;-19.002281;-16.585470;,
   0.000000;-19.797775;4.691439;,
   -24.686764;-12.498558;19.197678;,
   0.000000;-16.406990;19.197676;,
   -17.178719;-15.997955;4.798366;,
   0.000000;-19.797775;4.691439;,
   -17.178719;-15.997955;4.798366;,
   0.000000;-16.406990;19.197676;,
   -17.178719;-15.997955;4.798366;,
   -17.752060;-17.390139;-9.768006;,
   -24.686764;-12.498558;19.197678;,
   -92.593407;45.321888;3.534468;,
   -79.576805;41.082966;19.197680;,
   -78.751160;42.699413;-2.086515;,
   -79.576805;41.082966;19.197680;,
   -92.593407;45.321888;3.534468;,
   -93.749603;43.762539;20.359703;,
   53.480900;90.988945;-12.545005;,
   43.304295;0.002107;-13.576928;,
   66.611618;21.829842;-6.633079;,
   66.611618;21.829842;-6.633079;,
   66.611618;100.131386;-7.352750;,
   53.480900;90.988945;-12.545005;,
   15.322440;90.984344;-34.196255;,
   15.310807;0.125316;-29.836437;,
   32.340107;0.113835;-18.950144;,
   32.340107;0.113835;-18.950144;,
   35.559780;90.988075;-26.024378;,
   15.322440;90.984344;-34.196255;,
   15.935183;105.648834;-21.427647;,
   38.060841;90.986679;-16.326719;,
   53.480900;90.988945;-12.545005;,
   58.879761;123.812859;-9.640344;,
   7.875386;165.847977;-19.225903;,
   15.935183;105.648834;-21.427647;,
   58.879761;123.812859;-9.640344;,
   15.935183;105.648834;-21.427647;,
   53.480900;90.988945;-12.545005;,
   66.611618;100.131386;-7.352750;,
   58.879761;123.812859;-9.640344;,
   53.480900;90.988945;-12.545005;,
   7.875386;165.847977;-19.225903;,
   58.879761;123.812859;-9.640344;,
   39.309242;167.903183;-5.478244;,
   39.309242;167.903183;-5.478244;,
   16.351824;196.874084;-6.408426;,
   7.875386;165.847977;-19.225903;,
   0.000000;222.861496;5.378407;,
   0.000000;201.132721;-6.408425;,
   16.351824;196.874084;-6.408426;,
   16.351824;196.874084;-6.408426;,
   15.085843;218.554779;5.378410;,
   0.000000;222.861496;5.378407;,
   39.309242;167.903183;-5.478244;,
   46.217903;179.772385;5.378407;,
   15.085843;218.554779;5.378410;,
   15.085843;218.554779;5.378410;,
   16.351824;196.874084;-6.408426;,
   39.309242;167.903183;-5.478244;,
   58.879761;123.812859;-9.640344;,
   66.704247;131.892288;4.181608;,
   46.217903;179.772385;5.378407;,
   46.217903;179.772385;5.378407;,
   39.309242;167.903183;-5.478244;,
   58.879761;123.812859;-9.640344;,
   66.611618;100.131386;-7.352750;,
   83.038300;107.381096;-1.273618;,
   58.879761;123.812859;-9.640344;,
   66.704247;131.892288;4.181608;,
   58.879761;123.812859;-9.640344;,
   83.038300;107.381096;-1.273618;,
   66.611618;21.829842;-6.633079;,
   78.751160;42.699413;-2.086515;,
   83.038300;107.381096;-1.273618;,
   83.038300;107.381096;-1.273618;,
   66.611618;100.131386;-7.352750;,
   66.611618;21.829842;-6.633079;,
   0.000000;90.986511;-37.437977;,
   0.000000;0.125328;-32.050495;,
   15.310807;0.125316;-29.836437;,
   15.310807;0.125316;-29.836437;,
   15.322440;90.984344;-34.196255;,
   0.000000;90.986511;-37.437977;,
   0.000000;201.132721;-6.408425;,
   0.000000;166.690979;-19.315834;,
   7.875386;165.847977;-19.225903;,
   7.875386;165.847977;-19.225903;,
   16.351824;196.874084;-6.408426;,
   0.000000;201.132721;-6.408425;,
   15.935183;105.648834;-21.427647;,
   7.875386;165.847977;-19.225903;,
   0.000000;166.690979;-19.315834;,
   7.381695;105.532623;-21.550419;,
   15.935183;105.648834;-21.427647;,
   0.000000;166.690979;-19.315834;,
   32.340107;0.113835;-18.950144;,
   43.304295;0.002107;-13.576928;,
   53.480900;90.988945;-12.545005;,
   53.480900;90.988945;-12.545005;,
   35.559780;90.988075;-26.024378;,
   32.340107;0.113835;-18.950144;,
   15.310807;0.125316;-29.836437;,
   9.363481;-19.002281;-16.585470;,
   32.340107;0.113835;-18.950144;,
   17.752060;-17.390139;-9.768006;,
   32.340107;0.113835;-18.950144;,
   9.363481;-19.002281;-16.585470;,
   0.000000;0.125328;-32.050495;,
   0.000000;-20.023026;-17.956604;,
   15.310807;0.125316;-29.836437;,
   9.363481;-19.002281;-16.585470;,
   15.310807;0.125316;-29.836437;,
   0.000000;-20.023026;-17.956604;,
   32.340107;0.113835;-18.950144;,
   17.752060;-17.390139;-9.768006;,
   43.304295;0.002107;-13.576928;,
   97.245415;95.122437;3.536970;,
   83.038300;107.381096;-1.273618;,
   78.751160;42.699413;-2.086515;,
   78.751160;42.699413;-2.086515;,
   92.593407;45.321888;3.534468;,
   97.245415;95.122437;3.536970;,
   15.935183;105.648834;-21.427647;,
   20.921539;90.984177;-20.530069;,
   27.235651;90.985107;-18.981556;,
   15.935183;105.648834;-21.427647;,
   27.235651;90.985107;-18.981556;,
   38.060841;90.986679;-16.326719;,
   0.000000;105.307571;-21.788134;,
   7.381695;105.532623;-21.550419;,
   0.000000;166.690979;-19.315834;,
   29.378578;151.261765;-19.486805;,
   27.235651;90.985107;-18.981556;,
   35.559780;90.988075;-26.024378;,
   35.559780;90.988075;-26.024378;,
   34.996292;151.263763;-24.239807;,
   29.378578;151.261765;-19.486805;,
   0.000000;176.085754;-30.253918;,
   0.000000;97.171997;-30.838978;,
   3.757199;97.875679;-29.913498;,
   3.757199;97.875679;-29.913498;,
   2.846812;176.090515;-29.542551;,
   0.000000;176.085754;-30.253918;,
   43.028294;48.125992;19.197681;,
   81.426392;110.117775;19.197685;,
   79.576805;41.082966;19.197680;,
   40.762772;-4.090408;19.197678;,
   24.686764;-12.498558;19.197678;,
   43.028294;48.125992;19.197681;,
   14.002377;48.125999;19.197681;,
   43.028294;48.125992;19.197681;,
   24.686764;-12.498558;19.197678;,
   50.004131;181.269867;19.197695;,
   72.555359;132.463272;19.197691;,
   81.426392;110.117775;19.197685;,
   81.426392;110.117775;19.197685;,
   43.028294;48.125992;19.197681;,
   50.004131;181.269867;19.197695;,
   15.144339;225.715347;19.197699;,
   50.004131;181.269867;19.197695;,
   43.028294;48.125992;19.197681;,
   43.028294;48.125992;19.197681;,
   14.002377;48.125999;19.197681;,
   15.144339;225.715347;19.197699;,
   24.686764;-12.498558;19.197678;,
   0.000000;-16.406990;19.197676;,
   0.000000;48.510658;19.197680;,
   14.002377;48.125999;19.197681;,
   24.686764;-12.498558;19.197678;,
   0.000000;48.510658;19.197680;,
   14.002377;48.125999;19.197681;,
   0.000000;48.510658;19.197680;,
   0.000000;128.920731;19.197687;,
   15.144339;225.715347;19.197699;,
   14.002377;48.125999;19.197681;,
   0.000000;128.920731;19.197687;,
   0.000000;230.105423;19.197697;,
   15.144339;225.715347;19.197699;,
   0.000000;128.920731;19.197687;,
   79.576805;41.082966;19.197680;,
   66.820190;22.131866;19.197680;,
   43.028294;48.125992;19.197681;,
   66.820190;22.131866;19.197680;,
   40.762772;-4.090408;19.197678;,
   43.028294;48.125992;19.197681;,
   93.749603;43.762539;20.359703;,
   79.576805;41.082966;19.197680;,
   81.426392;110.117775;19.197685;,
   81.426392;110.117775;19.197685;,
   95.971741;97.672791;20.357166;,
   93.749603;43.762539;20.359703;,
   36.684181;151.262833;-17.695135;,
   38.060841;90.986679;-16.326719;,
   27.235651;90.985107;-18.981556;,
   27.235651;90.985107;-18.981556;,
   29.378578;151.261765;-19.486805;,
   36.684181;151.262833;-17.695135;,
   4.094885;176.038742;-22.854467;,
   7.381695;105.532623;-21.550419;,
   0.000000;105.307571;-21.788134;,
   0.000000;105.307571;-21.788134;,
   0.000000;176.045334;-22.318316;,
   4.094885;176.038742;-22.854467;,
   0.000000;230.105423;19.197697;,
   0.000000;222.861496;5.378407;,
   15.085843;218.554779;5.378410;,
   15.085843;218.554779;5.378410;,
   15.144339;225.715347;19.197699;,
   0.000000;230.105423;19.197697;,
   46.217903;179.772385;5.378407;,
   50.004131;181.269867;19.197695;,
   15.144339;225.715347;19.197699;,
   15.144339;225.715347;19.197699;,
   15.085843;218.554779;5.378410;,
   46.217903;179.772385;5.378407;,
   66.704247;131.892288;4.181608;,
   72.555359;132.463272;19.197691;,
   50.004131;181.269867;19.197695;,
   50.004131;181.269867;19.197695;,
   46.217903;179.772385;5.378407;,
   66.704247;131.892288;4.181608;,
   83.038300;107.381096;-1.273618;,
   81.426392;110.117775;19.197685;,
   72.555359;132.463272;19.197691;,
   72.555359;132.463272;19.197691;,
   66.704247;131.892288;4.181608;,
   83.038300;107.381096;-1.273618;,
   92.593407;45.321888;3.534468;,
   93.749603;43.762539;20.359703;,
   95.971741;97.672791;20.357166;,
   95.971741;97.672791;20.357166;,
   97.245415;95.122437;3.536970;,
   92.593407;45.321888;3.534468;,
   79.576805;41.082966;19.197680;,
   78.751160;42.699413;-2.086515;,
   66.611618;21.829842;-6.633079;,
   66.820190;22.131866;19.197680;,
   79.576805;41.082966;19.197680;,
   66.611618;21.829842;-6.633079;,
   95.971741;97.672791;20.357166;,
   81.426392;110.117775;19.197685;,
   83.038300;107.381096;-1.273618;,
   83.038300;107.381096;-1.273618;,
   97.245415;95.122437;3.536970;,
   95.971741;97.672791;20.357166;,
   40.762772;-4.090408;19.197678;,
   66.820190;22.131866;19.197680;,
   66.611618;21.829842;-6.633079;,
   43.304295;0.002107;-13.576928;,
   40.762772;-4.090408;19.197678;,
   66.611618;21.829842;-6.633079;,
   34.996292;151.263763;-24.239807;,
   35.559780;90.988075;-26.024378;,
   38.060841;90.986679;-16.326719;,
   38.060841;90.986679;-16.326719;,
   36.684181;151.262833;-17.695135;,
   34.996292;151.263763;-24.239807;,
   2.846812;176.090515;-29.542551;,
   3.757199;97.875679;-29.913498;,
   6.693346;102.167496;-25.225876;,
   7.381695;105.532623;-21.550419;,
   4.094885;176.038742;-22.854467;,
   4.849736;176.068069;-26.642811;,
   2.846812;176.090515;-29.542551;,
   6.693346;102.167496;-25.225876;,
   4.849736;176.068069;-26.642811;,
   7.381695;105.532623;-21.550419;,
   4.849736;176.068069;-26.642811;,
   6.693346;102.167496;-25.225876;,
   15.322440;90.984344;-34.196255;,
   3.757199;97.875679;-29.913498;,
   0.000000;90.986511;-37.437977;,
   15.322440;90.984344;-34.196255;,
   20.921539;90.984177;-20.530069;,
   15.935183;105.648834;-21.427647;,
   35.559780;90.988075;-26.024378;,
   53.480900;90.988945;-12.545005;,
   38.060841;90.986679;-16.326719;,
   20.921539;90.984177;-20.530069;,
   15.322440;90.984344;-34.196255;,
   35.559780;90.988075;-26.024378;,
   15.322440;90.984344;-34.196255;,
   15.935183;105.648834;-21.427647;,
   6.693346;102.167496;-25.225876;,
   35.559780;90.988075;-26.024378;,
   27.235651;90.985107;-18.981556;,
   20.921539;90.984177;-20.530069;,
   34.996292;151.263763;-24.239807;,
   36.684181;151.262833;-17.695135;,
   29.378578;151.261765;-19.486805;,
   0.000000;176.085754;-30.253918;,
   4.094885;176.038742;-22.854467;,
   0.000000;176.045334;-22.318316;,
   4.849736;176.068069;-26.642811;,
   4.094885;176.038742;-22.854467;,
   0.000000;176.085754;-30.253918;,
   15.322440;90.984344;-34.196255;,
   6.693346;102.167496;-25.225876;,
   3.757199;97.875679;-29.913498;,
   0.000000;90.986511;-37.437977;,
   3.757199;97.875679;-29.913498;,
   0.000000;97.171997;-30.838978;,
   6.693346;102.167496;-25.225876;,
   15.935183;105.648834;-21.427647;,
   7.381695;105.532623;-21.550419;,
   2.846812;176.090515;-29.542551;,
   4.849736;176.068069;-26.642811;,
   0.000000;176.085754;-30.253918;,
   24.686764;-12.498558;19.197678;,
   40.762772;-4.090408;19.197678;,
   43.304295;0.002107;-13.576928;,
   17.752060;-17.390139;-9.768006;,
   24.686764;-12.498558;19.197678;,
   43.304295;0.002107;-13.576928;,
   9.363481;-19.002281;-16.585470;,
   0.000000;-19.797775;4.691439;,
   17.752060;-17.390139;-9.768006;,
   0.000000;-19.797775;4.691439;,
   17.178719;-15.997955;4.798366;,
   17.752060;-17.390139;-9.768006;,
   0.000000;-20.023026;-17.956604;,
   0.000000;-19.797775;4.691439;,
   9.363481;-19.002281;-16.585470;,
   24.686764;-12.498558;19.197678;,
   17.178719;-15.997955;4.798366;,
   0.000000;-16.406990;19.197676;,
   0.000000;-19.797775;4.691439;,
   0.000000;-16.406990;19.197676;,
   17.178719;-15.997955;4.798366;,
   17.178719;-15.997955;4.798366;,
   24.686764;-12.498558;19.197678;,
   17.752060;-17.390139;-9.768006;,
   92.593407;45.321888;3.534468;,
   78.751160;42.699413;-2.086515;,
   79.576805;41.082966;19.197680;,
   79.576805;41.082966;19.197680;,
   93.749603;43.762539;20.359703;,
   92.593407;45.321888;3.534468;,

   214;
   3;0,2,1;,
   3;3,5,4;,
   3;6,8,7;,
   3;9,11,10;,
   3;12,14,13;,
   3;15,17,16;,
   3;18,20,19;,
   3;21,23,22;,
   3;24,26,25;,
   3;27,29,28;,
   3;30,32,31;,
   3;33,35,34;,
   3;36,38,37;,
   3;39,41,40;,
   3;42,44,43;,
   3;45,47,46;,
   3;48,50,49;,
   3;51,53,52;,
   3;54,56,55;,
   3;57,59,58;,
   3;60,62,61;,
   3;63,65,64;,
   3;66,68,67;,
   3;69,71,70;,
   3;72,74,73;,
   3;75,77,76;,
   3;78,80,79;,
   3;81,83,82;,
   3;84,86,85;,
   3;87,89,88;,
   3;90,92,91;,
   3;93,95,94;,
   3;96,98,97;,
   3;99,101,100;,
   3;102,104,103;,
   3;105,107,106;,
   3;108,110,109;,
   3;111,113,112;,
   3;114,116,115;,
   3;117,119,118;,
   3;120,122,121;,
   3;123,125,124;,
   3;126,128,127;,
   3;129,131,130;,
   3;132,134,133;,
   3;135,137,136;,
   3;138,140,139;,
   3;141,143,142;,
   3;144,146,145;,
   3;147,149,148;,
   3;150,152,151;,
   3;153,155,154;,
   3;156,158,157;,
   3;159,161,160;,
   3;162,164,163;,
   3;165,167,166;,
   3;168,170,169;,
   3;171,173,172;,
   3;174,176,175;,
   3;177,179,178;,
   3;180,182,181;,
   3;183,185,184;,
   3;186,188,187;,
   3;189,191,190;,
   3;192,194,193;,
   3;195,197,196;,
   3;198,200,199;,
   3;201,203,202;,
   3;204,206,205;,
   3;207,209,208;,
   3;210,212,211;,
   3;213,215,214;,
   3;216,218,217;,
   3;219,221,220;,
   3;222,224,223;,
   3;225,227,226;,
   3;228,230,229;,
   3;231,233,232;,
   3;234,236,235;,
   3;237,239,238;,
   3;240,242,241;,
   3;243,245,244;,
   3;246,248,247;,
   3;249,251,250;,
   3;252,254,253;,
   3;255,257,256;,
   3;258,260,259;,
   3;261,263,262;,
   3;264,266,265;,
   3;267,269,268;,
   3;270,272,271;,
   3;273,275,274;,
   3;276,278,277;,
   3;279,281,280;,
   3;282,284,283;,
   3;285,287,286;,
   3;288,290,289;,
   3;291,293,292;,
   3;294,296,295;,
   3;297,299,298;,
   3;300,302,301;,
   3;303,305,304;,
   3;306,308,307;,
   3;309,311,310;,
   3;312,314,313;,
   3;315,317,316;,
   3;318,320,319;,
   3;321,323,322;,
   3;324,326,325;,
   3;327,329,328;,
   3;330,332,331;,
   3;333,335,334;,
   3;336,338,337;,
   3;339,341,340;,
   3;342,344,343;,
   3;345,347,346;,
   3;348,350,349;,
   3;351,353,352;,
   3;354,356,355;,
   3;357,359,358;,
   3;360,362,361;,
   3;363,365,364;,
   3;366,368,367;,
   3;369,371,370;,
   3;372,374,373;,
   3;375,377,376;,
   3;378,380,379;,
   3;381,383,382;,
   3;384,386,385;,
   3;387,389,388;,
   3;390,392,391;,
   3;393,395,394;,
   3;396,398,397;,
   3;399,401,400;,
   3;402,404,403;,
   3;405,407,406;,
   3;408,410,409;,
   3;411,413,412;,
   3;414,416,415;,
   3;417,419,418;,
   3;420,422,421;,
   3;423,425,424;,
   3;426,428,427;,
   3;429,431,430;,
   3;432,434,433;,
   3;435,437,436;,
   3;438,440,439;,
   3;441,443,442;,
   3;444,446,445;,
   3;447,449,448;,
   3;450,452,451;,
   3;453,455,454;,
   3;456,458,457;,
   3;459,461,460;,
   3;462,464,463;,
   3;465,467,466;,
   3;468,470,469;,
   3;471,473,472;,
   3;474,476,475;,
   3;477,479,478;,
   3;480,482,481;,
   3;483,485,484;,
   3;486,488,487;,
   3;489,491,490;,
   3;492,494,493;,
   3;495,497,496;,
   3;498,500,499;,
   3;501,503,502;,
   3;504,506,505;,
   3;507,509,508;,
   3;510,512,511;,
   3;513,515,514;,
   3;516,518,517;,
   3;519,521,520;,
   3;522,524,523;,
   3;525,527,526;,
   3;528,530,529;,
   3;531,533,532;,
   3;534,536,535;,
   3;537,539,538;,
   3;540,542,541;,
   3;543,545,544;,
   3;546,548,547;,
   3;549,551,550;,
   3;552,554,553;,
   3;555,557,556;,
   3;558,560,559;,
   3;561,563,562;,
   3;564,566,565;,
   3;567,569,568;,
   3;570,572,571;,
   3;573,575,574;,
   3;576,578,577;,
   3;579,581,580;,
   3;582,584,583;,
   3;585,587,586;,
   3;588,590,589;,
   3;591,593,592;,
   3;594,596,595;,
   3;597,599,598;,
   3;600,602,601;,
   3;603,605,604;,
   3;606,608,607;,
   3;609,611,610;,
   3;612,614,613;,
   3;615,617,616;,
   3;618,620,619;,
   3;621,623,622;,
   3;624,626,625;,
   3;627,629,628;,
   3;630,632,631;,
   3;633,635,634;,
   3;636,638,637;,
   3;639,641,640;;

   MeshMaterialList {
    1;
    1;
    0;;
    Material {
     1.000000,1.000000,1.000000,1.000000;;
     9.999999;
     0.900000,0.900000,0.900000;;
     0.000000,0.000000,0.000000;;
     TextureFilename {
      "JRA_TROP.bmp";
     }
    }
   }

   MeshNormals {
    231;
    -0.000000;0.395614;-0.918417;,
    -0.000000;0.593011;-0.805194;,
    0.000000;0.091698;-0.995787;,
    0.000000;-0.053573;-0.998564;,
    0.000000;0.704624;-0.709581;,
    0.000000;-0.172851;-0.984948;,
    0.000000;-0.585773;-0.810475;,
    0.000000;-0.999951;0.009945;,
    0.000000;0.040244;-0.999190;,
    0.000000;0.013584;0.999908;,
    0.000000;0.007414;-0.999973;,
    0.000000;0.729597;-0.683878;,
    -0.000000;0.007515;-0.999972;,
    -0.000000;0.999979;0.006529;,
    -0.340993;-0.014842;-0.939949;,
    -0.756820;-0.653188;-0.023857;,
    -0.358465;-0.080954;-0.930026;,
    -0.596136;-0.802288;-0.030913;,
    -0.356561;-0.000517;-0.934272;,
    -0.400733;-0.023700;-0.915888;,
    0.000195;1.000000;0.000194;,
    -0.238130;0.021539;-0.970994;,
    -0.888390;0.279797;-0.363974;,
    0.000220;1.000000;0.000122;,
    -0.386290;0.173293;-0.905952;,
    -0.456792;0.317774;-0.830879;,
    -0.304059;0.377276;-0.874764;,
    -0.515004;0.565475;-0.644211;,
    -0.724743;0.453192;-0.519003;,
    -0.787622;0.426475;-0.444714;,
    -0.568617;0.251020;-0.783367;,
    -0.350722;-0.017897;-0.936309;,
    -0.868859;-0.489954;-0.070914;,
    -0.217675;-0.972545;-0.082305;,
    -0.258657;0.178814;-0.949275;,
    -0.389689;-0.059752;-0.919006;,
    -0.112257;0.674637;-0.729563;,
    -0.888390;0.279797;-0.363974;,
    0.000227;1.000000;0.000105;,
    -0.498598;-0.141750;-0.855165;,
    -0.322862;-0.156619;-0.933397;,
    -0.491724;-0.084884;-0.866604;,
    0.645821;0.016562;-0.763309;,
    -0.968185;0.016444;-0.249696;,
    0.000195;1.000000;0.000194;,
    0.000220;1.000000;0.000122;,
    -0.201462;0.053115;-0.978055;,
    -0.888390;0.279797;-0.363974;,
    -0.051262;0.670964;-0.739715;,
    -0.430519;-0.673818;-0.600519;,
    -0.425751;-0.904212;0.033729;,
    -0.404453;-0.634380;-0.658772;,
    -0.136302;-0.990401;0.022955;,
    -0.437913;0.112165;-0.891993;,
    -0.991701;-0.092642;0.089141;,
    -0.381784;-0.035617;-0.923565;,
    -0.997796;-0.066136;0.005432;,
    -0.206610;-0.974096;-0.091919;,
    -0.238130;0.021539;-0.970995;,
    0.238157;0.016607;0.971085;,
    -0.968185;0.016444;-0.249696;,
    0.000195;1.000000;0.000194;,
    -0.238130;0.021539;-0.970995;,
    0.645821;0.016562;-0.763309;,
    0.238157;0.016607;0.971085;,
    0.000194;1.000000;0.000192;,
    -0.021761;0.039128;-0.998997;,
    0.032698;0.016959;0.999321;,
    -0.999350;0.035374;-0.006906;,
    0.000329;0.737589;-0.675250;,
    -0.239833;0.007296;-0.970787;,
    -0.842285;0.012360;-0.538891;,
    -0.133087;0.693688;-0.707873;,
    0.645822;0.016562;-0.763309;,
    -0.968185;0.016444;-0.249696;,
    0.000193;1.000000;0.000192;,
    0.645821;0.016562;-0.763309;,
    0.238157;0.016607;0.971085;,
    0.000193;1.000000;0.000192;,
    -0.242409;0.007423;-0.970146;,
    -0.835093;0.011337;-0.549992;,
    0.004359;0.999933;0.010751;,
    0.000000;-0.000000;1.000000;,
    0.000000;-0.982303;0.187297;,
    -0.000000;-0.000000;1.000000;,
    0.000000;-0.000000;1.000000;,
    0.000000;0.886569;-0.462596;,
    0.000000;-0.000000;1.000000;,
    0.000000;0.007495;0.999972;,
    0.000000;0.999987;0.005094;,
    0.018687;0.000501;0.999825;,
    -0.849155;-0.527090;-0.033345;,
    -0.206610;-0.974096;-0.091919;,
    0.000000;-0.000000;1.000000;,
    -0.447943;-0.893938;0.014909;,
    0.015727;0.000525;0.999876;,
    -0.829699;0.558135;-0.009283;,
    -0.000000;-0.000000;1.000000;,
    0.000000;-0.000000;1.000000;,
    0.000003;-0.000001;1.000000;,
    -0.862992;0.442477;-0.243844;,
    -0.000000;-0.000000;1.000000;,
    -0.834081;0.460480;-0.303755;,
    0.000000;-0.000000;1.000000;,
    -0.695528;0.644075;-0.318448;,
    -0.000000;-0.000000;1.000000;,
    -0.758475;-0.651700;0.001496;,
    -0.000000;-0.000000;1.000000;,
    -0.650094;-0.759205;-0.031391;,
    0.079676;0.002659;0.996817;,
    -0.996538;-0.041080;-0.072287;,
    -0.192974;-0.975710;-0.103689;,
    0.076733;0.003210;0.997046;,
    -0.997796;-0.066136;0.005432;,
    -0.657299;0.751569;-0.055693;,
    0.238157;0.016607;0.971085;,
    -0.968185;0.016444;-0.249695;,
    0.000193;1.000000;0.000192;,
    -0.025735;0.013580;0.999577;,
    -0.979456;0.049276;0.195544;,
    -0.000654;0.999982;0.005991;,
    -0.889817;0.014210;-0.456096;,
    -0.079488;0.675616;-0.732956;,
    -0.980146;0.028128;-0.196274;,
    0.002459;0.999963;0.008200;,
    0.000000;-0.995090;0.098975;,
    -0.196336;-0.968495;0.153200;,
    0.340993;-0.014842;-0.939949;,
    0.756820;-0.653188;-0.023857;,
    0.358465;-0.080954;-0.930026;,
    0.596136;-0.802288;-0.030913;,
    0.356561;-0.000517;-0.934272;,
    0.400733;-0.023700;-0.915888;,
    -0.000195;1.000000;0.000194;,
    0.238130;0.021539;-0.970994;,
    0.888390;0.279797;-0.363974;,
    -0.000220;1.000000;0.000122;,
    0.386290;0.173293;-0.905952;,
    0.456792;0.317774;-0.830879;,
    0.304059;0.377276;-0.874764;,
    0.515004;0.565475;-0.644211;,
    0.724743;0.453192;-0.519003;,
    0.787622;0.426475;-0.444714;,
    0.568617;0.251020;-0.783367;,
    0.350722;-0.017897;-0.936309;,
    0.868859;-0.489954;-0.070914;,
    0.217675;-0.972545;-0.082305;,
    0.258657;0.178814;-0.949275;,
    0.389689;-0.059752;-0.919006;,
    0.112257;0.674637;-0.729563;,
    0.888390;0.279797;-0.363974;,
    -0.000227;1.000000;0.000105;,
    0.498598;-0.141750;-0.855165;,
    0.322862;-0.156619;-0.933397;,
    0.491724;-0.084884;-0.866604;,
    -0.645821;0.016562;-0.763309;,
    0.968185;0.016444;-0.249696;,
    -0.000195;1.000000;0.000194;,
    -0.000220;1.000000;0.000122;,
    0.201462;0.053115;-0.978055;,
    0.888390;0.279797;-0.363974;,
    0.051262;0.670964;-0.739715;,
    0.430519;-0.673818;-0.600519;,
    0.425751;-0.904212;0.033729;,
    0.404452;-0.634380;-0.658772;,
    0.136302;-0.990401;0.022955;,
    0.437913;0.112165;-0.891993;,
    0.991701;-0.092642;0.089141;,
    0.381784;-0.035617;-0.923565;,
    0.997796;-0.066136;0.005432;,
    0.206610;-0.974096;-0.091919;,
    0.238130;0.021539;-0.970995;,
    -0.238157;0.016607;0.971085;,
    0.968185;0.016444;-0.249696;,
    -0.000195;1.000000;0.000194;,
    0.238130;0.021539;-0.970995;,
    -0.645821;0.016562;-0.763309;,
    -0.238157;0.016607;0.971085;,
    -0.000194;1.000000;0.000192;,
    0.021761;0.039128;-0.998997;,
    -0.032698;0.016959;0.999321;,
    0.999350;0.035374;-0.006906;,
    -0.000329;0.737589;-0.675250;,
    0.239833;0.007296;-0.970787;,
    0.842285;0.012360;-0.538891;,
    0.133087;0.693688;-0.707873;,
    -0.645822;0.016562;-0.763309;,
    0.968185;0.016444;-0.249696;,
    -0.000193;1.000000;0.000192;,
    -0.645821;0.016562;-0.763309;,
    -0.238157;0.016607;0.971085;,
    -0.000193;1.000000;0.000192;,
    0.242409;0.007423;-0.970146;,
    0.835093;0.011337;-0.549992;,
    -0.004359;0.999933;0.010751;,
    -0.018687;0.000501;0.999825;,
    0.849155;-0.527090;-0.033345;,
    0.206610;-0.974096;-0.091919;,
    -0.000000;-0.000000;1.000000;,
    0.447943;-0.893938;0.014909;,
    -0.015727;0.000525;0.999876;,
    0.829699;0.558135;-0.009283;,
    0.000000;-0.000000;1.000000;,
    -0.000000;-0.000000;1.000000;,
    -0.000003;-0.000001;1.000000;,
    0.862992;0.442476;-0.243844;,
    0.000000;-0.000000;1.000000;,
    0.834081;0.460480;-0.303755;,
    -0.000000;-0.000000;1.000000;,
    0.695528;0.644075;-0.318448;,
    0.000000;-0.000000;1.000000;,
    0.758475;-0.651700;0.001496;,
    0.000000;-0.000000;1.000000;,
    0.650094;-0.759205;-0.031391;,
    -0.079676;0.002659;0.996817;,
    0.996538;-0.041080;-0.072287;,
    0.192974;-0.975710;-0.103689;,
    -0.076733;0.003210;0.997046;,
    0.997796;-0.066136;0.005432;,
    0.657299;0.751569;-0.055693;,
    -0.238157;0.016607;0.971085;,
    0.968185;0.016444;-0.249695;,
    -0.000193;1.000000;0.000192;,
    0.025735;0.013580;0.999577;,
    0.979456;0.049276;0.195544;,
    0.000654;0.999982;0.005991;,
    0.889817;0.014210;-0.456096;,
    0.079488;0.675616;-0.732956;,
    0.980146;0.028128;-0.196274;,
    -0.002459;0.999963;0.008200;,
    0.196336;-0.968495;0.153200;,

    214;
    3;19,16,14;,
    3;14,18,19;,
    3;35,40,39;,
    3;39,41,35;,
    3;46,58,19;,
    3;24,34,46;,
    3;24,46,19;,
    3;18,24,19;,
    3;34,24,25;,
    3;25,26,34;,
    3;1,0,26;,
    3;26,27,1;,
    3;25,28,27;,
    3;27,26,25;,
    3;24,29,28;,
    3;28,25,24;,
    3;18,30,24;,
    3;29,24,30;,
    3;14,31,30;,
    3;30,18,14;,
    3;3,5,40;,
    3;40,35,3;,
    3;0,2,34;,
    3;34,26,0;,
    3;46,34,2;,
    3;66,46,2;,
    3;39,16,19;,
    3;19,41,39;,
    3;40,51,39;,
    3;49,39,51;,
    3;5,6,40;,
    3;51,40,6;,
    3;39,49,16;,
    3;53,30,31;,
    3;31,55,53;,
    3;46,21,62;,
    3;46,62,58;,
    3;8,66,2;,
    3;76,63,42;,
    3;42,73,76;,
    3;12,10,70;,
    3;70,79,12;,
    3;97,95,90;,
    3;107,93,97;,
    3;98,97,93;,
    3;101,99,95;,
    3;95,97,101;,
    3;103,101,97;,
    3;97,98,103;,
    3;93,82,84;,
    3;98,93,84;,
    3;98,84,87;,
    3;103,98,87;,
    3;85,103,87;,
    3;90,105,97;,
    3;105,107,97;,
    3;109,90,95;,
    3;95,112,109;,
    3;115,59,64;,
    3;64,77,115;,
    3;118,67,9;,
    3;9,88,118;,
    3;86,1,27;,
    3;27,104,86;,
    3;28,102,104;,
    3;104,27,28;,
    3;29,100,102;,
    3;102,28,29;,
    3;30,96,100;,
    3;100,29,30;,
    3;56,110,113;,
    3;113,54,56;,
    3;91,32,15;,
    3;106,91,15;,
    3;114,96,30;,
    3;30,53,114;,
    3;108,106,15;,
    3;17,108,15;,
    3;74,43,60;,
    3;60,116,74;,
    3;80,71,121;,
    3;68,119,123;,
    3;80,121,123;,
    3;68,123,121;,
    3;36,72,4;,
    3;37,22,47;,
    3;44,20,61;,
    3;23,38,45;,
    3;36,48,122;,
    3;45,65,23;,
    3;75,117,78;,
    3;13,120,89;,
    3;124,120,13;,
    3;36,122,72;,
    3;4,72,11;,
    3;122,48,69;,
    3;81,124,13;,
    3;94,108,17;,
    3;50,94,17;,
    3;52,125,50;,
    3;125,126,50;,
    3;7,125,52;,
    3;94,126,83;,
    3;125,83,126;,
    3;126,94,50;,
    3;57,33,92;,
    3;92,111,57;,
    3;132,127,129;,
    3;127,132,131;,
    3;148,152,153;,
    3;152,148,154;,
    3;159,132,171;,
    3;137,159,147;,
    3;137,132,159;,
    3;131,132,137;,
    3;147,138,137;,
    3;138,147,139;,
    3;1,139,0;,
    3;139,1,140;,
    3;138,140,141;,
    3;140,138,139;,
    3;137,141,142;,
    3;141,137,138;,
    3;131,137,143;,
    3;142,143,137;,
    3;127,143,144;,
    3;143,127,131;,
    3;3,153,5;,
    3;153,3,148;,
    3;0,147,2;,
    3;147,0,139;,
    3;159,2,147;,
    3;179,2,159;,
    3;152,132,129;,
    3;132,152,154;,
    3;153,152,164;,
    3;162,164,152;,
    3;5,153,6;,
    3;164,6,153;,
    3;152,129,162;,
    3;166,144,143;,
    3;144,166,168;,
    3;159,175,134;,
    3;159,171,175;,
    3;8,2,179;,
    3;189,155,176;,
    3;155,189,186;,
    3;12,183,10;,
    3;183,12,192;,
    3;202,195,200;,
    3;212,202,198;,
    3;203,198,202;,
    3;206,200,204;,
    3;200,206,202;,
    3;208,202,206;,
    3;202,208,203;,
    3;198,84,82;,
    3;203,84,198;,
    3;203,87,84;,
    3;208,87,203;,
    3;85,87,208;,
    3;195,202,210;,
    3;210,202,212;,
    3;214,200,195;,
    3;200,214,217;,
    3;220,177,172;,
    3;177,220,190;,
    3;223,9,180;,
    3;9,223,88;,
    3;86,140,1;,
    3;140,86,209;,
    3;141,209,207;,
    3;209,141,140;,
    3;142,207,205;,
    3;207,142,141;,
    3;143,205,201;,
    3;205,143,142;,
    3;169,218,215;,
    3;218,169,167;,
    3;196,128,145;,
    3;211,128,196;,
    3;219,143,201;,
    3;143,219,166;,
    3;213,128,211;,
    3;130,128,213;,
    3;187,173,156;,
    3;173,187,221;,
    3;193,226,184;,
    3;181,228,224;,
    3;193,228,226;,
    3;181,226,228;,
    3;149,4,185;,
    3;150,160,135;,
    3;157,174,133;,
    3;136,158,151;,
    3;149,227,161;,
    3;158,136,178;,
    3;188,191,222;,
    3;13,89,225;,
    3;229,13,225;,
    3;149,185,227;,
    3;4,11,185;,
    3;227,182,161;,
    3;194,13,229;,
    3;199,130,213;,
    3;163,130,199;,
    3;165,163,125;,
    3;125,163,230;,
    3;7,165,125;,
    3;199,83,230;,
    3;125,230,83;,
    3;230,163,199;,
    3;170,197,146;,
    3;197,170,216;;
   }

   MeshTextureCoords {
    642;
    0.540831;-0.831140;,
    0.823346;-0.791653;,
    0.912512;-0.861744;,
    0.823346;-0.791653;,
    0.540831;-0.831140;,
    0.503484;-0.791653;,
    0.540850;-0.945891;,
    0.912055;-0.894715;,
    0.912009;-0.945926;,
    0.912055;-0.894715;,
    0.540850;-0.945891;,
    0.540835;-0.885033;,
    0.480945;-0.944049;,
    0.540831;-0.831140;,
    0.540840;-0.877512;,
    0.406745;-0.814904;,
    0.480945;-0.944049;,
    0.235032;-0.968286;,
    0.406745;-0.814904;,
    0.540831;-0.831140;,
    0.480945;-0.944049;,
    0.503484;-0.791653;,
    0.540831;-0.831140;,
    0.406745;-0.814904;,
    0.235032;-0.968286;,
    0.226636;-0.873758;,
    0.406745;-0.814904;,
    0.226636;-0.873758;,
    0.235032;-0.968286;,
    0.108290;-0.942796;,
    0.002132;-0.991969;,
    0.108290;-0.942796;,
    0.090894;-0.991969;,
    0.108290;-0.942796;,
    0.002132;-0.991969;,
    0.019725;-0.946603;,
    0.226636;-0.873758;,
    0.019725;-0.946603;,
    0.178151;-0.852982;,
    0.019725;-0.946603;,
    0.226636;-0.873758;,
    0.108290;-0.942796;,
    0.406745;-0.814904;,
    0.178151;-0.852982;,
    0.373741;-0.791375;,
    0.178151;-0.852982;,
    0.406745;-0.814904;,
    0.226636;-0.873758;,
    0.503484;-0.791653;,
    0.406745;-0.814904;,
    0.473869;-0.742254;,
    0.373741;-0.791375;,
    0.473869;-0.742254;,
    0.406745;-0.814904;,
    0.823346;-0.791653;,
    0.473869;-0.742254;,
    0.738094;-0.755147;,
    0.473869;-0.742254;,
    0.823346;-0.791653;,
    0.503484;-0.791653;,
    0.540841;-0.991969;,
    0.912009;-0.945926;,
    0.912009;-0.991969;,
    0.912009;-0.945926;,
    0.540841;-0.991969;,
    0.540850;-0.945891;,
    0.090894;-0.991969;,
    0.235032;-0.968286;,
    0.231588;-0.991969;,
    0.235032;-0.968286;,
    0.090894;-0.991969;,
    0.108290;-0.942796;,
    0.480945;-0.944049;,
    0.231588;-0.991969;,
    0.235032;-0.968286;,
    0.481420;-0.969771;,
    0.231588;-0.991969;,
    0.480945;-0.944049;,
    0.912055;-0.894715;,
    0.540831;-0.831140;,
    0.912512;-0.861744;,
    0.540831;-0.831140;,
    0.912055;-0.894715;,
    0.540835;-0.885033;,
    0.912009;-0.945926;,
    0.912055;-0.894715;,
    0.990145;-0.963811;,
    0.983559;-0.938585;,
    0.990145;-0.963811;,
    0.912055;-0.894715;,
    0.912009;-0.991969;,
    0.912009;-0.945926;,
    0.994315;-0.991969;,
    0.990145;-0.963811;,
    0.994315;-0.991969;,
    0.912009;-0.945926;,
    0.912055;-0.894715;,
    0.912512;-0.861744;,
    0.983559;-0.938585;,
    0.523946;-0.699531;,
    0.738094;-0.755147;,
    0.473869;-0.742254;,
    0.738094;-0.755147;,
    0.523946;-0.699531;,
    0.727380;-0.713520;,
    0.480945;-0.944049;,
    0.540847;-0.910065;,
    0.540851;-0.929053;,
    0.480945;-0.944049;,
    0.540840;-0.877512;,
    0.540847;-0.910065;,
    0.482339;-0.991969;,
    0.231588;-0.991969;,
    0.481420;-0.969771;,
    0.066912;-0.753898;,
    0.313131;-0.735310;,
    0.313143;-0.760342;,
    0.313131;-0.735310;,
    0.066912;-0.753898;,
    0.066905;-0.737004;,
    0.019216;-0.784687;,
    0.338704;-0.773388;,
    0.341578;-0.784686;,
    0.338704;-0.773388;,
    0.019216;-0.784687;,
    0.019197;-0.776126;,
    0.267799;-0.134203;,
    0.239569;-0.242582;,
    0.516277;-0.248066;,
    0.058504;-0.127485;,
    0.267799;-0.134203;,
    0.024802;-0.079815;,
    0.267799;-0.048132;,
    0.024802;-0.079815;,
    0.267799;-0.134203;,
    0.801472;-0.154889;,
    0.516277;-0.248066;,
    0.605843;-0.221761;,
    0.516277;-0.248066;,
    0.801472;-0.154889;,
    0.267799;-0.134203;,
    0.979619;-0.051518;,
    0.267799;-0.134203;,
    0.801472;-0.154889;,
    0.267799;-0.134203;,
    0.979619;-0.051518;,
    0.267799;-0.048132;,
    0.024802;-0.079815;,
    0.269341;-0.006610;,
    0.009136;-0.006610;,
    0.267799;-0.048132;,
    0.269341;-0.006610;,
    0.024802;-0.079815;,
    0.267799;-0.048132;,
    0.591644;-0.006610;,
    0.269341;-0.006610;,
    0.979619;-0.051518;,
    0.591644;-0.006610;,
    0.267799;-0.048132;,
    0.997216;-0.006610;,
    0.591644;-0.006610;,
    0.979619;-0.051518;,
    0.239569;-0.242582;,
    0.267799;-0.134203;,
    0.163609;-0.204754;,
    0.163609;-0.204754;,
    0.267799;-0.134203;,
    0.058504;-0.127485;,
    0.250310;-0.284609;,
    0.516277;-0.248066;,
    0.239569;-0.242582;,
    0.516277;-0.248066;,
    0.250310;-0.284609;,
    0.466395;-0.291198;,
    0.960240;-0.267566;,
    0.718633;-0.239548;,
    0.718639;-0.271648;,
    0.718633;-0.239548;,
    0.960240;-0.267566;,
    0.960236;-0.245902;,
    0.986853;-0.205757;,
    0.703346;-0.193614;,
    0.704248;-0.215503;,
    0.703346;-0.193614;,
    0.986853;-0.205757;,
    0.986879;-0.193614;,
    0.019382;-0.327617;,
    0.066777;-0.394635;,
    0.049106;-0.394635;,
    0.066777;-0.394635;,
    0.019382;-0.327617;,
    0.037395;-0.327617;,
    0.225913;-0.394635;,
    0.037395;-0.327617;,
    0.219769;-0.327617;,
    0.037395;-0.327617;,
    0.225913;-0.394635;,
    0.066777;-0.394635;,
    0.422380;-0.400439;,
    0.219769;-0.327617;,
    0.420037;-0.327617;,
    0.219769;-0.327617;,
    0.422380;-0.400439;,
    0.225913;-0.394635;,
    0.522957;-0.426895;,
    0.420037;-0.327617;,
    0.511728;-0.327617;,
    0.420037;-0.327617;,
    0.522957;-0.426895;,
    0.422380;-0.400439;,
    0.777605;-0.403578;,
    0.562793;-0.321994;,
    0.784003;-0.321982;,
    0.562793;-0.321994;,
    0.777605;-0.403578;,
    0.573258;-0.403566;,
    0.794998;-0.327617;,
    0.874000;-0.452887;,
    0.788366;-0.430838;,
    0.872761;-0.327617;,
    0.874000;-0.452887;,
    0.794998;-0.327617;,
    0.562793;-0.321994;,
    0.522957;-0.426895;,
    0.511728;-0.327617;,
    0.522957;-0.426895;,
    0.562793;-0.321994;,
    0.573258;-0.403566;,
    0.980358;-0.327617;,
    0.874000;-0.452887;,
    0.872761;-0.327617;,
    0.963566;-0.486562;,
    0.874000;-0.452887;,
    0.980358;-0.327617;,
    0.030970;-0.442297;,
    0.278305;-0.403921;,
    0.278299;-0.450951;,
    0.278305;-0.403921;,
    0.030970;-0.442297;,
    0.030973;-0.410557;,
    0.488160;-0.484809;,
    0.791489;-0.463875;,
    0.809100;-0.486608;,
    0.777681;-0.446050;,
    0.488252;-0.470746;,
    0.488373;-0.452374;,
    0.488160;-0.484809;,
    0.488252;-0.470746;,
    0.791489;-0.463875;,
    0.777681;-0.446050;,
    0.791489;-0.463875;,
    0.488252;-0.470746;,
    0.376874;-0.662321;,
    0.506003;-0.681531;,
    0.474339;-0.636942;,
    0.376874;-0.662321;,
    0.371710;-0.586655;,
    0.329689;-0.581337;,
    0.206326;-0.613895;,
    0.185247;-0.556428;,
    0.055297;-0.534017;,
    0.329689;-0.581337;,
    0.206326;-0.613895;,
    0.376874;-0.662321;,
    0.376874;-0.662321;,
    0.449595;-0.609163;,
    0.371710;-0.586655;,
    0.206326;-0.613895;,
    0.329689;-0.581337;,
    0.276477;-0.572160;,
    0.211074;-0.603320;,
    0.258417;-0.575154;,
    0.196850;-0.564537;,
    0.506003;-0.638959;,
    0.506003;-0.591933;,
    0.471494;-0.595110;,
    0.465132;-0.617560;,
    0.506003;-0.638959;,
    0.471494;-0.595110;,
    0.376874;-0.662321;,
    0.474339;-0.636942;,
    0.449595;-0.609163;,
    0.506003;-0.681531;,
    0.506003;-0.642427;,
    0.474339;-0.636942;,
    0.449595;-0.609163;,
    0.443794;-0.587383;,
    0.371710;-0.586655;,
    0.482012;-0.634744;,
    0.506003;-0.638959;,
    0.465132;-0.617560;,
    0.835052;-0.513785;,
    0.729516;-0.676997;,
    0.743923;-0.513785;,
    0.874364;-0.658029;,
    0.729516;-0.676997;,
    0.835052;-0.513785;,
    0.921916;-0.691979;,
    0.874364;-0.658029;,
    0.974995;-0.586024;,
    0.974995;-0.586024;,
    0.874364;-0.658029;,
    0.877614;-0.585491;,
    0.974995;-0.698806;,
    0.921916;-0.691979;,
    0.974995;-0.586024;,
    0.835052;-0.513785;,
    0.974995;-0.513785;,
    0.877614;-0.585491;,
    0.974995;-0.586024;,
    0.877614;-0.585491;,
    0.974995;-0.513785;,
    0.877614;-0.585491;,
    0.874364;-0.658029;,
    0.835052;-0.513785;,
    0.596089;-0.603950;,
    0.669877;-0.525950;,
    0.674557;-0.631942;,
    0.669877;-0.525950;,
    0.596089;-0.603950;,
    0.589535;-0.520164;,
    0.540831;-0.831140;,
    0.912512;-0.861744;,
    0.823346;-0.791653;,
    0.823346;-0.791653;,
    0.503484;-0.791653;,
    0.540831;-0.831140;,
    0.540850;-0.945891;,
    0.912009;-0.945926;,
    0.912055;-0.894715;,
    0.912055;-0.894715;,
    0.540835;-0.885033;,
    0.540850;-0.945891;,
    0.480945;-0.944049;,
    0.540840;-0.877512;,
    0.540831;-0.831140;,
    0.406745;-0.814904;,
    0.235032;-0.968286;,
    0.480945;-0.944049;,
    0.406745;-0.814904;,
    0.480945;-0.944049;,
    0.540831;-0.831140;,
    0.503484;-0.791653;,
    0.406745;-0.814904;,
    0.540831;-0.831140;,
    0.235032;-0.968286;,
    0.406745;-0.814904;,
    0.226636;-0.873758;,
    0.226636;-0.873758;,
    0.108290;-0.942796;,
    0.235032;-0.968286;,
    0.002132;-0.991969;,
    0.090894;-0.991969;,
    0.108290;-0.942796;,
    0.108290;-0.942796;,
    0.019725;-0.946603;,
    0.002132;-0.991969;,
    0.226636;-0.873758;,
    0.178151;-0.852982;,
    0.019725;-0.946603;,
    0.019725;-0.946603;,
    0.108290;-0.942796;,
    0.226636;-0.873758;,
    0.406745;-0.814904;,
    0.373741;-0.791375;,
    0.178151;-0.852982;,
    0.178151;-0.852982;,
    0.226636;-0.873758;,
    0.406745;-0.814904;,
    0.503484;-0.791653;,
    0.473869;-0.742254;,
    0.406745;-0.814904;,
    0.373741;-0.791375;,
    0.406745;-0.814904;,
    0.473869;-0.742254;,
    0.823346;-0.791653;,
    0.738094;-0.755147;,
    0.473869;-0.742254;,
    0.473869;-0.742254;,
    0.503484;-0.791653;,
    0.823346;-0.791653;,
    0.540841;-0.991969;,
    0.912009;-0.991969;,
    0.912009;-0.945926;,
    0.912009;-0.945926;,
    0.540850;-0.945891;,
    0.540841;-0.991969;,
    0.090894;-0.991969;,
    0.231588;-0.991969;,
    0.235032;-0.968286;,
    0.235032;-0.968286;,
    0.108290;-0.942796;,
    0.090894;-0.991969;,
    0.480945;-0.944049;,
    0.235032;-0.968286;,
    0.231588;-0.991969;,
    0.481420;-0.969771;,
    0.480945;-0.944049;,
    0.231588;-0.991969;,
    0.912055;-0.894715;,
    0.912512;-0.861744;,
    0.540831;-0.831140;,
    0.540831;-0.831140;,
    0.540835;-0.885033;,
    0.912055;-0.894715;,
    0.912009;-0.945926;,
    0.990145;-0.963811;,
    0.912055;-0.894715;,
    0.983559;-0.938585;,
    0.912055;-0.894715;,
    0.990145;-0.963811;,
    0.912009;-0.991969;,
    0.994315;-0.991969;,
    0.912009;-0.945926;,
    0.990145;-0.963811;,
    0.912009;-0.945926;,
    0.994315;-0.991969;,
    0.912055;-0.894715;,
    0.983559;-0.938585;,
    0.912512;-0.861744;,
    0.523946;-0.699531;,
    0.473869;-0.742254;,
    0.738094;-0.755147;,
    0.738094;-0.755147;,
    0.727380;-0.713520;,
    0.523946;-0.699531;,
    0.480945;-0.944049;,
    0.540851;-0.929053;,
    0.540847;-0.910065;,
    0.480945;-0.944049;,
    0.540847;-0.910065;,
    0.540840;-0.877512;,
    0.482339;-0.991969;,
    0.481420;-0.969771;,
    0.231588;-0.991969;,
    0.066912;-0.753898;,
    0.313143;-0.760342;,
    0.313131;-0.735310;,
    0.313131;-0.735310;,
    0.066905;-0.737004;,
    0.066912;-0.753898;,
    0.019216;-0.784687;,
    0.341578;-0.784686;,
    0.338704;-0.773388;,
    0.338704;-0.773388;,
    0.019197;-0.776126;,
    0.019216;-0.784687;,
    0.267799;-0.134203;,
    0.516277;-0.248066;,
    0.239569;-0.242582;,
    0.058504;-0.127485;,
    0.024802;-0.079815;,
    0.267799;-0.134203;,
    0.267799;-0.048132;,
    0.267799;-0.134203;,
    0.024802;-0.079815;,
    0.801472;-0.154889;,
    0.605843;-0.221761;,
    0.516277;-0.248066;,
    0.516277;-0.248066;,
    0.267799;-0.134203;,
    0.801472;-0.154889;,
    0.979619;-0.051518;,
    0.801472;-0.154889;,
    0.267799;-0.134203;,
    0.267799;-0.134203;,
    0.267799;-0.048132;,
    0.979619;-0.051518;,
    0.024802;-0.079815;,
    0.009136;-0.006610;,
    0.269341;-0.006610;,
    0.267799;-0.048132;,
    0.024802;-0.079815;,
    0.269341;-0.006610;,
    0.267799;-0.048132;,
    0.269341;-0.006610;,
    0.591644;-0.006610;,
    0.979619;-0.051518;,
    0.267799;-0.048132;,
    0.591644;-0.006610;,
    0.997216;-0.006610;,
    0.979619;-0.051518;,
    0.591644;-0.006610;,
    0.239569;-0.242582;,
    0.163609;-0.204754;,
    0.267799;-0.134203;,
    0.163609;-0.204754;,
    0.058504;-0.127485;,
    0.267799;-0.134203;,
    0.250310;-0.284609;,
    0.239569;-0.242582;,
    0.516277;-0.248066;,
    0.516277;-0.248066;,
    0.466395;-0.291198;,
    0.250310;-0.284609;,
    0.960240;-0.267566;,
    0.718639;-0.271648;,
    0.718633;-0.239548;,
    0.718633;-0.239548;,
    0.960236;-0.245902;,
    0.960240;-0.267566;,
    0.986853;-0.205757;,
    0.704248;-0.215503;,
    0.703346;-0.193614;,
    0.703346;-0.193614;,
    0.986879;-0.193614;,
    0.986853;-0.205757;,
    0.019382;-0.327617;,
    0.049106;-0.394635;,
    0.066777;-0.394635;,
    0.066777;-0.394635;,
    0.037395;-0.327617;,
    0.019382;-0.327617;,
    0.225913;-0.394635;,
    0.219769;-0.327617;,
    0.037395;-0.327617;,
    0.037395;-0.327617;,
    0.066777;-0.394635;,
    0.225913;-0.394635;,
    0.422380;-0.400439;,
    0.420037;-0.327617;,
    0.219769;-0.327617;,
    0.219769;-0.327617;,
    0.225913;-0.394635;,
    0.422380;-0.400439;,
    0.522957;-0.426895;,
    0.511728;-0.327617;,
    0.420037;-0.327617;,
    0.420037;-0.327617;,
    0.422380;-0.400439;,
    0.522957;-0.426895;,
    0.777605;-0.403578;,
    0.784003;-0.321982;,
    0.562793;-0.321994;,
    0.562793;-0.321994;,
    0.573258;-0.403566;,
    0.777605;-0.403578;,
    0.794998;-0.327617;,
    0.788366;-0.430838;,
    0.874000;-0.452887;,
    0.872761;-0.327617;,
    0.794998;-0.327617;,
    0.874000;-0.452887;,
    0.562793;-0.321994;,
    0.511728;-0.327617;,
    0.522957;-0.426895;,
    0.522957;-0.426895;,
    0.573258;-0.403566;,
    0.562793;-0.321994;,
    0.980358;-0.327617;,
    0.872761;-0.327617;,
    0.874000;-0.452887;,
    0.963566;-0.486562;,
    0.980358;-0.327617;,
    0.874000;-0.452887;,
    0.030970;-0.442297;,
    0.278299;-0.450951;,
    0.278305;-0.403921;,
    0.278305;-0.403921;,
    0.030973;-0.410557;,
    0.030970;-0.442297;,
    0.488160;-0.484809;,
    0.809100;-0.486608;,
    0.791489;-0.463875;,
    0.777681;-0.446050;,
    0.488373;-0.452374;,
    0.488252;-0.470746;,
    0.488160;-0.484809;,
    0.791489;-0.463875;,
    0.488252;-0.470746;,
    0.777681;-0.446050;,
    0.488252;-0.470746;,
    0.791489;-0.463875;,
    0.376874;-0.662321;,
    0.474339;-0.636942;,
    0.506003;-0.681531;,
    0.376874;-0.662321;,
    0.329689;-0.581337;,
    0.371710;-0.586655;,
    0.206326;-0.613895;,
    0.055297;-0.534017;,
    0.185247;-0.556428;,
    0.329689;-0.581337;,
    0.376874;-0.662321;,
    0.206326;-0.613895;,
    0.376874;-0.662321;,
    0.371710;-0.586655;,
    0.449595;-0.609163;,
    0.206326;-0.613895;,
    0.276477;-0.572160;,
    0.329689;-0.581337;,
    0.211074;-0.603320;,
    0.196850;-0.564537;,
    0.258417;-0.575154;,
    0.506003;-0.638959;,
    0.471494;-0.595110;,
    0.506003;-0.591933;,
    0.465132;-0.617560;,
    0.471494;-0.595110;,
    0.506003;-0.638959;,
    0.376874;-0.662321;,
    0.449595;-0.609163;,
    0.474339;-0.636942;,
    0.506003;-0.681531;,
    0.474339;-0.636942;,
    0.506003;-0.642427;,
    0.449595;-0.609163;,
    0.371710;-0.586655;,
    0.443794;-0.587383;,
    0.482012;-0.634744;,
    0.465132;-0.617560;,
    0.506003;-0.638959;,
    0.835052;-0.513785;,
    0.743923;-0.513785;,
    0.729516;-0.676997;,
    0.874364;-0.658029;,
    0.835052;-0.513785;,
    0.729516;-0.676997;,
    0.921916;-0.691979;,
    0.974995;-0.586024;,
    0.874364;-0.658029;,
    0.974995;-0.586024;,
    0.877614;-0.585491;,
    0.874364;-0.658029;,
    0.974995;-0.698806;,
    0.974995;-0.586024;,
    0.921916;-0.691979;,
    0.835052;-0.513785;,
    0.877614;-0.585491;,
    0.974995;-0.513785;,
    0.974995;-0.586024;,
    0.974995;-0.513785;,
    0.877614;-0.585491;,
    0.877614;-0.585491;,
    0.835052;-0.513785;,
    0.874364;-0.658029;,
    0.596089;-0.603950;,
    0.674557;-0.631942;,
    0.669877;-0.525950;,
    0.669877;-0.525950;,
    0.589535;-0.520164;,
    0.596089;-0.603950;;
   }
  }
 }

 Frame frm_weapon_point_1 {
  FrameTransformMatrix {
   -0.739564,0.000000,0.000000,0.000000,
   0.000000,0.739564,0.000000,0.000000,
   0.000000,0.000000,-0.739564,0.000000,
   -0.445850,71.080666,-17.571644,1.000000;;
  }
 }

 Frame frm_engine_glow_01 {
  FrameTransformMatrix {
   -2.421352,-0.000000,0.000000,0.000000,
   0.000000,-2.421352,0.000000,0.000000,
   0.000000,0.000000,2.421352,0.000000,
   0.179867,-124.476639,9.897659,1.000000;;
  }
 }

 Frame frm_engine_glow_02 {
  FrameTransformMatrix {
   -2.421352,-0.000000,0.000000,0.000000,
   0.000000,-2.421352,0.000000,0.000000,
   0.000000,0.000000,2.421352,0.000000,
   -85.667152,-65.716431,17.476757,1.000000;;
  }
 }

 Frame frm_engine_glow_03 {
  FrameTransformMatrix {
   -2.421352,-0.000000,0.000000,0.000000,
   0.000000,-2.421352,0.000000,0.000000,
   0.000000,0.000000,2.421352,0.000000,
   85.097427,-65.716431,17.476757,1.000000;;
  }
 }

 Frame frm_weapon_point_02 {
  FrameTransformMatrix {
   -0.739564,0.000000,0.000000,0.000000,
   0.000000,0.739564,0.000000,0.000000,
   0.000000,0.000000,-0.739564,0.000000,
   33.089111,45.802700,-12.516701,1.000000;;
  }
 }

 Frame frm_weapon_point_03 {
  FrameTransformMatrix {
   -0.739564,0.000000,0.000000,0.000000,
   0.000000,0.739564,0.000000,0.000000,
   0.000000,0.000000,-0.739564,0.000000,
   -33.085976,45.802700,-12.516701,1.000000;;
  }
 }
}
