xof 0302txt 0064

Header {
 1;
 0;
 1;
}

Frame frm_Scene_Root {
 FrameTransformMatrix {
  1.000000,0.000000,0.000000,0.000000,
  0.000000,1.000000,0.000000,0.000000,
  0.000000,0.000000,1.000000,0.000000,
  0.000000,0.000000,0.000000,1.000000;;
 }

 Frame frm_Jraenar_Drone {
  FrameTransformMatrix {
   1.000000,0.000000,0.000000,0.000000,
   0.000000,1.000000,0.000000,0.000000,
   0.000000,0.000000,1.000000,0.000000,
   0.000000,0.257637,-0.000003,1.000000;;
  }

  Mesh Jraenar_Drone {
   384;
   -4.487729;-115.811676;-5.627452;,
   0.000000;-112.289429;-0.000020;,
   0.000000;-115.811668;-7.382881;,
   -7.245415;-82.679596;-9.085475;,
   0.000000;-115.811668;-7.382881;,
   0.000000;-82.679596;-11.919605;,
   0.000000;-115.811668;-7.382881;,
   -7.245415;-82.679596;-9.085475;,
   -4.487729;-115.811676;-5.627452;,
   0.000000;29.583746;-16.589132;,
   -9.113889;6.603364;-11.428451;,
   0.000000;6.603366;-14.993457;,
   -9.113889;6.603364;-11.428451;,
   0.000000;29.583746;-16.589132;,
   -10.083834;29.583746;-12.644722;,
   -8.086607;82.891808;-10.140271;,
   0.000000;29.583746;-16.589132;,
   0.000000;82.891808;-13.303442;,
   0.000000;29.583746;-16.589132;,
   -8.086607;82.891808;-10.140271;,
   -10.083834;29.583746;-12.644722;,
   -3.790872;117.892509;-4.753583;,
   0.000000;82.891808;-13.303442;,
   0.000000;117.892509;-6.236427;,
   0.000000;82.891808;-13.303442;,
   -3.790872;117.892509;-4.753583;,
   -8.086607;82.891808;-10.140271;,
   0.000000;117.892509;-6.236427;,
   0.000000;116.455353;0.000020;,
   -3.790872;117.892509;-4.753583;,
   0.000000;2.834971;-19.071426;,
   -10.235065;-79.024117;-12.834378;,
   0.000000;-79.024117;-16.837944;,
   -10.235065;-79.024117;-12.834378;,
   0.000000;2.834971;-19.071426;,
   -11.592713;2.834967;-14.536800;,
   0.000000;-115.811676;7.382843;,
   0.000000;-112.289429;-0.000020;,
   -6.484956;-115.811676;3.122972;,
   0.000000;-82.679604;11.919579;,
   -6.484956;-115.811676;3.122972;,
   -10.469928;-82.679596;5.042039;,
   -6.484956;-115.811676;3.122972;,
   0.000000;-82.679604;11.919579;,
   0.000000;-115.811676;7.382843;,
   -14.571563;29.583742;7.017300;,
   0.000000;6.603360;14.993463;,
   -13.169950;6.603361;6.342317;,
   0.000000;6.603360;14.993463;,
   -14.571563;29.583742;7.017300;,
   0.000000;29.583740;16.589142;,
   0.000000;82.891800;13.303470;,
   -14.571563;29.583742;7.017300;,
   -11.685486;82.891800;5.627447;,
   -14.571563;29.583742;7.017300;,
   0.000000;82.891800;13.303470;,
   0.000000;29.583740;16.589142;,
   0.000000;117.892509;6.236466;,
   -11.685486;82.891800;5.627447;,
   -5.477968;117.892509;2.638070;,
   -11.685486;82.891800;5.627447;,
   0.000000;117.892509;6.236466;,
   0.000000;82.891800;13.303470;,
   -5.477968;117.892509;2.638070;,
   0.000000;116.455353;0.000020;,
   0.000000;117.892509;6.236466;,
   -16.751955;2.834966;8.067319;,
   0.000000;-79.024124;16.837917;,
   -14.790097;-79.024117;7.122524;,
   0.000000;-79.024124;16.837917;,
   -16.751955;2.834966;8.067319;,
   0.000000;2.834962;19.071434;,
   -7.197758;-115.811676;-1.642859;,
   0.000000;-112.289429;-0.000020;,
   -4.487729;-115.811676;-5.627452;,
   -6.484956;-115.811676;3.122972;,
   0.000000;-112.289429;-0.000020;,
   -7.197758;-115.811676;-1.642859;,
   -11.620743;-82.679596;-2.652371;,
   -4.487729;-115.811676;-5.627452;,
   -7.245415;-82.679596;-9.085475;,
   -4.487729;-115.811676;-5.627452;,
   -11.620743;-82.679596;-2.652371;,
   -7.197758;-115.811676;-1.642859;,
   -10.469928;-82.679596;5.042039;,
   -7.197758;-115.811676;-1.642859;,
   -11.620743;-82.679596;-2.652371;,
   -7.197758;-115.811676;-1.642859;,
   -10.469928;-82.679596;5.042039;,
   -6.484956;-115.811676;3.122972;,
   -10.083834;29.583746;-12.644722;,
   -14.617542;6.603363;-3.336355;,
   -9.113889;6.603364;-11.428451;,
   -14.617542;6.603363;-3.336355;,
   -10.083834;29.583746;-12.644722;,
   -16.173214;29.583744;-3.691425;,
   -16.173214;29.583744;-3.691425;,
   -13.169950;6.603361;6.342317;,
   -14.617542;6.603363;-3.336355;,
   -13.169950;6.603361;6.342317;,
   -16.173214;29.583744;-3.691425;,
   -14.571563;29.583742;7.017300;,
   -12.969911;82.891800;-2.960283;,
   -10.083834;29.583746;-12.644722;,
   -8.086607;82.891808;-10.140271;,
   -10.083834;29.583746;-12.644722;,
   -12.969911;82.891800;-2.960283;,
   -16.173214;29.583744;-3.691425;,
   -11.685486;82.891800;5.627447;,
   -16.173214;29.583744;-3.691425;,
   -12.969911;82.891800;-2.960283;,
   -16.173214;29.583744;-3.691425;,
   -11.685486;82.891800;5.627447;,
   -14.571563;29.583742;7.017300;,
   -6.080086;117.892509;-1.387720;,
   -8.086607;82.891808;-10.140271;,
   -3.790872;117.892509;-4.753583;,
   -8.086607;82.891808;-10.140271;,
   -6.080086;117.892509;-1.387720;,
   -12.969911;82.891800;-2.960283;,
   -5.477968;117.892509;2.638070;,
   -12.969911;82.891800;-2.960283;,
   -6.080086;117.892509;-1.387720;,
   -12.969911;82.891800;-2.960283;,
   -5.477968;117.892509;2.638070;,
   -11.685486;82.891800;5.627447;,
   -3.790872;117.892509;-4.753583;,
   0.000000;116.455353;0.000020;,
   -6.080086;117.892509;-1.387720;,
   -6.080086;117.892509;-1.387720;,
   0.000000;116.455353;0.000020;,
   -5.477968;117.892509;2.638070;,
   -11.592713;2.834967;-14.536800;,
   -16.415770;-79.024117;-3.746803;,
   -10.235065;-79.024117;-12.834378;,
   -16.415770;-79.024117;-3.746803;,
   -11.592713;2.834967;-14.536800;,
   -18.593267;2.834969;-4.243789;,
   -18.593267;2.834969;-4.243789;,
   -14.790097;-79.024117;7.122524;,
   -16.415770;-79.024117;-3.746803;,
   -14.790097;-79.024117;7.122524;,
   -18.593267;2.834969;-4.243789;,
   -16.751955;2.834966;8.067319;,
   -9.113889;6.603364;-11.428451;,
   -18.593267;2.834969;-4.243789;,
   -11.592713;2.834967;-14.536800;,
   -18.593267;2.834969;-4.243789;,
   -9.113889;6.603364;-11.428451;,
   -14.617542;6.603363;-3.336355;,
   -14.617542;6.603363;-3.336355;,
   -16.751955;2.834966;8.067319;,
   -18.593267;2.834969;-4.243789;,
   -16.751955;2.834966;8.067319;,
   -14.617542;6.603363;-3.336355;,
   -13.169950;6.603361;6.342317;,
   -13.169950;6.603361;6.342317;,
   0.000000;2.834962;19.071434;,
   -16.751955;2.834966;8.067319;,
   0.000000;2.834962;19.071434;,
   -13.169950;6.603361;6.342317;,
   0.000000;6.603360;14.993463;,
   0.000000;6.603366;-14.993457;,
   -11.592713;2.834967;-14.536800;,
   0.000000;2.834971;-19.071426;,
   -11.592713;2.834967;-14.536800;,
   0.000000;6.603366;-14.993457;,
   -9.113889;6.603364;-11.428451;,
   -10.235065;-79.024117;-12.834378;,
   -11.620743;-82.679596;-2.652371;,
   -7.245415;-82.679596;-9.085475;,
   -11.620743;-82.679596;-2.652371;,
   -10.235065;-79.024117;-12.834378;,
   -16.415770;-79.024117;-3.746803;,
   -16.415770;-79.024117;-3.746803;,
   -10.469928;-82.679596;5.042039;,
   -11.620743;-82.679596;-2.652371;,
   -10.469928;-82.679596;5.042039;,
   -16.415770;-79.024117;-3.746803;,
   -14.790097;-79.024117;7.122524;,
   -14.790097;-79.024117;7.122524;,
   0.000000;-82.679604;11.919579;,
   -10.469928;-82.679596;5.042039;,
   0.000000;-82.679604;11.919579;,
   -14.790097;-79.024117;7.122524;,
   0.000000;-79.024124;16.837917;,
   0.000000;-79.024117;-16.837944;,
   -7.245415;-82.679596;-9.085475;,
   0.000000;-82.679596;-11.919605;,
   -7.245415;-82.679596;-9.085475;,
   0.000000;-79.024117;-16.837944;,
   -10.235065;-79.024117;-12.834378;,
   4.487729;-115.811676;-5.627452;,
   0.000000;-115.811668;-7.382881;,
   0.000000;-112.289429;-0.000020;,
   7.245415;-82.679596;-9.085475;,
   0.000000;-82.679596;-11.919605;,
   0.000000;-115.811668;-7.382881;,
   0.000000;-115.811668;-7.382881;,
   4.487729;-115.811676;-5.627452;,
   7.245415;-82.679596;-9.085475;,
   0.000000;29.583746;-16.589132;,
   0.000000;6.603366;-14.993457;,
   9.113889;6.603364;-11.428451;,
   9.113889;6.603364;-11.428451;,
   10.083834;29.583746;-12.644722;,
   0.000000;29.583746;-16.589132;,
   8.086607;82.891808;-10.140271;,
   0.000000;82.891808;-13.303442;,
   0.000000;29.583746;-16.589132;,
   0.000000;29.583746;-16.589132;,
   10.083834;29.583746;-12.644722;,
   8.086607;82.891808;-10.140271;,
   3.790872;117.892509;-4.753583;,
   0.000000;117.892509;-6.236427;,
   0.000000;82.891808;-13.303442;,
   0.000000;82.891808;-13.303442;,
   8.086607;82.891808;-10.140271;,
   3.790872;117.892509;-4.753583;,
   0.000000;117.892509;-6.236427;,
   3.790872;117.892509;-4.753583;,
   0.000000;116.455353;0.000020;,
   0.000000;2.834971;-19.071426;,
   0.000000;-79.024117;-16.837944;,
   10.235065;-79.024117;-12.834378;,
   10.235065;-79.024117;-12.834378;,
   11.592713;2.834967;-14.536800;,
   0.000000;2.834971;-19.071426;,
   0.000000;-115.811676;7.382843;,
   6.484956;-115.811676;3.122972;,
   0.000000;-112.289429;-0.000020;,
   0.000000;-82.679604;11.919579;,
   10.469928;-82.679596;5.042039;,
   6.484956;-115.811676;3.122972;,
   6.484956;-115.811676;3.122972;,
   0.000000;-115.811676;7.382843;,
   0.000000;-82.679604;11.919579;,
   14.571563;29.583742;7.017300;,
   13.169950;6.603361;6.342317;,
   0.000000;6.603360;14.993463;,
   0.000000;6.603360;14.993463;,
   0.000000;29.583740;16.589142;,
   14.571563;29.583742;7.017300;,
   0.000000;82.891800;13.303470;,
   11.685486;82.891800;5.627447;,
   14.571563;29.583742;7.017300;,
   14.571563;29.583742;7.017300;,
   0.000000;29.583740;16.589142;,
   0.000000;82.891800;13.303470;,
   0.000000;117.892509;6.236466;,
   5.477968;117.892509;2.638070;,
   11.685486;82.891800;5.627447;,
   11.685486;82.891800;5.627447;,
   0.000000;82.891800;13.303470;,
   0.000000;117.892509;6.236466;,
   5.477968;117.892509;2.638070;,
   0.000000;117.892509;6.236466;,
   0.000000;116.455353;0.000020;,
   16.751955;2.834966;8.067319;,
   14.790097;-79.024117;7.122524;,
   0.000000;-79.024124;16.837917;,
   0.000000;-79.024124;16.837917;,
   0.000000;2.834962;19.071434;,
   16.751955;2.834966;8.067319;,
   7.197758;-115.811676;-1.642859;,
   4.487729;-115.811676;-5.627452;,
   0.000000;-112.289429;-0.000020;,
   6.484956;-115.811676;3.122972;,
   7.197758;-115.811676;-1.642859;,
   0.000000;-112.289429;-0.000020;,
   11.620743;-82.679596;-2.652371;,
   7.245415;-82.679596;-9.085475;,
   4.487729;-115.811676;-5.627452;,
   4.487729;-115.811676;-5.627452;,
   7.197758;-115.811676;-1.642859;,
   11.620743;-82.679596;-2.652371;,
   10.469928;-82.679596;5.042039;,
   11.620743;-82.679596;-2.652371;,
   7.197758;-115.811676;-1.642859;,
   7.197758;-115.811676;-1.642859;,
   6.484956;-115.811676;3.122972;,
   10.469928;-82.679596;5.042039;,
   10.083834;29.583746;-12.644722;,
   9.113889;6.603364;-11.428451;,
   14.617542;6.603363;-3.336355;,
   14.617542;6.603363;-3.336355;,
   16.173214;29.583744;-3.691425;,
   10.083834;29.583746;-12.644722;,
   16.173214;29.583744;-3.691425;,
   14.617542;6.603363;-3.336355;,
   13.169950;6.603361;6.342317;,
   13.169950;6.603361;6.342317;,
   14.571563;29.583742;7.017300;,
   16.173214;29.583744;-3.691425;,
   12.969911;82.891800;-2.960283;,
   8.086607;82.891808;-10.140271;,
   10.083834;29.583746;-12.644722;,
   10.083834;29.583746;-12.644722;,
   16.173214;29.583744;-3.691425;,
   12.969911;82.891800;-2.960283;,
   11.685486;82.891800;5.627447;,
   12.969911;82.891800;-2.960283;,
   16.173214;29.583744;-3.691425;,
   16.173214;29.583744;-3.691425;,
   14.571563;29.583742;7.017300;,
   11.685486;82.891800;5.627447;,
   6.080086;117.892509;-1.387720;,
   3.790872;117.892509;-4.753583;,
   8.086607;82.891808;-10.140271;,
   8.086607;82.891808;-10.140271;,
   12.969911;82.891800;-2.960283;,
   6.080086;117.892509;-1.387720;,
   5.477968;117.892509;2.638070;,
   6.080086;117.892509;-1.387720;,
   12.969911;82.891800;-2.960283;,
   12.969911;82.891800;-2.960283;,
   11.685486;82.891800;5.627447;,
   5.477968;117.892509;2.638070;,
   3.790872;117.892509;-4.753583;,
   6.080086;117.892509;-1.387720;,
   0.000000;116.455353;0.000020;,
   6.080086;117.892509;-1.387720;,
   5.477968;117.892509;2.638070;,
   0.000000;116.455353;0.000020;,
   11.592713;2.834967;-14.536800;,
   10.235065;-79.024117;-12.834378;,
   16.415770;-79.024117;-3.746803;,
   16.415770;-79.024117;-3.746803;,
   18.593267;2.834969;-4.243789;,
   11.592713;2.834967;-14.536800;,
   18.593267;2.834969;-4.243789;,
   16.415770;-79.024117;-3.746803;,
   14.790097;-79.024117;7.122524;,
   14.790097;-79.024117;7.122524;,
   16.751955;2.834966;8.067319;,
   18.593267;2.834969;-4.243789;,
   9.113889;6.603364;-11.428451;,
   11.592713;2.834967;-14.536800;,
   18.593267;2.834969;-4.243789;,
   18.593267;2.834969;-4.243789;,
   14.617542;6.603363;-3.336355;,
   9.113889;6.603364;-11.428451;,
   14.617542;6.603363;-3.336355;,
   18.593267;2.834969;-4.243789;,
   16.751955;2.834966;8.067319;,
   16.751955;2.834966;8.067319;,
   13.169950;6.603361;6.342317;,
   14.617542;6.603363;-3.336355;,
   13.169950;6.603361;6.342317;,
   16.751955;2.834966;8.067319;,
   0.000000;2.834962;19.071434;,
   0.000000;2.834962;19.071434;,
   0.000000;6.603360;14.993463;,
   13.169950;6.603361;6.342317;,
   0.000000;6.603366;-14.993457;,
   0.000000;2.834971;-19.071426;,
   11.592713;2.834967;-14.536800;,
   11.592713;2.834967;-14.536800;,
   9.113889;6.603364;-11.428451;,
   0.000000;6.603366;-14.993457;,
   10.235065;-79.024117;-12.834378;,
   7.245415;-82.679596;-9.085475;,
   11.620743;-82.679596;-2.652371;,
   11.620743;-82.679596;-2.652371;,
   16.415770;-79.024117;-3.746803;,
   10.235065;-79.024117;-12.834378;,
   16.415770;-79.024117;-3.746803;,
   11.620743;-82.679596;-2.652371;,
   10.469928;-82.679596;5.042039;,
   10.469928;-82.679596;5.042039;,
   14.790097;-79.024117;7.122524;,
   16.415770;-79.024117;-3.746803;,
   14.790097;-79.024117;7.122524;,
   10.469928;-82.679596;5.042039;,
   0.000000;-82.679604;11.919579;,
   0.000000;-82.679604;11.919579;,
   0.000000;-79.024124;16.837917;,
   14.790097;-79.024117;7.122524;,
   0.000000;-79.024117;-16.837944;,
   0.000000;-82.679596;-11.919605;,
   7.245415;-82.679596;-9.085475;,
   7.245415;-82.679596;-9.085475;,
   10.235065;-79.024117;-12.834378;,
   0.000000;-79.024117;-16.837944;,

   128;
   3;0,2,1;,
   3;3,5,4;,
   3;6,8,7;,
   3;9,11,10;,
   3;12,14,13;,
   3;15,17,16;,
   3;18,20,19;,
   3;21,23,22;,
   3;24,26,25;,
   3;27,29,28;,
   3;30,32,31;,
   3;33,35,34;,
   3;36,38,37;,
   3;39,41,40;,
   3;42,44,43;,
   3;45,47,46;,
   3;48,50,49;,
   3;51,53,52;,
   3;54,56,55;,
   3;57,59,58;,
   3;60,62,61;,
   3;63,65,64;,
   3;66,68,67;,
   3;69,71,70;,
   3;72,74,73;,
   3;75,77,76;,
   3;78,80,79;,
   3;81,83,82;,
   3;84,86,85;,
   3;87,89,88;,
   3;90,92,91;,
   3;93,95,94;,
   3;96,98,97;,
   3;99,101,100;,
   3;102,104,103;,
   3;105,107,106;,
   3;108,110,109;,
   3;111,113,112;,
   3;114,116,115;,
   3;117,119,118;,
   3;120,122,121;,
   3;123,125,124;,
   3;126,128,127;,
   3;129,131,130;,
   3;132,134,133;,
   3;135,137,136;,
   3;138,140,139;,
   3;141,143,142;,
   3;144,146,145;,
   3;147,149,148;,
   3;150,152,151;,
   3;153,155,154;,
   3;156,158,157;,
   3;159,161,160;,
   3;162,164,163;,
   3;165,167,166;,
   3;168,170,169;,
   3;171,173,172;,
   3;174,176,175;,
   3;177,179,178;,
   3;180,182,181;,
   3;183,185,184;,
   3;186,188,187;,
   3;189,191,190;,
   3;192,194,193;,
   3;195,197,196;,
   3;198,200,199;,
   3;201,203,202;,
   3;204,206,205;,
   3;207,209,208;,
   3;210,212,211;,
   3;213,215,214;,
   3;216,218,217;,
   3;219,221,220;,
   3;222,224,223;,
   3;225,227,226;,
   3;228,230,229;,
   3;231,233,232;,
   3;234,236,235;,
   3;237,239,238;,
   3;240,242,241;,
   3;243,245,244;,
   3;246,248,247;,
   3;249,251,250;,
   3;252,254,253;,
   3;255,257,256;,
   3;258,260,259;,
   3;261,263,262;,
   3;264,266,265;,
   3;267,269,268;,
   3;270,272,271;,
   3;273,275,274;,
   3;276,278,277;,
   3;279,281,280;,
   3;282,284,283;,
   3;285,287,286;,
   3;288,290,289;,
   3;291,293,292;,
   3;294,296,295;,
   3;297,299,298;,
   3;300,302,301;,
   3;303,305,304;,
   3;306,308,307;,
   3;309,311,310;,
   3;312,314,313;,
   3;315,317,316;,
   3;318,320,319;,
   3;321,323,322;,
   3;324,326,325;,
   3;327,329,328;,
   3;330,332,331;,
   3;333,335,334;,
   3;336,338,337;,
   3;339,341,340;,
   3;342,344,343;,
   3;345,347,346;,
   3;348,350,349;,
   3;351,353,352;,
   3;354,356,355;,
   3;357,359,358;,
   3;360,362,361;,
   3;363,365,364;,
   3;366,368,367;,
   3;369,371,370;,
   3;372,374,373;,
   3;375,377,376;,
   3;378,380,379;,
   3;381,383,382;;

   MeshMaterialList {
    1;
    1;
    0;;
    Material {
     1.000000,1.000000,1.000000,1.000000;;
     9.999999;
     0.900000,0.900000,0.900000;;
     0.000000,0.000000,0.000000;;
     TextureFilename {
      "JRA_DRON.bmp";
     }
    }
   }

   MeshNormals {
    156;
    0.274054;-0.898220;0.343651;,
    0.272171;-0.868475;-0.414336;,
    0.450923;-0.890011;-0.067442;,
    -0.274054;-0.898220;0.343651;,
    -0.272171;-0.868475;-0.414336;,
    -0.450923;-0.890011;-0.067442;,
    -0.356097;-0.210815;-0.910358;,
    0.356097;-0.210815;-0.910358;,
    -0.361358;-0.126495;-0.923807;,
    0.000000;-0.802599;-0.596519;,
    0.361358;-0.126495;-0.923807;,
    -0.364167;-0.025402;-0.930987;,
    0.000000;0.734434;-0.678680;,
    0.364167;-0.025402;-0.930987;,
    -0.364217;0.019199;-0.931116;,
    0.364217;0.019199;-0.931116;,
    -0.361623;0.120646;-0.924485;,
    0.361623;0.120646;-0.924485;,
    -0.341745;0.346292;-0.873666;,
    0.341745;0.346292;-0.873666;,
    0.143423;0.973183;0.179846;,
    0.145931;0.964029;-0.222155;,
    0.237560;0.970723;-0.035531;,
    -0.143423;0.973183;0.179846;,
    -0.145931;0.964029;-0.222155;,
    -0.237560;0.970723;-0.035531;,
    -0.364167;-0.025402;-0.930987;,
    0.000000;-0.802599;-0.596519;,
    0.364167;-0.025402;-0.930987;,
    -0.363525;-0.064531;-0.929347;,
    0.000000;0.734434;-0.678680;,
    0.363525;-0.064531;-0.929347;,
    -0.705883;-0.257687;-0.659792;,
    -0.559782;-0.131974;-0.818063;,
    -0.316281;-0.792871;-0.520886;,
    -0.694284;-0.026472;-0.719214;,
    -0.381227;0.724470;-0.574290;,
    -0.691657;0.020541;-0.721934;,
    -0.572573;0.104859;-0.813121;,
    -0.471039;0.272184;-0.839070;,
    -0.532428;-0.026426;-0.846063;,
    -0.415876;-0.794305;-0.442861;,
    -0.532804;-0.067136;-0.843571;,
    -0.491987;0.723301;-0.484545;,
    -0.520363;-0.318892;0.792168;,
    0.520363;-0.318892;0.792168;,
    -0.545467;-0.113703;0.830384;,
    0.000000;-0.802599;0.596519;,
    0.545467;-0.113703;0.830384;,
    -0.548885;-0.022799;0.835587;,
    -0.000000;0.734434;0.678680;,
    0.548885;-0.022799;0.835587;,
    -0.548933;0.018512;0.835661;,
    0.548933;0.018512;0.835661;,
    -0.547364;0.077791;0.833272;,
    0.547364;0.077791;0.833272;,
    -0.536299;0.214080;0.816427;,
    0.536299;0.214080;0.816427;,
    -0.548885;-0.022799;0.835587;,
    0.000000;-0.802599;0.596519;,
    0.548885;-0.022799;0.835587;,
    -0.548105;-0.057938;0.834400;,
    0.000000;0.734434;0.678680;,
    0.548105;-0.057938;0.834400;,
    -0.539024;-0.190024;0.820575;,
    -0.926061;-0.351037;0.138506;,
    -0.545467;-0.113703;0.830384;,
    -0.981055;-0.126496;0.146732;,
    -0.537909;-0.795119;0.280071;,
    -0.548885;-0.022799;0.835587;,
    -0.988680;-0.025402;0.147872;,
    -0.589423;0.724155;0.358022;,
    -0.548946;0.017231;0.835680;,
    -0.988789;0.020626;0.147888;,
    -0.545790;0.108430;0.830876;,
    -0.985283;0.086614;0.147364;,
    -0.521173;0.314477;0.793400;,
    -0.960768;0.237228;0.143697;,
    -0.548885;-0.022799;0.835587;,
    -0.988680;-0.025402;0.147872;,
    -0.447991;-0.779068;0.438585;,
    -0.548105;-0.057938;0.834400;,
    -0.986938;-0.064531;0.147612;,
    -0.486944;0.701228;0.520735;,
    -0.774257;-0.351037;-0.526593;,
    -0.966773;-0.210815;0.144595;,
    -0.820235;-0.126496;-0.557864;,
    -0.981055;-0.126496;0.146732;,
    -0.557476;-0.798881;-0.225852;,
    -0.826611;-0.025402;-0.562200;,
    -0.988680;-0.025402;0.147872;,
    -0.643194;0.732382;-0.223425;,
    -0.826702;0.020626;-0.562262;,
    -0.988817;0.019199;0.147893;,
    -0.823770;0.086614;-0.560268;,
    -0.981775;0.120646;0.146839;,
    -0.803274;0.237228;-0.546328;,
    -0.927807;0.346292;0.138768;,
    -0.826611;-0.025402;-0.562200;,
    -0.988680;-0.025402;0.147872;,
    -0.594033;-0.801110;-0.073133;,
    -0.825154;-0.064531;-0.561210;,
    -0.986938;-0.064531;0.147612;,
    -0.681012;0.730554;-0.050139;,
    0.705883;-0.257687;-0.659792;,
    0.559782;-0.131974;-0.818063;,
    0.316281;-0.792871;-0.520886;,
    0.694284;-0.026472;-0.719214;,
    0.381227;0.724470;-0.574290;,
    0.691657;0.020541;-0.721934;,
    0.572573;0.104859;-0.813121;,
    0.471039;0.272184;-0.839070;,
    0.532428;-0.026426;-0.846063;,
    0.415876;-0.794305;-0.442861;,
    0.532804;-0.067136;-0.843571;,
    0.491987;0.723301;-0.484545;,
    0.539024;-0.190024;0.820575;,
    0.926061;-0.351037;0.138506;,
    0.545467;-0.113703;0.830384;,
    0.981055;-0.126496;0.146732;,
    0.537909;-0.795119;0.280071;,
    0.548885;-0.022799;0.835587;,
    0.988680;-0.025402;0.147872;,
    0.589423;0.724155;0.358022;,
    0.548946;0.017231;0.835680;,
    0.988789;0.020626;0.147888;,
    0.545790;0.108430;0.830876;,
    0.985283;0.086614;0.147364;,
    0.521173;0.314477;0.793400;,
    0.960768;0.237227;0.143697;,
    0.548885;-0.022799;0.835587;,
    0.988680;-0.025402;0.147872;,
    0.447991;-0.779068;0.438585;,
    0.548105;-0.057938;0.834400;,
    0.986938;-0.064531;0.147612;,
    0.486944;0.701228;0.520735;,
    0.774257;-0.351037;-0.526593;,
    0.966773;-0.210815;0.144595;,
    0.820235;-0.126496;-0.557864;,
    0.981055;-0.126496;0.146732;,
    0.557476;-0.798881;-0.225852;,
    0.826611;-0.025402;-0.562200;,
    0.988680;-0.025402;0.147872;,
    0.643194;0.732382;-0.223425;,
    0.826702;0.020626;-0.562262;,
    0.988817;0.019199;0.147893;,
    0.823770;0.086614;-0.560268;,
    0.981775;0.120646;0.146839;,
    0.803274;0.237228;-0.546328;,
    0.927807;0.346292;0.138768;,
    0.826611;-0.025402;-0.562200;,
    0.988680;-0.025402;0.147872;,
    0.594033;-0.801110;-0.073133;,
    0.825154;-0.064531;-0.561210;,
    0.986938;-0.064531;0.147612;,
    0.681012;0.730554;-0.050139;,

    128;
    3;32,6,0;,
    3;33,8,6;,
    3;6,32,33;,
    3;14,29,42;,
    3;42,37,14;,
    3;38,16,14;,
    3;14,37,38;,
    3;39,18,16;,
    3;16,38,39;,
    3;18,39,20;,
    3;11,26,40;,
    3;40,35,11;,
    3;44,64,1;,
    3;46,66,64;,
    3;64,44,46;,
    3;72,81,61;,
    3;61,52,72;,
    3;54,74,72;,
    3;72,52,54;,
    3;56,76,74;,
    3;74,54,56;,
    3;76,56,21;,
    3;69,78,58;,
    3;58,49,69;,
    3;84,32,0;,
    3;65,85,2;,
    3;86,33,32;,
    3;32,84,86;,
    3;67,87,85;,
    3;85,65,67;,
    3;37,42,101;,
    3;101,92,37;,
    3;93,102,82;,
    3;82,73,93;,
    3;94,38,37;,
    3;37,92,94;,
    3;75,95,93;,
    3;93,73,75;,
    3;96,39,38;,
    3;38,94,96;,
    3;77,97,95;,
    3;95,75,77;,
    3;39,96,20;,
    3;97,77,22;,
    3;35,40,98;,
    3;98,89,35;,
    3;90,99,79;,
    3;79,70,90;,
    3;43,36,91;,
    3;91,103,43;,
    3;103,91,71;,
    3;71,83,103;,
    3;83,71,50;,
    3;50,62,83;,
    3;30,12,36;,
    3;36,43,30;,
    3;41,34,88;,
    3;88,100,41;,
    3;100,88,68;,
    3;68,80,100;,
    3;80,68,47;,
    3;47,59,80;,
    3;27,9,34;,
    3;34,41,27;,
    3;104,3,7;,
    3;105,7,10;,
    3;7,105,104;,
    3;15,114,31;,
    3;114,15,109;,
    3;110,15,17;,
    3;15,110,109;,
    3;111,17,19;,
    3;17,111,110;,
    3;19,23,111;,
    3;13,112,28;,
    3;112,13,107;,
    3;45,4,116;,
    3;48,116,118;,
    3;116,48,45;,
    3;124,63,133;,
    3;63,124,53;,
    3;55,124,126;,
    3;124,55,53;,
    3;57,126,128;,
    3;126,57,55;,
    3;128,24,57;,
    3;121,60,130;,
    3;60,121,51;,
    3;136,3,104;,
    3;117,5,137;,
    3;138,104,105;,
    3;104,138,136;,
    3;119,137,139;,
    3;137,119,117;,
    3;109,153,114;,
    3;153,109,144;,
    3;145,134,154;,
    3;134,145,125;,
    3;146,109,110;,
    3;109,146,144;,
    3;127,145,147;,
    3;145,127,125;,
    3;148,110,111;,
    3;110,148,146;,
    3;129,147,149;,
    3;147,129,127;,
    3;111,23,148;,
    3;149,25,129;,
    3;107,150,112;,
    3;150,107,141;,
    3;142,131,151;,
    3;131,142,122;,
    3;115,143,108;,
    3;143,115,155;,
    3;155,123,143;,
    3;123,155,135;,
    3;135,50,123;,
    3;50,135,62;,
    3;30,108,12;,
    3;108,30,115;,
    3;113,140,106;,
    3;140,113,152;,
    3;152,120,140;,
    3;120,152,132;,
    3;132,47,120;,
    3;47,132,59;,
    3;27,106,9;,
    3;106,27,113;;
   }

   MeshTextureCoords {
    384;
    0.919764;-0.753899;,
    0.987029;-0.821573;,
    0.919764;-0.821573;,
    0.723839;-0.712314;,
    0.919764;-0.821573;,
    0.723839;-0.821573;,
    0.919764;-0.821573;,
    0.723839;-0.712314;,
    0.919764;-0.753899;,
    0.850700;-0.983774;,
    0.986594;-0.846339;,
    0.986594;-0.983773;,
    0.986594;-0.846339;,
    0.850700;-0.983774;,
    0.850700;-0.831712;,
    0.535466;-0.861830;,
    0.850700;-0.983774;,
    0.535466;-0.983774;,
    0.850700;-0.983774;,
    0.535466;-0.861830;,
    0.850700;-0.831712;,
    0.328490;-0.926609;,
    0.535466;-0.983774;,
    0.328490;-0.983774;,
    0.535466;-0.983774;,
    0.328490;-0.926609;,
    0.535466;-0.861830;,
    0.328490;-0.983774;,
    0.276577;-0.983774;,
    0.328490;-0.926609;,
    0.218153;-0.821573;,
    0.702222;-0.667231;,
    0.702222;-0.821573;,
    0.702222;-0.667231;,
    0.218153;-0.821573;,
    0.218153;-0.646758;,
    0.210671;-0.184855;,
    0.135951;-0.184855;,
    0.210671;-0.252010;,
    0.428309;-0.184855;,
    0.210671;-0.252010;,
    0.428309;-0.293275;,
    0.210671;-0.252010;,
    0.428309;-0.184855;,
    0.210671;-0.184855;,
    0.346634;-0.169495;,
    0.195680;-0.018600;,
    0.195680;-0.154980;,
    0.195680;-0.018600;,
    0.346634;-0.169495;,
    0.346634;-0.018600;,
    0.696804;-0.018600;,
    0.346634;-0.169495;,
    0.696804;-0.139608;,
    0.346634;-0.169495;,
    0.696804;-0.018600;,
    0.346634;-0.018600;,
    0.926717;-0.018600;,
    0.696804;-0.139608;,
    0.926717;-0.075326;,
    0.696804;-0.139608;,
    0.926717;-0.018600;,
    0.696804;-0.018600;,
    0.926717;-0.075326;,
    0.984383;-0.018600;,
    0.926717;-0.018600;,
    0.990037;-0.358329;,
    0.452321;-0.184855;,
    0.452321;-0.338013;,
    0.452321;-0.184855;,
    0.990037;-0.358329;,
    0.990037;-0.184855;,
    0.900382;-0.437547;,
    0.966022;-0.423412;,
    0.900382;-0.471833;,
    0.900382;-0.396540;,
    0.966022;-0.423412;,
    0.900382;-0.437547;,
    0.709189;-0.446234;,
    0.900382;-0.471833;,
    0.709189;-0.501588;,
    0.900382;-0.471833;,
    0.709189;-0.446234;,
    0.900382;-0.437547;,
    0.709189;-0.380027;,
    0.900382;-0.437547;,
    0.709189;-0.446234;,
    0.900382;-0.437547;,
    0.709189;-0.380027;,
    0.900382;-0.396540;,
    0.188357;-0.431772;,
    0.108262;-0.299160;,
    0.177892;-0.299160;,
    0.108262;-0.299160;,
    0.188357;-0.431772;,
    0.111317;-0.431772;,
    0.111317;-0.431772;,
    0.024981;-0.299160;,
    0.108262;-0.299160;,
    0.024981;-0.299160;,
    0.111317;-0.431772;,
    0.019174;-0.431772;,
    0.105027;-0.739393;,
    0.188357;-0.431772;,
    0.166807;-0.739393;,
    0.188357;-0.431772;,
    0.105027;-0.739393;,
    0.111317;-0.431772;,
    0.031132;-0.739393;,
    0.111317;-0.431772;,
    0.105027;-0.739393;,
    0.111317;-0.431772;,
    0.031132;-0.739393;,
    0.019174;-0.431772;,
    0.091495;-0.949981;,
    0.166807;-0.739393;,
    0.120457;-0.949981;,
    0.166807;-0.739393;,
    0.091495;-0.949981;,
    0.105027;-0.739393;,
    0.056854;-0.949981;,
    0.105027;-0.739393;,
    0.091495;-0.949981;,
    0.105027;-0.739393;,
    0.056854;-0.949981;,
    0.031132;-0.739393;,
    0.120457;-0.949981;,
    0.079554;-0.992029;,
    0.091495;-0.949981;,
    0.091495;-0.949981;,
    0.079554;-0.992029;,
    0.056854;-0.949981;,
    0.215715;-0.548495;,
    0.688094;-0.455651;,
    0.688094;-0.533846;,
    0.688094;-0.455651;,
    0.215715;-0.548495;,
    0.215715;-0.459928;,
    0.215715;-0.459928;,
    0.688094;-0.362125;,
    0.688094;-0.455651;,
    0.688094;-0.362125;,
    0.215715;-0.459928;,
    0.215715;-0.353996;,
    0.780361;-0.681311;,
    0.718530;-0.636075;,
    0.764192;-0.700881;,
    0.718530;-0.636075;,
    0.780361;-0.681311;,
    0.744463;-0.630362;,
    0.744463;-0.630362;,
    0.730540;-0.558564;,
    0.718530;-0.636075;,
    0.730540;-0.558564;,
    0.744463;-0.630362;,
    0.753904;-0.569424;,
    0.753904;-0.569424;,
    0.839807;-0.489280;,
    0.730540;-0.558564;,
    0.839807;-0.489280;,
    0.753904;-0.569424;,
    0.839807;-0.514956;,
    0.839807;-0.703756;,
    0.764192;-0.700881;,
    0.839807;-0.729432;,
    0.764192;-0.700881;,
    0.839807;-0.703756;,
    0.780361;-0.681311;,
    0.899213;-0.693601;,
    0.887326;-0.616958;,
    0.924859;-0.665382;,
    0.887326;-0.616958;,
    0.899213;-0.693601;,
    0.846192;-0.625196;,
    0.846192;-0.625196;,
    0.897197;-0.559040;,
    0.887326;-0.616958;,
    0.897197;-0.559040;,
    0.846192;-0.625196;,
    0.860137;-0.543379;,
    0.860137;-0.543379;,
    0.987013;-0.507270;,
    0.897197;-0.559040;,
    0.987013;-0.507270;,
    0.860137;-0.543379;,
    0.987013;-0.470249;,
    0.987013;-0.723737;,
    0.924859;-0.665382;,
    0.987013;-0.686715;,
    0.924859;-0.665382;,
    0.987013;-0.723737;,
    0.899213;-0.693601;,
    0.919764;-0.753899;,
    0.919764;-0.821573;,
    0.987029;-0.821573;,
    0.723839;-0.712314;,
    0.723839;-0.821573;,
    0.919764;-0.821573;,
    0.919764;-0.821573;,
    0.919764;-0.753899;,
    0.723839;-0.712314;,
    0.850700;-0.983774;,
    0.986594;-0.983773;,
    0.986594;-0.846339;,
    0.986594;-0.846339;,
    0.850700;-0.831712;,
    0.850700;-0.983774;,
    0.535466;-0.861830;,
    0.535466;-0.983774;,
    0.850700;-0.983774;,
    0.850700;-0.983774;,
    0.850700;-0.831712;,
    0.535466;-0.861830;,
    0.328490;-0.926609;,
    0.328490;-0.983774;,
    0.535466;-0.983774;,
    0.535466;-0.983774;,
    0.535466;-0.861830;,
    0.328490;-0.926609;,
    0.328490;-0.983774;,
    0.328490;-0.926609;,
    0.276577;-0.983774;,
    0.218153;-0.821573;,
    0.702222;-0.821573;,
    0.702222;-0.667231;,
    0.702222;-0.667231;,
    0.218153;-0.646758;,
    0.218153;-0.821573;,
    0.210671;-0.184855;,
    0.210671;-0.252010;,
    0.135951;-0.184855;,
    0.428309;-0.184855;,
    0.428309;-0.293275;,
    0.210671;-0.252010;,
    0.210671;-0.252010;,
    0.210671;-0.184855;,
    0.428309;-0.184855;,
    0.346634;-0.169495;,
    0.195680;-0.154980;,
    0.195680;-0.018600;,
    0.195680;-0.018600;,
    0.346634;-0.018600;,
    0.346634;-0.169495;,
    0.696804;-0.018600;,
    0.696804;-0.139608;,
    0.346634;-0.169495;,
    0.346634;-0.169495;,
    0.346634;-0.018600;,
    0.696804;-0.018600;,
    0.926717;-0.018600;,
    0.926717;-0.075326;,
    0.696804;-0.139608;,
    0.696804;-0.139608;,
    0.696804;-0.018600;,
    0.926717;-0.018600;,
    0.926717;-0.075326;,
    0.926717;-0.018600;,
    0.984383;-0.018600;,
    0.990037;-0.358329;,
    0.452321;-0.338013;,
    0.452321;-0.184855;,
    0.452321;-0.184855;,
    0.990037;-0.184855;,
    0.990037;-0.358329;,
    0.900382;-0.437547;,
    0.900382;-0.471833;,
    0.966022;-0.423412;,
    0.900382;-0.396540;,
    0.900382;-0.437547;,
    0.966022;-0.423412;,
    0.709189;-0.446234;,
    0.709189;-0.501588;,
    0.900382;-0.471833;,
    0.900382;-0.471833;,
    0.900382;-0.437547;,
    0.709189;-0.446234;,
    0.709189;-0.380027;,
    0.709189;-0.446234;,
    0.900382;-0.437547;,
    0.900382;-0.437547;,
    0.900382;-0.396540;,
    0.709189;-0.380027;,
    0.188357;-0.431772;,
    0.177892;-0.299160;,
    0.108262;-0.299160;,
    0.108262;-0.299160;,
    0.111317;-0.431772;,
    0.188357;-0.431772;,
    0.111317;-0.431772;,
    0.108262;-0.299160;,
    0.024981;-0.299160;,
    0.024981;-0.299160;,
    0.019174;-0.431772;,
    0.111317;-0.431772;,
    0.105027;-0.739393;,
    0.166807;-0.739393;,
    0.188357;-0.431772;,
    0.188357;-0.431772;,
    0.111317;-0.431772;,
    0.105027;-0.739393;,
    0.031132;-0.739393;,
    0.105027;-0.739393;,
    0.111317;-0.431772;,
    0.111317;-0.431772;,
    0.019174;-0.431772;,
    0.031132;-0.739393;,
    0.091495;-0.949981;,
    0.120457;-0.949981;,
    0.166807;-0.739393;,
    0.166807;-0.739393;,
    0.105027;-0.739393;,
    0.091495;-0.949981;,
    0.056854;-0.949981;,
    0.091495;-0.949981;,
    0.105027;-0.739393;,
    0.105027;-0.739393;,
    0.031132;-0.739393;,
    0.056854;-0.949981;,
    0.120457;-0.949981;,
    0.091495;-0.949981;,
    0.079554;-0.992029;,
    0.091495;-0.949981;,
    0.056854;-0.949981;,
    0.079554;-0.992029;,
    0.215715;-0.548495;,
    0.688094;-0.533846;,
    0.688094;-0.455651;,
    0.688094;-0.455651;,
    0.215715;-0.459928;,
    0.215715;-0.548495;,
    0.215715;-0.459928;,
    0.688094;-0.455651;,
    0.688094;-0.362125;,
    0.688094;-0.362125;,
    0.215715;-0.353996;,
    0.215715;-0.459928;,
    0.780361;-0.681311;,
    0.764192;-0.700881;,
    0.718530;-0.636075;,
    0.718530;-0.636075;,
    0.744463;-0.630362;,
    0.780361;-0.681311;,
    0.744463;-0.630362;,
    0.718530;-0.636075;,
    0.730540;-0.558564;,
    0.730540;-0.558564;,
    0.753904;-0.569424;,
    0.744463;-0.630362;,
    0.753904;-0.569424;,
    0.730540;-0.558564;,
    0.839807;-0.489280;,
    0.839807;-0.489280;,
    0.839807;-0.514956;,
    0.753904;-0.569424;,
    0.839807;-0.703756;,
    0.839807;-0.729432;,
    0.764192;-0.700881;,
    0.764192;-0.700881;,
    0.780361;-0.681311;,
    0.839807;-0.703756;,
    0.899213;-0.693601;,
    0.924859;-0.665382;,
    0.887326;-0.616958;,
    0.887326;-0.616958;,
    0.846192;-0.625196;,
    0.899213;-0.693601;,
    0.846192;-0.625196;,
    0.887326;-0.616958;,
    0.897197;-0.559040;,
    0.897197;-0.559040;,
    0.860137;-0.543379;,
    0.846192;-0.625196;,
    0.860137;-0.543379;,
    0.897197;-0.559040;,
    0.987013;-0.507270;,
    0.987013;-0.507270;,
    0.987013;-0.470249;,
    0.860137;-0.543379;,
    0.987013;-0.723737;,
    0.987013;-0.686715;,
    0.924859;-0.665382;,
    0.924859;-0.665382;,
    0.899213;-0.693601;,
    0.987013;-0.723737;;
   }
  }
 }

 Frame frm_weapon_point_1 {
  FrameTransformMatrix {
   -0.739564,0.000000,0.000000,0.000000,
   0.000000,0.739564,0.000000,0.000000,
   0.000000,0.000000,-0.739564,0.000000,
   -0.445850,118.586197,0.154249,1.000000;;
  }
 }

 Frame frm_engine_glow_01 {
  FrameTransformMatrix {
   -2.004394,-0.000000,0.000000,0.000000,
   0.000000,-2.004394,0.000000,0.000000,
   0.000000,0.000000,2.004394,0.000000,
   0.179867,-117.049957,0.068024,1.000000;;
  }
 }
}
