xof 0302txt 0032
Header {
 1;
 0;
 1;
}
template Header {
 <3D82AB43-62DA-11cf-AB39-0020AF71E433>
 WORD major;
 WORD minor;
 DWORD flags;
}

template Vector {
 <3D82AB5E-62DA-11cf-AB39-0020AF71E433>
 FLOAT x;
 FLOAT y;
 FLOAT z;
}

template Coords2d {
 <F6F23F44-7686-11cf-8F52-0040333594A3>
 FLOAT u;
 FLOAT v;
}

template Matrix4x4 {
 <F6F23F45-7686-11cf-8F52-0040333594A3>
 array FLOAT matrix[16];
}

template ColorRGBA {
 <35FF44E0-6C7C-11cf-8F52-0040333594A3>
 FLOAT red;
 FLOAT green;
 FLOAT blue;
 FLOAT alpha;
}

template ColorRGB {
 <D3E16E81-7835-11cf-8F52-0040333594A3>
 FLOAT red;
 FLOAT green;
 FLOAT blue;
}

template TextureFilename {
 <A42790E1-7810-11cf-8F52-0040333594A3>
 STRING filename;
}

template Material {
 <3D82AB4D-62DA-11cf-AB39-0020AF71E433>
 ColorRGBA faceColor;
 FLOAT power;
 ColorRGB specularColor;
 ColorRGB emissiveColor;
 [...]
}

template MeshFace {
 <3D82AB5F-62DA-11cf-AB39-0020AF71E433>
 DWORD nFaceVertexIndices;
 array DWORD faceVertexIndices[nFaceVertexIndices];
}

template MeshTextureCoords {
 <F6F23F40-7686-11cf-8F52-0040333594A3>
 DWORD nTextureCoords;
 array Coords2d textureCoords[nTextureCoords];
}

template MeshMaterialList {
 <F6F23F42-7686-11cf-8F52-0040333594A3>
 DWORD nMaterials;
 DWORD nFaceIndexes;
 array DWORD faceIndexes[nFaceIndexes];
 [Material]
}

template MeshNormals {
 <F6F23F43-7686-11cf-8F52-0040333594A3>
 DWORD nNormals;
 array Vector normals[nNormals];
 DWORD nFaceNormals;
 array MeshFace faceNormals[nFaceNormals];
}

template Mesh {
 <3D82AB44-62DA-11cf-AB39-0020AF71E433>
 DWORD nVertices;
 array Vector vertices[nVertices];
 DWORD nFaces;
 array MeshFace faces[nFaces];
 [...]
}

template FrameTransformMatrix {
 <F6F23F41-7686-11cf-8F52-0040333594A3>
 Matrix4x4 frameMatrix;
}

template Frame {
 <3D82AB46-62DA-11cf-AB39-0020AF71E433>
 [...]
}
template FloatKeys {
 <10DD46A9-775B-11cf-8F52-0040333594A3>
 DWORD nValues;
 array FLOAT values[nValues];
}

template TimedFloatKeys {
 <F406B180-7B3B-11cf-8F52-0040333594A3>
 DWORD time;
 FloatKeys tfkeys;
}

template AnimationKey {
 <10DD46A8-775B-11cf-8F52-0040333594A3>
 DWORD keyType;
 DWORD nKeys;
 array TimedFloatKeys keys[nKeys];
}

template AnimationOptions {
 <E2BF56C0-840F-11cf-8F52-0040333594A3>
 DWORD openclosed;
 DWORD positionquality;
}

template Animation {
 <3D82AB4F-62DA-11cf-AB39-0020AF71E433>
 [...]
}

template AnimationSet {
 <3D82AB50-62DA-11cf-AB39-0020AF71E433>
 [Animation]
}
Frame xmmer_1 {
   FrameTransformMatrix {
5000.000000,0.000000,0.000000,0.000000,
0.000000,-5000.000000,-0.000437,0.000000,
0.000000,0.000437,-5000.000000,0.000000,
0.000000,-0.002384,0.000596,1.000000;;
 }
Mesh xmmer_11 {
 717;
1.959984;6.862155;0.087027;,
5.806780;6.862155;-0.438708;,
1.959984;8.055780;0.087027;,
-1.959984;8.055779;0.087027;,
-5.806779;7.639058;-0.438708;,
-5.806779;6.862155;-0.438708;,
-0.286072;6.862155;0.451178;,
0.000000;6.993885;0.533949;,
-0.256951;10.675188;0.087027;,
-0.749260;8.770164;0.087027;,
-0.987628;6.862155;0.342662;,
-1.959984;6.862154;0.087027;,
-0.613687;6.862154;-0.418563;,
0.000000;6.862155;-0.418563;,
0.000000;6.662148;-1.092834;,
-0.613687;6.662147;-0.961307;,
-0.987628;6.862154;-0.268249;,
0.987629;6.862155;0.342662;,
0.749260;8.770164;0.087027;,
0.159052;3.218588;1.971674;,
0.345588;4.174356;1.971674;,
0.000000;3.066805;2.054445;,
3.545728;2.035251;0.057016;,
3.696739;3.604313;0.057016;,
2.210269;2.035252;0.342662;,
-0.848872;2.035251;0.451178;,
-0.408800;2.951859;0.451178;,
-1.910019;3.915352;0.193451;,
-0.987628;4.577614;0.342662;,
-3.696738;3.604314;0.057016;,
-2.210268;2.035251;0.342662;,
-1.959984;6.862154;0.087027;,
-0.987628;6.862155;0.342662;,
-0.987628;6.862155;0.342662;,
-0.613687;4.156928;0.451178;,
-0.286072;6.862155;0.451178;,
-0.987628;6.862155;0.342662;,
-0.987628;6.862155;0.342662;,
0.000000;3.066805;2.054445;,
0.000000;4.174356;2.054445;,
-0.345587;4.174356;1.971674;,
5.806780;6.862155;-0.438708;,
1.959984;6.862155;0.087027;,
5.806780;6.862155;-0.626794;,
1.959984;6.862155;-0.101059;,
5.806780;7.639058;-0.626794;,
1.959984;8.055780;-0.101059;,
5.806780;7.639058;-0.438708;,
1.959984;8.055780;0.087027;,
1.959984;8.055780;0.087027;,
0.749260;8.770164;0.087027;,
0.749260;8.770164;-0.101059;,
1.782945;1.773483;0.208923;,
0.000000;-11.411327;0.387713;,
1.782945;-11.411326;0.208923;,
0.000000;1.773483;0.387713;,
2.939635;-0.717694;0.057016;,
2.210269;0.656777;0.342662;,
0.000000;2.035252;0.533949;,
0.000000;2.523906;0.533949;,
-2.210269;0.656777;0.342662;,
-3.545729;2.035251;0.057016;,
-2.939635;-0.717694;0.057016;,
-1.782944;1.773482;0.208923;,
-1.782944;-11.411327;0.208923;,
-0.749260;8.770164;0.087027;,
-0.749260;8.770164;-0.101059;,
-1.959984;8.055779;-0.101059;,
-1.959984;8.055779;0.087027;,
-5.806779;7.639058;-0.438708;,
-1.959984;8.055779;0.087027;,
0.848872;2.035252;0.451178;,
1.910020;3.915352;0.193451;,
0.408801;2.951859;0.451178;,
0.987629;4.577614;0.342662;,
1.959984;6.862155;0.087027;,
0.987629;6.862155;0.342662;,
0.987629;6.862155;0.342662;,
0.286072;6.862155;0.451178;,
0.613688;4.156928;0.451178;,
0.987629;6.862155;0.342662;,
0.987629;6.862155;0.342662;,
-0.159052;3.218588;1.971674;,
-5.806779;6.862155;-0.626794;,
-1.959984;6.862154;-0.101059;,
-1.959984;6.862154;0.087027;,
-5.806779;7.639058;-0.626794;,
3.746704;3.604313;-0.172586;,
1.959984;3.915352;-0.172586;,
1.910020;3.915352;0.193451;,
3.696739;3.604313;0.057016;,
1.910020;3.915352;0.193451;,
0.987629;6.862154;-0.268249;,
0.613688;6.662147;-0.961307;,
0.613688;6.862155;-0.418563;,
-3.746703;3.604314;-0.172586;,
-3.696738;3.604314;0.057016;,
-1.910019;3.915352;0.193451;,
-1.959984;3.915352;-0.172586;,
-1.910019;3.915352;0.193451;,
0.286072;6.862155;0.451178;,
0.256952;10.675188;0.087027;,
0.286072;6.862155;0.451178;,
0.000000;6.993885;0.533949;,
0.286072;6.862155;0.451178;,
5.806780;7.639058;-0.438708;,
-5.806779;6.862155;-0.438708;,
-1.880043;-11.930407;0.451178;,
-1.880043;0.446889;0.451178;,
-2.210269;0.656777;0.342662;,
-2.645786;-12.437817;0.057016;,
-2.210269;0.656777;0.342662;,
-2.645786;-5.447613;0.057016;,
-2.210269;0.656777;0.342662;,
-2.210269;0.656777;0.342662;,
-2.939635;-0.717694;0.057016;,
-1.880043;0.446889;-0.418562;,
-2.210269;0.656777;-0.268249;,
-1.880043;0.446889;0.451178;,
-2.210269;0.656777;0.342662;,
-1.880043;0.446889;0.451178;,
-2.210268;2.035251;-0.268249;,
-2.210268;2.035251;0.342662;,
-2.210269;0.656777;-0.268249;,
-2.210268;2.035251;0.342662;,
-2.210269;0.656777;0.342662;,
-1.880043;0.446889;-0.418562;,
-1.880043;0.446889;0.451178;,
-1.880043;-5.447613;-0.418563;,
-1.880043;-11.930407;-0.770117;,
-1.880043;-7.732153;-0.790899;,
-1.880043;-11.930407;0.451178;,
-1.880043;-11.930407;0.451178;,
-1.880043;-11.930407;0.451178;,
-1.880043;-5.447613;-0.418563;,
-2.019163;-5.447613;-0.268249;,
-2.210269;0.656777;-0.268249;,
-2.210269;0.656777;-0.268249;,
-1.880043;0.446889;-0.418562;,
-1.880043;-5.447613;-0.418563;,
-1.880043;-5.447613;-0.418563;,
-1.880043;-7.732153;-0.790899;,
-2.019163;-5.447613;-0.268249;,
-2.695750;-5.447613;-0.172586;,
-2.989600;-0.717693;-0.172586;,
-2.210269;0.656777;-0.268249;,
-2.136756;-7.732153;-0.788323;,
-2.695750;-7.732153;-0.172586;,
-2.695750;-5.447613;-0.172586;,
-2.136756;-7.732153;-0.788323;,
-1.880043;-7.732153;-0.790899;,
-2.136757;-11.930407;-0.788323;,
-2.695750;-12.437817;-0.172586;,
-1.880043;-7.732153;-0.790899;,
-1.880043;-11.930407;-0.770117;,
5.866070;7.639058;-1.539175;,
5.914013;7.993935;-1.861219;,
6.412632;7.639058;-1.539175;,
1.116355;1.773483;-1.577960;,
0.000000;-11.411327;-1.577960;,
0.000000;1.773483;-1.577960;,
1.782945;-11.411326;0.208923;,
1.782945;1.773483;-0.551807;,
1.782945;1.773483;0.208923;,
1.782945;-11.411327;-0.551807;,
-1.116355;1.773483;-1.577960;,
-1.116355;-11.411327;-1.577960;,
6.466035;2.781597;-0.438708;,
6.466035;11.086144;-0.438708;,
5.806780;7.639058;-0.438708;,
5.806780;6.862155;-0.438708;,
5.806780;7.639058;-0.438708;,
5.806779;2.781597;-0.438708;,
5.806780;6.862155;-0.438708;,
-1.782944;1.773483;-0.551807;,
-1.782944;-11.411327;0.208923;,
-1.782944;1.773482;0.208923;,
-1.782944;-11.411327;0.208923;,
-1.782944;-11.411327;-0.551807;,
-1.116355;1.773483;-1.577960;,
-1.116355;1.773483;-1.577960;,
-1.116355;-11.411327;-1.577960;,
-1.880043;-11.930407;-0.770117;,
-2.136757;-11.930407;-0.788323;,
1.116355;1.773483;-1.577960;,
5.866070;4.277723;-1.539175;,
5.806780;6.862155;-0.626794;,
5.866070;7.639058;-1.539175;,
5.866070;7.639058;-1.539175;,
6.412632;7.639058;-1.539175;,
5.866070;4.277723;-1.539175;,
-6.412630;7.639058;-1.539175;,
-5.866069;7.639058;-1.539175;,
-5.866070;4.277723;-1.539175;,
-6.412631;4.277722;-1.539175;,
-6.364689;3.320830;-2.054445;,
-6.364689;4.059750;-2.054445;,
-5.914013;4.059750;-2.054445;,
-5.914013;3.320830;-2.054445;,
-6.364688;7.993934;-1.861219;,
-6.412631;11.086143;-1.232567;,
-5.866069;11.086143;-1.232567;,
-5.914012;7.993935;-1.861219;,
-5.914012;7.993935;-1.861219;,
-5.866069;7.639058;-1.539175;,
-6.412630;7.639058;-1.539175;,
-6.364688;7.993934;-1.861219;,
-6.364689;4.059750;-2.054445;,
-6.412631;4.277722;-1.539175;,
-5.866070;4.277723;-1.539175;,
-5.914013;4.059750;-2.054445;,
6.364689;7.993935;-1.861219;,
6.412631;4.277723;-1.539175;,
-5.866069;7.639058;-1.539175;,
-5.806779;7.639058;-0.626794;,
-5.806779;6.862155;-0.626794;,
-5.806779;6.862155;-0.626794;,
-5.866070;4.277723;-1.539175;,
-5.866069;7.639058;-1.539175;,
-5.806779;11.086143;-0.438708;,
-5.806779;7.639058;-0.438708;,
-5.806779;7.639058;-0.626794;,
-6.412631;4.277722;-1.539175;,
-6.364689;4.059750;-2.054445;,
-6.364689;3.320830;-2.054445;,
-6.364688;7.993934;-1.861219;,
-6.412630;7.639058;-1.539175;,
-6.412631;11.086143;-1.232567;,
-6.412631;11.086143;-1.232567;,
-6.412630;7.639058;-1.539175;,
-6.466035;11.086143;-0.438708;,
-6.412631;4.277722;-1.539175;,
-6.466035;2.781597;-0.438708;,
-6.412630;7.639058;-1.539175;,
-6.412631;4.277722;-1.539175;,
-5.914012;7.993935;-1.861219;,
-5.866069;11.086143;-1.232567;,
-5.866069;7.639058;-1.539175;,
-5.806779;7.639058;-0.626794;,
-5.866069;7.639058;-1.539175;,
-5.866069;11.086143;-1.232567;,
-5.866069;7.639058;-1.539175;,
-6.364689;3.320830;-2.054445;,
-6.412631;4.277722;-1.539175;,
-5.914013;3.320830;-2.054445;,
-5.914013;4.059750;-2.054445;,
-5.866070;4.277723;-1.539175;,
-5.914013;3.320830;-2.054445;,
-5.866070;4.277723;-1.539175;,
-5.806779;2.781597;-0.438708;,
-5.806779;6.862155;-0.626794;,
-5.806779;6.862155;-0.438708;,
-5.866070;4.277723;-1.539175;,
-5.806779;6.862155;-0.626794;,
-5.806779;7.639058;-0.438708;,
-5.806779;11.086143;-0.438708;,
-6.466035;11.086143;-0.438708;,
-6.466035;2.781597;-0.438708;,
-5.806779;2.781597;-0.438708;,
-5.806779;6.862155;-0.438708;,
-6.466035;2.781597;-0.438708;,
-5.806779;6.862155;-0.438708;,
-5.806779;7.639058;-0.438708;,
-6.466035;11.086143;-0.438708;,
-6.466035;2.781597;-0.438708;,
-5.806779;7.639058;-0.438708;,
5.806780;11.086144;-0.438708;,
5.806780;7.639058;-0.438708;,
5.806780;6.862155;-0.626794;,
5.806779;2.781597;-0.438708;,
5.806780;6.862155;-0.438708;,
5.806780;6.862155;-0.626794;,
5.806779;2.781597;-0.438708;,
5.914012;3.320830;-2.054445;,
5.806779;2.781597;-0.438708;,
5.914012;4.059750;-2.054445;,
6.466035;2.781597;-0.438708;,
6.364688;3.320830;-2.054445;,
6.412631;4.277723;-1.539175;,
5.806780;11.086144;-0.438708;,
5.866070;11.086144;-1.232567;,
5.866070;7.639058;-1.539175;,
5.806780;7.639058;-0.626794;,
5.806780;11.086144;-0.438708;,
5.866070;7.639058;-1.539175;,
2.019163;-5.447612;-0.268249;,
2.695751;-5.447612;-0.172586;,
2.136757;-7.732153;-0.788323;,
2.695751;-7.732153;-0.172586;,
2.136757;-7.732153;-0.788323;,
2.695751;-5.447612;-0.172586;,
1.880043;-7.732153;-0.790899;,
5.914013;7.993935;-1.861219;,
5.866070;7.639058;-1.539175;,
6.412631;4.277723;-1.539175;,
6.412632;7.639058;-1.539175;,
6.466035;11.086144;-0.438708;,
6.466035;2.781597;-0.438708;,
6.412631;4.277723;-1.539175;,
6.466035;11.086144;-0.438708;,
6.412632;7.639058;-1.539175;,
6.412632;11.086144;-1.232567;,
6.466035;11.086144;-0.438708;,
6.412632;7.639058;-1.539175;,
6.364689;7.993935;-1.861219;,
6.364688;4.059750;-2.054445;,
6.412631;4.277723;-1.539175;,
5.806780;7.639058;-0.438708;,
5.806780;11.086144;-0.438708;,
5.806780;7.639058;-0.626794;,
2.989600;-0.717693;-0.172586;,
5.806780;7.639058;-0.626794;,
5.866070;7.639058;-1.539175;,
5.806780;6.862155;-0.626794;,
5.914012;4.059750;-2.054445;,
5.866070;4.277723;-1.539175;,
6.364688;4.059750;-2.054445;,
6.412631;4.277723;-1.539175;,
6.364688;4.059750;-2.054445;,
6.364688;3.320830;-2.054445;,
5.914012;4.059750;-2.054445;,
2.019163;-5.447612;-0.268249;,
1.880043;-5.447612;-0.418563;,
2.210269;0.656777;-0.268249;,
1.880043;0.446889;-0.418562;,
1.880043;-11.930407;0.451178;,
2.645786;-12.437816;0.057016;,
2.210269;0.656777;0.342662;,
2.645786;-5.447612;0.057016;,
2.210269;0.656777;0.342662;,
1.116355;1.773483;-1.577960;,
1.116355;-11.411327;-1.577960;,
2.210269;0.656777;0.342662;,
2.939635;-0.717694;0.057016;,
2.210269;0.656777;0.342662;,
2.210269;0.656777;-0.268249;,
1.880043;0.446889;0.451178;,
2.210269;2.035252;0.342662;,
2.210269;2.035251;-0.268249;,
2.210269;0.656777;-0.268249;,
1.116355;-11.411327;-1.577960;,
1.880043;-11.930407;-0.770117;,
2.136757;-11.930407;-0.788323;,
2.136757;-11.930407;-0.788323;,
2.695750;-12.437816;-0.172586;,
1.880043;0.446889;0.451178;,
2.210269;0.656777;0.342662;,
2.210269;0.656777;0.342662;,
2.210269;2.035252;0.342662;,
2.210269;0.656777;-0.268249;,
1.880043;0.446889;0.451178;,
1.880043;0.446889;-0.418562;,
1.880043;-5.447612;-0.418563;,
1.880043;-7.732153;-0.790899;,
1.880043;-11.930407;0.451178;,
1.880043;-7.732153;-0.790899;,
2.210269;0.656777;-0.268249;,
1.880043;0.446889;-0.418562;,
1.880043;-11.930407;-0.770117;,
6.412632;11.086144;-1.232567;,
6.364689;7.993935;-1.861219;,
5.866070;11.086144;-1.232567;,
5.914013;7.993935;-1.861219;,
5.914012;3.320830;-2.054445;,
2.695750;-12.437816;-0.172586;,
2.695751;-7.732153;-0.172586;,
2.645786;-5.447612;0.057016;,
-1.959984;3.915352;-0.172586;,
-1.910019;3.915352;0.193451;,
-1.959984;6.862154;0.087027;,
2.695751;-5.447612;-0.172586;,
2.989600;-0.717693;-0.172586;,
2.939635;-0.717694;0.057016;,
-1.959984;6.862154;-0.101059;,
-1.959984;3.915352;-0.172586;,
-1.959984;6.862154;0.087027;,
-0.286072;6.862155;0.451178;,
-0.613687;4.156928;0.451178;,
0.000000;4.156928;1.037001;,
-5.866069;11.086143;-1.232567;,
-6.412631;11.086143;-1.232567;,
-5.806779;11.086143;-0.438708;,
-0.159052;3.218588;1.971674;,
-0.408800;2.951859;0.451178;,
0.000000;2.523906;0.533949;,
2.695751;-7.732153;-0.172586;,
2.695751;-5.447612;-0.172586;,
2.645786;-5.447612;0.057016;,
2.645786;-12.437816;0.057016;,
2.695750;-12.437816;-0.172586;,
2.645786;-5.447612;0.057016;,
-6.466035;11.086143;-0.438708;,
2.645786;-5.447612;0.057016;,
2.695751;-5.447612;-0.172586;,
2.939635;-0.717694;0.057016;,
-3.746703;3.604314;-0.172586;,
-3.595693;2.035251;-0.172586;,
-3.696738;3.604314;0.057016;,
-2.989600;-0.717693;-0.172586;,
-2.939635;-0.717694;0.057016;,
-3.545729;2.035251;0.057016;,
-5.914013;3.320830;-2.054445;,
-5.806779;2.781597;-0.438708;,
-6.466035;2.781597;-0.438708;,
-6.364689;3.320830;-2.054445;,
-5.914013;3.320830;-2.054445;,
-6.466035;2.781597;-0.438708;,
0.000000;6.862155;1.012168;,
-0.286072;6.862155;0.451178;,
0.000000;4.156928;1.037001;,
0.000000;4.174356;2.054445;,
0.613688;4.156928;0.451178;,
0.345588;4.174356;1.971674;,
0.613688;4.156928;0.451178;,
0.000000;4.174356;2.054445;,
0.000000;6.862155;1.012168;,
0.286072;6.862155;0.451178;,
0.000000;6.993885;0.533949;,
0.000000;1.773483;-1.577960;,
-1.782944;1.773483;-0.551807;,
0.000000;1.773483;0.387713;,
-1.782944;1.773483;-0.551807;,
-1.782944;1.773482;0.208923;,
0.000000;1.773483;0.387713;,
-2.695750;-5.447613;-0.172586;,
-2.645786;-5.447613;0.057016;,
-2.939635;-0.717694;0.057016;,
0.000000;2.523906;0.533949;,
0.000000;3.066805;2.054445;,
-0.159052;3.218588;1.971674;,
2.210269;2.035251;-0.268249;,
3.595693;2.035251;-0.172586;,
2.210269;0.656777;-0.268249;,
2.989600;-0.717693;-0.172586;,
2.210269;0.656777;-0.268249;,
0.000000;2.944592;-1.317349;,
0.674385;3.179573;-1.170836;,
0.000000;2.035251;-1.395833;,
0.534717;2.035251;-1.178434;,
0.987652;2.073567;-0.268249;,
3.746704;3.604313;-0.172586;,
2.210269;2.035251;-0.268249;,
2.210269;2.035251;-0.268249;,
3.746704;3.604313;-0.172586;,
0.000000;6.662148;-1.092834;,
0.613688;6.662147;-0.961307;,
0.613688;6.662147;-0.961307;,
0.987629;4.577614;-0.268249;,
1.959984;3.915352;-0.172586;,
3.746704;3.604313;-0.172586;,
1.959984;3.915352;-0.172586;,
0.987629;6.862154;-0.268249;,
1.959984;6.862155;-0.101059;,
1.959984;3.915352;-0.172586;,
1.959984;6.862155;-0.101059;,
-0.987628;6.862154;-0.268249;,
-0.987628;4.577614;-0.268249;,
-1.959984;6.862154;-0.101059;,
-0.987652;2.073567;-0.268249;,
-3.746703;3.604314;-0.172586;,
-1.959984;3.915352;-0.172586;,
1.910020;3.915352;0.193451;,
1.959984;3.915352;-0.172586;,
1.959984;6.862155;0.087027;,
1.959984;3.915352;-0.172586;,
1.959984;6.862155;-0.101059;,
1.959984;6.862155;0.087027;,
3.545728;2.035251;0.057016;,
3.595693;2.035251;-0.172586;,
3.696739;3.604313;0.057016;,
3.746704;3.604313;-0.172586;,
2.939635;-0.717694;0.057016;,
2.989600;-0.717693;-0.172586;,
3.545728;2.035251;0.057016;,
2.989600;-0.717693;-0.172586;,
3.595693;2.035251;-0.172586;,
3.545728;2.035251;0.057016;,
-0.345587;4.174356;1.971674;,
-0.613687;4.156928;0.451178;,
-0.408800;2.951859;0.451178;,
-3.545729;2.035251;0.057016;,
-3.696738;3.604314;0.057016;,
-1.782944;1.773483;-0.551807;,
0.000000;1.773483;-1.577960;,
-1.116355;1.773483;-1.577960;,
-2.989600;-0.717693;-0.172586;,
-3.545729;2.035251;0.057016;,
-1.959984;3.915352;-0.172586;,
-1.959984;6.862154;-0.101059;,
0.613688;4.156928;0.451178;,
0.286072;6.862155;0.451178;,
0.000000;4.156928;1.037001;,
0.000000;6.862155;1.012168;,
0.286072;6.862155;0.451178;,
0.408801;2.951859;0.451178;,
0.159052;3.218588;1.971674;,
0.000000;2.523906;0.533949;,
0.000000;3.066805;2.054445;,
0.000000;2.523906;0.533949;,
0.159052;3.218588;1.971674;,
0.613688;4.156928;0.451178;,
0.345588;4.174356;1.971674;,
0.408801;2.951859;0.451178;,
0.159052;3.218588;1.971674;,
0.408801;2.951859;0.451178;,
0.345588;4.174356;1.971674;,
-1.959984;3.915352;-0.172586;,
-0.674384;3.179573;-1.170836;,
-0.613687;6.662147;-0.961307;,
-0.613687;6.662147;-0.961307;,
0.000000;6.662148;-1.092834;,
-2.210268;2.035251;-0.268249;,
-3.595693;2.035251;-0.172586;,
-3.746703;3.604314;-0.172586;,
-3.746703;3.604314;-0.172586;,
-2.210268;2.035251;-0.268249;,
-0.534716;2.035251;-1.178434;,
-2.210269;0.656777;-0.268249;,
-2.989600;-0.717693;-0.172586;,
-3.595693;2.035251;-0.172586;,
-3.595693;2.035251;-0.172586;,
-2.210268;2.035251;-0.268249;,
-2.210269;0.656777;-0.268249;,
-0.408800;2.951859;0.451178;,
-0.159052;3.218588;1.971674;,
-0.345587;4.174356;1.971674;,
5.806779;2.781597;-0.438708;,
5.914012;3.320830;-2.054445;,
6.466035;2.781597;-0.438708;,
5.914012;3.320830;-2.054445;,
6.364688;3.320830;-2.054445;,
6.466035;2.781597;-0.438708;,
-2.695750;-5.447613;-0.172586;,
-2.695750;-7.732153;-0.172586;,
-2.645786;-5.447613;0.057016;,
-0.286072;6.862155;0.451178;,
0.000000;6.862155;1.012168;,
0.000000;6.993885;0.533949;,
-0.613687;4.156928;0.451178;,
-0.345587;4.174356;1.971674;,
0.000000;4.174356;2.054445;,
0.000000;4.174356;2.054445;,
0.000000;4.156928;1.037001;,
-0.613687;4.156928;0.451178;,
1.782945;1.773483;-0.551807;,
1.116355;1.773483;-1.577960;,
1.782945;1.773483;0.208923;,
1.782945;1.773483;-0.551807;,
0.000000;1.773483;0.387713;,
1.782945;1.773483;-0.551807;,
0.000000;1.773483;-1.577960;,
0.000000;1.773483;0.387713;,
6.412632;11.086144;-1.232567;,
5.866070;11.086144;-1.232567;,
5.806780;11.086144;-0.438708;,
-2.695750;-12.437817;-0.172586;,
-2.645786;-12.437817;0.057016;,
-2.645786;-5.447613;0.057016;,
-2.695750;-7.732153;-0.172586;,
-2.695750;-12.437817;-0.172586;,
-2.645786;-5.447613;0.057016;,
6.466035;11.086144;-0.438708;,
-2.989600;-0.717693;-0.172586;,
-2.695750;-5.447613;-0.172586;,
-2.939635;-0.717694;0.057016;,
0.000000;2.035252;0.533949;,
0.534717;2.035251;-1.178434;,
0.987652;2.073567;-0.268249;,
0.000000;-11.411327;-1.577960;,
1.116355;-11.411327;-1.577960;,
1.782945;-11.411327;-0.551807;,
0.000000;-11.411327;0.387713;,
0.848872;2.035252;0.451178;,
0.000000;2.035252;0.533949;,
0.987652;2.073567;-0.268249;,
-1.880043;-11.930407;-0.770117;,
-1.880043;-11.930407;0.451178;,
-2.136757;-11.930407;-0.788323;,
-2.136757;-11.930407;-0.788323;,
-1.880043;-11.930407;0.451178;,
-2.695750;-12.437817;-0.172586;,
0.987652;2.073567;-0.268249;,
2.210269;2.035251;-0.268249;,
2.210269;2.035252;0.342662;,
0.848872;2.035252;0.451178;,
0.987652;2.073567;-0.268249;,
2.210269;2.035252;0.342662;,
0.000000;-11.411327;0.387713;,
1.782945;-11.411327;-0.551807;,
1.782945;-11.411326;0.208923;,
0.000000;2.035252;0.533949;,
0.000000;2.035251;-1.395833;,
0.534717;2.035251;-1.178434;,
0.674385;3.179573;-1.170836;,
0.987652;2.073567;-0.268249;,
0.534717;2.035251;-1.178434;,
1.880043;-11.930407;0.451178;,
1.880043;-11.930407;-0.770117;,
2.136757;-11.930407;-0.788323;,
1.880043;-11.930407;0.451178;,
2.136757;-11.930407;-0.788323;,
2.695750;-12.437816;-0.172586;,
2.645786;-12.437816;0.057016;,
1.880043;-11.930407;0.451178;,
2.695750;-12.437816;-0.172586;,
-0.987652;2.073567;-0.268249;,
-0.848872;2.035251;0.451178;,
-2.210268;2.035251;0.342662;,
-2.210268;2.035251;-0.268249;,
-0.987652;2.073567;-0.268249;,
-2.210268;2.035251;0.342662;,
0.000000;2.035252;0.533949;,
-0.848872;2.035251;0.451178;,
-0.987652;2.073567;-0.268249;,
-0.534716;2.035251;-1.178434;,
0.000000;2.035252;0.533949;,
-0.987652;2.073567;-0.268249;,
0.987629;4.577614;-0.268249;,
0.613688;6.662147;-0.961307;,
0.987629;6.862154;-0.268249;,
0.613688;6.662147;-0.961307;,
0.987629;4.577614;-0.268249;,
0.674385;3.179573;-1.170836;,
-0.987628;6.862154;-0.268249;,
-1.959984;6.862154;-0.101059;,
-1.959984;8.055779;-0.101059;,
-0.987628;6.862154;-0.268249;,
-1.959984;8.055779;-0.101059;,
-0.749260;8.770164;-0.101059;,
-0.613687;6.662147;-0.961307;,
-0.987628;4.577614;-0.268249;,
-0.987628;6.862154;-0.268249;,
-0.613687;6.862154;-0.418563;,
-0.987628;6.862154;-0.268249;,
-0.749260;8.770164;-0.101059;,
-1.959984;6.862154;-0.101059;,
-5.806779;6.862155;-0.626794;,
-5.806779;7.639058;-0.626794;,
-5.806779;7.639058;-0.626794;,
-1.959984;8.055779;-0.101059;,
-1.959984;6.862154;-0.101059;,
0.000000;6.862155;-0.418563;,
-0.613687;6.862154;-0.418563;,
-0.256951;10.675185;-0.418563;,
0.000000;12.437816;-0.418563;,
0.000000;2.035251;-1.395833;,
0.000000;2.035252;0.533949;,
-0.534716;2.035251;-1.178434;,
-0.256951;10.675185;-0.418563;,
-0.749260;8.770164;-0.101059;,
-0.256951;10.675188;-0.101059;,
0.000000;6.993885;0.533949;,
0.000000;12.437816;0.216445;,
-0.256951;10.675188;0.087027;,
-0.256951;10.675188;0.087027;,
0.000000;12.437816;0.216445;,
0.000000;12.437816;-0.101059;,
-0.749260;8.770164;-0.101059;,
-0.749260;8.770164;0.087027;,
-0.256951;10.675188;0.087027;,
-0.256951;10.675185;-0.418563;,
0.000000;12.437816;-0.418563;,
-0.256951;10.675185;-0.418563;,
-1.116355;-11.411327;-1.577960;,
-1.782944;-11.411327;-0.551807;,
-1.782944;-11.411327;0.208923;,
0.000000;12.437816;-0.418563;,
0.000000;12.437816;-0.101059;,
0.256952;10.675185;-0.418563;,
0.256952;10.675188;-0.101059;,
0.256952;10.675188;0.087027;,
0.749260;8.770164;-0.101059;,
0.749260;8.770164;0.087027;,
0.000000;12.437816;0.216445;,
0.256952;10.675188;0.087027;,
0.000000;12.437816;0.216445;,
0.000000;6.993885;0.533949;,
0.256952;10.675188;0.087027;,
0.749260;8.770164;-0.101059;,
-1.880043;-11.930407;0.451178;,
-2.645786;-12.437817;0.057016;,
-2.695750;-12.437817;-0.172586;,
-0.987652;2.073567;-0.268249;,
-0.674384;3.179573;-1.170836;,
-0.534716;2.035251;-1.178434;,
-0.987628;4.577614;-0.268249;,
-0.613687;6.662147;-0.961307;,
-0.674384;3.179573;-1.170836;,
-0.674384;3.179573;-1.170836;,
-0.987652;2.073567;-0.268249;,
-0.987628;4.577614;-0.268249;,
0.256952;10.675185;-0.418563;,
0.613688;6.862155;-0.418563;,
1.959984;8.055780;-0.101059;,
5.806780;7.639058;-0.626794;,
1.959984;6.862155;-0.101059;,
5.806780;6.862155;-0.626794;,
1.959984;6.862155;-0.101059;,
5.806780;7.639058;-0.626794;,
0.749260;8.770164;-0.101059;,
0.613688;6.862155;-0.418563;,
0.256952;10.675185;-0.418563;,
0.987629;6.862154;-0.268249;,
0.613688;6.862155;-0.418563;,
0.749260;8.770164;-0.101059;,
1.959984;8.055780;-0.101059;,
0.987629;6.862154;-0.268249;,
0.749260;8.770164;-0.101059;,
1.959984;6.862155;-0.101059;,
0.987629;6.862154;-0.268249;,
1.959984;8.055780;-0.101059;,
-0.613687;6.862154;-0.418563;,
-0.749260;8.770164;-0.101059;,
-0.256951;10.675185;-0.418563;,
0.987652;2.073567;-0.268249;,
0.674385;3.179573;-1.170836;,
0.987629;4.577614;-0.268249;;

 332;
3;0,1,2;,
3;3,4,5;,
3;6,7,8;,
3;8,9,6;,
3;10,6,9;,
3;3,10,9;,
3;11,10,3;,
3;12,13,14;,
3;15,12,14;,
3;15,16,12;,
3;17,2,18;,
3;19,20,21;,
3;22,23,24;,
3;25,26,27;,
3;27,26,28;,
3;29,30,27;,
3;31,27,32;,
3;27,28,33;,
3;34,35,36;,
3;37,28,34;,
3;26,34,28;,
3;38,39,40;,
3;41,42,43;,
3;44,43,42;,
3;45,46,47;,
3;48,47,46;,
3;49,46,50;,
3;51,50,46;,
3;52,53,54;,
3;53,52,55;,
3;56,22,57;,
3;24,57,22;,
3;58,59,26;,
3;26,25,58;,
3;60,30,61;,
3;61,62,60;,
3;30,25,27;,
3;63,53,55;,
3;53,63,64;,
3;65,66,67;,
3;67,68,65;,
3;69,70,67;,
3;71,24,72;,
3;73,71,72;,
3;73,72,74;,
3;24,23,72;,
3;72,75,76;,
3;74,72,77;,
3;78,79,80;,
3;74,81,79;,
3;79,73,74;,
3;39,21,20;,
3;29,61,30;,
3;40,82,38;,
3;59,58,73;,
3;71,73,58;,
3;83,84,85;,
3;67,86,69;,
3;87,88,89;,
3;90,87,91;,
3;92,93,94;,
3;95,96,97;,
3;98,95,99;,
3;94,93,14;,
3;13,94,14;,
3;17,0,2;,
3;100,17,18;,
3;18,101,102;,
3;103,104,101;,
3;105,2,1;,
3;5,11,3;,
3;85,106,83;,
3;107,108,109;,
3;110,107,111;,
3;112,110,113;,
3;112,114,115;,
3;116,117,118;,
3;117,119,120;,
3;121,122,123;,
3;124,125,123;,
3;126,127,128;,
3;129,130,131;,
3;130,128,132;,
3;128,127,133;,
3;134,135,136;,
3;137,138,139;,
3;135,140,141;,
3;142,143,144;,
3;144,145,142;,
3;146,147,148;,
3;143,142,149;,
3;150,149,142;,
3;151,152,147;,
3;147,146,151;,
3;149,153,154;,
3;155,156,157;,
3;158,159,160;,
3;161,162,163;,
3;162,161,164;,
3;165,159,166;,
3;159,165,160;,
3;167,168,169;,
3;170,167,171;,
3;172,167,173;,
3;174,175,176;,
3;177,174,178;,
3;179,178,174;,
3;178,180,181;,
3;182,183,149;,
3;164,184,162;,
3;185,186,187;,
3;188,189,190;,
3;191,192,193;,
3;193,194,191;,
3;195,196,197;,
3;197,198,195;,
3;199,200,201;,
3;202,199,201;,
3;203,204,205;,
3;205,206,203;,
3;207,208,209;,
3;209,210,207;,
3;211,157,156;,
3;212,190,189;,
3;213,214,215;,
3;216,217,218;,
3;219,220,221;,
3;222,223,224;,
3;225,226,227;,
3;228,229,230;,
3;231,232,230;,
3;233,234,230;,
3;235,236,237;,
3;219,238,239;,
3;240,219,241;,
3;242,232,243;,
3;244,245,246;,
3;247,248,249;,
3;250,251,249;,
3;252,253,249;,
3;254,255,256;,
3;257,258,259;,
3;260,261,262;,
3;263,264,265;,
3;266,267,168;,
3;268,185,269;,
3;270,271,272;,
3;185,273,274;,
3;275,273,185;,
3;276,277,278;,
3;279,280,281;,
3;282,283,284;,
3;285,286,287;,
3;288,289,290;,
3;287,291,285;,
3;280,292,293;,
3;294,295,296;,
3;297,298,299;,
3;300,301,302;,
3;303,304,301;,
3;305,306,277;,
3;307,308,309;,
3;286,285,310;,
3;311,312,313;,
3;314,315,316;,
3;317,316,315;,
3;318,319,320;,
3;321,322,323;,
3;324,323,322;,
3;325,326,327;,
3;326,328,329;,
3;330,164,331;,
3;332,328,333;,
3;334,335,336;,
3;337,338,339;,
3;159,158,340;,
3;291,287,341;,
3;342,341,287;,
3;289,288,343;,
3;344,343,288;,
3;345,325,346;,
3;347,348,349;,
3;350,351,352;,
3;323,310,285;,
3;352,353,354;,
3;322,321,355;,
3;356,357,336;,
3;353,358,354;,
3;359,360,361;,
3;350,352,354;,
3;360,362,361;,
3;363,320,319;,
3;364,365,366;,
3;367,368,369;,
3;370,371,372;,
3;373,374,375;,
3;376,377,378;,
3;379,380,381;,
3;382,383,384;,
3;385,386,387;,
3;388,389,390;,
3;380,391,381;,
3;392,393,394;,
3;395,396,397;,
3;398,399,400;,
3;401,402,403;,
3;404,405,406;,
3;378,407,408;,
3;409,410,411;,
3;412,413,414;,
3;415,416,417;,
3;418,419,420;,
3;421,422,423;,
3;424,425,426;,
3;427,428,429;,
3;430,431,432;,
3;433,434,431;,
3;435,436,437;,
3;438,437,436;,
3;439,440,441;,
3;431,442,443;,
3;444,445,435;,
3;436,435,446;,
3;447,448,439;,
3;449,439,450;,
3;447,451,452;,
3;453,447,454;,
3;455,456,457;,
3;458,459,460;,
3;461,462,463;,
3;464,465,466;,
3;467,468,469;,
3;468,470,469;,
3;471,472,473;,
3;474,475,476;,
3;477,478,479;,
3;396,480,481;,
3;482,483,484;,
3;396,485,486;,
3;456,487,488;,
3;489,490,491;,
3;492,491,493;,
3;494,495,496;,
3;497,498,499;,
3;500,501,502;,
3;503,504,505;,
3;506,456,458;,
3;435,507,508;,
3;509,510,435;,
3;511,512,513;,
3;514,458,515;,
3;437,516,507;,
3;507,435,437;,
3;517,518,519;,
3;520,521,522;,
3;523,524,525;,
3;526,527,528;,
3;529,530,531;,
3;532,533,534;,
3;535,536,537;,
3;538,539,540;,
3;541,542,543;,
3;483,544,545;,
3;546,547,548;,
3;549,550,551;,
3;552,553,554;,
3;555,556,557;,
3;558,559,560;,
3;561,552,554;,
3;562,563,564;,
3;565,566,567;,
3;568,569,570;,
3;571,568,570;,
3;572,573,574;,
3;575,576,577;,
3;578,579,580;,
3;581,582,583;,
3;584,585,586;,
3;587,588,589;,
3;590,591,592;,
3;593,594,595;,
3;596,597,598;,
3;599,600,601;,
3;602,603,604;,
3;605,606,607;,
3;608,609,610;,
3;611,612,613;,
3;614,615,616;,
3;617,618,619;,
3;620,621,622;,
3;623,624,625;,
3;626,627,628;,
3;629,630,631;,
3;632,633,634;,
3;635,636,637;,
3;638,639,640;,
3;641,642,643;,
3;643,644,641;,
3;645,646,647;,
3;648,649,650;,
3;651,652,653;,
3;650,654,655;,
3;655,656,650;,
3;657,658,659;,
3;659,650,657;,
3;660,650,656;,
3;656,661,662;,
3;663,568,664;,
3;568,571,664;,
3;664,571,665;,
3;666,667,668;,
3;669,668,667;,
3;669,670,671;,
3;672,671,670;,
3;667,673,669;,
3;674,669,673;,
3;675,676,677;,
3;678,668,669;,
3;679,680,681;,
3;682,683,684;,
3;685,686,687;,
3;688,689,690;,
3;644,691,641;,
3;692,641,691;,
3;693,694,695;,
3;696,697,698;,
3;699,700,701;,
3;702,703,704;,
3;705,706,707;,
3;708,709,710;,
3;711,712,713;,
3;714,715,716;;
MeshMaterialList {
 4;
 332;
  0,
  0,
  0,
  0,
  0,
  0,
  0,
  0,
  0,
  0,
  0,
  0,
  0,
  0,
  0,
  0,
  0,
  0,
  0,
  0,
  0,
  0,
  0,
  0,
  0,
  0,
  0,
  0,
  0,
  0,
  0,
  0,
  0,
  0,
  0,
  0,
  0,
  0,
  0,
  0,
  0,
  0,
  0,
  0,
  0,
  0,
  0,
  0,
  0,
  0,
  0,
  0,
  0,
  0,
  0,
  0,
  0,
  0,
  0,
  0,
  0,
  0,
  0,
  0,
  0,
  0,
  0,
  0,
  0,
  0,
  0,
  0,
  1,
  1,
  1,
  1,
  1,
  1,
  1,
  1,
  1,
  1,
  1,
  1,
  1,
  1,
  1,
  1,
  1,
  1,
  1,
  1,
  1,
  1,
  1,
  1,
  1,
  1,
  1,
  1,
  1,
  1,
  1,
  1,
  1,
  1,
  1,
  1,
  1,
  1,
  1,
  1,
  1,
  1,
  1,
  1,
  1,
  1,
  1,
  1,
  1,
  1,
  1,
  1,
  1,
  1,
  1,
  1,
  1,
  1,
  1,
  1,
  1,
  1,
  1,
  1,
  1,
  1,
  1,
  1,
  1,
  1,
  1,
  1,
  1,
  1,
  1,
  1,
  1,
  1,
  1,
  1,
  1,
  1,
  1,
  1,
  1,
  1,
  1,
  1,
  1,
  1,
  1,
  1,
  1,
  1,
  1,
  1,
  1,
  1,
  1,
  1,
  1,
  1,
  1,
  1,
  1,
  1,
  1,
  1,
  1,
  1,
  1,
  1,
  1,
  1,
  1,
  1,
  1,
  1,
  1,
  1,
  2,
  2,
  2,
  2,
  2,
  2,
  2,
  2,
  2,
  2,
  2,
  2,
  2,
  2,
  2,
  2,
  2,
  2,
  2,
  2,
  2,
  2,
  2,
  2,
  2,
  2,
  2,
  2,
  2,
  2,
  2,
  2,
  2,
  2,
  2,
  2,
  2,
  2,
  2,
  2,
  2,
  2,
  2,
  2,
  2,
  2,
  2,
  2,
  2,
  2,
  2,
  2,
  2,
  2,
  2,
  2,
  2,
  2,
  2,
  2,
  2,
  2,
  2,
  2,
  2,
  2,
  2,
  2,
  2,
  2,
  2,
  2,
  2,
  2,
  2,
  2,
  2,
  2,
  3,
  3,
  3,
  3,
  3,
  3,
  3,
  3,
  3,
  3,
  3,
  3,
  3,
  3,
  3,
  3,
  3,
  3,
  3,
  3,
  3,
  3,
  3,
  3,
  3,
  3,
  3,
  3,
  3,
  3,
  3,
  3,
  3,
  3,
  3,
  3,
  3,
  3,
  3,
  3,
  3,
  3,
  3,
  3,
  3,
  3,
  3,
  3,
  3,
  3,
  3,
  3,
  3,
  3,
  3,
  3,
  3,
  3,
  3,
  3,
  3,
  3;;
Material {
 0.309804;0.309804;0.309804;1.000000;;
11.313708;
 0.898039;0.898039;0.898039;;
 0.020392;0.020392;0.020392;;
TextureFilename {
"terran_colonyship_0.bmp";
}
 }
Material {
 0.309804;0.309804;0.309804;1.000000;;
11.313708;
 0.898039;0.898039;0.898039;;
 0.020392;0.020392;0.020392;;
TextureFilename {
"terran_colonyship_1.bmp";
}
 }
Material {
 0.403922;0.403922;0.403922;1.000000;;
11.313708;
 0.898039;0.898039;0.898039;;
 0.026667;0.026667;0.026667;;
TextureFilename {
"terran_colonyship_2.bmp";
}
 }
Material {
 0.333333;0.333333;0.333333;1.000000;;
11.313708;
 0.898039;0.898039;0.898039;;
 0.021961;0.021961;0.021961;;
TextureFilename {
"terran_colonyship_3.bmp";
}
 }
}

 MeshNormals {
 717;
0.195194;0.000000;-0.980765;,
0.135410;0.000000;-0.990790;,
0.152910;-0.035801;-0.987591;,
-0.152911;-0.035801;-0.987591;,
-0.135410;0.000000;-0.990790;,
-0.135410;0.000000;-0.990790;,
-0.275014;-0.111820;-0.954915;,
-0.315851;-0.092593;-0.944280;,
-0.335185;-0.092106;-0.937639;,
-0.197998;-0.128942;-0.971684;,
-0.163987;-0.097956;-0.981587;,
-0.195194;0.000000;-0.980765;,
-0.070672;-0.943218;0.324568;,
0.000000;-0.958712;0.284380;,
0.000000;-0.949024;0.315203;,
-0.105844;-0.933045;0.343838;,
-0.137672;-0.929381;0.342488;,
0.163987;-0.097956;-0.981587;,
0.197998;-0.128942;-0.971684;,
0.535807;0.104572;-0.837839;,
0.390303;0.053094;-0.919154;,
0.390303;0.053094;-0.919154;,
0.228353;0.026270;-0.973224;,
0.151044;-0.036742;-0.987844;,
0.147827;-0.041300;-0.988151;,
-0.102019;-0.066797;-0.992537;,
-0.186276;-0.011805;-0.982426;,
-0.146935;-0.047602;-0.988000;,
-0.235878;0.012578;-0.971701;,
-0.151044;-0.036742;-0.987844;,
-0.147827;-0.041300;-0.988151;,
-0.254143;-0.030603;-0.966682;,
-0.254143;-0.030603;-0.966682;,
-0.159689;0.000000;-0.987167;,
-0.257189;0.012988;-0.966274;,
-0.152836;-0.018509;-0.988078;,
-0.152836;-0.018509;-0.988078;,
-0.278699;0.000000;-0.960378;,
-0.390303;0.053094;-0.919154;,
0.000000;0.000000;-1.000000;,
-0.390303;0.053094;-0.919154;,
0.000000;1.000000;0.000000;,
0.000000;1.000000;0.000000;,
0.000000;1.000000;0.000000;,
0.000000;1.000000;0.000000;,
0.107700;-0.994183;0.000000;,
0.315031;-0.949082;0.000000;,
0.107700;-0.994183;0.000000;,
0.107700;-0.994183;0.000000;,
0.508179;-0.861252;0.000000;,
0.508179;-0.861252;0.000000;,
0.508179;-0.861252;0.000000;,
0.099778;0.000000;-0.995010;,
0.000000;0.000000;-1.000000;,
0.099778;0.000000;-0.995010;,
0.000000;0.000000;-1.000000;,
0.266306;0.058630;-0.962104;,
0.237941;0.029341;-0.970836;,
0.000000;-0.023568;-0.999722;,
0.000000;0.000000;-1.000000;,
-0.237941;0.029341;-0.970836;,
-0.228353;0.026270;-0.973224;,
-0.266306;0.058630;-0.962104;,
-0.099778;0.000000;-0.995010;,
-0.099778;0.000000;-0.995010;,
-0.508179;-0.861251;0.000000;,
-0.508179;-0.861251;0.000000;,
-0.315031;-0.949081;0.000000;,
-0.508179;-0.861251;0.000000;,
-0.107700;-0.994183;0.000000;,
-0.107700;-0.994183;0.000000;,
0.102019;-0.066797;-0.992537;,
0.146935;-0.047602;-0.988000;,
0.186276;-0.011805;-0.982426;,
0.235878;0.012578;-0.971701;,
0.254143;-0.030603;-0.966682;,
0.254143;-0.030603;-0.966682;,
0.159689;0.000000;-0.987167;,
0.152836;-0.018509;-0.988078;,
0.257189;0.012988;-0.966274;,
0.152836;-0.018509;-0.988078;,
0.278699;0.000000;-0.960378;,
-0.535807;0.104572;-0.837839;,
0.000000;1.000000;0.000000;,
0.000000;1.000000;0.000000;,
0.000000;1.000000;0.000000;,
-0.107700;-0.994183;0.000000;,
0.172829;-0.984475;-0.030656;,
0.171458;-0.984913;-0.023404;,
0.171458;-0.984913;-0.023404;,
0.174190;-0.983982;-0.037906;,
0.174190;-0.983982;-0.037906;,
0.137673;-0.929381;0.342488;,
0.105844;-0.933045;0.343838;,
0.070672;-0.943218;0.324568;,
-0.172828;-0.984475;-0.030656;,
-0.174190;-0.983982;-0.037906;,
-0.174190;-0.983982;-0.037906;,
-0.171457;-0.984914;-0.023404;,
-0.171457;-0.984914;-0.023404;,
0.151137;-0.149793;-0.977098;,
0.335185;-0.092106;-0.937639;,
0.354379;-0.091581;-0.930606;,
0.315852;-0.092593;-0.944280;,
0.315852;-0.092593;-0.944280;,
0.135410;0.000000;-0.990790;,
0.000000;1.000000;0.000000;,
-0.384970;0.002143;-0.922927;,
-0.312189;0.000000;-0.950020;,
-0.312189;0.000000;-0.950020;,
-0.502662;0.002140;-0.864481;,
-0.455427;0.004273;-0.890263;,
-0.442904;0.010352;-0.896509;,
-0.548438;0.000000;-0.836191;,
-0.330777;0.020550;-0.943485;,
-0.330777;0.020550;-0.943485;,
0.536410;-0.843957;0.000000;,
0.536410;-0.843958;0.000000;,
0.536410;-0.843957;0.000000;,
0.536409;-0.843958;0.000000;,
0.536409;-0.843958;0.000000;,
1.000000;0.000000;0.000000;,
1.000000;0.000000;0.000000;,
1.000000;0.000000;0.000000;,
1.000000;0.000000;0.000000;,
1.000000;0.000000;0.000000;,
1.000000;0.000000;0.000000;,
1.000000;0.000000;0.000000;,
1.000000;0.000000;0.000000;,
1.000000;0.000000;0.000000;,
1.000000;0.000000;0.000000;,
1.000000;0.000000;0.000000;,
1.000000;0.000000;0.000000;,
1.000000;0.000000;0.000000;,
-0.733712;0.022970;0.679072;,
-0.733207;-0.043628;0.678605;,
-0.733712;0.022970;0.679072;,
-0.414285;0.000000;0.910147;,
-0.414285;0.000000;0.910147;,
-0.414285;0.000000;0.910147;,
-0.729449;-0.110033;0.675127;,
-0.729449;-0.110033;0.675127;,
-0.101247;-0.110071;0.988753;,
-0.139153;-0.109705;0.984175;,
-0.127780;0.006158;0.991783;,
-0.115547;0.003617;0.993295;,
-0.740399;0.000000;0.672167;,
-0.740399;0.000000;0.672167;,
-0.740399;0.000000;0.672167;,
-0.021559;-0.112061;0.993468;,
-0.009782;-0.222438;0.974898;,
-0.740399;0.000000;0.672167;,
-0.740399;0.000000;0.672167;,
-0.010033;0.004950;0.999937;,
-0.010033;0.004950;0.999937;,
0.000000;0.672020;0.740533;,
0.000000;0.672020;0.740533;,
0.000000;0.672020;0.740533;,
0.000000;0.000000;1.000000;,
0.000000;0.000000;1.000000;,
0.000000;0.000000;1.000000;,
1.000000;0.000000;0.000000;,
0.982079;0.000000;0.188470;,
1.000000;0.000000;0.000000;,
0.926238;0.000000;0.376940;,
0.000000;0.000000;1.000000;,
0.000000;0.000000;1.000000;,
0.000000;0.000000;-1.000000;,
0.000000;0.000000;-1.000000;,
0.000000;0.000000;-1.000000;,
0.000000;0.000000;-1.000000;,
0.000000;0.000000;-1.000000;,
0.000000;0.000000;-1.000000;,
0.000000;0.000000;-1.000000;,
-0.982079;0.000000;0.188470;,
-1.000000;0.000000;0.000000;,
-1.000000;0.000000;0.000000;,
-1.000000;0.000000;0.000000;,
-0.926238;0.000000;0.376940;,
-0.838597;0.000000;0.544753;,
-0.838597;0.000000;0.544753;,
-0.838597;0.000000;0.544753;,
0.070742;0.000000;0.997495;,
0.070742;0.000000;0.997495;,
0.838597;0.000000;0.544753;,
-0.997449;0.003698;0.071288;,
-0.997895;0.000000;0.064846;,
-0.997895;0.000000;0.064846;,
0.000000;0.000000;1.000000;,
0.000000;0.000000;1.000000;,
0.000000;0.000000;1.000000;,
0.000000;0.000000;1.000000;,
0.000000;0.000000;1.000000;,
0.000000;0.000000;1.000000;,
0.000000;0.000000;1.000000;,
0.000000;0.000000;1.000000;,
0.000000;0.000000;1.000000;,
0.000000;0.000000;1.000000;,
0.000000;0.000000;1.000000;,
0.000000;-0.199226;0.979954;,
0.000000;-0.199226;0.979954;,
0.000000;-0.199226;0.979954;,
0.000000;-0.199226;0.979954;,
0.000000;0.672020;0.740533;,
0.000000;0.672020;0.740533;,
0.000000;0.672020;0.740533;,
0.000001;0.672021;0.740532;,
0.000000;-0.920984;0.389600;,
-0.000001;-0.920984;0.389600;,
0.000000;-0.920984;0.389600;,
0.000000;-0.920984;0.389601;,
0.000000;0.672020;0.740533;,
0.000000;0.000000;1.000000;,
0.997895;0.000000;0.064847;,
0.997895;0.000000;0.064847;,
0.997895;0.000000;0.064847;,
0.997895;0.000000;0.064848;,
0.997895;0.000000;0.064848;,
0.997895;0.000000;0.064848;,
0.998914;-0.003390;0.046467;,
1.000000;0.000000;0.000000;,
1.000000;0.000000;0.000000;,
-0.995699;0.000000;0.092642;,
-0.995699;0.000000;0.092642;,
-0.995699;0.000000;0.092642;,
-0.990863;-0.011949;0.134340;,
-0.990863;-0.011949;0.134340;,
-0.990863;-0.011949;0.134340;,
-0.997727;-0.005970;0.067118;,
-0.997727;-0.005970;0.067118;,
-0.998501;-0.001990;0.054690;,
-0.998825;0.000000;0.048471;,
-0.998303;0.006904;0.057832;,
-0.998824;0.000000;0.048473;,
-0.998824;0.000000;0.048473;,
0.990863;-0.011949;0.134342;,
0.990863;-0.011949;0.134342;,
0.990863;-0.011949;0.134342;,
0.997889;-0.003538;0.064847;,
0.997889;-0.003538;0.064847;,
0.997201;-0.006624;0.074477;,
0.997201;-0.006624;0.074477;,
-0.997645;0.013806;0.067184;,
-0.997645;0.013806;0.067184;,
0.995699;0.000000;0.092644;,
0.995699;0.000000;0.092644;,
0.995699;0.000000;0.092644;,
0.997455;0.012146;0.070253;,
0.997455;0.012146;0.070253;,
0.999081;0.004933;0.042566;,
1.000000;0.000000;0.000000;,
1.000000;0.000000;0.000000;,
0.998349;0.002645;0.057385;,
0.998349;0.002645;0.057385;,
0.000000;0.000000;-1.000000;,
0.000000;0.000000;-1.000000;,
0.000000;0.000000;-1.000000;,
0.000000;0.000000;-1.000000;,
0.000000;0.000000;-1.000000;,
0.000000;0.000000;-1.000000;,
0.000000;0.000000;-1.000000;,
0.000000;0.000000;-1.000000;,
0.000000;0.000000;-1.000000;,
0.000000;0.000000;-1.000000;,
0.000000;0.000000;-1.000000;,
0.000000;0.000000;-1.000000;,
0.000000;0.000000;-1.000000;,
0.000000;0.000000;-1.000000;,
-0.998349;0.002645;0.057384;,
-0.998349;0.002645;0.057384;,
-1.000000;0.000000;0.000000;,
-1.000000;0.000000;0.000000;,
-1.000000;0.000000;0.000000;,
-0.996659;0.006073;0.081454;,
-0.997455;0.012145;0.070252;,
-0.995699;0.000000;0.092643;,
0.997645;0.013807;0.067185;,
0.996777;0.006904;0.079923;,
0.997645;0.013807;0.067185;,
-0.997201;-0.006624;0.074477;,
-0.994486;-0.009291;0.104458;,
-0.997201;-0.006624;0.074477;,
-0.997889;-0.003538;0.064846;,
-0.997889;-0.003538;0.064846;,
-0.997889;-0.003538;0.064846;,
0.101247;-0.110071;0.988753;,
0.139153;-0.109705;0.984175;,
0.021559;-0.112061;0.993468;,
0.740399;0.000000;0.672167;,
0.740399;0.000000;0.672167;,
0.740399;0.000000;0.672167;,
0.009973;-0.109463;0.993941;,
-0.990863;-0.011949;0.134343;,
-0.990863;-0.011949;0.134343;,
0.998825;0.000000;0.048470;,
0.998825;0.000000;0.048470;,
0.998825;0.000000;0.048470;,
0.998825;0.000000;0.048471;,
0.998825;0.000000;0.048471;,
0.998825;0.000000;0.048471;,
0.997727;-0.005970;0.067118;,
0.994868;-0.008965;0.100788;,
0.997727;-0.005970;0.067118;,
0.990863;-0.011949;0.134342;,
0.990863;-0.011949;0.134342;,
0.995699;0.000000;0.092644;,
0.995699;0.000000;0.092644;,
-1.000000;0.000000;0.000000;,
-1.000000;0.000000;0.000000;,
-1.000000;0.000000;0.000000;,
0.127780;0.006158;0.991783;,
-0.997895;0.000000;0.064846;,
-0.997895;0.000000;0.064846;,
-0.997895;0.000000;0.064846;,
0.000000;-0.920984;0.389601;,
0.000000;-0.920984;0.389601;,
0.000000;-0.920984;0.389601;,
0.000000;-0.920984;0.389601;,
0.000000;0.000000;1.000000;,
0.000000;0.000000;1.000000;,
0.000000;0.000000;1.000000;,
0.733207;-0.043628;0.678605;,
0.637995;-0.029586;0.769472;,
0.439467;0.009247;0.898211;,
0.414285;0.000000;0.910147;,
0.384970;0.002143;-0.922927;,
0.502662;0.002140;-0.864480;,
0.455427;0.004273;-0.890263;,
0.442904;0.010352;-0.896509;,
0.548439;0.000000;-0.836191;,
0.838597;0.000000;0.544753;,
0.838597;0.000000;0.544753;,
0.330777;0.020550;-0.943485;,
0.330777;0.020550;-0.943485;,
-0.536409;-0.843958;0.000000;,
-0.536409;-0.843958;0.000000;,
-0.536410;-0.843958;0.000000;,
-1.000000;0.000000;0.000000;,
-1.000000;0.000000;0.000000;,
-1.000000;0.000000;0.000000;,
0.000000;0.000000;1.000000;,
-0.030379;0.002477;0.999535;,
-0.070742;0.000000;0.997495;,
0.740399;0.000000;0.672167;,
0.740399;0.000000;0.672167;,
0.312189;0.000000;-0.950020;,
0.312189;0.000000;-0.950020;,
-1.000000;0.000000;0.000000;,
-1.000000;0.000000;0.000000;,
-1.000000;0.000000;0.000000;,
-1.000000;0.000000;0.000000;,
-1.000000;0.000000;0.000000;,
-1.000000;0.000000;0.000000;,
-1.000000;0.000000;0.000000;,
-1.000000;0.000000;0.000000;,
0.729449;-0.110033;0.675127;,
-0.536410;-0.843958;0.000000;,
-0.536410;-0.843958;0.000000;,
-1.000000;0.000000;0.000000;,
0.000000;-0.199226;0.979954;,
0.000000;-0.199226;0.979954;,
0.000000;-0.199226;0.979954;,
0.000000;-0.199226;0.979954;,
0.000000;0.000000;1.000000;,
0.977131;0.000000;-0.212640;,
0.977131;0.000000;-0.212640;,
0.977131;0.000000;-0.212640;,
-0.990741;0.011914;-0.135238;,
-0.990741;0.011914;-0.135238;,
-0.990741;0.011914;-0.135238;,
0.975336;0.060593;-0.212247;,
0.975336;0.060593;-0.212247;,
0.975336;0.060593;-0.212247;,
-1.000000;0.000000;0.000000;,
-1.000000;0.000000;0.000000;,
-1.000000;0.000000;0.000000;,
-0.688093;-0.083331;-0.720822;,
-0.688093;-0.083331;-0.720822;,
-0.801423;-0.044413;-0.596447;,
0.000000;-1.000000;0.000000;,
0.000000;-1.000000;0.000000;,
0.000000;-1.000000;0.000000;,
-0.725331;0.647846;-0.232786;,
-0.725331;0.647846;-0.232786;,
-0.725331;0.647846;-0.232786;,
0.977131;0.000000;-0.212639;,
0.977131;0.000000;-0.212639;,
0.977131;0.000000;-0.212639;,
0.977131;0.000000;-0.212637;,
0.977131;0.000000;-0.212637;,
0.977131;0.000000;-0.212637;,
0.000000;-1.000000;0.000000;,
0.975335;0.060593;-0.212248;,
0.975335;0.060593;-0.212248;,
0.975335;0.060593;-0.212248;,
-0.972839;0.093628;-0.211704;,
-0.968486;0.132730;-0.210756;,
-0.972839;0.093628;-0.211704;,
-0.955276;0.210316;-0.207884;,
-0.955276;0.210316;-0.207884;,
-0.955276;0.210316;-0.207884;,
0.000000;0.948568;0.316573;,
0.000000;0.948568;0.316573;,
0.000000;0.948568;0.316573;,
-0.000001;0.948568;0.316573;,
-0.000001;0.948568;0.316573;,
-0.000001;0.948568;0.316573;,
-0.890849;-0.004170;-0.454281;,
-0.890849;-0.004170;-0.454281;,
-0.016347;-0.999720;0.017124;,
-0.016347;-0.999720;0.017124;,
-0.016347;-0.999720;0.017124;,
-0.002866;-0.999924;0.011967;,
-0.002866;-0.999924;0.011967;,
-0.002866;-0.999924;0.011967;,
0.461899;-0.855085;-0.235542;,
0.461899;-0.855085;-0.235542;,
0.461899;-0.855085;-0.235542;,
0.000000;-1.000000;0.000000;,
0.000000;-1.000000;0.000000;,
0.000000;-1.000000;0.000000;,
0.000000;-1.000000;-0.000001;,
0.000000;-1.000000;-0.000001;,
0.000000;-1.000000;-0.000001;,
-0.975336;0.060593;-0.212248;,
-0.975336;0.060593;-0.212248;,
-0.975336;0.060593;-0.212248;,
-0.731783;0.641851;-0.229175;,
-0.731783;0.641851;-0.229175;,
-0.731783;0.641851;-0.229175;,
0.068886;0.000000;0.997625;,
0.075282;0.008673;0.997125;,
0.068886;0.000000;0.997625;,
0.088058;0.019387;0.995927;,
0.088058;0.019387;0.995927;,
0.000000;-0.069928;0.997552;,
0.251717;-0.035878;0.967136;,
0.000000;-0.023481;0.999724;,
0.376332;0.039787;0.925630;,
0.036057;-0.035567;0.998717;,
0.001851;-0.059050;0.998253;,
0.001851;-0.059050;0.998253;,
0.068884;0.006630;0.997603;,
0.068884;0.006630;0.997603;,
0.209198;-0.058950;0.976095;,
0.209198;-0.058950;0.976095;,
0.191124;-0.062268;0.979589;,
0.127235;-0.008040;0.991840;,
0.097911;-0.000001;0.995195;,
0.008271;-0.047513;0.998836;,
0.008271;-0.047513;0.998836;,
0.169457;0.000000;0.985538;,
0.169457;0.000000;0.985538;,
0.114130;-0.024107;0.993173;,
0.114130;-0.024107;0.993173;,
-0.169457;0.000000;0.985538;,
-0.127235;-0.008040;0.991840;,
-0.169457;0.000000;0.985538;,
-0.036057;-0.035567;0.998717;,
-0.008271;-0.047513;0.998836;,
-0.008271;-0.047513;0.998836;,
0.990741;0.011914;-0.135238;,
0.990741;0.011914;-0.135238;,
0.990741;0.011914;-0.135238;,
1.000000;0.000000;0.000000;,
1.000000;0.000000;0.000000;,
1.000000;0.000000;0.000000;,
0.972839;0.093628;-0.211704;,
0.972839;0.093628;-0.211704;,
0.972839;0.093628;-0.211704;,
0.972839;0.093628;-0.211704;,
0.955276;0.210315;-0.207882;,
0.955276;0.210315;-0.207882;,
0.955276;0.210315;-0.207882;,
0.955276;0.210315;-0.207882;,
0.955276;0.210315;-0.207882;,
0.955276;0.210315;-0.207882;,
-0.970971;0.165086;-0.173098;,
-0.970971;0.165086;-0.173098;,
-0.970971;0.165086;-0.173098;,
-0.972839;0.093628;-0.211702;,
-0.972839;0.093628;-0.211702;,
0.000000;-1.000000;0.000000;,
0.000000;-1.000000;0.000000;,
0.000000;-1.000000;0.000000;,
-0.955276;0.210315;-0.207880;,
-0.955276;0.210315;-0.207880;,
-0.114130;-0.024107;0.993173;,
-0.114130;-0.024107;0.993173;,
0.688093;-0.083331;-0.720822;,
0.688093;-0.083331;-0.720822;,
0.801423;-0.044413;-0.596447;,
0.890849;-0.004170;-0.454281;,
0.890849;-0.004170;-0.454281;,
0.725332;0.647846;-0.232786;,
0.725332;0.647846;-0.232786;,
0.725332;0.647846;-0.232786;,
0.731783;0.641851;-0.229175;,
0.731783;0.641851;-0.229175;,
0.731783;0.641851;-0.229175;,
0.970971;0.165086;-0.173098;,
0.970971;0.165086;-0.173098;,
0.970971;0.165086;-0.173098;,
0.963371;0.188019;-0.191221;,
0.963371;0.188019;-0.191221;,
0.963371;0.188019;-0.191221;,
-0.097911;-0.000001;0.995195;,
-0.251717;-0.035878;0.967136;,
-0.191124;-0.062268;0.979589;,
-0.209198;-0.058950;0.976095;,
-0.209198;-0.058950;0.976095;,
-0.068884;0.006630;0.997603;,
-0.068884;0.006630;0.997603;,
-0.068884;0.006630;0.997603;,
-0.001851;-0.059050;0.998253;,
-0.001851;-0.059050;0.998253;,
-0.376332;0.039787;0.925630;,
-0.088058;0.019387;0.995927;,
-0.088058;0.019387;0.995927;,
-0.088058;0.019387;0.995927;,
-0.068886;0.000000;0.997625;,
-0.068886;0.000000;0.997625;,
-0.068886;0.000000;0.997625;,
-0.963371;0.188019;-0.191221;,
-0.963371;0.188019;-0.191221;,
-0.963371;0.188019;-0.191221;,
0.000000;0.948568;0.316573;,
0.000000;0.948568;0.316573;,
0.000000;0.948568;0.316573;,
0.000000;0.948568;0.316573;,
0.000000;0.948568;0.316573;,
0.000000;0.948568;0.316573;,
-0.977131;0.000000;-0.212638;,
-0.977131;0.000000;-0.212638;,
-0.977131;0.000000;-0.212638;,
-0.461899;-0.855085;-0.235541;,
-0.461899;-0.855085;-0.235541;,
-0.461899;-0.855085;-0.235541;,
0.002866;-0.999924;0.011967;,
0.002866;-0.999924;0.011967;,
0.002866;-0.999924;0.011967;,
0.016347;-0.999720;0.017124;,
0.016347;-0.999720;0.017124;,
0.016347;-0.999720;0.017124;,
0.000000;-1.000000;0.000000;,
0.000000;-1.000000;0.000000;,
0.000000;-1.000000;0.000000;,
0.000000;-1.000000;0.000000;,
0.000000;-1.000000;0.000000;,
0.000000;-1.000000;0.000000;,
0.000000;-1.000000;0.000000;,
0.000000;-1.000000;0.000000;,
0.000000;-1.000000;0.000000;,
0.000000;-1.000000;0.000000;,
0.000000;-1.000000;0.000000;,
-0.977131;0.000000;-0.212638;,
-0.977131;0.000000;-0.212638;,
-0.977131;0.000000;-0.212638;,
-0.977131;0.000000;-0.212637;,
-0.977131;0.000000;-0.212637;,
-0.977131;0.000000;-0.212637;,
0.000000;-1.000000;0.000000;,
-0.975335;0.060593;-0.212249;,
-0.975335;0.060593;-0.212249;,
-0.975335;0.060593;-0.212249;,
0.051901;0.998521;-0.016207;,
0.051901;0.998521;-0.016207;,
0.051901;0.998521;-0.016207;,
0.000000;1.000000;0.000000;,
0.000000;1.000000;0.000000;,
0.000000;1.000000;0.000000;,
0.000000;1.000000;0.000000;,
-0.005285;0.998516;0.054199;,
-0.005285;0.998516;0.054199;,
-0.005285;0.998516;0.054199;,
0.000000;1.000000;0.000000;,
0.000000;1.000000;0.000000;,
0.000000;1.000000;0.000000;,
0.589925;0.798161;0.122180;,
0.589925;0.798161;0.122180;,
0.589925;0.798161;0.122180;,
-0.031324;0.999509;0.000000;,
-0.031324;0.999509;0.000000;,
-0.031324;0.999509;0.000000;,
-0.004305;0.998531;0.054011;,
-0.004305;0.998531;0.054011;,
-0.004305;0.998531;0.054011;,
0.000001;1.000000;-0.000001;,
0.000001;1.000000;-0.000001;,
0.000001;1.000000;-0.000001;,
0.000000;1.000000;0.000000;,
0.000000;1.000000;0.000000;,
0.000000;1.000000;0.000000;,
0.892007;0.105955;0.439429;,
0.892007;0.105955;0.439429;,
0.892007;0.105955;0.439429;,
0.000000;1.000000;0.000000;,
0.000000;1.000000;0.000000;,
0.000000;1.000000;0.000000;,
-0.589924;0.798161;0.122180;,
-0.589924;0.798161;0.122180;,
-0.589924;0.798161;0.122180;,
-0.593060;0.794747;0.129058;,
-0.593060;0.794747;0.129058;,
-0.593060;0.794747;0.129058;,
0.004305;0.998531;0.054011;,
0.004305;0.998531;0.054011;,
0.004305;0.998531;0.054011;,
0.031324;0.999509;0.000000;,
0.031324;0.999509;0.000000;,
0.031324;0.999509;0.000000;,
0.005285;0.998516;0.054199;,
0.005285;0.998516;0.054199;,
0.005285;0.998516;0.054199;,
-0.051901;0.998521;-0.016207;,
-0.051901;0.998521;-0.016207;,
-0.051901;0.998521;-0.016207;,
0.880070;0.000000;0.474843;,
0.880070;0.000000;0.474843;,
0.880070;0.000000;0.474843;,
0.923739;-0.039024;0.381030;,
0.923739;-0.039024;0.381030;,
0.923739;-0.039024;0.381030;,
-0.169457;0.000000;0.985538;,
-0.169457;0.000000;0.985538;,
-0.169457;0.000000;0.985538;,
-0.055484;-0.094033;0.994022;,
-0.055484;-0.094033;0.994022;,
-0.055484;-0.094033;0.994022;,
-0.880070;0.000000;0.474843;,
-0.880070;0.000000;0.474843;,
-0.880070;0.000000;0.474843;,
-0.369954;-0.126864;0.920347;,
-0.369954;-0.126864;0.920347;,
-0.369954;-0.126864;0.920347;,
0.135410;0.000000;0.990790;,
0.135410;0.000000;0.990790;,
0.135410;0.000000;0.990790;,
0.135410;0.000000;0.990790;,
0.135410;0.000000;0.990790;,
0.135410;0.000000;0.990790;,
0.000000;0.000000;1.000000;,
0.000000;0.000000;1.000000;,
0.000000;0.000000;1.000000;,
0.000000;0.000000;1.000000;,
0.000000;1.000000;0.000000;,
0.000000;1.000000;0.000000;,
0.000000;1.000000;0.000000;,
-0.968192;-0.250207;0.000003;,
-0.968192;-0.250207;0.000003;,
-0.982380;-0.186897;0.000001;,
-0.669872;-0.043230;-0.741217;,
-0.669872;-0.043230;-0.741217;,
-0.669872;-0.043230;-0.741217;,
-0.989541;-0.144253;0.000000;,
-0.989541;-0.144253;0.000000;,
-0.989541;-0.144253;0.000001;,
-0.968192;-0.250207;0.000000;,
-0.968192;-0.250207;0.000000;,
-0.968192;-0.250207;0.000000;,
-0.989541;-0.144253;0.000002;,
-0.989541;-0.144253;0.000000;,
-0.989541;-0.144253;0.000000;,
0.000000;1.000000;0.000000;,
0.000000;1.000000;0.000000;,
0.000000;1.000000;0.000000;,
0.989541;-0.144253;0.000000;,
0.989541;-0.144253;0.000001;,
0.983702;-0.179804;0.000001;,
0.982380;-0.186897;0.000001;,
0.968193;-0.250207;0.000000;,
0.968193;-0.250207;0.000000;,
0.968193;-0.250207;0.000000;,
0.989541;-0.144253;0.000000;,
0.989541;-0.144253;0.000000;,
0.669872;-0.043230;-0.741217;,
0.669872;-0.043230;-0.741217;,
0.669872;-0.043230;-0.741217;,
0.968193;-0.250207;0.000003;,
0.593061;0.794746;0.129059;,
0.593061;0.794746;0.129059;,
0.593061;0.794746;0.129059;,
-0.892007;0.105955;0.439429;,
-0.892007;0.105955;0.439429;,
-0.892007;0.105955;0.439429;,
-0.923739;-0.039024;0.381030;,
-0.923739;-0.039024;0.381030;,
-0.923739;-0.039024;0.381030;,
-0.944719;-0.000009;0.327880;,
-0.944719;-0.000009;0.327880;,
-0.944719;-0.000009;0.327880;,
0.000000;0.000000;1.000000;,
0.000000;0.000000;1.000000;,
-0.135410;0.000000;0.990790;,
-0.135410;0.000000;0.990790;,
-0.135410;0.000000;0.990790;,
-0.135410;0.000000;0.990790;,
-0.135410;0.000000;0.990790;,
-0.135410;0.000000;0.990790;,
0.709362;-0.066366;0.701713;,
0.709362;-0.066366;0.701713;,
0.709362;-0.066366;0.701713;,
0.369955;-0.126864;0.920347;,
0.369955;-0.126864;0.920347;,
0.369955;-0.126864;0.920347;,
0.055484;-0.094033;0.994022;,
0.055484;-0.094033;0.994022;,
0.055484;-0.094033;0.994022;,
0.169457;0.000000;0.985538;,
0.169457;0.000000;0.985538;,
0.169457;0.000000;0.985538;,
-0.709362;-0.066366;0.701713;,
-0.709362;-0.066366;0.701713;,
-0.709362;-0.066366;0.701713;,
0.944719;-0.000009;0.327880;,
0.944719;-0.000009;0.327880;,
0.944719;-0.000009;0.327880;;

 332;
3;0,1,2;,
3;3,4,5;,
3;6,7,8;,
3;8,9,6;,
3;10,6,9;,
3;3,10,9;,
3;11,10,3;,
3;12,13,14;,
3;15,12,14;,
3;15,16,12;,
3;17,2,18;,
3;19,20,21;,
3;22,23,24;,
3;25,26,27;,
3;27,26,28;,
3;29,30,27;,
3;31,27,32;,
3;27,28,33;,
3;34,35,36;,
3;37,28,34;,
3;26,34,28;,
3;38,39,40;,
3;41,42,43;,
3;44,43,42;,
3;45,46,47;,
3;48,47,46;,
3;49,46,50;,
3;51,50,46;,
3;52,53,54;,
3;53,52,55;,
3;56,22,57;,
3;24,57,22;,
3;58,59,26;,
3;26,25,58;,
3;60,30,61;,
3;61,62,60;,
3;30,25,27;,
3;63,53,55;,
3;53,63,64;,
3;65,66,67;,
3;67,68,65;,
3;69,70,67;,
3;71,24,72;,
3;73,71,72;,
3;73,72,74;,
3;24,23,72;,
3;72,75,76;,
3;74,72,77;,
3;78,79,80;,
3;74,81,79;,
3;79,73,74;,
3;39,21,20;,
3;29,61,30;,
3;40,82,38;,
3;59,58,73;,
3;71,73,58;,
3;83,84,85;,
3;67,86,69;,
3;87,88,89;,
3;90,87,91;,
3;92,93,94;,
3;95,96,97;,
3;98,95,99;,
3;94,93,14;,
3;13,94,14;,
3;17,0,2;,
3;100,17,18;,
3;18,101,102;,
3;103,104,101;,
3;105,2,1;,
3;5,11,3;,
3;85,106,83;,
3;107,108,109;,
3;110,107,111;,
3;112,110,113;,
3;112,114,115;,
3;116,117,118;,
3;117,119,120;,
3;121,122,123;,
3;124,125,123;,
3;126,127,128;,
3;129,130,131;,
3;130,128,132;,
3;128,127,133;,
3;134,135,136;,
3;137,138,139;,
3;135,140,141;,
3;142,143,144;,
3;144,145,142;,
3;146,147,148;,
3;143,142,149;,
3;150,149,142;,
3;151,152,147;,
3;147,146,151;,
3;149,153,154;,
3;155,156,157;,
3;158,159,160;,
3;161,162,163;,
3;162,161,164;,
3;165,159,166;,
3;159,165,160;,
3;167,168,169;,
3;170,167,171;,
3;172,167,173;,
3;174,175,176;,
3;177,174,178;,
3;179,178,174;,
3;178,180,181;,
3;182,183,149;,
3;164,184,162;,
3;185,186,187;,
3;188,189,190;,
3;191,192,193;,
3;193,194,191;,
3;195,196,197;,
3;197,198,195;,
3;199,200,201;,
3;202,199,201;,
3;203,204,205;,
3;205,206,203;,
3;207,208,209;,
3;209,210,207;,
3;211,157,156;,
3;212,190,189;,
3;213,214,215;,
3;216,217,218;,
3;219,220,221;,
3;222,223,224;,
3;225,226,227;,
3;228,229,230;,
3;231,232,230;,
3;233,234,230;,
3;235,236,237;,
3;219,238,239;,
3;240,219,241;,
3;242,232,243;,
3;244,245,246;,
3;247,248,249;,
3;250,251,249;,
3;252,253,249;,
3;254,255,256;,
3;257,258,259;,
3;260,261,262;,
3;263,264,265;,
3;266,267,168;,
3;268,185,269;,
3;270,271,272;,
3;185,273,274;,
3;275,273,185;,
3;276,277,278;,
3;279,280,281;,
3;282,283,284;,
3;285,286,287;,
3;288,289,290;,
3;287,291,285;,
3;280,292,293;,
3;294,295,296;,
3;297,298,299;,
3;300,301,302;,
3;303,304,301;,
3;305,306,277;,
3;307,308,309;,
3;286,285,310;,
3;311,312,313;,
3;314,315,316;,
3;317,316,315;,
3;318,319,320;,
3;321,322,323;,
3;324,323,322;,
3;325,326,327;,
3;326,328,329;,
3;330,164,331;,
3;332,328,333;,
3;334,335,336;,
3;337,338,339;,
3;159,158,340;,
3;291,287,341;,
3;342,341,287;,
3;289,288,343;,
3;344,343,288;,
3;345,325,346;,
3;347,348,349;,
3;350,351,352;,
3;323,310,285;,
3;352,353,354;,
3;322,321,355;,
3;356,357,336;,
3;353,358,354;,
3;359,360,361;,
3;350,352,354;,
3;360,362,361;,
3;363,320,319;,
3;364,365,366;,
3;367,368,369;,
3;370,371,372;,
3;373,374,375;,
3;376,377,378;,
3;379,380,381;,
3;382,383,384;,
3;385,386,387;,
3;388,389,390;,
3;380,391,381;,
3;392,393,394;,
3;395,396,397;,
3;398,399,400;,
3;401,402,403;,
3;404,405,406;,
3;378,407,408;,
3;409,410,411;,
3;412,413,414;,
3;415,416,417;,
3;418,419,420;,
3;421,422,423;,
3;424,425,426;,
3;427,428,429;,
3;430,431,432;,
3;433,434,431;,
3;435,436,437;,
3;438,437,436;,
3;439,440,441;,
3;431,442,443;,
3;444,445,435;,
3;436,435,446;,
3;447,448,439;,
3;449,439,450;,
3;447,451,452;,
3;453,447,454;,
3;455,456,457;,
3;458,459,460;,
3;461,462,463;,
3;464,465,466;,
3;467,468,469;,
3;468,470,469;,
3;471,472,473;,
3;474,475,476;,
3;477,478,479;,
3;396,480,481;,
3;482,483,484;,
3;396,485,486;,
3;456,487,488;,
3;489,490,491;,
3;492,491,493;,
3;494,495,496;,
3;497,498,499;,
3;500,501,502;,
3;503,504,505;,
3;506,456,458;,
3;435,507,508;,
3;509,510,435;,
3;511,512,513;,
3;514,458,515;,
3;437,516,507;,
3;507,435,437;,
3;517,518,519;,
3;520,521,522;,
3;523,524,525;,
3;526,527,528;,
3;529,530,531;,
3;532,533,534;,
3;535,536,537;,
3;538,539,540;,
3;541,542,543;,
3;483,544,545;,
3;546,547,548;,
3;549,550,551;,
3;552,553,554;,
3;555,556,557;,
3;558,559,560;,
3;561,552,554;,
3;562,563,564;,
3;565,566,567;,
3;568,569,570;,
3;571,568,570;,
3;572,573,574;,
3;575,576,577;,
3;578,579,580;,
3;581,582,583;,
3;584,585,586;,
3;587,588,589;,
3;590,591,592;,
3;593,594,595;,
3;596,597,598;,
3;599,600,601;,
3;602,603,604;,
3;605,606,607;,
3;608,609,610;,
3;611,612,613;,
3;614,615,616;,
3;617,618,619;,
3;620,621,622;,
3;623,624,625;,
3;626,627,628;,
3;629,630,631;,
3;632,633,634;,
3;635,636,637;,
3;638,639,640;,
3;641,642,643;,
3;643,644,641;,
3;645,646,647;,
3;648,649,650;,
3;651,652,653;,
3;650,654,655;,
3;655,656,650;,
3;657,658,659;,
3;659,650,657;,
3;660,650,656;,
3;656,661,662;,
3;663,568,664;,
3;568,571,664;,
3;664,571,665;,
3;666,667,668;,
3;669,668,667;,
3;669,670,671;,
3;672,671,670;,
3;667,673,669;,
3;674,669,673;,
3;675,676,677;,
3;678,668,669;,
3;679,680,681;,
3;682,683,684;,
3;685,686,687;,
3;688,689,690;,
3;644,691,641;,
3;692,641,691;,
3;693,694,695;,
3;696,697,698;,
3;699,700,701;,
3;702,703,704;,
3;705,706,707;,
3;708,709,710;,
3;711,712,713;,
3;714,715,716;;
 }
MeshTextureCoords {
 717;
0.987837;0.341277;,
0.987837;0.974594;,
0.791324;0.341277;,
0.791324;0.341277;,
0.859931;0.974594;,
0.987837;0.974594;,
0.987837;0.065693;,
0.966149;0.018596;,
0.360079;0.060899;,
0.673712;0.141950;,
0.987837;0.181194;,
0.987837;0.341277;,
0.443197;0.146264;,
0.626021;0.146264;,
0.626021;0.347137;,
0.443197;0.307954;,
0.331796;0.101484;,
0.987837;0.181194;,
0.673712;0.141950;,
0.607153;0.520834;,
0.583813;0.640422;,
0.627054;0.501842;,
0.183403;0.372772;,
0.164508;0.569097;,
0.350499;0.372772;,
0.520841;0.372772;,
0.575904;0.487460;,
0.388067;0.608015;,
0.503479;0.690879;,
0.164508;0.569097;,
0.350499;0.372772;,
0.381816;0.976726;,
0.503479;0.976726;,
0.503479;0.976726;,
0.550268;0.638241;,
0.591260;0.976726;,
0.503479;0.976726;,
0.503479;0.976726;,
0.627054;0.501842;,
0.627054;0.640422;,
0.583813;0.640422;,
0.809328;0.974834;,
0.731017;0.401833;,
0.837344;0.974834;,
0.759033;0.401833;,
0.682104;0.397666;,
0.741905;0.835230;,
0.703498;0.397666;,
0.763300;0.835230;,
0.763300;0.835230;,
0.763300;0.972947;,
0.741905;0.972947;,
0.141579;0.009454;,
0.010352;0.979876;,
0.141579;0.979876;,
0.010352;0.009454;,
0.259239;0.028316;,
0.350499;0.200294;,
0.627054;0.372772;,
0.627054;0.433913;,
0.350499;0.200294;,
0.183403;0.372772;,
0.259239;0.028316;,
0.141579;0.009454;,
0.141579;0.979876;,
0.763300;0.972947;,
0.741905;0.972947;,
0.741905;0.835230;,
0.763300;0.835230;,
0.703498;0.397666;,
0.763300;0.835230;,
0.520841;0.372772;,
0.388067;0.608015;,
0.575904;0.487460;,
0.503479;0.690879;,
0.381816;0.976726;,
0.503479;0.976726;,
0.503479;0.976726;,
0.591260;0.976726;,
0.550268;0.638241;,
0.503479;0.976726;,
0.503479;0.976726;,
0.607153;0.520834;,
0.837344;0.974834;,
0.759033;0.401833;,
0.731017;0.401833;,
0.682104;0.397666;,
0.294227;0.620867;,
0.294227;0.931365;,
0.357837;0.940048;,
0.334127;0.629550;,
0.357837;0.940048;,
0.331796;0.101484;,
0.443197;0.307954;,
0.443197;0.146264;,
0.294227;0.620867;,
0.334127;0.629550;,
0.357837;0.940048;,
0.294227;0.931365;,
0.357837;0.940048;,
0.987837;0.065693;,
0.360079;0.060899;,
0.987837;0.065693;,
0.966149;0.018596;,
0.987837;0.065693;,
0.859931;0.974594;,
0.809328;0.974834;,
0.115526;0.939635;,
0.115526;0.039240;,
0.139548;0.023972;,
0.171230;0.976546;,
0.139548;0.023972;,
0.171230;0.468040;,
0.139548;0.023972;,
0.139548;0.023972;,
0.192606;0.123958;,
0.550123;0.130759;,
0.560514;0.116250;,
0.610246;0.130759;,
0.602745;0.116250;,
0.610246;0.130759;,
0.560514;0.020958;,
0.602745;0.020958;,
0.560514;0.116250;,
0.602745;0.020958;,
0.602745;0.116250;,
0.550123;0.130759;,
0.610246;0.130759;,
0.550123;0.538237;,
0.525820;0.986383;,
0.524384;0.696164;,
0.610246;0.986383;,
0.610246;0.986383;,
0.610246;0.986383;,
0.284883;0.529985;,
0.274644;0.529985;,
0.260578;0.979277;,
0.260578;0.979277;,
0.284883;0.963829;,
0.284883;0.529985;,
0.284883;0.529985;,
0.284883;0.361839;,
0.274644;0.529985;,
0.224846;0.529985;,
0.203218;0.878114;,
0.260578;0.979277;,
0.265988;0.361839;,
0.224846;0.361839;,
0.224846;0.529985;,
0.265988;0.361839;,
0.284883;0.361839;,
0.265988;0.052841;,
0.224846;0.015495;,
0.284883;0.361839;,
0.284883;0.052841;,
0.317930;0.556480;,
0.323811;0.600013;,
0.384976;0.556480;,
0.499173;0.979779;,
0.417488;0.015033;,
0.417488;0.979779;,
0.765932;0.025352;,
0.710431;0.987286;,
0.765932;0.987286;,
0.710431;0.025352;,
0.499173;0.979779;,
0.499173;0.015033;,
0.091141;0.983838;,
0.091141;0.021721;,
0.014764;0.421080;,
0.014764;0.511088;,
0.014764;0.421080;,
0.014764;0.983838;,
0.014764;0.511088;,
0.710431;0.987286;,
0.765932;0.025352;,
0.765932;0.987286;,
0.765932;0.025352;,
0.710431;0.025352;,
0.635565;0.987286;,
0.635565;0.987286;,
0.635565;0.025352;,
0.284883;0.052841;,
0.265988;0.052841;,
0.635565;0.987286;,
0.854779;0.189245;,
0.961470;0.491461;,
0.854779;0.582309;,
0.317930;0.556480;,
0.384976;0.556480;,
0.317930;0.144148;,
0.384976;0.556480;,
0.317930;0.556480;,
0.317930;0.144148;,
0.384976;0.144148;,
0.379095;0.026767;,
0.379095;0.117410;,
0.323811;0.117410;,
0.323811;0.026767;,
0.379095;0.600013;,
0.384976;0.979332;,
0.317930;0.979332;,
0.323811;0.600013;,
0.323811;0.600013;,
0.317930;0.556480;,
0.384976;0.556480;,
0.379095;0.600013;,
0.379095;0.117410;,
0.384976;0.144148;,
0.317930;0.144148;,
0.323811;0.117410;,
0.379095;0.600013;,
0.384976;0.144148;,
0.854779;0.582309;,
0.961470;0.582309;,
0.961470;0.491461;,
0.961470;0.491461;,
0.854779;0.189245;,
0.854779;0.582309;,
0.983464;0.985401;,
0.983464;0.582309;,
0.961470;0.582309;,
0.854779;0.189245;,
0.794525;0.163756;,
0.794525;0.077349;,
0.817120;0.623808;,
0.854779;0.582309;,
0.890633;0.985401;,
0.890633;0.985401;,
0.854779;0.582309;,
0.983464;0.985401;,
0.854779;0.189245;,
0.983464;0.014293;,
0.854779;0.582309;,
0.854779;0.189245;,
0.817120;0.623808;,
0.890633;0.985401;,
0.854779;0.582309;,
0.961470;0.582309;,
0.854779;0.582309;,
0.890633;0.985401;,
0.854779;0.582309;,
0.794525;0.077349;,
0.854779;0.189245;,
0.794525;0.077349;,
0.794525;0.163756;,
0.854779;0.189245;,
0.794525;0.077349;,
0.854779;0.189245;,
0.983464;0.014293;,
0.961470;0.491461;,
0.983464;0.491461;,
0.854779;0.189245;,
0.961470;0.491461;,
0.014764;0.421080;,
0.014764;0.021721;,
0.091141;0.021721;,
0.091141;0.983838;,
0.014764;0.983838;,
0.014764;0.511088;,
0.091141;0.983838;,
0.014764;0.511088;,
0.014764;0.421080;,
0.091141;0.021721;,
0.091141;0.983838;,
0.014764;0.421080;,
0.014764;0.021721;,
0.014764;0.421080;,
0.961470;0.491461;,
0.983464;0.014293;,
0.983464;0.491461;,
0.961470;0.491461;,
0.983464;0.014293;,
0.794525;0.077349;,
0.983464;0.014293;,
0.794525;0.163756;,
0.983464;0.014293;,
0.794525;0.077349;,
0.854779;0.189245;,
0.983464;0.985401;,
0.890633;0.985401;,
0.854779;0.582309;,
0.961470;0.582309;,
0.983464;0.985401;,
0.854779;0.582309;,
0.274644;0.529985;,
0.224846;0.529985;,
0.265988;0.361839;,
0.224846;0.361839;,
0.265988;0.361839;,
0.224846;0.529985;,
0.284883;0.361839;,
0.817120;0.623808;,
0.854779;0.582309;,
0.854779;0.189245;,
0.854779;0.582309;,
0.983464;0.985401;,
0.983464;0.014293;,
0.854779;0.189245;,
0.983464;0.985401;,
0.854779;0.582309;,
0.890633;0.985401;,
0.983464;0.985401;,
0.854779;0.582309;,
0.817120;0.623808;,
0.794525;0.163756;,
0.854779;0.189245;,
0.983464;0.582309;,
0.983464;0.985401;,
0.961470;0.582309;,
0.203218;0.878114;,
0.961470;0.582309;,
0.854779;0.582309;,
0.961470;0.491461;,
0.323811;0.117410;,
0.317930;0.144148;,
0.379095;0.117410;,
0.384976;0.144148;,
0.379095;0.117410;,
0.379095;0.026767;,
0.323811;0.117410;,
0.274644;0.529985;,
0.284883;0.529985;,
0.260578;0.979277;,
0.284883;0.963829;,
0.115526;0.939635;,
0.171230;0.976546;,
0.139548;0.023972;,
0.171230;0.468040;,
0.139548;0.023972;,
0.635565;0.987286;,
0.635565;0.025352;,
0.139548;0.023972;,
0.192606;0.123958;,
0.602745;0.116250;,
0.560514;0.116250;,
0.610246;0.130759;,
0.602745;0.020958;,
0.560514;0.020958;,
0.560514;0.116250;,
0.499173;0.015033;,
0.284883;0.052841;,
0.265988;0.052841;,
0.265988;0.052841;,
0.224846;0.015495;,
0.115526;0.039240;,
0.139548;0.023972;,
0.602745;0.116250;,
0.602745;0.020958;,
0.560514;0.116250;,
0.610246;0.130759;,
0.550123;0.130759;,
0.550123;0.538237;,
0.524384;0.696164;,
0.610246;0.986383;,
0.284883;0.361839;,
0.560514;0.116250;,
0.550123;0.130759;,
0.525820;0.986383;,
0.384976;0.979332;,
0.379095;0.600013;,
0.317930;0.979332;,
0.323811;0.600013;,
0.323811;0.026767;,
0.721626;0.013131;,
0.721626;0.400489;,
0.740526;0.588546;,
0.657598;0.606559;,
0.703860;0.606559;,
0.690409;0.978995;,
0.721626;0.588546;,
0.721626;0.977901;,
0.740526;0.977901;,
0.666638;0.978995;,
0.657598;0.606559;,
0.690409;0.978995;,
0.637432;0.029179;,
0.637432;0.623012;,
0.508836;0.623012;,
0.930121;0.580905;,
0.778149;0.580905;,
0.946607;0.360173;,
0.303663;0.828990;,
0.637432;0.887540;,
0.619263;0.981481;,
0.721626;0.400489;,
0.721626;0.588546;,
0.740526;0.588546;,
0.740526;0.013131;,
0.721626;0.013131;,
0.740526;0.588546;,
0.763301;0.360173;,
0.740526;0.588546;,
0.721626;0.588546;,
0.740526;0.977901;,
0.657598;0.567248;,
0.657598;0.368940;,
0.686616;0.567248;,
0.657598;0.021005;,
0.686616;0.021005;,
0.686616;0.368940;,
0.781873;0.985025;,
0.756558;0.603581;,
0.912195;0.603581;,
0.888269;0.985025;,
0.781873;0.985025;,
0.912195;0.603581;,
0.514287;0.029179;,
0.637432;0.029179;,
0.887750;0.226028;,
0.887750;0.020697;,
0.763901;0.344253;,
0.818007;0.037401;,
0.763901;0.344253;,
0.887750;0.020697;,
0.887750;0.231039;,
0.830018;0.344253;,
0.887750;0.327549;,
0.009453;0.296211;,
0.268856;0.146914;,
0.009453;0.010222;,
0.268856;0.146914;,
0.268856;0.036235;,
0.009453;0.010222;,
0.721626;0.588546;,
0.740526;0.588546;,
0.740526;0.977901;,
0.619263;0.981481;,
0.285494;0.862308;,
0.303663;0.828990;,
0.284550;0.353458;,
0.457897;0.353458;,
0.284550;0.180979;,
0.382061;0.009002;,
0.284550;0.180979;,
0.007995;0.467236;,
0.092376;0.496638;,
0.007995;0.353457;,
0.074900;0.353457;,
0.131573;0.358252;,
0.476792;0.549783;,
0.284550;0.353458;,
0.284550;0.353458;,
0.476792;0.549783;,
0.007995;0.932386;,
0.084781;0.932386;,
0.084781;0.932386;,
0.131570;0.671564;,
0.253233;0.588700;,
0.476792;0.549783;,
0.253233;0.588700;,
0.131570;0.957412;,
0.253233;0.957412;,
0.253233;0.588700;,
0.253233;0.957412;,
0.131570;0.957412;,
0.131570;0.671564;,
0.253233;0.957412;,
0.131573;0.358252;,
0.476792;0.549783;,
0.253233;0.588700;,
0.703860;0.606559;,
0.657598;0.606559;,
0.690409;0.978995;,
0.657598;0.606559;,
0.666638;0.978995;,
0.690409;0.978995;,
0.686616;0.368940;,
0.657598;0.368940;,
0.686616;0.567248;,
0.657598;0.567248;,
0.686616;0.021005;,
0.657598;0.021005;,
0.686616;0.368940;,
0.657598;0.021005;,
0.657598;0.368940;,
0.686616;0.368940;,
0.303663;0.619186;,
0.637432;0.623012;,
0.637432;0.887540;,
0.686616;0.368940;,
0.686616;0.567248;,
0.268856;0.146914;,
0.009453;0.296211;,
0.171873;0.296211;,
0.657598;0.021005;,
0.686616;0.368940;,
0.253233;0.588700;,
0.253233;0.957412;,
0.637432;0.623012;,
0.637432;0.029179;,
0.508836;0.623012;,
0.514287;0.029179;,
0.637432;0.029179;,
0.637432;0.887540;,
0.303663;0.828990;,
0.619263;0.981481;,
0.285494;0.862308;,
0.619263;0.981481;,
0.303663;0.828990;,
0.637432;0.623012;,
0.303663;0.619186;,
0.637432;0.887540;,
0.303663;0.828990;,
0.637432;0.887540;,
0.303663;0.619186;,
0.253233;0.588700;,
0.092376;0.496638;,
0.084781;0.932386;,
0.084781;0.932386;,
0.007995;0.932386;,
0.284550;0.353458;,
0.457897;0.353458;,
0.476792;0.549783;,
0.476792;0.549783;,
0.284550;0.353458;,
0.074900;0.353457;,
0.284550;0.180979;,
0.382061;0.009002;,
0.457897;0.353458;,
0.457897;0.353458;,
0.284550;0.353458;,
0.284550;0.180979;,
0.637432;0.887540;,
0.303663;0.828990;,
0.303663;0.619186;,
0.756558;0.603581;,
0.781873;0.985025;,
0.912195;0.603581;,
0.781873;0.985025;,
0.888269;0.985025;,
0.912195;0.603581;,
0.721626;0.588546;,
0.721626;0.400489;,
0.740526;0.588546;,
0.830018;0.344253;,
0.887750;0.231039;,
0.887750;0.327549;,
0.763901;0.344253;,
0.818007;0.037401;,
0.887750;0.020697;,
0.887750;0.020697;,
0.887750;0.226028;,
0.763901;0.344253;,
0.268856;0.146914;,
0.171873;0.296211;,
0.268856;0.036235;,
0.268856;0.146914;,
0.009453;0.010222;,
0.268856;0.146914;,
0.009453;0.296211;,
0.009453;0.010222;,
0.778149;0.580905;,
0.930121;0.580905;,
0.946607;0.360173;,
0.721626;0.013131;,
0.740526;0.013131;,
0.740526;0.588546;,
0.721626;0.400489;,
0.721626;0.013131;,
0.740526;0.588546;,
0.763301;0.360173;,
0.721626;0.977901;,
0.721626;0.588546;,
0.740526;0.977901;,
0.395714;0.406806;,
0.501913;0.746897;,
0.591869;0.566128;,
0.021921;0.798543;,
0.236815;0.798543;,
0.365131;0.601013;,
0.021921;0.420159;,
0.564306;0.423245;,
0.395714;0.406806;,
0.591869;0.566128;,
0.604102;0.772307;,
0.604102;0.592528;,
0.641891;0.774987;,
0.641891;0.774987;,
0.604102;0.592528;,
0.724177;0.684348;,
0.591869;0.566128;,
0.834689;0.566128;,
0.834689;0.444797;,
0.564306;0.423245;,
0.591869;0.566128;,
0.834689;0.444797;,
0.021921;0.420159;,
0.365131;0.601013;,
0.365131;0.454575;,
0.395714;0.406806;,
0.395714;0.790074;,
0.501913;0.746897;,
0.233102;0.380000;,
0.029593;0.213920;,
0.022542;0.381398;,
0.604102;0.592528;,
0.604102;0.772307;,
0.641891;0.774987;,
0.604102;0.592528;,
0.641891;0.774987;,
0.724177;0.684348;,
0.716822;0.650550;,
0.604102;0.592528;,
0.724177;0.684348;,
0.591869;0.566128;,
0.564306;0.423245;,
0.834689;0.444797;,
0.834689;0.566128;,
0.591869;0.566128;,
0.834689;0.444797;,
0.395714;0.406806;,
0.564306;0.423245;,
0.591869;0.566128;,
0.501913;0.746897;,
0.395714;0.406806;,
0.591869;0.566128;,
0.490347;0.213920;,
0.873908;0.341445;,
0.910710;0.213920;,
0.873908;0.341445;,
0.490347;0.213920;,
0.233102;0.380000;,
0.831342;0.990934;,
0.669124;0.990934;,
0.669124;0.791801;,
0.831342;0.990934;,
0.669124;0.791801;,
0.871109;0.672621;,
0.873908;0.341445;,
0.490347;0.213920;,
0.910710;0.213920;,
0.893727;0.990934;,
0.831342;0.990934;,
0.871109;0.672621;,
0.669124;0.990934;,
0.027363;0.990934;,
0.027363;0.861323;,
0.027363;0.861323;,
0.669124;0.791801;,
0.669124;0.990934;,
0.996108;0.990934;,
0.893727;0.990934;,
0.953241;0.354806;,
0.996108;0.060746;,
0.395714;0.790074;,
0.395714;0.406806;,
0.501913;0.746897;,
0.335501;0.182316;,
0.676017;0.125563;,
0.335501;0.125563;,
0.993520;0.012058;,
0.020437;0.068810;,
0.335501;0.091943;,
0.335501;0.091943;,
0.020437;0.068810;,
0.020437;0.125563;,
0.676017;0.125563;,
0.676017;0.091943;,
0.335501;0.091943;,
0.335501;0.182316;,
0.020437;0.182316;,
0.335501;0.182316;,
0.236815;0.798543;,
0.365131;0.601013;,
0.365131;0.454575;,
0.020437;0.182316;,
0.020437;0.125563;,
0.335501;0.182316;,
0.335501;0.125563;,
0.335501;0.091943;,
0.676017;0.125563;,
0.676017;0.091943;,
0.020437;0.068810;,
0.335501;0.091943;,
0.020437;0.068810;,
0.993520;0.012058;,
0.335501;0.091943;,
0.676017;0.125563;,
0.604102;0.592528;,
0.716822;0.650550;,
0.724177;0.684348;,
0.029593;0.213920;,
0.233102;0.380000;,
0.022542;0.381398;,
0.490347;0.213920;,
0.873908;0.341445;,
0.233102;0.380000;,
0.233102;0.380000;,
0.029593;0.213920;,
0.490347;0.213920;,
0.953241;0.354806;,
0.893727;0.990934;,
0.669124;0.791801;,
0.027363;0.861323;,
0.669124;0.990934;,
0.027363;0.990934;,
0.669124;0.990934;,
0.027363;0.861323;,
0.871109;0.672621;,
0.893727;0.990934;,
0.953241;0.354806;,
0.831342;0.990934;,
0.893727;0.990934;,
0.871109;0.672621;,
0.669124;0.791801;,
0.831342;0.990934;,
0.871109;0.672621;,
0.669124;0.990934;,
0.831342;0.990934;,
0.669124;0.791801;,
0.893727;0.990934;,
0.871109;0.672621;,
0.953241;0.354806;,
0.029593;0.213920;,
0.233102;0.380000;,
0.490347;0.213920;;
}
}
 }
