xof 0302txt 0032
Header {
 1;
 0;
 1;
}
template Header {
 <3D82AB43-62DA-11cf-AB39-0020AF71E433>
 WORD major;
 WORD minor;
 DWORD flags;
}

template Vector {
 <3D82AB5E-62DA-11cf-AB39-0020AF71E433>
 FLOAT x;
 FLOAT y;
 FLOAT z;
}

template Coords2d {
 <F6F23F44-7686-11cf-8F52-0040333594A3>
 FLOAT u;
 FLOAT v;
}

template Matrix4x4 {
 <F6F23F45-7686-11cf-8F52-0040333594A3>
 array FLOAT matrix[16];
}

template ColorRGBA {
 <35FF44E0-6C7C-11cf-8F52-0040333594A3>
 FLOAT red;
 FLOAT green;
 FLOAT blue;
 FLOAT alpha;
}

template ColorRGB {
 <D3E16E81-7835-11cf-8F52-0040333594A3>
 FLOAT red;
 FLOAT green;
 FLOAT blue;
}

template TextureFilename {
 <A42790E1-7810-11cf-8F52-0040333594A3>
 STRING filename;
}

template Material {
 <3D82AB4D-62DA-11cf-AB39-0020AF71E433>
 ColorRGBA faceColor;
 FLOAT power;
 ColorRGB specularColor;
 ColorRGB emissiveColor;
 [...]
}

template MeshFace {
 <3D82AB5F-62DA-11cf-AB39-0020AF71E433>
 DWORD nFaceVertexIndices;
 array DWORD faceVertexIndices[nFaceVertexIndices];
}

template MeshTextureCoords {
 <F6F23F40-7686-11cf-8F52-0040333594A3>
 DWORD nTextureCoords;
 array Coords2d textureCoords[nTextureCoords];
}

template MeshMaterialList {
 <F6F23F42-7686-11cf-8F52-0040333594A3>
 DWORD nMaterials;
 DWORD nFaceIndexes;
 array DWORD faceIndexes[nFaceIndexes];
 [Material]
}

template MeshNormals {
 <F6F23F43-7686-11cf-8F52-0040333594A3>
 DWORD nNormals;
 array Vector normals[nNormals];
 DWORD nFaceNormals;
 array MeshFace faceNormals[nFaceNormals];
}

template Mesh {
 <3D82AB44-62DA-11cf-AB39-0020AF71E433>
 DWORD nVertices;
 array Vector vertices[nVertices];
 DWORD nFaces;
 array MeshFace faces[nFaces];
 [...]
}

template FrameTransformMatrix {
 <F6F23F41-7686-11cf-8F52-0040333594A3>
 Matrix4x4 frameMatrix;
}

template Frame {
 <3D82AB46-62DA-11cf-AB39-0020AF71E433>
 [...]
}
template FloatKeys {
 <10DD46A9-775B-11cf-8F52-0040333594A3>
 DWORD nValues;
 array FLOAT values[nValues];
}

template TimedFloatKeys {
 <F406B180-7B3B-11cf-8F52-0040333594A3>
 DWORD time;
 FloatKeys tfkeys;
}

template AnimationKey {
 <10DD46A8-775B-11cf-8F52-0040333594A3>
 DWORD keyType;
 DWORD nKeys;
 array TimedFloatKeys keys[nKeys];
}

template AnimationOptions {
 <E2BF56C0-840F-11cf-8F52-0040333594A3>
 DWORD openclosed;
 DWORD positionquality;
}

template Animation {
 <3D82AB4F-62DA-11cf-AB39-0020AF71E433>
 [...]
}

template AnimationSet {
 <3D82AB50-62DA-11cf-AB39-0020AF71E433>
 [Animation]
}
Frame fft_1 {
   FrameTransformMatrix {
150.000000,0.000000,0.000000,0.000000,
0.000000,-150.000000,-0.000013,0.000000,
0.000000,0.000013,-150.000000,0.000000,
0.000000,0.000000,0.000000,1.000000;;
 }
Mesh fft_11 {
 650;
0.849385;0.438888;-0.002576;,
0.869613;0.438888;-0.002576;,
0.849385;0.258155;-0.002576;,
-0.869614;0.438889;-0.002576;,
-0.849385;0.258155;-0.002576;,
-0.869614;0.258155;-0.002576;,
-0.869614;0.180662;-0.002576;,
-0.849385;0.180662;-0.002576;,
0.869614;0.258155;-0.002576;,
0.869614;0.180662;-0.002576;,
0.120487;0.299657;0.150581;,
0.262429;0.497561;0.091431;,
0.179514;0.267232;-0.016935;,
0.266367;0.718336;0.011371;,
0.262429;0.497561;0.091431;,
0.266367;0.718336;0.091431;,
0.179514;0.267232;-0.016935;,
0.276769;0.547780;0.137648;,
0.274354;0.718336;0.137648;,
0.179514;0.267232;-0.016935;,
0.266367;0.718336;0.011371;,
0.365825;0.009577;0.029598;,
0.494331;0.599663;0.029598;,
0.731306;0.492651;0.029598;,
0.700137;0.194594;0.029598;,
0.266367;0.718336;0.011371;,
0.494331;0.081558;0.029598;,
0.179514;-0.194840;0.011371;,
0.179514;0.267232;-0.016935;,
0.494331;0.651821;0.029598;,
0.512111;-0.084791;0.045305;,
0.683323;-0.084791;0.045305;,
0.731306;0.543034;0.029598;,
0.846827;0.258155;0.022938;,
0.846827;0.438888;0.022938;,
0.700137;0.105750;0.029598;,
0.849385;0.438888;-0.002576;,
0.846827;0.438888;0.022938;,
0.869613;0.438888;-0.002576;,
0.872158;0.438889;0.022938;,
0.869613;0.438888;-0.002576;,
0.846827;0.438888;0.022938;,
0.846827;0.438889;0.045133;,
0.872158;0.438889;0.045133;,
0.846827;0.438888;0.022938;,
0.846827;0.438888;0.022938;,
0.731306;0.492651;0.029598;,
0.846827;0.438888;0.022938;,
0.266367;0.718336;0.091431;,
0.274354;0.718336;0.137648;,
0.308652;0.717564;0.137648;,
0.308652;0.717564;0.137648;,
0.327415;0.678889;0.091431;,
0.266367;0.718336;0.091431;,
-0.049382;-0.014851;-0.178755;,
-0.135890;0.277175;-0.082952;,
-0.075013;0.315513;-0.105875;,
-0.098506;-0.072730;-0.127212;,
-0.138447;0.447917;0.025160;,
0.000000;0.488029;-0.000049;,
0.000000;0.348868;-0.121948;,
0.000000;0.000255;-0.204237;,
0.266367;0.718336;0.091431;,
0.266367;0.718336;0.011371;,
0.494331;0.599663;0.029598;,
0.266367;0.718336;0.011371;,
0.494331;0.599663;0.091431;,
0.700137;0.105750;0.068565;,
0.683323;-0.084791;0.068228;,
0.700137;0.105750;0.029598;,
0.700137;0.105750;0.029598;,
0.700137;0.194594;0.068565;,
0.683323;-0.084791;0.045305;,
0.512111;-0.084791;0.068228;,
0.494331;0.081558;0.091431;,
0.512111;-0.084791;0.045305;,
0.494331;0.081558;0.029598;,
0.700137;0.194594;0.029598;,
0.000000;0.505667;0.088193;,
-0.138447;0.447917;0.025160;,
-0.111775;0.469075;0.084102;,
0.000000;0.488029;-0.000049;,
-0.138447;0.447917;0.025160;,
-0.058066;-0.838280;0.050743;,
-0.117695;-0.284049;-0.035329;,
-0.087150;-0.125136;-0.074529;,
-0.117695;-0.284049;-0.035329;,
-0.058066;-0.838280;0.050743;,
-0.075790;-0.869410;0.038484;,
0.000000;-0.103048;-0.091554;,
0.000000;-0.838280;0.047419;,
-0.117695;-0.284049;-0.035329;,
-0.098506;-0.072730;-0.127212;,
-0.087150;-0.125136;-0.074529;,
-0.058066;-0.869410;0.122983;,
-0.058066;-0.838280;0.050743;,
-0.038087;-0.838280;0.092914;,
-0.075790;-0.869410;0.038484;,
-0.058066;-0.838280;0.050743;,
-0.038087;-0.838280;0.092914;,
0.000000;-0.838280;0.047419;,
0.000000;-0.838280;0.092914;,
-0.058066;-0.838280;0.050743;,
-0.091100;-0.838280;0.073309;,
-0.075790;-0.869410;0.038484;,
-0.058066;-0.869410;0.122983;,
0.731306;0.492651;0.029598;,
0.731306;0.543034;0.029598;,
0.731306;0.492651;0.068565;,
0.494331;0.651821;0.029598;,
0.494331;0.599663;0.029598;,
0.494331;0.651821;0.091431;,
0.731306;0.543034;0.068565;,
0.091100;-0.838280;0.073309;,
0.179514;-0.217456;0.091431;,
0.110913;-0.157266;0.122662;,
-0.846828;0.258155;0.045133;,
-0.846828;0.180662;0.022938;,
-0.846828;0.258155;0.022938;,
-0.846828;0.180662;0.045133;,
-0.849385;0.438889;-0.002576;,
-0.846828;0.438889;0.022938;,
-0.849385;0.258155;-0.002576;,
-0.849385;0.258155;-0.002576;,
-0.849385;0.258155;-0.002576;,
-0.849385;0.180662;-0.002576;,
-0.872158;0.258155;0.022938;,
-0.872158;0.438889;0.045133;,
-0.872158;0.438889;0.022938;,
-0.872158;0.258155;0.045133;,
-0.872158;0.180662;0.045133;,
-0.872158;0.180662;0.022938;,
-0.869614;0.258155;-0.002576;,
-0.869614;0.258155;-0.002576;,
-0.869614;0.438889;-0.002576;,
-0.869614;0.180662;-0.002576;,
-0.869614;0.180662;-0.002576;,
-0.869614;0.258155;-0.002576;,
-0.075790;-0.869410;0.038484;,
-0.179514;-0.194840;0.011371;,
-0.117695;-0.284049;-0.035329;,
-0.179514;0.267232;-0.016935;,
-0.138447;0.447917;0.025160;,
-0.135890;0.277175;-0.082952;,
-0.098506;-0.072730;-0.127212;,
-0.117695;-0.284049;-0.035329;,
-0.098506;-0.072730;-0.127212;,
-0.135890;0.277175;-0.082952;,
-0.098506;-0.072730;-0.127212;,
-0.179514;-0.217456;0.091431;,
-0.091100;-0.838280;0.073309;,
-0.075790;-0.869410;0.038484;,
-0.091100;-0.838280;0.073309;,
-0.111775;0.469075;0.084102;,
-0.138447;0.447917;0.025160;,
-0.120487;0.299657;0.150581;,
-0.063798;0.869410;0.150216;,
-0.111775;0.469075;0.084102;,
-0.138447;0.447917;0.025160;,
-0.179514;0.267232;-0.016935;,
-0.059838;-0.032721;0.194580;,
-0.127966;0.135513;0.153263;,
-0.097939;0.013174;0.173422;,
0.000000;-0.157266;0.188454;,
-0.045750;-0.157266;0.172856;,
0.000000;-0.032721;0.201093;,
-0.074385;-0.157266;0.154173;,
-0.110913;-0.157266;0.122662;,
-0.179514;0.267232;0.091431;,
-0.179514;0.267232;0.091431;,
-0.179514;-0.217456;0.091431;,
-0.091100;-0.838280;0.073309;,
-0.058066;-0.869410;0.122983;,
-0.179514;-0.217456;0.091431;,
-0.091100;-0.838280;0.073309;,
-0.494331;0.599663;0.029598;,
-0.494331;0.651821;0.091431;,
-0.494331;0.599663;0.091431;,
-0.494331;0.651821;0.029598;,
-0.731306;0.492651;0.068565;,
-0.731306;0.543034;0.029598;,
-0.731306;0.492651;0.029598;,
-0.731306;0.543034;0.068565;,
0.179514;0.267232;0.091431;,
0.127965;0.135513;0.153263;,
0.179514;0.267232;0.091431;,
-0.494331;0.081558;0.091431;,
-0.512111;-0.084791;0.045305;,
-0.494331;0.081558;0.029598;,
-0.512111;-0.084791;0.068228;,
-0.700137;0.105750;0.029598;,
-0.700137;0.194594;0.068565;,
-0.700137;0.194594;0.029598;,
-0.700137;0.105750;0.068565;,
-0.683323;-0.084791;0.068228;,
-0.683323;-0.084791;0.045305;,
0.074385;-0.157266;0.154173;,
0.097939;0.013174;0.173422;,
-0.266367;0.718336;0.011371;,
-0.494331;0.599663;0.091431;,
-0.327415;0.678889;0.091431;,
-0.494331;0.599663;0.091431;,
-0.494331;0.599663;0.029598;,
-0.266367;0.718336;0.091431;,
-0.308652;0.717564;0.137648;,
-0.308652;0.717564;0.137648;,
-0.274354;0.718336;0.137648;,
-0.731306;0.492651;0.029598;,
-0.846828;0.438889;0.045133;,
-0.731306;0.492651;0.068565;,
-0.846828;0.438889;0.022938;,
-0.846828;0.438889;0.022938;,
-0.872158;0.438889;0.045133;,
-0.872158;0.438889;0.022938;,
-0.869614;0.438889;-0.002576;,
-0.849385;0.438889;-0.002576;,
-0.700137;0.194594;0.029598;,
-0.494331;0.081558;0.029598;,
-0.700137;0.105750;0.029598;,
-0.700137;0.194594;0.029598;,
-0.846828;0.438889;0.022938;,
-0.731306;0.492651;0.029598;,
-0.846828;0.438889;0.022938;,
-0.700137;0.194594;0.029598;,
-0.846828;0.258155;0.022938;,
-0.494331;0.081558;0.029598;,
-0.683323;-0.084791;0.045305;,
-0.700137;0.105750;0.029598;,
-0.683323;-0.084791;0.045305;,
-0.494331;0.081558;0.029598;,
-0.512111;-0.084791;0.045305;,
-0.731306;0.492651;0.029598;,
-0.494331;0.651821;0.029598;,
-0.494331;0.599663;0.029598;,
-0.731306;0.543034;0.029598;,
-0.365825;0.009577;0.029598;,
-0.179514;0.267232;-0.016935;,
-0.179514;-0.194840;0.011371;,
-0.266367;0.718336;0.011371;,
-0.179514;0.267232;-0.016935;,
-0.266367;0.718336;0.011371;,
-0.494331;0.599663;0.029598;,
0.075013;0.315513;-0.105875;,
0.135890;0.277175;-0.082952;,
0.049382;-0.014851;-0.178755;,
0.045750;-0.157266;0.172856;,
0.059838;-0.032721;0.194580;,
0.179514;0.267232;-0.016935;,
0.138447;0.447917;0.025160;,
0.120487;0.299657;0.150581;,
-0.262429;0.497561;0.091431;,
-0.266367;0.718336;0.091431;,
-0.274354;0.718336;0.137648;,
-0.274354;0.718336;0.137648;,
-0.276769;0.547780;0.137648;,
-0.179514;0.267232;-0.016935;,
-0.266367;0.718336;0.011371;,
-0.266367;0.718336;0.091431;,
-0.266367;0.718336;0.011371;,
-0.179514;0.267232;-0.016935;,
-0.262429;0.497561;0.091431;,
-0.120487;0.299657;0.150581;,
0.138447;0.447917;0.025160;,
0.000000;0.488029;-0.000049;,
0.138447;0.447917;0.025160;,
0.120487;0.299657;0.150581;,
0.111775;0.469075;0.084102;,
0.091100;-0.838280;0.073309;,
0.075790;-0.869410;0.038484;,
0.179514;-0.194840;0.011371;,
0.120487;0.299657;0.150581;,
0.063798;0.869410;0.150216;,
0.098506;-0.072730;-0.127212;,
0.135890;0.277175;-0.082952;,
0.179514;0.267232;-0.016935;,
0.179514;-0.194840;0.011371;,
0.179514;0.267232;-0.016935;,
0.091100;-0.838280;0.073309;,
0.179514;-0.194840;0.011371;,
0.179514;-0.217456;0.091431;,
0.135890;0.277175;-0.082952;,
0.138447;0.447917;0.025160;,
0.179514;0.267232;-0.016935;,
0.731306;0.492651;0.068565;,
0.731306;0.492651;0.029598;,
0.117695;-0.284049;-0.035329;,
0.179514;-0.194840;0.011371;,
0.179514;-0.194840;0.011371;,
0.266367;0.718336;0.011371;,
0.869614;0.258155;-0.002576;,
0.872158;0.258155;0.022938;,
0.869614;0.180662;-0.002576;,
0.000000;0.348868;-0.121948;,
0.058066;-0.869410;0.122983;,
0.091100;-0.838280;0.073309;,
0.494331;0.599663;0.091431;,
0.000000;0.000255;-0.204237;,
0.869614;0.258155;-0.002576;,
0.872158;0.438889;0.022938;,
0.872158;0.180662;0.022938;,
0.872158;0.180662;0.045133;,
-0.849385;0.438889;-0.002576;,
0.869613;0.438888;-0.002576;,
0.872158;0.438889;0.022938;,
0.869614;0.258155;-0.002576;,
0.849385;0.180662;-0.002576;,
0.872158;0.258155;0.045133;,
0.872158;0.438889;0.045133;,
0.872158;0.438889;0.022938;,
0.849385;0.180662;-0.002576;,
0.846827;0.180662;0.022938;,
0.849385;0.258155;-0.002576;,
0.846827;0.258155;0.022938;,
0.849385;0.258155;-0.002576;,
0.849385;0.258155;-0.002576;,
0.846827;0.258155;0.022938;,
0.849385;0.438888;-0.002576;,
0.846827;0.438888;0.022938;,
0.849385;0.438888;-0.002576;,
0.846827;0.258155;0.022938;,
0.846827;0.180662;0.045133;,
0.846827;0.258155;0.045133;,
0.058066;-0.838280;0.050743;,
0.038087;-0.838280;0.092914;,
0.058066;-0.869410;0.122983;,
0.075790;-0.869410;0.038484;,
0.091100;-0.838280;0.073309;,
0.038087;-0.838280;0.092914;,
0.058066;-0.838280;0.050743;,
0.058066;-0.869410;0.122983;,
0.087150;-0.125136;-0.074529;,
0.098506;-0.072730;-0.127212;,
0.117695;-0.284049;-0.035329;,
0.075790;-0.869410;0.038484;,
0.058066;-0.869410;0.122983;,
0.087150;-0.125136;-0.074529;,
0.058066;-0.838280;0.050743;,
0.075790;-0.869410;0.038484;,
0.058066;-0.838280;0.050743;,
0.117695;-0.284049;-0.035329;,
0.058066;-0.838280;0.050743;,
0.138447;0.447917;0.025160;,
0.000000;0.488029;-0.000049;,
0.111775;0.469075;0.084102;,
0.138447;0.447917;0.025160;,
0.087150;-0.125136;-0.074529;,
0.117695;-0.284049;-0.035329;,
0.058066;-0.838280;0.050743;,
0.098506;-0.072730;-0.127212;,
0.846827;0.258155;0.022938;,
0.869614;0.180662;-0.002576;,
-0.846828;0.258155;0.022938;,
-0.700137;0.194594;0.068565;,
-0.846828;0.258155;0.045133;,
0.000000;-0.103048;-0.091554;,
0.098506;-0.072730;-0.127212;,
0.087150;-0.125136;-0.074529;,
0.049382;-0.014851;-0.178755;,
0.098506;-0.072730;-0.127212;,
0.000000;-0.103048;-0.091554;,
0.308652;0.717564;0.137648;,
0.274354;0.718336;0.137648;,
0.312812;0.545101;0.137648;,
-0.045750;-0.157266;0.172856;,
0.000000;-0.100113;0.082508;,
0.000000;-0.157266;0.188454;,
0.312812;0.545101;0.137648;,
0.329859;0.494881;0.091431;,
0.327415;0.678889;0.091431;,
0.276769;0.547780;0.137648;,
0.327415;0.678889;0.091431;,
0.308652;0.717564;0.137648;,
0.312812;0.545101;0.137648;,
0.000000;0.003827;0.170422;,
0.000000;-0.032721;0.201093;,
0.059838;0.053847;0.153263;,
0.000000;-0.157266;-0.000937;,
0.000000;-0.838280;0.092914;,
0.060561;-0.157266;0.013890;,
0.038087;-0.838280;0.092914;,
0.102480;-0.157266;0.050797;,
0.000000;-0.157266;0.188454;,
0.045750;-0.157266;0.172856;,
0.074385;-0.157266;0.154173;,
0.045750;-0.157266;0.172856;,
0.110913;-0.157266;0.122662;,
0.074385;-0.157266;0.154173;,
0.102480;-0.157266;0.050797;,
0.110913;-0.157266;0.122662;,
0.060561;-0.157266;0.013890;,
0.102480;-0.157266;0.050797;,
0.000000;-0.157266;-0.000937;,
0.060561;-0.157266;0.013890;,
0.111775;0.469075;0.084102;,
0.000000;0.505667;0.088193;,
0.063798;0.869410;0.150216;,
0.329859;0.494881;0.091431;,
0.312812;0.545101;0.137648;,
0.276769;0.547780;0.137648;,
0.276769;0.547780;0.137648;,
0.262429;0.497561;0.091431;,
0.329859;0.494881;0.091431;,
-0.683323;-0.084791;0.045305;,
-0.512111;-0.084791;0.068228;,
-0.683323;-0.084791;0.068228;,
0.063798;0.869410;0.150216;,
0.000000;0.505667;0.088193;,
0.000000;0.869410;0.164856;,
-0.512111;-0.084791;0.045305;,
-0.731306;0.543034;0.068565;,
-0.494331;0.651821;0.029598;,
-0.731306;0.543034;0.029598;,
0.127965;0.135513;0.153263;,
0.179514;0.267232;0.091431;,
0.120487;0.299657;0.150581;,
-0.494331;0.651821;0.091431;,
-0.494331;0.081558;0.091431;,
-0.367210;0.010892;0.078729;,
-0.179514;0.267232;0.091431;,
-0.329859;0.494881;0.091431;,
-0.327415;0.678889;0.091431;,
-0.494331;0.599663;0.091431;,
0.059838;0.273665;0.188935;,
0.063798;0.869410;0.150216;,
0.000000;0.267756;0.204237;,
0.846827;0.180662;0.022938;,
0.872158;0.180662;0.022938;,
0.846827;0.180662;0.045133;,
0.872158;0.180662;0.045133;,
0.849385;0.180662;-0.002576;,
0.869614;0.180662;-0.002576;,
0.000000;0.869410;0.164856;,
0.063798;0.869410;0.150216;,
0.120487;0.299657;0.150581;,
0.127965;0.135513;0.153263;,
0.120487;0.299657;0.150581;,
0.000000;0.003827;0.170422;,
0.102480;-0.157266;0.050797;,
0.038087;-0.838280;0.092914;,
0.110913;-0.157266;0.122662;,
0.058066;-0.869410;0.122983;,
0.110913;-0.157266;0.122662;,
0.038087;-0.838280;0.092914;,
-0.110913;-0.157266;0.122662;,
-0.038087;-0.838280;0.092914;,
-0.102480;-0.157266;0.050797;,
0.038087;-0.838280;0.092914;,
0.000000;-0.838280;0.092914;,
-0.846828;0.180662;0.045133;,
-0.872158;0.180662;0.022938;,
-0.846828;0.180662;0.022938;,
-0.494331;0.194594;0.091431;,
-0.262429;0.497561;0.091431;,
-0.846828;0.258155;0.045133;,
-0.872158;0.258155;0.045133;,
-0.872158;0.180662;0.045133;,
-0.060561;-0.157266;0.013890;,
0.000000;-0.157266;-0.000937;,
-0.102480;-0.157266;0.050797;,
-0.731306;0.492651;0.068565;,
-0.846828;0.258155;0.045133;,
-0.700137;0.194594;0.068565;,
0.000000;-0.103048;-0.091554;,
-0.049382;-0.014851;-0.178755;,
0.000000;0.000255;-0.204237;,
-0.846828;0.258155;0.045133;,
-0.731306;0.492651;0.068565;,
-0.846828;0.438889;0.045133;,
-0.700137;0.105750;0.068565;,
-0.700137;0.194594;0.068565;,
-0.700137;0.194594;0.068565;,
-0.494331;0.599663;0.091431;,
-0.731306;0.492651;0.068565;,
-0.494331;0.599663;0.091431;,
-0.179514;0.267232;0.091431;,
-0.179514;-0.217456;0.091431;,
-0.494331;0.081558;0.091431;,
-0.365825;0.009577;0.029598;,
-0.179514;-0.217456;0.091431;,
-0.367210;0.010892;0.078729;,
-0.700137;0.194594;0.029598;,
-0.365825;0.009577;0.029598;,
-0.179514;-0.194840;0.011371;,
-0.179514;-0.217456;0.091431;,
0.000000;0.000255;-0.204237;,
0.049382;-0.014851;-0.178755;,
0.000000;-0.103048;-0.091554;,
-0.494331;0.081558;0.091431;,
-0.494331;0.081558;0.029598;,
-0.365825;0.009577;0.029598;,
-0.494331;0.081558;0.091431;,
-0.365825;0.009577;0.029598;,
-0.367210;0.010892;0.078729;,
0.179514;0.267232;0.091431;,
0.262429;0.497561;0.091431;,
0.120487;0.299657;0.150581;,
0.120487;0.299657;0.150581;,
0.063798;0.869410;0.150216;,
0.059838;-0.032721;0.194580;,
0.000000;-0.032721;0.201093;,
0.059838;-0.032721;0.194580;,
0.127965;0.135513;0.153263;,
-0.872158;0.180662;0.045133;,
-0.849385;0.180662;-0.002576;,
-0.869614;0.180662;-0.002576;,
-0.846828;0.438889;0.045133;,
-0.872158;0.438889;0.045133;,
-0.846828;0.180662;0.045133;,
0.494331;0.651821;0.091431;,
0.731306;0.543034;0.068565;,
0.494331;0.651821;0.029598;,
0.731306;0.543034;0.029598;,
-0.045750;-0.157266;0.172856;,
-0.074385;-0.157266;0.154173;,
-0.110913;-0.157266;0.122662;,
-0.102480;-0.157266;0.050797;,
-0.074385;-0.157266;0.154173;,
-0.110913;-0.157266;0.122662;,
-0.494331;0.599663;0.091431;,
-0.731306;0.543034;0.068565;,
-0.731306;0.492651;0.068565;,
-0.494331;0.651821;0.091431;,
-0.102480;-0.157266;0.050797;,
-0.038087;-0.838280;0.092914;,
-0.060561;-0.157266;0.013890;,
0.512111;-0.084791;0.045305;,
0.683323;-0.084791;0.045305;,
0.512111;-0.084791;0.068228;,
0.683323;-0.084791;0.068228;,
-0.060561;-0.157266;0.013890;,
0.000000;-0.838280;0.092914;,
-0.060561;-0.157266;0.013890;,
-0.038087;-0.838280;0.092914;,
-0.120487;0.299657;0.150581;,
-0.059838;0.053847;0.153263;,
-0.059838;0.273665;0.188935;,
-0.312812;0.545101;0.137648;,
-0.274354;0.718336;0.137648;,
-0.308652;0.717564;0.137648;,
0.000000;-0.103048;-0.091554;,
-0.098506;-0.072730;-0.127212;,
-0.049382;-0.014851;-0.178755;,
-0.087150;-0.125136;-0.074529;,
-0.098506;-0.072730;-0.127212;,
0.000000;-0.103048;-0.091554;,
-0.327415;0.678889;0.091431;,
-0.329859;0.494881;0.091431;,
-0.312812;0.545101;0.137648;,
-0.276769;0.547780;0.137648;,
-0.312812;0.545101;0.137648;,
-0.308652;0.717564;0.137648;,
-0.327415;0.678889;0.091431;,
-0.063798;0.869410;0.150216;,
0.000000;0.505667;0.088193;,
-0.111775;0.469075;0.084102;,
-0.276769;0.547780;0.137648;,
-0.312812;0.545101;0.137648;,
-0.329859;0.494881;0.091431;,
-0.329859;0.494881;0.091431;,
-0.262429;0.497561;0.091431;,
-0.276769;0.547780;0.137648;,
-0.120487;0.299657;0.150581;,
-0.262429;0.497561;0.091431;,
-0.179514;0.267232;0.091431;,
0.000000;0.505667;0.088193;,
-0.063798;0.869410;0.150216;,
-0.063798;0.869410;0.150216;,
-0.120487;0.299657;0.150581;,
0.000000;-0.032721;0.201093;,
-0.059838;-0.032721;0.194580;,
-0.120487;0.299657;0.150581;,
-0.179514;0.267232;0.091431;,
-0.127966;0.135513;0.153263;,
-0.127966;0.135513;0.153263;,
-0.059838;-0.032721;0.194580;,
-0.063798;0.869410;0.150216;,
0.000000;0.869410;0.164856;,
0.000000;-0.032721;0.201093;,
0.000000;0.003827;0.170422;,
-0.063798;0.869410;0.150216;,
-0.700137;0.105750;0.068565;,
-0.512111;-0.084791;0.068228;,
-0.494331;0.081558;0.091431;,
-0.512111;-0.084791;0.068228;,
-0.700137;0.105750;0.068565;,
-0.683323;-0.084791;0.068228;,
-0.120487;0.299657;0.150581;,
-0.127966;0.135513;0.153263;,
0.367210;0.010892;0.078729;,
0.365825;0.009577;0.029598;,
0.494331;0.081558;0.091431;,
0.365825;0.009577;0.029598;,
0.494331;0.081558;0.029598;,
0.494331;0.081558;0.091431;,
0.179514;-0.217456;0.091431;,
0.365825;0.009577;0.029598;,
0.179514;-0.217456;0.091431;,
0.179514;-0.194840;0.011371;,
0.365825;0.009577;0.029598;,
0.700137;0.194594;0.029598;,
0.846827;0.258155;0.022938;,
0.700137;0.194594;0.068565;,
0.846827;0.258155;0.045133;,
-0.494331;0.081558;0.091431;,
-0.179514;0.267232;0.091431;,
-0.038087;-0.838280;0.092914;,
-0.110913;-0.157266;0.122662;,
-0.058066;-0.869410;0.122983;,
0.179514;-0.217456;0.091431;,
0.367210;0.010892;0.078729;,
0.179514;0.267232;0.091431;,
0.494331;0.599663;0.091431;,
0.329859;0.494881;0.091431;,
0.494331;0.194594;0.091431;,
0.494331;0.081558;0.091431;,
0.700137;0.105750;0.068565;,
0.700137;0.194594;0.068565;,
0.494331;0.599663;0.091431;,
0.731306;0.492651;0.068565;,
0.494331;0.599663;0.091431;,
0.700137;0.194594;0.068565;,
0.700137;0.194594;0.068565;,
0.846827;0.258155;0.045133;,
0.731306;0.492651;0.068565;,
0.846827;0.438889;0.045133;,
0.731306;0.492651;0.068565;,
0.846827;0.258155;0.045133;,
0.494331;0.081558;0.091431;,
0.512111;-0.084791;0.068228;,
0.700137;0.105750;0.068565;,
0.683323;-0.084791;0.068228;,
0.700137;0.105750;0.068565;,
0.512111;-0.084791;0.068228;,
0.731306;0.492651;0.068565;,
0.731306;0.543034;0.068565;,
0.494331;0.599663;0.091431;,
0.494331;0.651821;0.091431;,
0.262429;0.497561;0.091431;,
0.179514;0.267232;0.091431;,
0.494331;0.081558;0.091431;,
0.179514;0.267232;0.091431;,
0.367210;0.010892;0.078729;,
0.494331;0.081558;0.091431;,
0.846827;0.258155;0.045133;,
0.872158;0.258155;0.045133;,
0.846827;0.438889;0.045133;,
0.872158;0.438889;0.045133;,
0.846827;0.180662;0.045133;,
0.872158;0.180662;0.045133;,
0.327415;0.678889;0.091431;;

 332;
3;0,1,2;,
3;3,4,5;,
3;4,6,5;,
3;6,4,7;,
3;8,9,2;,
3;10,11,12;,
3;13,14,15;,
3;13,16,14;,
3;14,17,18;,
3;19,20,21;,
3;22,23,24;,
3;22,21,25;,
3;21,22,26;,
3;27,28,21;,
3;26,22,24;,
3;22,29,23;,
3;30,26,31;,
3;32,23,29;,
3;33,24,34;,
3;23,34,24;,
3;35,31,26;,
3;36,37,38;,
3;39,40,41;,
3;35,26,24;,
3;42,43,44;,
3;45,46,42;,
3;39,47,43;,
3;48,49,50;,
3;51,52,53;,
3;54,55,56;,
3;55,54,57;,
3;58,56,55;,
3;58,59,56;,
3;56,59,60;,
3;60,54,56;,
3;60,61,54;,
3;18,15,14;,
3;62,52,63;,
3;64,65,66;,
3;67,68,69;,
3;67,70,71;,
3;72,69,68;,
3;73,74,75;,
3;76,75,74;,
3;77,71,70;,
3;78,79,80;,
3;78,81,82;,
3;83,84,85;,
3;86,87,88;,
3;89,83,85;,
3;89,90,83;,
3;91,92,93;,
3;94,95,96;,
3;94,97,98;,
3;99,100,101;,
3;99,102,100;,
3;103,104,105;,
3;106,107,108;,
3;109,110,111;,
3;112,108,107;,
3;113,114,115;,
3;116,117,118;,
3;117,116,119;,
3;118,120,121;,
3;120,118,122;,
3;117,123,118;,
3;124,117,125;,
3;126,127,128;,
3;127,126,129;,
3;126,130,129;,
3;130,126,131;,
3;128,132,126;,
3;133,128,134;,
3;126,135,131;,
3;136,126,137;,
3;138,139,140;,
3;141,142,143;,
3;139,144,145;,
3;141,146,139;,
3;141,147,148;,
3;149,139,150;,
3;139,151,152;,
3;153,154,155;,
3;156,157,155;,
3;155,158,159;,
3;160,161,162;,
3;163,160,164;,
3;160,163,165;,
3;164,162,166;,
3;162,164,160;,
3;167,162,161;,
3;162,167,166;,
3;168,167,161;,
3;169,170,167;,
3;167,171,172;,
3;167,173,174;,
3;175,176,177;,
3;176,175,178;,
3;179,180,181;,
3;180,179,182;,
3;115,114,183;,
3;184,115,185;,
3;186,187,188;,
3;187,186,189;,
3;190,191,192;,
3;191,190,193;,
3;190,194,193;,
3;194,190,195;,
3;196,115,197;,
3;184,197,115;,
3;198,199,200;,
3;201,198,202;,
3;198,200,203;,
3;203,200,204;,
3;205,206,203;,
3;207,208,209;,
3;208,207,210;,
3;211,212,208;,
3;212,211,213;,
3;211,214,213;,
3;214,211,215;,
3;216,217,218;,
3;219,220,221;,
3;222,223,224;,
3;225,226,227;,
3;228,229,230;,
3;231,232,233;,
3;232,231,234;,
3;235,236,237;,
3;217,233,235;,
3;216,233,217;,
3;216,231,233;,
3;235,238,239;,
3;240,235,241;,
3;242,243,244;,
3;196,197,245;,
3;165,163,246;,
3;246,245,197;,
3;197,184,246;,
3;247,248,249;,
3;250,251,252;,
3;253,254,250;,
3;250,255,256;,
3;257,250,258;,
3;259,260,261;,
3;243,242,262;,
3;242,263,264;,
3;265,248,266;,
3;267,268,269;,
3;270,266,271;,
3;272,273,274;,
3;275,272,276;,
3;277,278,279;,
3;280,281,282;,
3;283,42,284;,
3;285,272,286;,
3;285,287,268;,
3;52,66,288;,
3;289,290,291;,
3;292,263,242;,
3;293,294,115;,
3;295,111,110;,
3;242,244,292;,
3;244,296,292;,
3;290,297,298;,
3;299,290,300;,
3;4,3,301;,
3;8,2,1;,
3;302,303,304;,
3;305,2,9;,
3;306,300,290;,
3;306,290,307;,
3;308,307,290;,
3;309,310,311;,
3;312,313,310;,
3;314,315,316;,
3;317,318,319;,
3;320,321,310;,
3;100,322,323;,
3;101,100,323;,
3;324,325,326;,
3;327,328,329;,
3;330,331,332;,
3;328,333,334;,
3;335,336,89;,
3;337,338,339;,
3;340,90,89;,
3;341,342,78;,
3;343,344,78;,
3;345,346,347;,
3;245,246,163;,
3;348,244,243;,
3;349,310,321;,
3;299,350,290;,
3;351,352,353;,
3;354,355,356;,
3;357,358,359;,
3;360,361,362;,
3;363,364,365;,
3;366,367,368;,
3;361,369,362;,
3;370,371,372;,
3;373,374,375;,
3;376,377,378;,
3;378,379,380;,
3;381,364,382;,
3;364,383,384;,
3;364,385,386;,
3;364,387,388;,
3;389,390,364;,
3;391,392,364;,
3;393,394,395;,
3;396,397,398;,
3;399,400,401;,
3;402,403,404;,
3;405,406,407;,
3;403,402,408;,
3;409,410,411;,
3;412,413,414;,
3;410,409,415;,
3;416,417,418;,
3;419,420,421;,
3;422,423,424;,
3;425,426,427;,
3;428,427,426;,
3;425,429,426;,
3;430,426,429;,
3;431,424,432;,
3;422,375,433;,
3;434,435,375;,
3;424,436,422;,
3;375,422,436;,
3;437,438,439;,
3;440,441,442;,
3;443,444,445;,
3;446,378,447;,
3;448,449,450;,
3;451,452,419;,
3;453,454,455;,
3;364,456,457;,
3;364,458,456;,
3;459,460,461;,
3;462,463,464;,
3;465,466,467;,
3;468,451,469;,
3;470,471,472;,
3;473,469,451;,
3;474,417,475;,
3;451,468,476;,
3;451,419,421;,
3;477,478,479;,
3;352,351,480;,
3;481,482,483;,
3;484,485,486;,
3;487,488,489;,
3;490,491,492;,
3;493,494,495;,
3;422,496,497;,
3;498,375,499;,
3;375,500,501;,
3;449,448,502;,
3;503,449,504;,
3;449,503,450;,
3;505,454,453;,
3;505,506,454;,
3;453,455,507;,
3;508,509,510;,
3;511,510,509;,
3;512,513,364;,
3;514,515,364;,
3;516,517,364;,
3;518,519,520;,
3;519,518,521;,
3;522,523,524;,
3;525,526,527;,
3;528,527,526;,
3;529,530,376;,
3;447,531,532;,
3;533,534,535;,
3;536,537,538;,
3;539,540,541;,
3;542,543,544;,
3;545,546,547;,
3;536,548,537;,
3;549,550,551;,
3;552,553,554;,
3;555,556,557;,
3;558,559,560;,
3;561,562,563;,
3;407,564,565;,
3;566,567,535;,
3;568,534,569;,
3;570,571,572;,
3;573,574,534;,
3;575,424,576;,
3;534,577,578;,
3;424,579,535;,
3;580,581,582;,
3;583,584,585;,
3;534,586,587;,
3;588,589,590;,
3;591,592,593;,
3;588,594,595;,
3;596,597,598;,
3;599,600,601;,
3;602,601,600;,
3;535,436,424;,
3;436,535,534;,
3;603,604,451;,
3;451,604,452;,
3;605,606,607;,
3;608,609,610;,
3;611,612,613;,
3;614,615,613;,
3;616,613,615;,
3;613,616,617;,
3;618,619,620;,
3;621,622,623;,
3;624,625,626;,
3;627,628,629;,
3;630,631,632;,
3;633,634,635;,
3;636,635,634;,
3;637,638,613;,
3;613,638,639;,
3;640,641,642;,
3;643,644,645;,
3;644,646,645;,
3;647,648,643;,
3;648,644,643;,
3;612,637,613;,
3;611,649,612;;
MeshMaterialList {
 2;
 332;
  0,
  0,
  0,
  0,
  0,
  0,
  0,
  0,
  0,
  0,
  0,
  0,
  0,
  0,
  0,
  0,
  0,
  0,
  0,
  0,
  0,
  0,
  0,
  0,
  0,
  0,
  0,
  0,
  0,
  0,
  0,
  0,
  0,
  0,
  0,
  0,
  0,
  0,
  0,
  0,
  0,
  0,
  0,
  0,
  0,
  0,
  0,
  0,
  0,
  0,
  0,
  0,
  0,
  0,
  0,
  0,
  0,
  0,
  0,
  0,
  0,
  0,
  0,
  0,
  0,
  0,
  0,
  0,
  0,
  0,
  0,
  0,
  0,
  0,
  0,
  0,
  0,
  0,
  0,
  0,
  0,
  0,
  0,
  0,
  0,
  0,
  0,
  0,
  0,
  0,
  0,
  0,
  0,
  0,
  0,
  0,
  0,
  0,
  0,
  0,
  0,
  0,
  0,
  0,
  0,
  0,
  0,
  0,
  0,
  0,
  0,
  0,
  0,
  0,
  0,
  0,
  0,
  0,
  0,
  0,
  0,
  0,
  0,
  0,
  0,
  0,
  0,
  0,
  0,
  0,
  0,
  0,
  0,
  0,
  0,
  0,
  0,
  0,
  0,
  0,
  0,
  0,
  0,
  0,
  0,
  0,
  0,
  0,
  0,
  0,
  0,
  0,
  0,
  0,
  0,
  0,
  0,
  0,
  0,
  0,
  0,
  0,
  0,
  0,
  0,
  0,
  0,
  0,
  0,
  0,
  0,
  0,
  0,
  0,
  0,
  0,
  0,
  0,
  0,
  0,
  0,
  0,
  0,
  0,
  0,
  0,
  0,
  0,
  0,
  0,
  0,
  0,
  0,
  0,
  1,
  1,
  1,
  1,
  1,
  1,
  1,
  1,
  1,
  1,
  1,
  1,
  1,
  1,
  1,
  1,
  1,
  1,
  1,
  1,
  1,
  1,
  1,
  1,
  1,
  1,
  1,
  1,
  1,
  1,
  1,
  1,
  1,
  1,
  1,
  1,
  1,
  1,
  1,
  1,
  1,
  1,
  1,
  1,
  1,
  1,
  1,
  1,
  1,
  1,
  1,
  1,
  1,
  1,
  1,
  1,
  1,
  1,
  1,
  1,
  1,
  1,
  1,
  1,
  1,
  1,
  1,
  1,
  1,
  1,
  1,
  1,
  1,
  1,
  1,
  1,
  1,
  1,
  1,
  1,
  1,
  1,
  1,
  1,
  1,
  1,
  1,
  1,
  1,
  1,
  1,
  1,
  1,
  1,
  1,
  1,
  1,
  1,
  1,
  1,
  1,
  1,
  1,
  1,
  1,
  1,
  1,
  1,
  1,
  1,
  1,
  1,
  1,
  1,
  1,
  1,
  1,
  1,
  1,
  1,
  1,
  1,
  1,
  1,
  1,
  1,
  1,
  1,
  1,
  1,
  1,
  1,
  1,
  1,
  1,
  1,
  1,
  1;;
Material {
 0.309804;0.309804;0.309804;1.000000;;
11.313699;
 0.898039;0.898039;0.898039;;
 0.020392;0.020392;0.020392;;
TextureFilename {
"terran_fighter_0.bmp";
}
 }
Material {
 0.309804;0.309804;0.309804;1.000000;;
11.313699;
 0.898039;0.898039;0.898039;;
 0.020392;0.020392;0.020392;;
TextureFilename {
"terran_fighter_1.bmp";
}
 }
}

 MeshNormals {
 650;
0.000000;0.000000;1.000000;,
0.000000;0.000000;1.000000;,
0.000000;0.000000;1.000000;,
0.000000;0.000000;1.000000;,
0.000000;0.000000;1.000000;,
0.000000;0.000000;1.000000;,
0.000000;0.000000;1.000000;,
0.000000;0.000000;1.000000;,
0.000000;0.000000;1.000000;,
0.000000;0.000000;1.000000;,
-0.803167;-0.464588;0.372937;,
-0.803167;-0.464588;0.372937;,
-0.803167;-0.464588;0.372937;,
-0.977580;-0.086975;-0.191760;,
-0.975246;-0.044178;-0.216665;,
-0.996184;-0.017769;-0.085444;,
-0.914215;-0.152458;-0.375457;,
-0.950764;0.013462;-0.309624;,
-0.970624;-0.002061;-0.240594;,
0.256839;-0.011189;0.966390;,
0.256839;-0.011189;0.966390;,
0.123383;0.016268;0.992226;,
0.014330;0.003121;0.999892;,
-0.013728;-0.001436;0.999905;,
-0.020057;-0.001148;0.999798;,
0.071619;0.015597;0.997310;,
0.001953;0.035437;0.999370;,
0.162542;0.060332;0.984855;,
0.162542;0.060332;0.984855;,
0.000000;0.000000;1.000000;,
0.000000;0.094006;0.995572;,
0.004879;0.088509;0.996063;,
0.000000;0.000000;1.000000;,
-0.045359;0.000000;0.998971;,
-0.050128;-0.002870;0.998739;,
0.004883;0.041540;0.999125;,
0.000000;-1.000000;0.000000;,
0.000000;-1.000000;0.000000;,
0.000000;-1.000000;0.000000;,
-0.000039;-1.000000;0.000017;,
-0.000039;-1.000000;0.000035;,
-0.000039;-1.000000;0.000035;,
0.287315;-0.957836;0.000029;,
-0.000019;-1.000000;0.000022;,
0.000000;-1.000000;0.000044;,
0.421937;-0.906625;0.000040;,
0.421937;-0.906625;0.000040;,
-0.000039;-1.000000;0.000000;,
0.022503;-0.999739;0.003889;,
0.022503;-0.999739;0.003889;,
0.022503;-0.999739;0.003889;,
0.488795;-0.756457;0.434571;,
0.501575;-0.858197;0.109182;,
0.488795;-0.756457;0.434571;,
-0.496385;-0.141706;0.856459;,
-0.586416;-0.210028;0.782307;,
-0.408725;-0.407507;0.816628;,
-0.728753;-0.008751;0.684720;,
-0.431063;-0.521924;0.736057;,
-0.360974;-0.596631;0.716750;,
-0.409711;-0.337814;0.847360;,
-0.496833;-0.199373;0.844635;,
0.542721;-0.839913;0.000000;,
0.542721;-0.839913;0.000000;,
0.461756;-0.887007;0.000000;,
0.461756;-0.887007;0.000000;,
0.444638;-0.893779;-0.058781;,
0.999032;0.043994;0.000000;,
0.996129;0.087902;0.000000;,
0.996129;0.087902;0.000000;,
1.000000;0.000000;0.000000;,
1.000000;0.000000;0.000000;,
0.996129;0.087902;0.000000;,
-0.994336;0.106278;0.000000;,
-0.994336;0.106278;0.000000;,
-0.994336;0.106278;0.000000;,
-0.994336;0.106278;0.000000;,
1.000000;0.000000;0.000000;,
0.000000;-0.979216;0.202820;,
-0.298212;-0.933296;0.200073;,
-0.298212;-0.933296;0.200073;,
-0.304601;-0.934005;0.186690;,
-0.304601;-0.934005;0.186690;,
-0.163578;0.180658;0.969848;,
-0.286957;0.177077;0.941435;,
-0.216709;0.177468;0.959970;,
0.629084;0.052759;0.775545;,
0.629084;0.052759;0.775545;,
0.629084;0.052759;0.775545;,
0.000000;0.182292;0.983244;,
0.000000;0.185730;0.982601;,
0.846279;0.275190;0.456161;,
0.846279;0.275190;0.456161;,
0.846279;0.275190;0.456161;,
0.776865;0.578262;0.249186;,
0.641088;0.704812;0.303719;,
0.641088;0.704812;0.303719;,
0.883568;0.430072;0.185327;,
0.883568;0.430072;0.185327;,
0.000000;1.000000;0.000000;,
0.000000;1.000000;0.000000;,
0.000000;1.000000;0.000000;,
0.000000;1.000000;0.000000;,
-0.797640;0.579465;-0.167304;,
-0.797640;0.579465;-0.167304;,
-0.797640;0.579465;-0.167304;,
1.000000;0.000000;0.000000;,
1.000000;0.000000;0.000000;,
1.000000;0.000000;0.000000;,
-1.000000;0.000000;0.000000;,
-1.000000;0.000000;0.000000;,
-1.000000;0.000000;0.000000;,
1.000000;0.000000;0.000000;,
0.355708;0.077843;-0.931350;,
0.385505;0.038970;-0.921882;,
0.683049;0.090674;-0.724722;,
1.000000;0.000000;0.000000;,
0.998753;0.000000;0.049924;,
0.997194;0.000000;0.074863;,
1.000000;0.000000;0.000000;,
0.995015;0.000000;0.099723;,
0.995015;0.000000;0.099723;,
0.995015;0.000000;0.099723;,
0.995015;0.000000;0.099723;,
0.995015;0.000000;0.099723;,
0.995015;0.000000;0.099723;,
-0.999093;0.000000;0.042574;,
-1.000000;0.000000;0.000000;,
-0.997805;0.000000;0.066219;,
-1.000000;0.000000;0.000000;,
-1.000000;0.000000;0.000000;,
-0.998766;0.000000;0.049671;,
-0.995066;0.000000;0.099219;,
-0.995066;0.000000;0.099219;,
-0.995066;0.000000;0.099219;,
-0.995066;0.000000;0.099219;,
-0.995066;0.000000;0.099219;,
-0.995066;0.000000;0.099219;,
-0.715751;0.137575;0.684670;,
-0.884528;0.138480;0.445459;,
-0.715751;0.137575;0.684670;,
-0.843381;-0.084144;0.530687;,
-0.815933;-0.300516;0.493907;,
-0.815933;-0.300516;0.493907;,
-0.758303;0.200810;0.620203;,
-0.758303;0.200810;0.620203;,
-0.850262;0.032184;0.525375;,
-0.832833;0.019005;0.553199;,
-0.832833;0.019005;0.553199;,
-0.989399;0.139751;0.039479;,
-0.989399;0.139751;0.039479;,
-0.948098;0.156899;0.276574;,
-0.948098;0.156899;0.276574;,
-0.918616;-0.184380;-0.349498;,
-0.918616;-0.184380;-0.349498;,
-0.955036;-0.142824;-0.259821;,
-0.987742;-0.098356;-0.121212;,
-0.987742;-0.098356;-0.121212;,
-0.941802;-0.143201;-0.304141;,
-0.941802;-0.143201;-0.304141;,
-0.392735;0.119295;-0.911881;,
-0.734583;0.059751;-0.675883;,
-0.630787;0.124744;-0.765863;,
0.000000;0.153610;-0.988132;,
-0.508146;0.191370;-0.839741;,
0.000000;0.100963;-0.994890;,
-0.592298;0.170779;-0.787412;,
-0.683050;0.090675;-0.724721;,
-0.860353;0.102301;-0.499326;,
-0.414343;0.000000;-0.910121;,
-0.414343;0.000000;-0.910121;,
-0.848726;0.062746;-0.525097;,
-0.848726;0.062746;-0.525097;,
-0.355708;0.077843;-0.931350;,
-0.355708;0.077843;-0.931350;,
1.000000;0.000000;0.000000;,
1.000000;0.000000;0.000000;,
1.000000;0.000000;0.000000;,
1.000000;0.000000;0.000000;,
-1.000000;0.000000;0.000000;,
-1.000000;0.000000;0.000000;,
-1.000000;0.000000;0.000000;,
-1.000000;0.000000;0.000000;,
0.414343;0.000000;-0.910121;,
0.734581;0.059747;-0.675885;,
0.860346;0.102299;-0.499339;,
0.994336;0.106278;0.000000;,
0.994336;0.106278;0.000000;,
0.994336;0.106278;0.000000;,
0.994336;0.106278;0.000000;,
-0.999032;0.043994;0.000000;,
-1.000000;0.000000;0.000000;,
-1.000000;0.000000;0.000000;,
-0.999032;0.043994;0.000000;,
-0.996129;0.087902;0.000000;,
-0.996129;0.087902;0.000000;,
0.592298;0.170779;-0.787412;,
0.630788;0.124742;-0.765863;,
-0.478224;-0.877361;-0.039232;,
-0.425833;-0.897161;-0.117338;,
-0.501575;-0.858197;0.109182;,
-0.461756;-0.887007;0.000000;,
-0.461756;-0.887007;0.000000;,
-0.371655;-0.915407;0.154604;,
-0.488795;-0.756457;0.434571;,
-0.022503;-0.999739;0.003889;,
-0.022503;-0.999739;0.003889;,
-0.421930;-0.906629;0.000000;,
-0.287311;-0.957837;0.000000;,
-0.421930;-0.906629;0.000000;,
-0.421930;-0.906629;0.000000;,
0.000000;-1.000000;0.000000;,
0.000000;-1.000000;0.000000;,
0.000000;-1.000000;0.000000;,
0.000000;-1.000000;0.000000;,
0.000000;-1.000000;0.000000;,
0.000000;0.000000;1.000000;,
0.000000;0.000000;1.000000;,
0.000000;0.000000;1.000000;,
0.054896;-0.005741;0.998476;,
0.054896;-0.005741;0.998476;,
0.054896;-0.005741;0.998476;,
0.045358;0.000000;0.998971;,
0.045358;0.000000;0.998971;,
0.045358;0.000000;0.998971;,
-0.009757;0.083008;0.996501;,
-0.009757;0.083008;0.996501;,
-0.009757;0.083008;0.996501;,
0.000000;0.094006;0.995572;,
0.000000;0.094006;0.995572;,
0.000000;0.094006;0.995572;,
0.000000;0.000000;1.000000;,
0.000000;0.000000;1.000000;,
0.000000;0.000000;1.000000;,
0.000000;0.000000;1.000000;,
-0.123383;0.016268;0.992226;,
-0.162542;0.060332;0.984855;,
-0.162542;0.060332;0.984855;,
-0.256839;-0.011189;0.966390;,
-0.256839;-0.011189;0.966390;,
-0.071619;0.015597;0.997310;,
-0.071619;0.015597;0.997310;,
0.408725;-0.407507;0.816628;,
0.586416;-0.210028;0.782307;,
0.496385;-0.141706;0.856459;,
0.508146;0.191370;-0.839741;,
0.392733;0.119293;-0.911883;,
0.941802;-0.143201;-0.304141;,
0.930708;-0.163879;-0.326995;,
0.941802;-0.143201;-0.304141;,
0.975246;-0.044178;-0.216665;,
0.985242;-0.017574;-0.170264;,
0.985242;-0.017574;-0.170264;,
0.950764;0.013462;-0.309624;,
0.950764;0.013462;-0.309624;,
0.914215;-0.152458;-0.375457;,
0.914215;-0.152458;-0.375457;,
0.999841;-0.017834;0.000000;,
0.999841;-0.017834;0.000000;,
0.803167;-0.464588;0.372937;,
0.803167;-0.464588;0.372937;,
0.803167;-0.464588;0.372937;,
0.546333;-0.442212;0.711315;,
0.360974;-0.596631;0.716750;,
0.307062;-0.591065;0.745892;,
0.918616;-0.184380;-0.349498;,
0.960933;-0.142518;-0.237270;,
0.948098;0.156899;0.276574;,
0.855894;0.151479;0.494470;,
0.948098;0.156899;0.276574;,
0.987742;-0.098356;-0.121212;,
0.987742;-0.098356;-0.121212;,
0.817910;0.084424;0.569119;,
0.832833;0.019005;0.553199;,
0.832833;0.019005;0.553199;,
0.850262;0.032184;0.525375;,
0.850262;0.032184;0.525375;,
0.989399;0.139751;0.039479;,
0.989399;0.139751;0.039479;,
0.989399;0.139751;0.039479;,
0.815933;-0.300516;0.493907;,
0.815933;-0.300516;0.493907;,
0.815933;-0.300516;0.493907;,
0.421933;-0.906627;0.000000;,
0.421933;-0.906627;0.000000;,
0.737947;0.169404;0.653251;,
0.758303;0.200810;0.620203;,
0.715751;0.137575;0.684670;,
0.425833;-0.897161;-0.117338;,
0.995066;0.000000;0.099219;,
0.999093;0.000000;0.042574;,
0.995066;0.000000;0.099219;,
0.409711;-0.337814;0.847360;,
0.848725;0.062746;-0.525098;,
0.848725;0.062746;-0.525098;,
-1.000000;0.000000;0.000000;,
0.496832;-0.199373;0.844635;,
0.995066;0.000000;0.099219;,
0.995066;0.000000;0.099219;,
0.998766;0.000000;0.049671;,
1.000000;0.000000;0.000000;,
0.000000;0.000000;1.000000;,
0.995062;-0.000006;0.099259;,
0.995062;-0.000006;0.099259;,
0.995062;-0.000006;0.099259;,
0.000000;0.000000;1.000000;,
1.000000;0.000000;0.000000;,
1.000000;0.000000;0.000000;,
1.000000;0.000000;0.000000;,
-0.995011;0.000000;0.099763;,
-0.998752;0.000000;0.049944;,
-0.995011;0.000000;0.099763;,
-0.995011;0.000000;0.099763;,
-0.995011;0.000000;0.099763;,
-0.995011;0.000000;0.099763;,
-0.995011;0.000000;0.099763;,
-0.995011;0.000000;0.099763;,
-0.995011;0.000000;0.099763;,
-0.995011;0.000000;0.099763;,
-0.995011;0.000000;0.099763;,
-1.000000;0.000000;0.000000;,
-1.000000;0.000000;0.000000;,
0.000000;1.000000;0.000000;,
0.000000;1.000000;0.000000;,
0.797639;0.579465;-0.167305;,
0.797639;0.579465;-0.167305;,
0.797639;0.579465;-0.167305;,
-0.641090;0.704811;0.303719;,
-0.776865;0.578262;0.249186;,
-0.641090;0.704811;0.303719;,
-0.846279;0.275190;0.456161;,
-0.846279;0.275190;0.456161;,
-0.846279;0.275190;0.456161;,
-0.883567;0.430073;0.185328;,
-0.883567;0.430073;0.185328;,
0.145316;0.176922;0.973438;,
0.145316;0.176922;0.973438;,
-0.629082;0.052759;0.775546;,
-0.629082;0.052759;0.775546;,
-0.629082;0.052759;0.775546;,
0.056164;0.185436;0.981050;,
0.304601;-0.934005;0.186690;,
0.304601;-0.934005;0.186690;,
0.298211;-0.933296;0.200073;,
0.298211;-0.933296;0.200073;,
0.286957;0.177077;0.941435;,
0.286957;0.177077;0.941435;,
0.286957;0.177077;0.941435;,
0.728753;-0.008751;0.684720;,
-1.000000;0.000000;0.000000;,
0.995066;0.000000;0.099219;,
-0.397581;0.917567;0.000000;,
-0.397581;0.917567;0.000000;,
-0.397581;0.917567;0.000000;,
-0.039948;0.704080;0.708996;,
-0.039948;0.704080;0.708996;,
-0.039948;0.704080;0.708996;,
-0.050474;0.687750;0.724191;,
-0.050474;0.687750;0.724191;,
-0.050474;0.687750;0.724191;,
0.000000;0.000000;-1.000000;,
0.000000;0.000000;-1.000000;,
0.000000;0.000000;-1.000000;,
0.159791;0.868798;0.468675;,
0.000000;0.998945;0.045932;,
0.159791;0.868798;0.468675;,
0.942481;-0.012518;-0.334026;,
0.942481;-0.012518;-0.334026;,
0.942481;-0.012518;-0.334026;,
0.000000;0.000000;-1.000000;,
0.932743;-0.022499;-0.359840;,
0.932743;-0.022499;-0.359840;,
0.932743;-0.022499;-0.359840;,
-0.302791;-0.612656;-0.730048;,
-0.302791;-0.612656;-0.730048;,
0.051433;-0.219361;-0.974287;,
0.000000;-0.136520;-0.990637;,
-0.235711;-0.132674;-0.962724;,
-0.311237;-0.124196;-0.942182;,
-0.656924;-0.108259;-0.746144;,
-0.656924;-0.108259;-0.746144;,
-0.159790;0.868798;0.468675;,
-0.159790;0.868798;0.468675;,
-0.269787;0.869619;0.413495;,
-0.269787;0.869619;0.413495;,
-0.317273;0.874110;0.367789;,
-0.317273;0.874110;0.367789;,
-0.473162;0.879224;-0.055523;,
-0.473162;0.879224;-0.055523;,
-0.350020;0.848195;-0.397558;,
-0.350020;0.848195;-0.397558;,
-0.137048;0.817250;-0.559750;,
-0.137048;0.817250;-0.559750;,
0.017923;-0.165004;0.986130;,
0.017923;-0.165004;0.986130;,
0.017923;-0.165004;0.986130;,
-0.050960;0.685607;-0.726186;,
-0.050960;0.685607;-0.726186;,
-0.050960;0.685607;-0.726186;,
-0.026740;0.672796;-0.739345;,
-0.026740;0.672796;-0.739345;,
-0.026740;0.672796;-0.739345;,
0.000000;1.000000;0.000000;,
0.000000;1.000000;0.000000;,
0.000000;1.000000;0.000000;,
-0.219087;-0.201220;0.954731;,
-0.219087;-0.201220;0.954731;,
0.000000;-0.206230;0.978503;,
0.000000;1.000000;0.000000;,
-0.417204;-0.908813;0.000000;,
-0.417204;-0.908813;0.000000;,
-0.417204;-0.908813;0.000000;,
0.719138;-0.044093;-0.693467;,
0.719138;-0.044093;-0.693467;,
0.719138;-0.044093;-0.693467;,
-0.417204;-0.908813;0.000000;,
0.051175;0.086769;-0.994913;,
-0.008193;0.043502;-0.999020;,
0.051175;0.086769;-0.994913;,
0.000000;0.000000;-1.000000;,
0.000000;0.000000;-1.000000;,
0.000000;0.000000;-1.000000;,
0.400252;0.058674;-0.914525;,
0.241596;-0.061335;-0.968437;,
0.000000;-0.000758;-1.000000;,
0.000000;1.000000;0.000000;,
0.000000;1.000000;0.000000;,
0.000000;1.000000;0.000000;,
0.000000;1.000000;0.000000;,
0.000000;1.000000;0.000000;,
0.000000;1.000000;0.000000;,
0.223208;-0.063667;-0.972689;,
0.223208;-0.063667;-0.972689;,
0.569525;0.131667;-0.811360;,
-0.018567;-0.015489;-0.999708;,
-0.018567;-0.015489;-0.999708;,
0.000000;0.143273;-0.989683;,
-0.988146;-0.100604;-0.115954;,
-0.988146;-0.100604;-0.115954;,
-0.988146;-0.100604;-0.115954;,
-0.801796;-0.059768;-0.594602;,
-0.801796;-0.059768;-0.594602;,
-0.801796;-0.059768;-0.594602;,
0.988146;-0.100604;-0.115954;,
0.988146;-0.100604;-0.115954;,
0.988146;-0.100604;-0.115954;,
0.000000;-0.115265;-0.993335;,
0.000000;-0.115265;-0.993335;,
0.000000;1.000000;0.000000;,
0.000000;1.000000;0.000000;,
0.000000;1.000000;0.000000;,
-0.047395;0.000000;-0.998876;,
0.000000;0.000000;-1.000000;,
0.000000;0.000000;-1.000000;,
0.000000;0.000000;-1.000000;,
0.000000;0.000000;-1.000000;,
0.245775;0.840386;-0.483059;,
0.137047;0.817250;-0.559750;,
0.350020;0.848195;-0.397557;,
-0.165003;0.017255;-0.986142;,
-0.165003;0.017255;-0.986142;,
-0.165003;0.017255;-0.986142;,
-0.122299;0.731588;0.670688;,
-0.122299;0.731588;0.670688;,
-0.122299;0.731588;0.670688;,
-0.198791;0.000000;-0.980042;,
-0.198791;0.000000;-0.980042;,
-0.198791;0.000000;-0.980042;,
-0.110423;0.000000;-0.993885;,
-0.110423;0.000000;-0.993885;,
-0.091745;0.009594;-0.995736;,
-0.091745;0.009594;-0.995736;,
-0.091745;0.009594;-0.995736;,
-0.110423;0.000000;-0.993885;,
-0.067517;0.000000;-0.997718;,
-0.067517;0.000000;-0.997718;,
-0.110423;0.000000;-0.993885;,
-0.772380;0.635142;0.004771;,
-0.772380;0.635142;0.004771;,
-0.772380;0.635142;0.004771;,
-0.397581;0.917567;0.000000;,
-0.734529;0.653022;0.184473;,
-0.734529;0.653022;0.184473;,
-0.734529;0.653022;0.184473;,
0.122299;0.731588;0.670688;,
0.122299;0.731588;0.670688;,
0.122299;0.731588;0.670688;,
-0.488696;0.872454;0.000000;,
-0.488696;0.872454;0.000000;,
-0.488696;0.872454;0.000000;,
-0.485104;0.874402;-0.009732;,
-0.485104;0.874402;-0.009732;,
-0.485104;0.874402;-0.009732;,
0.625218;0.225069;-0.747292;,
0.625218;0.225069;-0.747292;,
0.625218;0.225069;-0.747292;,
0.517727;-0.052060;-0.853961;,
0.517727;-0.052060;-0.853961;,
0.097759;-0.428669;-0.898157;,
0.097759;-0.428669;-0.898157;,
-0.458785;-0.382726;-0.801896;,
-0.458785;-0.382726;-0.801896;,
0.000000;1.000000;0.000000;,
0.000000;1.000000;0.000000;,
0.000000;1.000000;0.000000;,
0.000000;0.000000;-1.000000;,
0.000000;0.000000;-1.000000;,
0.000000;0.000000;-1.000000;,
0.417204;-0.908813;0.000000;,
0.417204;-0.908813;0.000000;,
0.417204;-0.908813;0.000000;,
0.417204;-0.908813;0.000000;,
0.269786;0.869619;0.413496;,
0.269786;0.869619;0.413496;,
0.473162;0.879224;-0.055523;,
0.473162;0.879224;-0.055523;,
0.317274;0.874111;0.367788;,
0.317274;0.874111;0.367788;,
-0.096043;0.000000;-0.995377;,
-0.096043;0.000000;-0.995377;,
-0.096043;0.000000;-0.995377;,
-0.096043;0.000000;-0.995377;,
0.656925;-0.108259;-0.746143;,
0.656925;-0.108259;-0.746143;,
0.656925;-0.108259;-0.746143;,
0.000000;1.000000;0.000000;,
0.000000;1.000000;0.000000;,
0.000000;1.000000;0.000000;,
0.000000;1.000000;0.000000;,
0.235711;-0.132674;-0.962724;,
0.235711;-0.132674;-0.962724;,
0.000000;-0.115265;-0.993335;,
0.000000;-0.115265;-0.993335;,
-0.569526;0.131667;-0.811359;,
-0.051434;-0.219361;-0.974287;,
-0.400252;0.058674;-0.914525;,
0.000000;0.000000;-1.000000;,
0.000000;0.000000;-1.000000;,
0.000000;0.000000;-1.000000;,
0.050474;0.687750;0.724191;,
0.050474;0.687750;0.724191;,
0.050474;0.687750;0.724191;,
0.039948;0.704080;0.708996;,
0.039948;0.704080;0.708996;,
0.039948;0.704080;0.708996;,
-0.942481;-0.012518;-0.334026;,
-0.942481;-0.012518;-0.334026;,
-0.942481;-0.012518;-0.334026;,
0.000000;0.000000;-1.000000;,
-0.932743;-0.022499;-0.359840;,
-0.932743;-0.022499;-0.359840;,
-0.932743;-0.022499;-0.359840;,
-0.017923;-0.165004;0.986130;,
-0.017923;-0.165004;0.986130;,
-0.017923;-0.165004;0.986130;,
0.050960;0.685607;-0.726186;,
0.050960;0.685607;-0.726186;,
0.050960;0.685607;-0.726186;,
0.026740;0.672796;-0.739345;,
0.026740;0.672796;-0.739345;,
0.026740;0.672796;-0.739345;,
-0.625218;0.225069;-0.747292;,
-0.625218;0.225069;-0.747292;,
-0.625218;0.225069;-0.747292;,
0.219087;-0.201220;0.954731;,
0.219087;-0.201220;0.954731;,
-0.517727;-0.052060;-0.853960;,
-0.517727;-0.052060;-0.853960;,
-0.097759;-0.428669;-0.898157;,
-0.097759;-0.428669;-0.898157;,
-0.719139;-0.044097;-0.693465;,
-0.719139;-0.044097;-0.693465;,
-0.719139;-0.044097;-0.693465;,
0.458780;-0.382727;-0.801898;,
0.458780;-0.382727;-0.801898;,
-0.223208;-0.063667;-0.972689;,
-0.223208;-0.063667;-0.972689;,
0.302791;-0.612656;-0.730048;,
0.302791;-0.612656;-0.730048;,
-0.241596;-0.061335;-0.968437;,
-0.123964;0.124072;-0.984499;,
-0.123964;0.124072;-0.984499;,
-0.123964;0.124072;-0.984499;,
0.000000;0.001771;-0.999998;,
0.000000;0.001771;-0.999998;,
0.000000;0.001771;-0.999998;,
0.018566;-0.015489;-0.999708;,
0.018566;-0.015489;-0.999708;,
0.640042;0.768336;-0.002525;,
0.485104;0.874402;-0.009732;,
0.485104;0.874402;-0.009732;,
0.488696;0.872454;0.000000;,
0.488696;0.872454;0.000000;,
0.488696;0.872454;0.000000;,
0.772380;0.635142;0.004771;,
0.772380;0.635142;0.004771;,
0.734529;0.653022;0.184473;,
0.734529;0.653022;0.184473;,
0.734529;0.653022;0.184473;,
0.397583;0.917566;0.000000;,
0.397583;0.917566;0.000000;,
0.397583;0.917566;0.000000;,
0.397583;0.917566;0.000000;,
0.000000;0.000000;-1.000000;,
0.000000;0.000000;-1.000000;,
0.801794;-0.059768;-0.594604;,
0.801794;-0.059768;-0.594604;,
0.801794;-0.059768;-0.594604;,
0.067517;0.000000;-0.997718;,
0.067517;0.000000;-0.997718;,
0.067517;0.000000;-0.997718;,
0.000000;0.000000;-1.000000;,
0.000000;0.000000;-1.000000;,
0.047395;0.000000;-0.998876;,
0.110423;0.000000;-0.993885;,
0.110423;0.000000;-0.993885;,
0.110423;0.000000;-0.993885;,
0.110423;0.000000;-0.993885;,
0.091745;0.009594;-0.995736;,
0.091745;0.009594;-0.995736;,
0.091745;0.009594;-0.995736;,
0.165004;0.017255;-0.986142;,
0.165004;0.017255;-0.986142;,
0.165004;0.017255;-0.986142;,
0.198793;0.000000;-0.980042;,
0.198793;0.000000;-0.980042;,
0.198793;0.000000;-0.980042;,
0.123964;0.124072;-0.984499;,
0.123964;0.124072;-0.984499;,
0.123964;0.124072;-0.984499;,
0.000000;0.001771;-0.999998;,
0.000000;0.001771;-0.999998;,
0.000000;0.001771;-0.999998;,
0.096043;0.000000;-0.995377;,
0.096043;0.000000;-0.995377;,
0.096043;0.000000;-0.995377;,
0.096043;0.000000;-0.995377;,
0.000000;0.000000;-1.000000;,
0.000000;0.000000;-1.000000;,
0.000000;0.000000;-1.000000;,
-0.051175;0.086769;-0.994913;,
-0.051175;0.086769;-0.994913;,
-0.051175;0.086769;-0.994913;,
0.000000;0.000000;-1.000000;,
0.000000;0.000000;-1.000000;,
0.000000;0.000000;-1.000000;,
0.000000;0.000000;-1.000000;,
0.000000;0.000000;-1.000000;,
0.000000;0.000000;-1.000000;,
0.000000;0.000000;-1.000000;;

 332;
3;0,1,2;,
3;3,4,5;,
3;4,6,5;,
3;6,4,7;,
3;8,9,2;,
3;10,11,12;,
3;13,14,15;,
3;13,16,14;,
3;14,17,18;,
3;19,20,21;,
3;22,23,24;,
3;22,21,25;,
3;21,22,26;,
3;27,28,21;,
3;26,22,24;,
3;22,29,23;,
3;30,26,31;,
3;32,23,29;,
3;33,24,34;,
3;23,34,24;,
3;35,31,26;,
3;36,37,38;,
3;39,40,41;,
3;35,26,24;,
3;42,43,44;,
3;45,46,42;,
3;39,47,43;,
3;48,49,50;,
3;51,52,53;,
3;54,55,56;,
3;55,54,57;,
3;58,56,55;,
3;58,59,56;,
3;56,59,60;,
3;60,54,56;,
3;60,61,54;,
3;18,15,14;,
3;62,52,63;,
3;64,65,66;,
3;67,68,69;,
3;67,70,71;,
3;72,69,68;,
3;73,74,75;,
3;76,75,74;,
3;77,71,70;,
3;78,79,80;,
3;78,81,82;,
3;83,84,85;,
3;86,87,88;,
3;89,83,85;,
3;89,90,83;,
3;91,92,93;,
3;94,95,96;,
3;94,97,98;,
3;99,100,101;,
3;99,102,100;,
3;103,104,105;,
3;106,107,108;,
3;109,110,111;,
3;112,108,107;,
3;113,114,115;,
3;116,117,118;,
3;117,116,119;,
3;118,120,121;,
3;120,118,122;,
3;117,123,118;,
3;124,117,125;,
3;126,127,128;,
3;127,126,129;,
3;126,130,129;,
3;130,126,131;,
3;128,132,126;,
3;133,128,134;,
3;126,135,131;,
3;136,126,137;,
3;138,139,140;,
3;141,142,143;,
3;139,144,145;,
3;141,146,139;,
3;141,147,148;,
3;149,139,150;,
3;139,151,152;,
3;153,154,155;,
3;156,157,155;,
3;155,158,159;,
3;160,161,162;,
3;163,160,164;,
3;160,163,165;,
3;164,162,166;,
3;162,164,160;,
3;167,162,161;,
3;162,167,166;,
3;168,167,161;,
3;169,170,167;,
3;167,171,172;,
3;167,173,174;,
3;175,176,177;,
3;176,175,178;,
3;179,180,181;,
3;180,179,182;,
3;115,114,183;,
3;184,115,185;,
3;186,187,188;,
3;187,186,189;,
3;190,191,192;,
3;191,190,193;,
3;190,194,193;,
3;194,190,195;,
3;196,115,197;,
3;184,197,115;,
3;198,199,200;,
3;201,198,202;,
3;198,200,203;,
3;203,200,204;,
3;205,206,203;,
3;207,208,209;,
3;208,207,210;,
3;211,212,208;,
3;212,211,213;,
3;211,214,213;,
3;214,211,215;,
3;216,217,218;,
3;219,220,221;,
3;222,223,224;,
3;225,226,227;,
3;228,229,230;,
3;231,232,233;,
3;232,231,234;,
3;235,236,237;,
3;217,233,235;,
3;216,233,217;,
3;216,231,233;,
3;235,238,239;,
3;240,235,241;,
3;242,243,244;,
3;196,197,245;,
3;165,163,246;,
3;246,245,197;,
3;197,184,246;,
3;247,248,249;,
3;250,251,252;,
3;253,254,250;,
3;250,255,256;,
3;257,250,258;,
3;259,260,261;,
3;243,242,262;,
3;242,263,264;,
3;265,248,266;,
3;267,268,269;,
3;270,266,271;,
3;272,273,274;,
3;275,272,276;,
3;277,278,279;,
3;280,281,282;,
3;283,42,284;,
3;285,272,286;,
3;285,287,268;,
3;52,66,288;,
3;289,290,291;,
3;292,263,242;,
3;293,294,115;,
3;295,111,110;,
3;242,244,292;,
3;244,296,292;,
3;290,297,298;,
3;299,290,300;,
3;4,3,301;,
3;8,2,1;,
3;302,303,304;,
3;305,2,9;,
3;306,300,290;,
3;306,290,307;,
3;308,307,290;,
3;309,310,311;,
3;312,313,310;,
3;314,315,316;,
3;317,318,319;,
3;320,321,310;,
3;100,322,323;,
3;101,100,323;,
3;324,325,326;,
3;327,328,329;,
3;330,331,332;,
3;328,333,334;,
3;335,336,89;,
3;337,338,339;,
3;340,90,89;,
3;341,342,78;,
3;343,344,78;,
3;345,346,347;,
3;245,246,163;,
3;348,244,243;,
3;349,310,321;,
3;299,350,290;,
3;351,352,353;,
3;354,355,356;,
3;357,358,359;,
3;360,361,362;,
3;363,364,365;,
3;366,367,368;,
3;361,369,362;,
3;370,371,372;,
3;373,374,375;,
3;376,377,378;,
3;378,379,380;,
3;381,364,382;,
3;364,383,384;,
3;364,385,386;,
3;364,387,388;,
3;389,390,364;,
3;391,392,364;,
3;393,394,395;,
3;396,397,398;,
3;399,400,401;,
3;402,403,404;,
3;405,406,407;,
3;403,402,408;,
3;409,410,411;,
3;412,413,414;,
3;410,409,415;,
3;416,417,418;,
3;419,420,421;,
3;422,423,424;,
3;425,426,427;,
3;428,427,426;,
3;425,429,426;,
3;430,426,429;,
3;431,424,432;,
3;422,375,433;,
3;434,435,375;,
3;424,436,422;,
3;375,422,436;,
3;437,438,439;,
3;440,441,442;,
3;443,444,445;,
3;446,378,447;,
3;448,449,450;,
3;451,452,419;,
3;453,454,455;,
3;364,456,457;,
3;364,458,456;,
3;459,460,461;,
3;462,463,464;,
3;465,466,467;,
3;468,451,469;,
3;470,471,472;,
3;473,469,451;,
3;474,417,475;,
3;451,468,476;,
3;451,419,421;,
3;477,478,479;,
3;352,351,480;,
3;481,482,483;,
3;484,485,486;,
3;487,488,489;,
3;490,491,492;,
3;493,494,495;,
3;422,496,497;,
3;498,375,499;,
3;375,500,501;,
3;449,448,502;,
3;503,449,504;,
3;449,503,450;,
3;505,454,453;,
3;505,506,454;,
3;453,455,507;,
3;508,509,510;,
3;511,510,509;,
3;512,513,364;,
3;514,515,364;,
3;516,517,364;,
3;518,519,520;,
3;519,518,521;,
3;522,523,524;,
3;525,526,527;,
3;528,527,526;,
3;529,530,376;,
3;447,531,532;,
3;533,534,535;,
3;536,537,538;,
3;539,540,541;,
3;542,543,544;,
3;545,546,547;,
3;536,548,537;,
3;549,550,551;,
3;552,553,554;,
3;555,556,557;,
3;558,559,560;,
3;561,562,563;,
3;407,564,565;,
3;566,567,535;,
3;568,534,569;,
3;570,571,572;,
3;573,574,534;,
3;575,424,576;,
3;534,577,578;,
3;424,579,535;,
3;580,581,582;,
3;583,584,585;,
3;534,586,587;,
3;588,589,590;,
3;591,592,593;,
3;588,594,595;,
3;596,597,598;,
3;599,600,601;,
3;602,601,600;,
3;535,436,424;,
3;436,535,534;,
3;603,604,451;,
3;451,604,452;,
3;605,606,607;,
3;608,609,610;,
3;611,612,613;,
3;614,615,613;,
3;616,613,615;,
3;613,616,617;,
3;618,619,620;,
3;621,622,623;,
3;624,625,626;,
3;627,628,629;,
3;630,631,632;,
3;633,634,635;,
3;636,635,634;,
3;637,638,613;,
3;613,638,639;,
3;640,641,642;,
3;643,644,645;,
3;644,646,645;,
3;647,648,643;,
3;648,644,643;,
3;612,637,613;,
3;611,649,612;;
 }
MeshTextureCoords {
 650;
0.951547;0.821757;,
0.970211;0.821757;,
0.951547;0.655000;,
0.970211;0.821757;,
0.951547;0.655000;,
0.970211;0.655000;,
0.970211;0.583500;,
0.951547;0.583500;,
0.970211;0.655000;,
0.970211;0.583500;,
0.765856;0.169692;,
0.599856;0.219307;,
0.793054;0.310202;,
0.414673;0.286460;,
0.599856;0.219307;,
0.414673;0.219307;,
0.793054;0.310202;,
0.557733;0.180540;,
0.414673;0.180540;,
0.022199;0.603489;,
0.094179;0.977338;,
0.176603;0.389959;,
0.283102;0.878989;,
0.479493;0.790303;,
0.453662;0.543291;,
0.094179;0.977338;,
0.283102;0.449613;,
0.022199;0.220550;,
0.022199;0.603489;,
0.283102;0.922214;,
0.297836;0.311752;,
0.439727;0.311752;,
0.479493;0.832057;,
0.575230;0.595966;,
0.575231;0.745748;,
0.453662;0.469661;,
0.218667;0.272168;,
0.222104;0.237886;,
0.191486;0.272168;,
0.188067;0.237886;,
0.191486;0.272168;,
0.222104;0.237886;,
0.222104;0.208062;,
0.188067;0.208062;,
0.222104;0.237886;,
0.222104;0.237886;,
0.377328;0.228936;,
0.222104;0.237886;,
0.669044;0.582745;,
0.615740;0.573534;,
0.615740;0.533977;,
0.615740;0.533977;,
0.669044;0.512337;,
0.669044;0.582745;,
0.499488;0.917856;,
0.734466;0.848247;,
0.765315;0.897232;,
0.452915;0.878329;,
0.871854;0.846190;,
0.904130;0.957591;,
0.792154;0.957591;,
0.511642;0.957591;,
0.669044;0.582745;,
0.761379;0.582745;,
0.740357;0.319826;,
0.761379;0.582745;,
0.669044;0.319826;,
0.119815;0.145053;,
0.322668;0.145412;,
0.119815;0.186538;,
0.119815;0.186538;,
0.025230;0.145053;,
0.322668;0.169815;,
0.519181;0.534608;,
0.549193;0.319442;,
0.489532;0.534608;,
0.469215;0.319442;,
0.025230;0.186538;,
0.590841;0.679383;,
0.846321;0.795701;,
0.797104;0.686933;,
0.590841;0.842219;,
0.846321;0.795701;,
0.946088;0.025544;,
0.983263;0.371064;,
0.964220;0.470135;,
0.983263;0.371064;,
0.946088;0.025544;,
0.957137;0.006137;,
0.909888;0.483905;,
0.909888;0.025544;,
0.456425;0.900034;,
0.273633;0.979513;,
0.318965;0.933942;,
0.245395;0.260214;,
0.245395;0.343531;,
0.222353;0.294894;,
0.265836;0.357670;,
0.245395;0.343531;,
0.222353;0.294894;,
0.178425;0.347365;,
0.178425;0.294894;,
0.245395;0.343531;,
0.283494;0.317505;,
0.265836;0.357670;,
0.245395;0.260214;,
0.078859;0.255331;,
0.143423;0.255331;,
0.078859;0.205396;,
0.640620;0.398794;,
0.569849;0.398794;,
0.640620;0.314896;,
0.143423;0.205396;,
0.041895;0.083612;,
0.461026;0.143302;,
0.501662;0.096988;,
0.773738;0.018082;,
0.840769;0.037281;,
0.773738;0.037281;,
0.840769;0.018082;,
0.617404;0.059350;,
0.617404;0.037281;,
0.773738;0.059350;,
0.773738;0.059350;,
0.773738;0.059350;,
0.840769;0.059350;,
0.316130;0.029551;,
0.477508;0.009733;,
0.477508;0.029551;,
0.316130;0.009733;,
0.246937;0.009733;,
0.246937;0.029551;,
0.316130;0.052332;,
0.316130;0.052332;,
0.477508;0.052332;,
0.246937;0.052332;,
0.246937;0.052332;,
0.316130;0.052332;,
0.865211;0.020706;,
0.850379;0.389720;,
0.824833;0.340920;,
0.834895;0.642490;,
0.857922;0.741331;,
0.798781;0.647929;,
0.774569;0.456519;,
0.824833;0.340920;,
0.774569;0.456519;,
0.798781;0.647929;,
0.774569;0.456519;,
0.894175;0.377349;,
0.884261;0.037736;,
0.865211;0.020706;,
0.884261;0.037736;,
0.890166;0.752905;,
0.857922;0.741331;,
0.926532;0.660228;,
0.926332;0.971903;,
0.890166;0.752905;,
0.857922;0.741331;,
0.834895;0.642490;,
0.585745;0.062506;,
0.699323;0.108501;,
0.616729;0.088229;,
0.501662;0.022108;,
0.501662;0.052995;,
0.585745;0.022108;,
0.501662;0.072327;,
0.501662;0.096988;,
0.788249;0.143302;,
0.788249;0.143302;,
0.461026;0.143302;,
0.041895;0.083612;,
0.020878;0.061310;,
0.461026;0.143302;,
0.041895;0.083612;,
0.569849;0.398794;,
0.640620;0.314896;,
0.569849;0.314896;,
0.640620;0.398794;,
0.078859;0.205396;,
0.143423;0.255331;,
0.078859;0.255331;,
0.143423;0.205396;,
0.788249;0.143302;,
0.699323;0.108501;,
0.788249;0.143302;,
0.549193;0.319442;,
0.489532;0.534608;,
0.469215;0.319442;,
0.519181;0.534608;,
0.119815;0.186538;,
0.025230;0.145053;,
0.025230;0.186538;,
0.119815;0.145053;,
0.322668;0.145412;,
0.322668;0.169815;,
0.501662;0.072327;,
0.616729;0.088229;,
0.761379;0.582745;,
0.669044;0.319826;,
0.669044;0.512337;,
0.669044;0.319826;,
0.740357;0.319826;,
0.669044;0.582745;,
0.615740;0.533977;,
0.615740;0.533977;,
0.615740;0.573534;,
0.377328;0.228936;,
0.222104;0.208062;,
0.377328;0.176576;,
0.222104;0.237886;,
0.222104;0.237886;,
0.188067;0.208062;,
0.188067;0.237886;,
0.191486;0.272168;,
0.218667;0.272168;,
0.453662;0.543291;,
0.283102;0.449613;,
0.453662;0.469661;,
0.453662;0.543291;,
0.575231;0.745748;,
0.479493;0.790303;,
0.575231;0.745748;,
0.453662;0.543291;,
0.575230;0.595966;,
0.283102;0.449613;,
0.439727;0.311752;,
0.453662;0.469661;,
0.439727;0.311752;,
0.283102;0.449613;,
0.297836;0.311752;,
0.479493;0.790303;,
0.283102;0.922214;,
0.283102;0.878989;,
0.479493;0.832057;,
0.176603;0.389959;,
0.022199;0.603489;,
0.022199;0.220550;,
0.094179;0.977338;,
0.022199;0.603489;,
0.094179;0.977338;,
0.283102;0.878989;,
0.765315;0.897232;,
0.734466;0.848247;,
0.499488;0.917856;,
0.501662;0.052995;,
0.585745;0.062506;,
0.834895;0.642490;,
0.857922;0.741331;,
0.926532;0.660228;,
0.599856;0.219307;,
0.414673;0.219307;,
0.414673;0.180540;,
0.414673;0.180540;,
0.557733;0.180540;,
0.793054;0.310202;,
0.414673;0.286460;,
0.414673;0.219307;,
0.414673;0.286460;,
0.793054;0.310202;,
0.599856;0.219307;,
0.765856;0.169692;,
0.871854;0.846190;,
0.904130;0.957591;,
0.871854;0.846190;,
0.926532;0.660228;,
0.890166;0.752905;,
0.884261;0.037736;,
0.865211;0.020706;,
0.850379;0.389720;,
0.926532;0.660228;,
0.926332;0.971903;,
0.774569;0.456519;,
0.798781;0.647929;,
0.834895;0.642490;,
0.850379;0.389720;,
0.834895;0.642490;,
0.884261;0.037736;,
0.850379;0.389720;,
0.894175;0.377349;,
0.798781;0.647929;,
0.857922;0.741331;,
0.834895;0.642490;,
0.377328;0.176576;,
0.377328;0.228936;,
0.824833;0.340920;,
0.850379;0.389720;,
0.850379;0.389720;,
0.761379;0.582745;,
0.316130;0.052332;,
0.316130;0.029551;,
0.246937;0.052332;,
0.792154;0.957591;,
0.020878;0.061310;,
0.041895;0.083612;,
0.569849;0.314896;,
0.511642;0.957591;,
0.316130;0.052332;,
0.477508;0.029551;,
0.246937;0.029551;,
0.246937;0.009733;,
0.951547;0.821757;,
0.477508;0.052332;,
0.477508;0.029551;,
0.316130;0.052332;,
0.951547;0.583500;,
0.316130;0.009733;,
0.477508;0.009733;,
0.477508;0.029551;,
0.840769;0.059350;,
0.840769;0.037281;,
0.773738;0.059350;,
0.773738;0.037281;,
0.773738;0.059350;,
0.773738;0.059350;,
0.773738;0.037281;,
0.617404;0.059350;,
0.617404;0.037281;,
0.617404;0.059350;,
0.773738;0.037281;,
0.840769;0.018082;,
0.773738;0.018082;,
0.245395;0.343531;,
0.222353;0.294894;,
0.245395;0.260214;,
0.265836;0.357670;,
0.283494;0.317505;,
0.222353;0.294894;,
0.245395;0.343531;,
0.245395;0.260214;,
0.318965;0.933942;,
0.273633;0.979513;,
0.456425;0.900034;,
0.265836;0.357670;,
0.245395;0.260214;,
0.964220;0.470135;,
0.946088;0.025544;,
0.957137;0.006137;,
0.946088;0.025544;,
0.983263;0.371064;,
0.946088;0.025544;,
0.846321;0.795701;,
0.590841;0.842219;,
0.797104;0.686933;,
0.846321;0.795701;,
0.964220;0.470135;,
0.983263;0.371064;,
0.946088;0.025544;,
0.452915;0.878329;,
0.773738;0.037281;,
0.246937;0.052332;,
0.765567;0.146829;,
0.620552;0.101722;,
0.765567;0.124887;,
0.572405;0.619523;,
0.747190;0.682794;,
0.727041;0.589316;,
0.660027;0.774249;,
0.747190;0.682794;,
0.572405;0.619523;,
0.117274;0.078163;,
0.087791;0.077499;,
0.120850;0.226417;,
0.690458;0.176189;,
0.637328;0.289863;,
0.638806;0.159373;,
0.602059;0.023813;,
0.552413;0.069502;,
0.734318;0.069502;,
0.089867;0.224114;,
0.734318;0.069502;,
0.772550;0.023813;,
0.602059;0.023813;,
0.971834;0.948434;,
0.971834;0.987645;,
0.907635;0.894769;,
0.805661;0.017128;,
0.805661;0.474664;,
0.846349;0.017128;,
0.831250;0.474664;,
0.874512;0.017128;,
0.638806;0.159373;,
0.690458;0.176189;,
0.726486;0.199696;,
0.690458;0.176189;,
0.772444;0.239342;,
0.726486;0.199696;,
0.761835;0.329761;,
0.772444;0.239342;,
0.709092;0.376197;,
0.761835;0.329761;,
0.638806;0.389514;,
0.709092;0.376197;,
0.218164;0.717205;,
0.144499;0.741321;,
0.186545;0.981045;,
0.712144;0.556548;,
0.687044;0.488500;,
0.633978;0.488500;,
0.633978;0.488500;,
0.612863;0.556548;,
0.712144;0.556548;,
0.464358;0.792323;,
0.274792;0.766943;,
0.464358;0.766943;,
0.186545;0.981045;,
0.144499;0.741321;,
0.144499;0.981045;,
0.274792;0.792323;,
0.211580;0.043715;,
0.509737;0.092743;,
0.211580;0.092743;,
0.834544;0.807153;,
0.779239;0.665836;,
0.842567;0.631048;,
0.509737;0.014946;,
0.280066;0.597840;,
0.172130;0.657841;,
0.012761;0.440188;,
0.140416;0.246895;,
0.138341;0.090658;,
0.280067;0.157927;,
0.907635;0.658933;,
0.903387;0.019777;,
0.971834;0.665273;,
0.527559;0.190936;,
0.585988;0.190936;,
0.527559;0.139739;,
0.585988;0.139739;,
0.533459;0.249787;,
0.580119;0.249787;,
0.971833;0.019777;,
0.903387;0.019777;,
0.842567;0.631048;,
0.834544;0.807153;,
0.842567;0.631048;,
0.971834;0.948434;,
0.551705;0.840189;,
0.531743;0.517407;,
0.517643;0.840189;,
0.517491;0.502651;,
0.517643;0.840189;,
0.531743;0.517407;,
0.517643;0.840189;,
0.531743;0.517407;,
0.551705;0.840189;,
0.831250;0.474664;,
0.805661;0.474664;,
0.527559;0.139739;,
0.585988;0.190936;,
0.527559;0.190936;,
0.280067;0.501863;,
0.083163;0.244620;,
0.579364;0.447895;,
0.600871;0.447895;,
0.600871;0.513692;,
0.709092;0.376197;,
0.638806;0.389514;,
0.761835;0.329761;,
0.481277;0.248789;,
0.579364;0.447895;,
0.454812;0.501863;,
0.572405;0.619523;,
0.660027;0.774249;,
0.572405;0.819464;,
0.579364;0.447895;,
0.481277;0.248789;,
0.579364;0.294438;,
0.454812;0.577299;,
0.454812;0.501863;,
0.454812;0.501863;,
0.280067;0.157927;,
0.481277;0.248789;,
0.280067;0.157927;,
0.012761;0.440188;,
0.012761;0.851726;,
0.280066;0.597840;,
0.567729;0.950168;,
0.232852;0.839030;,
0.570217;0.861860;,
0.620552;0.140244;,
0.567729;0.950168;,
0.232852;0.982929;,
0.232852;0.839030;,
0.572405;0.819464;,
0.660027;0.774249;,
0.572405;0.619523;,
0.798706;0.839030;,
0.798706;0.950168;,
0.567729;0.950168;,
0.798706;0.839030;,
0.567729;0.950168;,
0.570217;0.861860;,
0.779239;0.665836;,
0.690282;0.418723;,
0.842567;0.631048;,
0.842567;0.631048;,
0.903387;0.019777;,
0.907635;0.987645;,
0.971834;0.987645;,
0.907635;0.987645;,
0.834544;0.807153;,
0.585988;0.139739;,
0.533459;0.249787;,
0.580119;0.249787;,
0.579364;0.294438;,
0.600871;0.294438;,
0.579364;0.513692;,
0.509737;0.014946;,
0.211580;0.043715;,
0.509737;0.092743;,
0.211580;0.092743;,
0.690458;0.176189;,
0.726486;0.199696;,
0.772444;0.239342;,
0.761835;0.329761;,
0.726486;0.199696;,
0.772444;0.239342;,
0.280067;0.157927;,
0.481277;0.206010;,
0.481277;0.248789;,
0.280067;0.113641;,
0.874512;0.017128;,
0.831250;0.474664;,
0.846349;0.017128;,
0.274792;0.792323;,
0.464358;0.792323;,
0.274792;0.766943;,
0.464358;0.766943;,
0.846349;0.017128;,
0.805661;0.474664;,
0.846349;0.017128;,
0.831250;0.474664;,
0.842567;0.631048;,
0.907635;0.894769;,
0.907635;0.658933;,
0.120850;0.226417;,
0.087791;0.077499;,
0.117274;0.078163;,
0.572405;0.619523;,
0.747190;0.682794;,
0.660027;0.774249;,
0.727041;0.589316;,
0.747190;0.682794;,
0.572405;0.619523;,
0.734318;0.069502;,
0.552413;0.069502;,
0.602059;0.023813;,
0.089867;0.224114;,
0.602059;0.023813;,
0.772550;0.023813;,
0.734318;0.069502;,
0.186545;0.981045;,
0.144499;0.741321;,
0.218164;0.717205;,
0.633978;0.488500;,
0.687044;0.488500;,
0.712144;0.556548;,
0.712144;0.556548;,
0.612863;0.556548;,
0.633978;0.488500;,
0.842567;0.631048;,
0.690282;0.418723;,
0.779239;0.665836;,
0.144499;0.741321;,
0.186545;0.981045;,
0.903387;0.019777;,
0.842567;0.631048;,
0.971834;0.987645;,
0.907635;0.987645;,
0.842567;0.631048;,
0.779239;0.665836;,
0.834544;0.807153;,
0.834544;0.807153;,
0.907635;0.987645;,
0.903387;0.019777;,
0.971833;0.019777;,
0.971834;0.987645;,
0.971834;0.948434;,
0.903387;0.019777;,
0.454812;0.577299;,
0.295163;0.739083;,
0.280066;0.597840;,
0.295163;0.739083;,
0.454812;0.577299;,
0.440535;0.739083;,
0.842567;0.631048;,
0.834544;0.807153;,
0.570217;0.861860;,
0.567729;0.950168;,
0.798706;0.839030;,
0.567729;0.950168;,
0.798706;0.950168;,
0.798706;0.839030;,
0.232852;0.839030;,
0.567729;0.950168;,
0.232852;0.839030;,
0.232852;0.982929;,
0.567729;0.950168;,
0.620552;0.140244;,
0.765567;0.146829;,
0.620552;0.101722;,
0.765567;0.124887;,
0.280066;0.597840;,
0.012761;0.440188;,
0.531743;0.517407;,
0.517643;0.840189;,
0.517491;0.502651;,
0.012761;0.851726;,
0.172130;0.657841;,
0.012761;0.440188;,
0.280067;0.157927;,
0.140416;0.246895;,
0.280067;0.501863;,
0.280066;0.597840;,
0.454812;0.577299;,
0.454812;0.501863;,
0.280067;0.157927;,
0.481277;0.248789;,
0.280067;0.157927;,
0.454812;0.501863;,
0.454812;0.501863;,
0.579364;0.447895;,
0.481277;0.248789;,
0.579364;0.294438;,
0.481277;0.248789;,
0.579364;0.447895;,
0.280066;0.597840;,
0.295163;0.739083;,
0.454812;0.577299;,
0.440535;0.739083;,
0.454812;0.577299;,
0.295163;0.739083;,
0.481277;0.248789;,
0.481277;0.206010;,
0.280067;0.157927;,
0.280067;0.113641;,
0.083163;0.244620;,
0.012761;0.440188;,
0.280066;0.597840;,
0.012761;0.440188;,
0.172130;0.657841;,
0.280066;0.597840;,
0.579364;0.447895;,
0.600871;0.447895;,
0.579364;0.294438;,
0.600871;0.294438;,
0.579364;0.513692;,
0.600871;0.513692;,
0.138341;0.090658;;
}
}
 }
