xof 0303txt 0032

// DirectX file generated by Ultimate Unwrap3D

// Start of Templates

template VertexDuplicationIndices {
 <b8d65549-d7c9-4995-89cf-53a9a8b031e3>
 DWORD nIndices;
 DWORD nOriginalVertices;
 array DWORD indices[nIndices];
}

template FVFData {
 <b6e70a0e-8ef9-4e83-94ad-ecc8b0c04897>
 DWORD dwFVF;
 DWORD nDWords;
 array DWORD data[nDWords];
}

template Header {
 <3D82AB43-62DA-11cf-AB39-0020AF71E433>
 WORD major;
 WORD minor;
 DWORD flags;
}

template Vector {
 <3D82AB5E-62DA-11cf-AB39-0020AF71E433>
 FLOAT x;
 FLOAT y;
 FLOAT z;
}

template Coords2d {
 <F6F23F44-7686-11cf-8F52-0040333594A3>
 FLOAT u;
 FLOAT v;
}

template Matrix4x4 {
 <F6F23F45-7686-11cf-8F52-0040333594A3>
 array FLOAT matrix[16];
}

template ColorRGBA {
 <35FF44E0-6C7C-11cf-8F52-0040333594A3>
 FLOAT red;
 FLOAT green;
 FLOAT blue;
 FLOAT alpha;
}

template ColorRGB {
 <D3E16E81-7835-11cf-8F52-0040333594A3>
 FLOAT red;
 FLOAT green;
 FLOAT blue;
}

template IndexedColor {
 <1630B820-7842-11cf-8F52-0040333594A3>
 DWORD index;
 ColorRGBA indexColor;
}

template Material {
 <3D82AB4D-62DA-11cf-AB39-0020AF71E433>
 ColorRGBA faceColor;
 FLOAT power;
 ColorRGB specularColor;
 ColorRGB emissiveColor;
 [...]
}

template TextureFilename {
 <A42790E1-7810-11cf-8F52-0040333594A3>
 STRING filename;
}

template MeshFace {
 <3D82AB5F-62DA-11cf-AB39-0020AF71E433>
 DWORD nFaceVertexIndices;
 array DWORD faceVertexIndices[nFaceVertexIndices];
}

template MeshTextureCoords {
 <F6F23F40-7686-11cf-8F52-0040333594A3>
 DWORD nTextureCoords;
 array Coords2d textureCoords[nTextureCoords];
}

template MeshMaterialList {
 <F6F23F42-7686-11cf-8F52-0040333594A3>
 DWORD nMaterials;
 DWORD nFaceIndexes;
 array DWORD faceIndexes[nFaceIndexes];
 [Material]
}

template MeshNormals {
 <F6F23F43-7686-11cf-8F52-0040333594A3>
 DWORD nNormals;
 array Vector normals[nNormals];
 DWORD nFaceNormals;
 array MeshFace faceNormals[nFaceNormals];
}

template MeshVertexColors {
 <1630B821-7842-11cf-8F52-0040333594A3>
 DWORD nVertexColors;
 array IndexedColor vertexColors[nVertexColors];
}

template Mesh {
 <3D82AB44-62DA-11cf-AB39-0020AF71E433>
 DWORD nVertices;
 array Vector vertices[nVertices];
 DWORD nFaces;
 array MeshFace faces[nFaces];
 [...]
}

template FrameTransformMatrix {
 <F6F23F41-7686-11cf-8F52-0040333594A3>
 Matrix4x4 frameMatrix;
}

template Frame {
 <3D82AB46-62DA-11cf-AB39-0020AF71E433>
 [...]
}

template FloatKeys {
 <10DD46A9-775B-11cf-8F52-0040333594A3>
 DWORD nValues;
 array FLOAT values[nValues];
}

template TimedFloatKeys {
 <F406B180-7B3B-11cf-8F52-0040333594A3>
 DWORD time;
 FloatKeys tfkeys;
}

template AnimationKey {
 <10DD46A8-775B-11cf-8F52-0040333594A3>
 DWORD keyType;
 DWORD nKeys;
 array TimedFloatKeys keys[nKeys];
}

template AnimationOptions {
 <E2BF56C0-840F-11cf-8F52-0040333594A3>
 DWORD openclosed;
 DWORD positionquality;
}

template Animation {
 <3D82AB4F-62DA-11cf-AB39-0020AF71E433>
 [...]
}

template AnimationSet {
 <3D82AB50-62DA-11cf-AB39-0020AF71E433>
 [Animation]
}

// Start of Frames

Frame Body {
   FrameTransformMatrix {
    1.000000, 0.000000, 0.000000, 0.000000,
    0.000000, 1.000000, 0.000000, 0.000000,
    0.000000, 0.000000, 1.000000, 0.000000,
    0.000000, 0.000000, 0.000000, 1.000000;;
   }

   Mesh staticMesh {
    356;
    1.794854; 0.012795; -0.664979;,
    -4.743536; 0.012794; 0.977232;,
    -1.766201; 0.012795; -0.664979;,
    -1.149214; 0.012793; 7.645214;,
    -1.007643; 0.012793; 6.539212;,
    1.052616; 0.012793; 6.539212;,
    1.194190; 0.012793; 7.645214;,
    1.052703; 0.025222; 6.537268;,
    4.772189; 0.012794; 0.977232;,
    4.259373; 0.012794; 3.900664;,
    -4.230721; 0.012794; 3.900664;,
    3.426947; 0.012793; 5.740524;,
    1.036296; 0.012793; 6.539212;,
    -1.007737; 0.025222; 6.537268;,
    -3.398294; 0.012793; 5.740523;,
    3.426947; 0.012793; 5.740524;,
    1.257204; 0.012793; 8.264928;,
    1.036296; 0.012793; 6.539212;,
    -1.228550; 0.012793; 8.264928;,
    -0.808078; 1.572307; 4.417402;,
    -0.351785; 1.102805; 5.146589;,
    -0.268129; 1.572307; 4.664418;,
    -1.295923; 1.572307; 3.881270;,
    -1.672256; 1.102617; 4.140720;,
    -1.045358; 1.102748; 4.829474;,
    -1.461671; 1.572307; 3.241518;,
    -1.885384; 1.102479; 3.318669;,
    -0.870582; 1.560598; 1.233381;,
    0.899234; 1.560598; 1.233381;,
    0.554713; 1.560598; -1.444692;,
    -1.304010; 1.572308; 1.520266;,
    -1.683000; 1.102091; 1.106744;,
    -0.938363; 1.572308; 1.241191;,
    -1.213194; 1.102028; 0.748011;,
    1.490323; 1.572307; 3.241519;,
    1.324577; 1.572307; 3.881270;,
    1.700909; 1.102617; 4.140720;,
    1.914037; 1.102479; 3.318669;,
    0.836731; 1.572307; 4.417402;,
    1.074011; 1.102748; 4.829474;,
    1.332663; 1.572308; 1.520266;,
    1.711653; 1.102091; 1.106744;,
    0.296782; 1.572307; 4.664418;,
    0.380439; 1.102805; 5.146589;,
    0.967016; 1.572308; 1.241191;,
    1.241847; 1.102028; 0.748011;,
    4.259373; 0.012794; 3.900664;,
    3.801599; 0.705716; 0.965947;,
    3.393818; 0.699471; 3.575969;,
    -0.526061; 1.560598; -1.444692;,
    0.918549; 0.787420; -1.637466;,
    1.205865; 0.787419; 1.230585;,
    1.257204; 0.012793; 8.264928;,
    1.159203; 0.663603; 7.174466;,
    1.042685; 0.927447; 6.394091;,
    1.036296; 0.012793; 6.539212;,
    4.772189; 0.012794; 0.977232;,
    1.794854; 0.012795; -0.664979;,
    1.428391; 0.668920; -0.532825;,
    2.449479; 0.681630; 5.668124;,
    3.426947; 0.012793; 5.740524;,
    1.362893; 1.148851; 4.771073;,
    2.168322; 1.146031; 2.845493;,
    2.428934; 1.134284; 0.930254;,
    0.912230; 1.096180; -0.156111;,
    -2.416604; 1.134284; 0.930254;,
    -1.766201; 0.012795; -0.664979;,
    -4.743536; 0.012794; 0.977232;,
    -3.772947; 0.705716; 0.965948;,
    -1.399739; 0.668920; -0.532824;,
    -1.228550; 0.012793; 8.264928;,
    -1.007643; 0.012793; 6.539212;,
    -1.014032; 0.927447; 6.394091;,
    -1.130549; 0.663603; 7.174465;,
    -2.400282; 1.134284; 0.930254;,
    -0.883578; 1.096180; -0.156111;,
    -3.365165; 0.699471; 3.575969;,
    -2.139669; 1.146031; 2.845493;,
    -2.420826; 0.681630; 5.668124;,
    -1.334240; 1.148851; 4.771073;,
    -3.398294; 0.012793; 5.740523;,
    -4.230721; 0.012794; 3.900664;,
    -0.889897; 0.787420; -1.637466;,
    -1.177213; 0.787419; 1.230586;,
    2.184657; 1.146031; 2.845493;,
    2.445257; 1.134284; 0.930254;,
    1.379216; 1.148851; 4.771073;,
    1.059003; 0.927447; 6.394091;,
    0.890238; -1.677833; 1.221544;,
    2.202440; -1.086233; -0.026130;,
    2.120481; -1.148568; 2.007015;,
    1.208603; -0.468107; -5.420200;,
    -1.179951; -0.468107; -5.420201;,
    -1.095832; -0.236477; -6.453942;,
    -0.861585; -1.677833; 1.221544;,
    -2.173788; -1.086233; -0.026130;,
    -0.825444; -1.687978; -0.319040;,
    0.918549; 0.787420; -1.637466;,
    -0.889897; 0.787420; -1.637466;,
    -0.526061; 1.560598; -1.444692;,
    -2.091829; -1.148568; 2.007015;,
    1.124483; -0.236477; -6.453941;,
    -0.863543; -0.024851; -7.736745;,
    0.765726; 0.106620; -8.050893;,
    0.554713; 1.560598; -1.444692;,
    1.285581; -0.920945; -4.583599;,
    -1.256929; -0.920945; -4.583599;,
    1.488390; -0.877211; -4.041934;,
    1.799972; -0.563086; -3.469244;,
    2.349391; -0.769417; 0.576375;,
    -1.459739; -0.877211; -4.041934;,
    -1.771320; -0.563086; -3.469245;,
    -2.320739; -0.769417; 0.576375;,
    2.276669; -0.750289; 2.242056;,
    1.714632; -0.207760; 3.362162;,
    1.920640; -0.746321; 3.003107;,
    1.655748; 0.164366; -2.037493;,
    1.834597; 0.258844; 0.856151;,
    1.367632; 0.106252; -4.328507;,
    -1.338980; 0.106252; -4.328508;,
    -0.737075; 0.106620; -8.050894;,
    -2.248016; -0.750289; 2.242056;,
    -1.685979; -0.207760; 3.362162;,
    -1.805944; 0.258844; 0.856151;,
    -1.891986; -0.746321; 3.003106;,
    -1.627096; 0.164366; -2.037493;,
    1.158062; 0.963968; 0.548883;,
    0.961887; 0.535294; -3.750988;,
    0.485403; 0.707089; -7.237389;,
    1.655748; 0.164366; -2.037493;,
    1.367632; 0.106252; -4.328507;,
    -0.933235; 0.535294; -3.750988;,
    -0.737075; 0.106620; -8.050894;,
    -1.038025; 0.106435; -6.189672;,
    -1.338980; 0.106252; -4.328508;,
    -1.627096; 0.164366; -2.037493;,
    -1.805944; 0.258844; 0.856151;,
    -1.129410; 0.963968; 0.548883;,
    -0.390017; 0.602981; -6.738434;,
    -0.608984; 1.018694; -1.404611;,
    -0.333136; 0.930951; -6.239733;,
    -0.718273; 0.602980; -1.408477;,
    -0.456751; 0.707089; -7.237389;,
    -1.177213; 0.787419; 1.230586;,
    0.918549; 0.787420; -1.637466;,
    1.205865; 0.787419; 1.230585;,
    -0.889897; 0.787420; -1.637466;,
    0.988256; 0.399502; 3.821281;,
    1.714632; -0.207760; 3.362162;,
    1.834597; 0.258844; 0.856151;,
    0.765726; 0.106620; -8.050893;,
    0.418668; 0.602981; -6.738434;,
    0.637636; 1.018694; -1.404611;,
    0.746925; 0.602980; -1.408477;,
    0.361788; 0.930951; -6.239733;,
    1.066676; 0.106435; -6.189672;,
    -0.959603; 0.399502; 3.821281;,
    -1.685979; -0.207760; 3.362162;,
    -1.570098; -1.155539; 2.691019;,
    -0.813696; -1.497730; 2.277025;,
    -1.045090; -1.116623; -4.416507;,
    -0.561647; -1.234368; -4.328738;,
    1.073741; -1.116623; -4.416506;,
    0.854096; -1.687978; -0.319040;,
    0.590299; -1.234368; -4.328738;,
    0.842348; -1.497730; 2.277025;,
    1.598751; -1.155539; 2.691019;,
    0.751357; -1.347237; 2.591299;,
    -0.722705; -1.347237; 2.591299;,
    3.643375; 2.253575; -7.037248;,
    3.175502; 1.656477; -7.037248;,
    3.644571; 2.249905; -4.555634;,
    -3.972111; 1.597880; -2.058538;,
    -4.157389; 1.315023; -3.704009;,
    -3.603830; 1.597880; -2.058538;,
    -3.942284; 2.253575; -7.037248;,
    -4.410157; 1.656477; -7.037248;,
    -3.941087; 2.249905; -4.555634;,
    3.691722; 2.105083; -9.919660;,
    3.465389; 1.656477; -10.792014;,
    -3.893937; 2.105083; -9.919660;,
    -4.120270; 1.656477; -10.792014;,
    -3.436738; 1.656477; -10.792014;,
    -3.663071; 2.105083; -9.919660;,
    -3.614724; 2.253575; -7.037248;,
    -3.146851; 1.656477; -7.037248;,
    -3.615920; 2.249905; -4.555634;,
    4.148921; 1.656477; -10.792014;,
    3.922588; 2.105083; -9.919660;,
    3.970935; 2.253575; -7.037248;,
    4.438808; 1.656477; -7.037248;,
    3.969738; 2.249905; -4.555634;,
    3.644571; 2.249905; -4.555634;,
    3.180333; 1.656476; -4.555635;,
    3.646562; 2.246236; -3.704009;,
    3.187523; 1.656476; -3.704010;,
    -3.941087; 2.249905; -4.555634;,
    -4.405325; 1.656476; -4.555634;,
    -3.939890; 2.246236; -3.704009;,
    -4.400505; 1.656476; -3.704009;,
    0.988256; 0.399502; 3.821281;,
    -0.959603; 0.399502; 3.821281;,
    -1.162040; -0.236725; 3.090875;,
    1.190693; -0.236725; 3.090875;,
    -1.708387; -0.546304; 3.111235;,
    1.737040; -0.546304; 3.111236;,
    1.920640; -0.746321; 3.003107;,
    1.714632; -0.207760; 3.362162;,
    -1.685979; -0.207760; 3.362162;,
    -1.891986; -0.746321; 3.003106;,
    -3.972111; 1.653991; -2.058538;,
    -3.603830; 1.653991; -2.058538;,
    -3.959825; 2.246489; -3.704158;,
    -3.625168; 2.246489; -3.704158;,
    3.632483; 1.653991; -2.058538;,
    4.000763; 1.597880; -2.058538;,
    3.988478; 2.246489; -3.704159;,
    -4.045512; 1.585067; -8.673793;,
    -3.556139; 1.585067; -8.673793;,
    -4.163199; 1.307695; -5.940148;,
    3.653821; 2.246489; -3.704159;,
    -4.410157; 1.656476; -5.940148;,
    -3.455142; 1.315023; -3.704009;,
    -3.449898; 1.307695; -5.940148;,
    -4.400505; 1.656476; -3.704009;,
    -3.444318; 1.656984; -10.792014;,
    -3.148967; 1.656476; -5.940148;,
    3.584790; 1.585067; -8.673791;,
    4.074163; 1.585067; -8.673791;,
    4.191850; 1.307695; -5.940148;,
    3.478549; 1.307695; -5.940148;,
    4.186042; 1.315023; -3.704009;,
    3.483794; 1.315023; -3.704009;,
    4.438808; 1.656476; -5.940148;,
    4.429158; 1.656476; -3.704009;,
    3.472970; 1.656984; -10.792014;,
    3.177619; 1.656476; -5.940148;,
    3.642259; 1.399895; -4.382353;,
    3.219386; 1.173504; -4.595078;,
    3.240298; 1.179566; -6.260449;,
    3.698728; 1.414722; -7.041722;,
    3.456601; 1.496503; -7.045622;,
    2.956323; 1.158439; -5.903500;,
    2.956323; 1.098776; -5.903500;,
    3.411210; 1.475213; -4.387253;,
    -3.382558; 1.475213; -4.387253;,
    -3.613608; 1.399895; -4.382353;,
    -3.190734; 1.173504; -4.595078;,
    -3.211647; 1.179566; -6.260449;,
    -2.927672; 1.098776; -5.903499;,
    -3.427949; 1.496509; -7.045622;,
    -3.670076; 1.414722; -7.041722;,
    3.968543; 2.246236; -3.704009;,
    4.429158; 1.656476; -3.704009;,
    4.433977; 1.656476; -4.555634;,
    -3.156501; 1.656476; -3.704009;,
    4.000763; 1.597880; -2.058538;,
    3.632483; 1.597880; -2.058539;,
    3.187523; 1.656476; -3.704010;,
    -4.120270; 1.656477; -10.792014;,
    4.148921; 1.656477; -10.792014;,
    -3.669570; 2.105083; -9.919660;,
    -3.444318; 1.656984; -10.792014;,
    -3.893937; 2.105083; -9.919660;,
    -4.120270; 1.656477; -10.792014;,
    3.472970; 1.656984; -10.792014;,
    3.698221; 2.105083; -9.919660;,
    3.922588; 2.105083; -9.919660;,
    4.148921; 1.656477; -10.792014;,
    -3.669570; 2.105083; -9.919660;,
    -3.893937; 2.105083; -9.919660;,
    -3.615230; 2.253575; -5.940148;,
    -3.942284; 2.253575; -5.940148;,
    -3.617116; 2.246236; -3.704009;,
    -3.939890; 2.246236; -3.704009;,
    3.643882; 2.253575; -5.940147;,
    3.970935; 2.253575; -5.940147;,
    3.646562; 2.246236; -3.704009;,
    3.968543; 2.246236; -3.704009;,
    -2.908290; 2.401757; -7.097764;,
    -3.518972; 2.063787; -6.916511;,
    -3.520100; 1.998082; -8.384595;,
    -2.943627; 2.455752; -7.921679;,
    -4.037299; 1.998082; -8.384595;,
    -4.044787; 2.063787; -6.916511;,
    -4.655482; 2.401757; -7.097764;,
    -4.620144; 2.455752; -7.921679;,
    3.547624; 2.063787; -6.916512;,
    2.936941; 2.401757; -7.097765;,
    3.548752; 1.998082; -8.384594;,
    2.972278; 2.455752; -7.921679;,
    4.073438; 2.063787; -6.916512;,
    4.065950; 1.998082; -8.384594;,
    4.684133; 2.401757; -7.097764;,
    4.648796; 2.455752; -7.921679;,
    1.706660; 0.891810; -3.252114;,
    1.706660; 0.832150; -3.252114;,
    1.067385; 0.651592; -4.826841;,
    0.805140; 0.637211; -4.779276;,
    0.992099; 0.689990; -1.742405;,
    0.805140; 0.577548; -4.779276;,
    0.992099; 0.630329; -1.742405;,
    3.969738; 2.249905; -4.555634;,
    -3.617116; 2.246236; -3.704009;,
    -3.156501; 1.656476; -3.704009;,
    -3.151682; 1.656476; -4.555634;,
    -3.615920; 2.249905; -4.555634;,
    -0.776489; 0.577549; -4.779276;,
    -0.963447; 0.689990; -1.742405;,
    -1.678008; 0.832150; -3.252114;,
    -1.038733; 0.651592; -4.826842;,
    -0.360132; 0.519611; -4.878110;,
    -1.236085; -0.820594; 2.752928;,
    -1.497640; -0.967131; 2.815631;,
    -0.782545; -1.186160; 2.711195;,
    1.052703; 0.025222; 6.537268;,
    -1.014032; 0.927447; 6.394091;,
    -1.007737; 0.025222; 6.537268;,
    1.190693; -0.236725; 3.090875;,
    1.264738; -0.820594; 2.752928;,
    1.737040; -0.546304; 3.111236;,
    1.526293; -0.967131; 2.815631;,
    1.920640; -0.746321; 3.003107;,
    1.598751; -1.155539; 2.691019;,
    0.811190; -1.186160; 2.711195;,
    0.751357; -1.347237; 2.591299;,
    -1.891986; -0.746321; 3.003106;,
    -1.570098; -1.155539; 2.691019;,
    -0.722705; -1.347237; 2.591299;,
    3.969738; 2.249905; -4.555634;,
    4.433977; 1.656476; -4.555634;,
    4.438808; 1.656477; -7.037248;,
    -3.615920; 2.249905; -4.555634;,
    -3.151682; 1.656476; -4.555634;,
    -3.146851; 1.656477; -7.037248;,
    -4.405325; 1.656476; -4.555634;,
    -3.941087; 2.249905; -4.555634;,
    -4.410157; 1.656477; -7.037248;,
    3.180333; 1.656476; -4.555635;,
    3.644571; 2.249905; -4.555634;,
    3.175502; 1.656477; -7.037248;,
    -1.162040; -0.236725; 3.090875;,
    -1.708387; -0.546304; 3.111235;,
    -3.603830; 1.653991; -2.058538;,
    -3.156501; 1.656476; -3.704009;,
    -3.625168; 2.246489; -3.704158;,
    3.988478; 2.246489; -3.704159;,
    4.000763; 1.597880; -2.058538;,
    4.429158; 1.656476; -3.704009;,
    -3.972111; 1.653991; -2.058538;,
    -3.959825; 2.246489; -3.704158;,
    -4.400505; 1.656476; -3.704009;,
    3.187523; 1.656476; -3.704010;,
    3.632483; 1.653991; -2.058538;,
    3.653821; 2.246489; -3.704159;,
    1.059003; 0.927447; 6.394091;;
    365;
    3;0, 1, 2;,
    3;3, 4, 5;,
    3;3, 5, 6;,
    3;3, 6, 7;,
    3;3, 7, 4;,
    3;8, 9, 10;,
    3;8, 10, 1;,
    3;11, 12, 13;,
    3;11, 13, 14;,
    3;15, 16, 17;,
    3;14, 4, 18;,
    3;10, 9, 11;,
    3;10, 11, 14;,
    3;0, 8, 1;,
    3;19, 20, 21;,
    3;22, 23, 24;,
    3;22, 24, 19;,
    3;25, 26, 23;,
    3;27, 28, 29;,
    3;30, 31, 26;,
    3;30, 26, 25;,
    3;19, 24, 20;,
    3;25, 23, 22;,
    3;31, 30, 32;,
    3;31, 32, 33;,
    3;34, 35, 36;,
    3;34, 36, 37;,
    3;35, 38, 39;,
    3;35, 39, 36;,
    3;40, 34, 37;,
    3;40, 37, 41;,
    3;38, 42, 43;,
    3;38, 43, 39;,
    3;20, 43, 42;,
    3;20, 42, 21;,
    3;19, 21, 42;,
    3;19, 42, 38;,
    3;22, 19, 38;,
    3;22, 38, 35;,
    3;25, 22, 35;,
    3;25, 35, 34;,
    3;25, 34, 40;,
    3;25, 40, 30;,
    3;32, 44, 45;,
    3;32, 45, 33;,
    3;30, 40, 44;,
    3;30, 44, 32;,
    3;41, 45, 44;,
    3;41, 44, 40;,
    3;46, 47, 48;,
    3;27, 29, 49;,
    3;50, 29, 28;,
    3;50, 28, 51;,
    3;52, 53, 54;,
    3;52, 54, 55;,
    3;46, 56, 47;,
    3;57, 58, 47;,
    3;46, 48, 59;,
    3;46, 59, 60;,
    3;60, 59, 53;,
    3;60, 53, 52;,
    3;59, 61, 54;,
    3;59, 54, 53;,
    3;62, 61, 59;,
    3;62, 59, 48;,
    3;63, 62, 48;,
    3;63, 48, 47;,
    3;58, 64, 63;,
    3;58, 63, 47;,
    3;57, 47, 56;,
    3;63, 64, 65;,
    3;66, 67, 68;,
    3;66, 68, 69;,
    3;70, 71, 72;,
    3;70, 72, 73;,
    3;69, 68, 74;,
    3;69, 74, 75;,
    3;74, 68, 76;,
    3;74, 76, 77;,
    3;77, 76, 78;,
    3;77, 78, 79;,
    3;78, 73, 72;,
    3;78, 72, 79;,
    3;80, 70, 73;,
    3;80, 73, 78;,
    3;81, 80, 78;,
    3;81, 78, 76;,
    3;81, 76, 68;,
    3;81, 68, 67;,
    3;82, 83, 27;,
    3;82, 27, 49;,
    3;84, 85, 74;,
    3;84, 74, 77;,
    3;79, 86, 84;,
    3;79, 84, 77;,
    3;72, 87, 86;,
    3;72, 86, 79;,
    3;74, 85, 75;,
    3;88, 89, 90;,
    3;91, 92, 93;,
    3;94, 95, 96;,
    3;97, 98, 99;,
    3;94, 100, 95;,
    3;101, 93, 102;,
    3;101, 102, 103;,
    3;97, 99, 104;,
    3;91, 93, 101;,
    3;105, 106, 92;,
    3;105, 92, 91;,
    3;91, 107, 105;,
    3;107, 108, 109;,
    3;91, 108, 107;,
    3;92, 110, 111;,
    3;92, 106, 110;,
    3;110, 112, 111;,
    3;113, 114, 115;,
    3;108, 116, 117;,
    3;108, 117, 109;,
    3;118, 116, 108;,
    3;91, 118, 108;,
    3;101, 103, 118;,
    3;117, 113, 109;,
    3;113, 117, 114;,
    3;101, 118, 91;,
    3;119, 120, 102;,
    3;93, 92, 119;,
    3;121, 122, 123;,
    3;123, 112, 121;,
    3;121, 124, 122;,
    3;93, 119, 102;,
    3;92, 111, 119;,
    3;119, 111, 125;,
    3;111, 112, 123;,
    3;113, 89, 109;,
    3;126, 127, 128;,
    3;126, 129, 130;,
    3;131, 132, 133;,
    3;131, 132, 134;,
    3;135, 136, 137;,
    3;131, 134, 137;,
    3;138, 139, 140;,
    3;138, 141, 139;,
    3;137, 142, 131;,
    3;132, 131, 142;,
    3;143, 144, 145;,
    3;143, 146, 144;,
    3;147, 148, 149;,
    3;150, 128, 127;,
    3;151, 152, 153;,
    3;151, 154, 152;,
    3;127, 126, 130;,
    3;129, 126, 149;,
    3;127, 130, 150;,
    3;127, 155, 150;,
    3;128, 132, 142;,
    3;128, 150, 132;,
    3;128, 137, 126;,
    3;128, 142, 137;,
    3;154, 139, 152;,
    3;154, 140, 139;,
    3;151, 140, 154;,
    3;151, 138, 140;,
    3;156, 136, 157;,
    3;100, 158, 124;,
    3;100, 124, 121;,
    3;121, 95, 100;,
    3;121, 112, 95;,
    3;110, 95, 112;,
    3;111, 123, 125;,
    3;113, 90, 89;,
    3;159, 100, 94;,
    3;159, 158, 100;,
    3;160, 161, 96;,
    3;96, 95, 160;,
    3;95, 106, 160;,
    3;95, 110, 106;,
    3;89, 105, 107;,
    3;89, 162, 105;,
    3;163, 162, 89;,
    3;162, 163, 164;,
    3;165, 90, 166;,
    3;165, 88, 90;,
    3;162, 161, 160;,
    3;88, 163, 89;,
    3;107, 109, 89;,
    3;137, 134, 135;,
    3;105, 160, 106;,
    3;90, 113, 115;,
    3;90, 115, 166;,
    3;167, 165, 166;,
    3;168, 158, 159;,
    3;165, 94, 88;,
    3;165, 159, 94;,
    3;161, 164, 163;,
    3;162, 164, 161;,
    3;88, 96, 163;,
    3;105, 162, 160;,
    3;161, 163, 96;,
    3;167, 168, 159;,
    3;88, 94, 96;,
    3;167, 159, 165;,
    3;102, 120, 103;,
    3;169, 170, 171;,
    3;172, 173, 174;,
    3;175, 176, 177;,
    3;178, 179, 169;,
    3;170, 169, 179;,
    3;180, 181, 175;,
    3;176, 175, 181;,
    3;182, 183, 184;,
    3;184, 185, 182;,
    3;185, 184, 186;,
    3;187, 188, 189;,
    3;189, 190, 187;,
    3;190, 189, 191;,
    3;192, 193, 194;,
    3;195, 194, 193;,
    3;196, 197, 198;,
    3;199, 198, 197;,
    3;200, 201, 202;,
    3;200, 202, 203;,
    3;202, 201, 204;,
    3;203, 205, 200;,
    3;205, 206, 207;,
    3;200, 205, 207;,
    3;201, 208, 204;,
    3;204, 208, 209;,
    3;210, 211, 212;,
    3;212, 211, 213;,
    3;214, 215, 216;,
    3;217, 218, 219;,
    3;214, 216, 220;,
    3;219, 221, 217;,
    3;222, 173, 223;,
    3;223, 219, 218;,
    3;219, 223, 173;,
    3;221, 219, 224;,
    3;173, 224, 219;,
    3;218, 225, 223;,
    3;226, 223, 225;,
    3;223, 226, 222;,
    3;227, 228, 229;,
    3;229, 230, 227;,
    3;230, 229, 231;,
    3;231, 232, 230;,
    3;233, 229, 228;,
    3;229, 233, 234;,
    3;234, 231, 229;,
    3;235, 227, 230;,
    3;230, 236, 235;,
    3;236, 230, 232;,
    3;237, 238, 239;,
    3;237, 239, 240;,
    3;241, 240, 239;,
    3;239, 242, 238;,
    3;239, 238, 243;,
    3;242, 239, 243;,
    3;244, 239, 238;,
    3;244, 238, 237;,
    3;244, 241, 239;,
    3;245, 246, 247;,
    3;245, 247, 248;,
    3;248, 249, 247;,
    3;248, 247, 249;,
    3;250, 248, 251;,
    3;246, 251, 248;,
    3;246, 248, 247;,
    3;245, 248, 250;,
    3;173, 172, 224;,
    3;252, 253, 254;,
    3;174, 173, 222;,
    3;255, 174, 222;,
    3;255, 222, 226;,
    3;256, 231, 234;,
    3;231, 256, 257;,
    3;231, 257, 232;,
    3;257, 258, 232;,
    3;232, 258, 236;,
    3;225, 218, 259;,
    3;217, 259, 218;,
    3;259, 217, 221;,
    3;260, 228, 227;,
    3;228, 260, 233;,
    3;227, 235, 260;,
    3;261, 262, 263;,
    3;264, 263, 262;,
    3;265, 266, 267;,
    3;267, 268, 265;,
    3;269, 270, 271;,
    3;272, 271, 270;,
    3;271, 272, 273;,
    3;274, 273, 272;,
    3;267, 266, 275;,
    3;275, 276, 267;,
    3;276, 275, 277;,
    3;277, 278, 276;,
    3;279, 280, 281;,
    3;281, 282, 279;,
    3;280, 279, 282;,
    3;282, 281, 280;,
    3;283, 284, 285;,
    3;285, 286, 283;,
    3;286, 285, 284;,
    3;284, 283, 286;,
    3;287, 288, 289;,
    3;290, 289, 288;,
    3;288, 287, 290;,
    3;289, 290, 287;,
    3;291, 292, 293;,
    3;294, 293, 292;,
    3;293, 294, 291;,
    3;292, 291, 294;,
    3;295, 296, 238;,
    3;297, 298, 299;,
    3;297, 299, 295;,
    3;300, 297, 296;,
    3;300, 296, 301;,
    3;242, 297, 295;,
    3;242, 295, 238;,
    3;243, 297, 242;,
    3;297, 243, 296;,
    3;254, 302, 252;,
    3;303, 304, 305;,
    3;305, 306, 303;,
    3;307, 308, 309;,
    3;310, 309, 308;,
    3;307, 309, 310;,
    3;249, 309, 310;,
    3;249, 247, 309;,
    3;310, 247, 249;,
    3;310, 309, 247;,
    3;310, 308, 307;,
    3;307, 308, 311;,
    3;308, 307, 311;,
    3;243, 238, 296;,
    3;312, 313, 314;,
    3;315, 316, 317;,
    3;318, 319, 320;,
    3;320, 321, 322;,
    3;320, 319, 321;,
    3;323, 324, 325;,
    3;323, 321, 324;,
    3;313, 326, 327;,
    3;321, 323, 322;,
    3;319, 312, 314;,
    3;324, 328, 325;,
    3;324, 314, 328;,
    3;329, 330, 331;,
    3;332, 333, 334;,
    3;335, 336, 337;,
    3;338, 339, 340;,
    3;341, 342, 312;,
    3;342, 326, 313;,
    3;342, 313, 312;,
    3;327, 328, 314;,
    3;327, 314, 313;,
    3;319, 341, 312;,
    3;343, 344, 345;,
    3;346, 347, 348;,
    3;349, 350, 351;,
    3;352, 353, 354;,
    3;315, 355, 316;,
    3;319, 324, 321;,
    3;319, 318, 341;,
    3;319, 314, 324;;

   MeshNormals {
    356;
    -0.000000; -1.000000; -0.000000;,
    -0.000000; -1.000000; -0.000000;,
    -0.000000; -1.000000; -0.000000;,
    -0.500151; -0.006755; 0.865912;,
    -0.006033; -0.999982; -0.000772;,
    0.000000; -1.000000; -0.000000;,
    0.000000; -0.005606; 0.999984;,
    -0.003017; 0.999982; 0.005223;,
    -0.000000; -1.000000; -0.000000;,
    -0.000000; -1.000000; -0.000000;,
    -0.000000; -1.000000; -0.000000;,
    -0.001516; -0.999999; -0.000637;,
    -0.006062; -0.999817; -0.018146;,
    -0.003032; -0.999995; -0.001274;,
    0.000000; -0.999986; 0.005199;,
    -0.000000; -1.000000; -0.000000;,
    -0.000000; -1.000000; -0.000000;,
    -0.000000; -1.000000; -0.000000;,
    0.000000; -1.000000; -0.000000;,
    -0.202414; 0.925702; 0.319536;,
    -0.148123; 0.721291; 0.676609;,
    -0.105152; 0.870818; 0.480228;,
    -0.324135; 0.922356; 0.210228;,
    -0.662912; 0.690725; 0.288871;,
    -0.456728; 0.705904; 0.541386;,
    -0.339902; 0.939277; 0.047166;,
    -0.741212; 0.671074; 0.016229;,
    -0.540654; 0.838980; -0.061696;,
    0.704732; 0.704901; -0.080420;,
    0.340777; 0.939121; -0.043839;,
    -0.344677; 0.931186; -0.118699;,
    -0.529323; 0.759384; -0.378354;,
    -0.165806; 0.843992; -0.510084;,
    -0.200071; 0.762352; -0.615460;,
    0.475673; 0.877142; 0.066006;,
    0.324135; 0.922356; 0.210228;,
    0.662912; 0.690726; 0.288871;,
    0.741212; 0.671074; 0.016229;,
    0.202414; 0.925703; 0.319536;,
    0.456728; 0.705904; 0.541386;,
    0.344677; 0.931186; -0.118699;,
    0.529323; 0.759384; -0.378355;,
    0.063345; 0.895698; 0.440127;,
    0.197248; 0.719286; 0.666123;,
    0.167966; 0.914373; -0.368389;,
    0.133021; 0.753248; -0.644145;,
    0.564581; 0.807029; 0.173070;,
    0.487766; 0.813109; -0.317707;,
    0.411626; 0.904148; 0.114369;,
    -0.521928; 0.850343; -0.067143;,
    0.907462; 0.407173; -0.103555;,
    0.925449; 0.367354; -0.092710;,
    -0.754872; 0.525384; 0.392608;,
    0.106332; 0.890381; 0.442623;,
    -0.523992; 0.797833; 0.298153;,
    -0.991543; 0.027064; 0.126927;,
    0.546801; 0.760202; -0.350859;,
    0.442302; 0.488859; -0.751921;,
    0.371856; 0.717918; -0.588487;,
    0.390879; 0.889843; 0.235359;,
    0.504812; 0.782972; 0.363482;,
    0.281066; 0.947414; 0.153001;,
    0.298661; 0.949325; 0.097895;,
    0.253687; 0.949502; -0.184629;,
    0.169190; 0.948032; -0.269463;,
    -0.000000; 0.999385; -0.035053;,
    -0.442302; 0.488859; -0.751921;,
    -0.546801; 0.760202; -0.350859;,
    -0.487766; 0.813109; -0.317707;,
    -0.371856; 0.717918; -0.588487;,
    0.754871; 0.525384; 0.392608;,
    0.991543; 0.027064; 0.126926;,
    0.311666; 0.919879; 0.238090;,
    -0.106332; 0.890381; 0.442623;,
    -0.180959; 0.974385; -0.133521;,
    -0.169190; 0.948032; -0.269463;,
    -0.411625; 0.904148; 0.114369;,
    -0.181352; 0.981712; 0.057904;,
    -0.390879; 0.889843; 0.235359;,
    -0.113810; 0.989531; 0.088742;,
    -0.504812; 0.782972; 0.363482;,
    -0.564581; 0.807029; 0.173070;,
    -0.907461; 0.407173; -0.103555;,
    -0.925449; 0.367355; -0.092710;,
    -0.000000; 0.999993; -0.003799;,
    -0.000000; 0.999788; -0.020595;,
    0.000000; 0.995959; 0.089808;,
    0.000000; 0.990823; 0.135163;,
    0.187977; -0.980467; 0.057870;,
    0.695768; -0.714850; -0.069971;,
    0.577806; -0.788636; 0.210225;,
    0.687107; -0.637833; -0.347926;,
    -0.682643; -0.615807; -0.393421;,
    -0.553861; -0.797870; -0.237994;,
    -0.188053; -0.978435; 0.085442;,
    -0.695768; -0.714850; -0.069971;,
    -0.177878; -0.982458; -0.056006;,
    -0.000000; 0.241922; -0.970296;,
    0.000000; 0.241922; -0.970296;,
    -0.000000; 0.241922; -0.970296;,
    -0.577806; -0.788635; 0.210225;,
    0.566621; -0.786920; -0.244332;,
    -0.593374; -0.726175; -0.347243;,
    0.482509; -0.793484; -0.370902;,
    -0.000000; 0.241921; -0.970296;,
    0.324762; -0.809256; -0.489524;,
    -0.455115; -0.791129; -0.408637;,
    0.856778; -0.467757; -0.217103;,
    0.978597; 0.100309; -0.179681;,
    0.995568; -0.056083; -0.075494;,
    -0.856778; -0.467758; -0.217103;,
    -0.978597; 0.100309; -0.179680;,
    -0.995568; -0.056083; -0.075493;,
    0.978924; -0.061313; 0.194804;,
    0.899328; 0.322908; 0.294855;,
    0.796435; -0.427106; 0.428103;,
    0.922881; 0.372809; -0.096454;,
    0.893044; 0.449959; 0.003062;,
    0.961089; 0.221706; -0.164786;,
    -0.951719; 0.262843; -0.158568;,
    -0.784950; -0.391781; -0.479960;,
    -0.978924; -0.061314; 0.194805;,
    -0.899328; 0.322908; 0.294855;,
    -0.893044; 0.449959; 0.003062;,
    -0.796435; -0.427106; 0.428103;,
    -0.922881; 0.372809; -0.096454;,
    0.614943; 0.784030; -0.084514;,
    0.737430; 0.667945; -0.100233;,
    0.329897; 0.901998; -0.278509;,
    0.699259; 0.709811; -0.084889;,
    0.652952; 0.750242; -0.103878;,
    -0.737430; 0.667945; -0.100233;,
    -0.479395; 0.812256; -0.332296;,
    -0.648336; 0.754113; -0.104757;,
    -0.652952; 0.750242; -0.103878;,
    -0.699259; 0.709811; -0.084889;,
    -0.718136; 0.694199; 0.048654;,
    -0.523616; 0.848383; -0.077927;,
    -0.788603; 0.550850; -0.273258;,
    -0.608438; 0.792086; -0.049011;,
    -0.292171; 0.887415; -0.356553;,
    -0.965290; 0.254323; -0.059449;,
    -0.498515; 0.833858; -0.236990;,
    -0.000000; -1.000000; -0.000000;,
    -0.000000; -1.000000; -0.000000;,
    -0.000000; -1.000000; -0.000000;,
    0.000000; -1.000000; -0.000000;,
    0.691685; 0.703317; 0.164065;,
    0.691685; 0.703317; 0.164065;,
    0.718137; 0.694199; 0.048654;,
    0.585756; 0.772901; -0.243954;,
    0.610981; 0.691334; -0.385694;,
    0.785866; 0.615863; -0.055914;,
    0.965291; 0.254322; -0.059450;,
    0.291885; 0.936286; -0.195375;,
    0.648336; 0.754113; -0.104757;,
    -0.691685; 0.703317; 0.164065;,
    -0.691685; 0.703317; 0.164065;,
    -0.336092; -0.865966; 0.370331;,
    -0.125124; -0.939096; 0.320067;,
    -0.228618; -0.837172; -0.496866;,
    -0.046502; -0.903982; -0.425033;,
    0.229566; -0.831081; -0.506561;,
    0.177827; -0.981105; -0.076227;,
    0.077073; -0.923999; -0.374547;,
    0.125107; -0.953189; 0.275279;,
    0.336091; -0.865966; 0.370331;,
    0.048069; -0.895388; 0.442685;,
    -0.072125; -0.891279; 0.447682;,
    -0.811963; 0.582750; -0.033451;,
    -0.786787; 0.616510; -0.029698;,
    -0.787134; 0.616781; 0.001291;,
    -0.448203; -0.871219; 0.200230;,
    -0.299232; -0.948969; 0.099593;,
    0.267358; -0.945345; 0.186664;,
    -0.811963; 0.582750; -0.033451;,
    -0.786787; 0.616509; -0.029698;,
    -0.787134; 0.616781; 0.001292;,
    -0.857935; 0.512137; -0.040774;,
    -0.823493; 0.565046; -0.050820;,
    -0.857935; 0.512138; -0.040774;,
    -0.823492; 0.565046; -0.050820;,
    0.823493; 0.565046; -0.050820;,
    0.857935; 0.512138; -0.040774;,
    0.811963; 0.582750; -0.033451;,
    0.786787; 0.616509; -0.029698;,
    0.787134; 0.616781; 0.001292;,
    0.823493; 0.565046; -0.050820;,
    0.857935; 0.512137; -0.040774;,
    0.811963; 0.582750; -0.033451;,
    0.786787; 0.616509; -0.029698;,
    0.787134; 0.616781; 0.001292;,
    -0.787616; 0.616150; 0.004496;,
    -0.788367; 0.615180; 0.005579;,
    -0.788367; 0.615180; 0.005579;,
    -0.789116; 0.614208; 0.006662;,
    -0.787618; 0.616153; 0.003762;,
    -0.787861; 0.615839; 0.004111;,
    -0.787861; 0.615839; 0.004111;,
    -0.788104; 0.615526; 0.004461;,
    -0.109123; -0.728239; 0.676579;,
    0.146349; -0.717176; 0.681352;,
    0.148778; -0.765709; 0.625743;,
    -0.223851; -0.764793; 0.604138;,
    0.209067; -0.659269; 0.722257;,
    -0.209067; -0.659269; 0.722257;,
    -0.184571; -0.593088; 0.783697;,
    -0.087425; -0.596911; 0.797530;,
    0.087425; -0.596911; 0.797530;,
    0.184572; -0.593088; 0.783696;,
    0.000000; 0.940874; 0.338757;,
    0.000000; 0.940874; 0.338757;,
    0.000000; 0.940874; 0.338757;,
    0.000000; 0.940874; 0.338757;,
    0.070381; 0.933591; 0.351360;,
    0.140398; 0.921486; 0.362149;,
    0.070381; 0.933591; 0.351360;,
    -0.309717; -0.948467; -0.066969;,
    -0.122176; -0.990192; -0.067776;,
    -0.458822; -0.886921; -0.053414;,
    0.000000; 0.940874; 0.338757;,
    -0.683147; -0.729280; -0.038216;,
    0.493991; -0.865920; 0.078456;,
    0.177511; -0.983401; -0.037593;,
    -0.813375; -0.578049; 0.065434;,
    0.066937; -0.996173; -0.056201;,
    0.755600; -0.654900; -0.013222;,
    0.122176; -0.990192; -0.067776;,
    0.309717; -0.948467; -0.066969;,
    0.458822; -0.886921; -0.053414;,
    -0.177511; -0.983401; -0.037593;,
    0.299232; -0.948969; 0.099593;,
    -0.495397; -0.865102; 0.078619;,
    0.683148; -0.729280; -0.038216;,
    0.813374; -0.578049; 0.065434;,
    -0.066937; -0.996173; -0.056201;,
    -0.756464; -0.653907; -0.012952;,
    0.300339; -0.890018; 0.343022;,
    0.208385; -0.418368; 0.884050;,
    -0.658289; -0.616224; -0.432348;,
    0.099458; -0.967419; -0.232826;,
    -0.902195; -0.251819; -0.350188;,
    -0.476290; 0.783350; -0.399388;,
    -0.162932; -0.880791; -0.444591;,
    -0.872695; 0.285761; 0.395910;,
    0.872696; 0.285758; 0.395910;,
    -0.300339; -0.890018; 0.343023;,
    0.151171; -0.889615; 0.430967;,
    0.540264; -0.809694; -0.229153;,
    0.231698; 0.972656; -0.016035;,
    0.902197; -0.251812; -0.350187;,
    -0.099450; -0.967419; -0.232830;,
    0.787861; 0.615840; 0.004110;,
    0.788104; 0.615526; 0.004460;,
    0.787861; 0.615840; 0.004110;,
    0.749612; -0.655624; 0.090764;,
    0.448202; -0.871219; 0.200230;,
    -0.268494; -0.945013; 0.186710;,
    -0.752175; -0.652645; 0.091033;,
    -0.112618; -0.993198; -0.029567;,
    0.112618; -0.993198; -0.029567;,
    0.000000; 0.889511; -0.456913;,
    -0.000333; 0.889442; -0.457049;,
    -0.000333; 0.889442; -0.457049;,
    -0.000666; 0.889372; -0.457184;,
    0.000333; 0.889442; -0.457049;,
    0.000000; 0.967434; -0.253125;,
    0.000171; 0.967414; -0.253199;,
    0.000666; 0.889372; -0.457184;,
    0.000000; 0.999305; -0.037288;,
    0.000000; 0.999305; -0.037288;,
    0.000000; 0.999717; -0.023769;,
    0.000000; 0.999948; -0.010243;,
    0.000000; 0.999995; 0.003282;,
    0.000000; 0.999995; 0.003282;,
    0.000000; 0.999717; -0.023769;,
    0.000000; 0.999948; -0.010243;,
    0.000000; 0.999995; 0.003282;,
    0.000000; 0.999995; 0.003282;,
    0.680120; -0.732080; 0.038680;,
    -0.578407; 0.811678; 0.081390;,
    0.551327; -0.830939; -0.074691;,
    -0.405069; 0.913646; -0.034200;,
    -0.549221; -0.832365; -0.074330;,
    0.575878; 0.813437; 0.081760;,
    -0.675669; -0.736299; 0.036530;,
    0.406765; 0.912978; -0.031824;,
    0.578407; 0.811678; 0.081390;,
    -0.680119; -0.732080; 0.038681;,
    -0.551327; -0.830939; -0.074691;,
    0.405069; 0.913646; -0.034200;,
    -0.575878; 0.813437; 0.081760;,
    0.549221; -0.832365; -0.074330;,
    0.675669; -0.736299; 0.036530;,
    -0.406765; 0.912978; -0.031824;,
    -0.029143; 0.970371; 0.239857;,
    0.390557; -0.902778; 0.180161;,
    -0.424401; 0.658359; -0.621648;,
    -0.057251; 0.998264; -0.013825;,
    -0.184896; 0.982615; -0.016745;,
    0.271761; -0.962365; 0.000014;,
    0.271794; -0.962356; -0.000007;,
    0.787618; 0.616153; 0.003760;,
    0.787861; 0.615839; 0.004111;,
    0.788104; 0.615526; 0.004460;,
    0.787861; 0.615839; 0.004111;,
    0.787618; 0.616153; 0.003761;,
    -0.235057; -0.971978; 0.002651;,
    0.267756; 0.963368; -0.015139;,
    -0.964380; 0.249013; -0.089237;,
    0.133048; -0.048103; -0.989942;,
    0.000000; 0.000000; 0.000000;,
    0.189139; -0.291707; 0.937621;,
    0.148842; -0.402798; 0.903106;,
    0.015555; -0.326252; 0.945155;,
    0.000000; 0.156733; 0.987641;,
    0.000000; 0.156733; 0.987641;,
    0.000000; 0.156733; 0.987641;,
    -0.160125; -0.509613; 0.845372;,
    -0.134591; -0.299259; 0.944632;,
    -0.277124; -0.479495; 0.832638;,
    -0.148842; -0.402798; 0.903105;,
    -0.083136; -0.554529; 0.828001;,
    0.005220; -0.573074; 0.819487;,
    -0.015553; -0.410828; 0.911580;,
    0.021970; -0.602184; 0.798055;,
    0.083136; -0.554529; 0.828001;,
    -0.005220; -0.573074; 0.819487;,
    -0.014646; -0.600522; 0.799474;,
    0.787622; 0.616156; 0.001533;,
    0.787622; 0.616156; 0.001533;,
    0.787622; 0.616156; 0.001533;,
    0.787623; 0.616156; 0.001533;,
    0.787623; 0.616156; 0.001533;,
    0.787623; 0.616156; 0.001533;,
    -0.787623; 0.616156; 0.001534;,
    -0.787623; 0.616156; 0.001534;,
    -0.787623; 0.616156; 0.001534;,
    -0.787623; 0.616156; 0.001533;,
    -0.787623; 0.616156; 0.001533;,
    -0.787623; 0.616156; 0.001533;,
    0.106592; -0.508182; 0.854628;,
    0.277123; -0.479495; 0.832638;,
    0.765697; 0.608272; 0.209077;,
    0.765697; 0.608272; 0.209077;,
    0.765697; 0.608272; 0.209077;,
    0.780795; 0.583233; 0.224048;,
    0.780795; 0.583233; 0.224048;,
    0.780795; 0.583233; 0.224048;,
    -0.784144; 0.585729; 0.205035;,
    -0.784144; 0.585729; 0.205035;,
    -0.784144; 0.585729; 0.205035;,
    -0.767308; 0.606470; 0.208407;,
    -0.767308; 0.606470; 0.208407;,
    -0.767308; 0.606470; 0.208407;,
    0.000000; 0.156733; 0.987641;;
    365;
    3;0, 1, 2;,
    3;3, 4, 5;,
    3;3, 5, 6;,
    3;3, 6, 7;,
    3;3, 7, 4;,
    3;8, 9, 10;,
    3;8, 10, 1;,
    3;11, 12, 13;,
    3;11, 13, 14;,
    3;15, 16, 17;,
    3;14, 4, 18;,
    3;10, 9, 11;,
    3;10, 11, 14;,
    3;0, 8, 1;,
    3;19, 20, 21;,
    3;22, 23, 24;,
    3;22, 24, 19;,
    3;25, 26, 23;,
    3;27, 28, 29;,
    3;30, 31, 26;,
    3;30, 26, 25;,
    3;19, 24, 20;,
    3;25, 23, 22;,
    3;31, 30, 32;,
    3;31, 32, 33;,
    3;34, 35, 36;,
    3;34, 36, 37;,
    3;35, 38, 39;,
    3;35, 39, 36;,
    3;40, 34, 37;,
    3;40, 37, 41;,
    3;38, 42, 43;,
    3;38, 43, 39;,
    3;20, 43, 42;,
    3;20, 42, 21;,
    3;19, 21, 42;,
    3;19, 42, 38;,
    3;22, 19, 38;,
    3;22, 38, 35;,
    3;25, 22, 35;,
    3;25, 35, 34;,
    3;25, 34, 40;,
    3;25, 40, 30;,
    3;32, 44, 45;,
    3;32, 45, 33;,
    3;30, 40, 44;,
    3;30, 44, 32;,
    3;41, 45, 44;,
    3;41, 44, 40;,
    3;46, 47, 48;,
    3;27, 29, 49;,
    3;50, 29, 28;,
    3;50, 28, 51;,
    3;52, 53, 54;,
    3;52, 54, 55;,
    3;46, 56, 47;,
    3;57, 58, 47;,
    3;46, 48, 59;,
    3;46, 59, 60;,
    3;60, 59, 53;,
    3;60, 53, 52;,
    3;59, 61, 54;,
    3;59, 54, 53;,
    3;62, 61, 59;,
    3;62, 59, 48;,
    3;63, 62, 48;,
    3;63, 48, 47;,
    3;58, 64, 63;,
    3;58, 63, 47;,
    3;57, 47, 56;,
    3;63, 64, 65;,
    3;66, 67, 68;,
    3;66, 68, 69;,
    3;70, 71, 72;,
    3;70, 72, 73;,
    3;69, 68, 74;,
    3;69, 74, 75;,
    3;74, 68, 76;,
    3;74, 76, 77;,
    3;77, 76, 78;,
    3;77, 78, 79;,
    3;78, 73, 72;,
    3;78, 72, 79;,
    3;80, 70, 73;,
    3;80, 73, 78;,
    3;81, 80, 78;,
    3;81, 78, 76;,
    3;81, 76, 68;,
    3;81, 68, 67;,
    3;82, 83, 27;,
    3;82, 27, 49;,
    3;84, 85, 74;,
    3;84, 74, 77;,
    3;79, 86, 84;,
    3;79, 84, 77;,
    3;72, 87, 86;,
    3;72, 86, 79;,
    3;74, 85, 75;,
    3;88, 89, 90;,
    3;91, 92, 93;,
    3;94, 95, 96;,
    3;97, 98, 99;,
    3;94, 100, 95;,
    3;101, 93, 102;,
    3;101, 102, 103;,
    3;97, 99, 104;,
    3;91, 93, 101;,
    3;105, 106, 92;,
    3;105, 92, 91;,
    3;91, 107, 105;,
    3;107, 108, 109;,
    3;91, 108, 107;,
    3;92, 110, 111;,
    3;92, 106, 110;,
    3;110, 112, 111;,
    3;113, 114, 115;,
    3;108, 116, 117;,
    3;108, 117, 109;,
    3;118, 116, 108;,
    3;91, 118, 108;,
    3;101, 103, 118;,
    3;117, 113, 109;,
    3;113, 117, 114;,
    3;101, 118, 91;,
    3;119, 120, 102;,
    3;93, 92, 119;,
    3;121, 122, 123;,
    3;123, 112, 121;,
    3;121, 124, 122;,
    3;93, 119, 102;,
    3;92, 111, 119;,
    3;119, 111, 125;,
    3;111, 112, 123;,
    3;113, 89, 109;,
    3;126, 127, 128;,
    3;126, 129, 130;,
    3;131, 132, 133;,
    3;131, 132, 134;,
    3;135, 136, 137;,
    3;131, 134, 137;,
    3;138, 139, 140;,
    3;138, 141, 139;,
    3;137, 142, 131;,
    3;132, 131, 142;,
    3;143, 144, 145;,
    3;143, 146, 144;,
    3;147, 148, 149;,
    3;150, 128, 127;,
    3;151, 152, 153;,
    3;151, 154, 152;,
    3;127, 126, 130;,
    3;129, 126, 149;,
    3;127, 130, 150;,
    3;127, 155, 150;,
    3;128, 132, 142;,
    3;128, 150, 132;,
    3;128, 137, 126;,
    3;128, 142, 137;,
    3;154, 139, 152;,
    3;154, 140, 139;,
    3;151, 140, 154;,
    3;151, 138, 140;,
    3;156, 136, 157;,
    3;100, 158, 124;,
    3;100, 124, 121;,
    3;121, 95, 100;,
    3;121, 112, 95;,
    3;110, 95, 112;,
    3;111, 123, 125;,
    3;113, 90, 89;,
    3;159, 100, 94;,
    3;159, 158, 100;,
    3;160, 161, 96;,
    3;96, 95, 160;,
    3;95, 106, 160;,
    3;95, 110, 106;,
    3;89, 105, 107;,
    3;89, 162, 105;,
    3;163, 162, 89;,
    3;162, 163, 164;,
    3;165, 90, 166;,
    3;165, 88, 90;,
    3;162, 161, 160;,
    3;88, 163, 89;,
    3;107, 109, 89;,
    3;137, 134, 135;,
    3;105, 160, 106;,
    3;90, 113, 115;,
    3;90, 115, 166;,
    3;167, 165, 166;,
    3;168, 158, 159;,
    3;165, 94, 88;,
    3;165, 159, 94;,
    3;161, 164, 163;,
    3;162, 164, 161;,
    3;88, 96, 163;,
    3;105, 162, 160;,
    3;161, 163, 96;,
    3;167, 168, 159;,
    3;88, 94, 96;,
    3;167, 159, 165;,
    3;102, 120, 103;,
    3;169, 170, 171;,
    3;172, 173, 174;,
    3;175, 176, 177;,
    3;178, 179, 169;,
    3;170, 169, 179;,
    3;180, 181, 175;,
    3;176, 175, 181;,
    3;182, 183, 184;,
    3;184, 185, 182;,
    3;185, 184, 186;,
    3;187, 188, 189;,
    3;189, 190, 187;,
    3;190, 189, 191;,
    3;192, 193, 194;,
    3;195, 194, 193;,
    3;196, 197, 198;,
    3;199, 198, 197;,
    3;200, 201, 202;,
    3;200, 202, 203;,
    3;202, 201, 204;,
    3;203, 205, 200;,
    3;205, 206, 207;,
    3;200, 205, 207;,
    3;201, 208, 204;,
    3;204, 208, 209;,
    3;210, 211, 212;,
    3;212, 211, 213;,
    3;214, 215, 216;,
    3;217, 218, 219;,
    3;214, 216, 220;,
    3;219, 221, 217;,
    3;222, 173, 223;,
    3;223, 219, 218;,
    3;219, 223, 173;,
    3;221, 219, 224;,
    3;173, 224, 219;,
    3;218, 225, 223;,
    3;226, 223, 225;,
    3;223, 226, 222;,
    3;227, 228, 229;,
    3;229, 230, 227;,
    3;230, 229, 231;,
    3;231, 232, 230;,
    3;233, 229, 228;,
    3;229, 233, 234;,
    3;234, 231, 229;,
    3;235, 227, 230;,
    3;230, 236, 235;,
    3;236, 230, 232;,
    3;237, 238, 239;,
    3;237, 239, 240;,
    3;241, 240, 239;,
    3;239, 242, 238;,
    3;239, 238, 243;,
    3;242, 239, 243;,
    3;244, 239, 238;,
    3;244, 238, 237;,
    3;244, 241, 239;,
    3;245, 246, 247;,
    3;245, 247, 248;,
    3;248, 249, 247;,
    3;248, 247, 249;,
    3;250, 248, 251;,
    3;246, 251, 248;,
    3;246, 248, 247;,
    3;245, 248, 250;,
    3;173, 172, 224;,
    3;252, 253, 254;,
    3;174, 173, 222;,
    3;255, 174, 222;,
    3;255, 222, 226;,
    3;256, 231, 234;,
    3;231, 256, 257;,
    3;231, 257, 232;,
    3;257, 258, 232;,
    3;232, 258, 236;,
    3;225, 218, 259;,
    3;217, 259, 218;,
    3;259, 217, 221;,
    3;260, 228, 227;,
    3;228, 260, 233;,
    3;227, 235, 260;,
    3;261, 262, 263;,
    3;264, 263, 262;,
    3;265, 266, 267;,
    3;267, 268, 265;,
    3;269, 270, 271;,
    3;272, 271, 270;,
    3;271, 272, 273;,
    3;274, 273, 272;,
    3;267, 266, 275;,
    3;275, 276, 267;,
    3;276, 275, 277;,
    3;277, 278, 276;,
    3;279, 280, 281;,
    3;281, 282, 279;,
    3;280, 279, 282;,
    3;282, 281, 280;,
    3;283, 284, 285;,
    3;285, 286, 283;,
    3;286, 285, 284;,
    3;284, 283, 286;,
    3;287, 288, 289;,
    3;290, 289, 288;,
    3;288, 287, 290;,
    3;289, 290, 287;,
    3;291, 292, 293;,
    3;294, 293, 292;,
    3;293, 294, 291;,
    3;292, 291, 294;,
    3;295, 296, 238;,
    3;297, 298, 299;,
    3;297, 299, 295;,
    3;300, 297, 296;,
    3;300, 296, 301;,
    3;242, 297, 295;,
    3;242, 295, 238;,
    3;243, 297, 242;,
    3;297, 243, 296;,
    3;254, 302, 252;,
    3;303, 304, 305;,
    3;305, 306, 303;,
    3;307, 308, 309;,
    3;310, 309, 308;,
    3;307, 309, 310;,
    3;249, 309, 310;,
    3;249, 247, 309;,
    3;310, 247, 249;,
    3;310, 309, 247;,
    3;310, 308, 307;,
    3;307, 308, 311;,
    3;308, 307, 311;,
    3;243, 238, 296;,
    3;312, 313, 314;,
    3;315, 316, 317;,
    3;318, 319, 320;,
    3;320, 321, 322;,
    3;320, 319, 321;,
    3;323, 324, 325;,
    3;323, 321, 324;,
    3;313, 326, 327;,
    3;321, 323, 322;,
    3;319, 312, 314;,
    3;324, 328, 325;,
    3;324, 314, 328;,
    3;329, 330, 331;,
    3;332, 333, 334;,
    3;335, 336, 337;,
    3;338, 339, 340;,
    3;341, 342, 312;,
    3;342, 326, 313;,
    3;342, 313, 312;,
    3;327, 328, 314;,
    3;327, 314, 313;,
    3;319, 341, 312;,
    3;343, 344, 345;,
    3;346, 347, 348;,
    3;349, 350, 351;,
    3;352, 353, 354;,
    3;315, 355, 316;,
    3;319, 324, 321;,
    3;319, 318, 341;,
    3;319, 314, 324;;
   }

   MeshTextureCoords {
    356;
    0.332531; 0.998060;,
    1.000330; 0.786140;,
    0.683697; 0.994390;,
    0.590290; 0.058600;,
    0.583850; 0.129110;,
    0.417210; 0.132600;,
    0.417927; 0.057480;,
    0.417210; 0.132600;,
    0.011089; 0.804230;,
    0.056154; 0.493550;,
    0.934548; 0.465380;,
    0.146129; 0.296570;,
    0.418895; 0.132350;,
    0.583850; 0.129110;,
    0.846530; 0.273160;,
    0.146129; 1.296572;,
    0.399375; 0.999930;,
    0.418895; 1.132346;,
    0.604630; 0.003240;,
    0.581771; 0.449140;,
    0.533777; 0.366960;,
    0.526323; 0.422330;,
    0.632551; 0.509160;,
    0.670255; 0.478490;,
    0.605000; 0.401390;,
    0.650803; 0.581870;,
    0.693722; 0.571930;,
    0.549684; 0.849190;,
    0.454312; 0.854630;,
    0.463830; 0.981220;,
    0.638526; 0.779130;,
    0.677970; 0.825410;,
    0.601952; 0.812020;,
    0.630977; 0.867680;,
    0.350607; 0.589720;,
    0.366066; 0.516120;,
    0.327230; 0.487450;,
    0.307351; 0.582020;,
    0.414506; 0.453510;,
    0.389477; 0.407020;,
    0.370398; 0.786140;,
    0.332759; 0.834430;,
    0.468876; 0.423830;,
    0.459316; 0.368910;,
    0.408190; 0.817080;,
    0.381319; 0.874210;,
    0.053704; 0.491380;,
    0.100390; 0.773720;,
    0.137203; 0.510290;,
    0.523551; 0.976080;,
    0.441812; 0.997550;,
    0.422228; 0.855620;,
    0.391939; 0.006400;,
    0.400739; 0.127550;,
    0.406874; 0.208370;,
    0.407216; 0.193760;,
    0.002697; 0.798290;,
    0.303649; 0.977320;,
    0.345610; 0.921500;,
    0.231332; 0.297680;,
    0.139291; 0.291380;,
    0.361529; 0.368900;,
    0.267095; 0.580880;,
    0.244123; 0.774100;,
    0.405291; 0.869390;,
    0.751223; 0.762770;,
    0.706271; 0.974200;,
    0.989429; 0.795580;,
    0.893088; 0.756010;,
    0.654602; 0.924010;,
    0.601300; 0.003190;,
    0.589870; 0.192880;,
    0.590864; 0.207460;,
    0.593493; 0.113080;,
    0.749515; 0.762810;,
    0.593228; 0.865190;,
    0.844550; 0.494490;,
    0.717939; 0.570810;,
    0.741021; 0.286300;,
    0.635808; 0.361730;,
    0.843154; 0.276730;,
    0.925288; 0.461110;,
    0.539925; 0.998530;,
    0.581780; 0.848750;,
    0.265386; 0.580920;,
    0.242415; 0.774140;,
    0.359869; 0.368940;,
    0.405165; 0.208400;,
    0.773625; 0.192840;,
    0.669003; 0.054550;,
    0.839490; 0.063190;,
    0.228290; 0.140630;,
    0.228290; 0.419180;,
    0.144824; 0.409370;,
    0.773625; 0.377470;,
    0.669003; 0.515760;,
    0.644441; 0.373660;,
    0.808594; 0.730470;,
    0.808594; 0.871090;,
    0.828125; 0.842800;,
    0.839490; 0.507120;,
    0.144824; 0.150440;,
    0.041246; 0.382280;,
    0.015883; 0.192270;,
    0.828125; 0.758760;,
    0.295839; 0.131650;,
    0.295839; 0.428150;,
    0.339575; 0.108000;,
    0.385816; 0.071660;,
    0.719525; 0.039060;,
    0.339575; 0.451800;,
    0.385816; 0.488140;,
    0.719525; 0.531250;,
    0.859200; 0.046730;,
    0.953125; 0.105960;,
    0.923016; 0.084250;,
    0.500341; 0.112170;,
    0.742985; 0.093320;,
    0.316437; 0.122080;,
    0.316437; 0.437720;,
    0.015883; 0.367530;,
    0.859200; 0.523590;,
    0.953125; 0.464350;,
    0.742985; 0.477000;,
    0.923016; 0.486060;,
    0.500341; 0.458150;,
    0.688656; 0.646260;,
    0.346282; 0.669410;,
    0.068679; 0.725650;,
    0.482718; 0.587520;,
    0.300297; 0.621520;,
    0.346282; 0.893090;,
    0.003906; 0.869940;,
    0.152104; 0.905460;,
    0.300297; 0.940980;,
    0.482718; 0.974980;,
    0.713122; 0.996090;,
    0.688656; 0.916240;,
    0.108408; 0.828970;,
    0.533110; 0.854820;,
    0.148117; 0.822260;,
    0.532803; 0.867720;,
    0.068679; 0.836850;,
    0.742936; 0.921880;,
    0.514570; 0.674530;,
    0.742936; 0.640610;,
    0.514570; 0.887970;,
    0.949219; 0.666300;,
    0.912662; 0.580570;,
    0.713122; 0.566410;,
    0.003906; 0.692560;,
    0.108408; 0.733530;,
    0.533110; 0.707680;,
    0.532803; 0.694780;,
    0.148117; 0.740240;,
    0.152104; 0.657040;,
    0.949219; 0.896200;,
    0.912662; 0.981930;,
    0.896846; 0.452140;,
    0.862131; 0.372420;,
    0.309331; 0.403450;,
    0.316418; 0.347070;,
    0.309331; 0.156360;,
    0.644441; 0.196650;,
    0.316418; 0.212730;,
    0.862131; 0.197890;,
    0.896846; 0.118170;,
    0.888485; 0.207480;,
    0.888485; 0.362830;,
    0.380964; 0.320090;,
    0.361200; 0.380460;,
    0.581436; 0.334400;,
    1.000000; 0.294070;,
    0.811591; 0.268820;,
    1.000000; 0.344260;,
    0.380964; 0.320090;,
    0.361200; 0.380460;,
    0.581436; 0.334400;,
    0.143722; 0.320910;,
    0.057717; 0.359440;,
    0.143722; 0.320910;,
    0.057717; 0.359440;,
    0.057717; 0.359440;,
    0.143722; 0.320910;,
    0.380964; 0.320090;,
    0.361200; 0.380460;,
    0.581436; 0.334400;,
    0.057717; 0.359440;,
    0.143722; 0.320910;,
    0.380964; 0.320090;,
    0.361200; 0.380460;,
    0.581436; 0.334400;,
    0.761542; 0.246930;,
    0.737386; 0.246210;,
    0.757884; 0.377130;,
    0.734102; 0.376430;,
    0.761542; 0.246930;,
    0.737386; 0.246210;,
    0.757884; 0.377130;,
    0.734102; 0.376430;,
    0.805911; 0.959640;,
    0.569089; 0.959640;,
    0.526247; 0.840810;,
    0.812295; 0.840810;,
    0.461123; 0.779590;,
    0.880023; 0.779590;,
    0.902344; 0.765850;,
    0.874693; 0.819280;,
    0.461245; 0.819280;,
    0.438802; 0.765850;,
    0.976786; 0.339110;,
    0.976786; 0.295810;,
    0.794780; 0.339440;,
    0.794798; 0.299240;,
    0.979004; 0.338160;,
    0.979004; 0.296690;,
    0.797822; 0.298070;,
    0.242543; 0.284070;,
    0.242543; 0.350760;,
    0.555548; 0.268030;,
    0.797840; 0.336580;,
    0.555548; 0.234380;,
    0.811591; 0.364520;,
    0.555548; 0.318360;,
    0.811591; 0.235690;,
    0.003906; 0.362090;,
    0.555548; 0.359380;,
    0.244555; 0.351900;,
    0.244555; 0.291270;,
    0.555115; 0.276690;,
    0.555115; 0.316230;,
    0.809156; 0.277410;,
    0.809156; 0.364410;,
    0.555115; 0.246090;,
    0.809156; 0.247290;,
    0.003906; 0.357940;,
    0.555115; 0.353520;,
    0.274631; 0.648610;,
    0.252852; 0.701140;,
    0.082343; 0.698580;,
    0.002353; 0.642580;,
    0.001953; 0.672160;,
    0.118889; 0.733280;,
    0.118889; 0.733280;,
    0.274130; 0.677700;,
    0.274130; 0.673290;,
    0.274631; 0.648610;,
    0.252852; 0.693770;,
    0.082343; 0.691540;,
    0.118889; 0.721870;,
    0.001953; 0.668440;,
    0.002353; 0.642580;,
    0.764811; 0.245680;,
    0.730600; 0.246290;,
    0.733715; 0.365870;,
    0.811591; 0.404900;,
    0.988281; 0.300360;,
    0.988281; 0.345990;,
    0.809156; 0.401120;,
    0.000000; 0.293410;,
    0.001953; 0.295680;,
    1.082360; 0.096220;,
    0.998085; 0.080800;,
    1.082360; 0.125200;,
    0.998085; 0.146620;,
    0.003819; 0.144240;,
    0.074666; 0.128080;,
    0.074666; 0.100320;,
    0.005773; 0.080120;,
    0.082361; 0.096220;,
    0.082361; 0.125200;,
    0.531852; 0.093110;,
    0.531852; 0.135350;,
    0.812962; 0.093460;,
    0.812962; 0.135040;,
    0.549316; 0.134810;,
    0.549316; 0.094340;,
    0.816028; 0.134470;,
    0.816028; 0.094630;,
    0.386325; 0.001790;,
    0.409111; 0.080680;,
    0.224558; 0.080820;,
    0.282750; 0.006360;,
    0.224558; 0.147630;,
    0.409111; 0.148590;,
    0.386325; 0.227480;,
    0.282750; 0.222910;,
    0.403564; 0.144760;,
    0.381945; 0.220330;,
    0.228464; 0.144620;,
    0.283675; 0.215960;,
    0.403564; 0.079700;,
    0.228464; 0.080630;,
    0.381945; 0.004130;,
    0.283675; 0.008500;,
    0.390350; 0.885950;,
    0.390350; 0.885950;,
    0.229122; 0.964060;,
    0.233993; 0.996090;,
    0.544922; 0.973250;,
    0.233993; 0.996090;,
    0.544922; 0.973250;,
    0.768465; 0.365240;,
    0.764811; 0.245680;,
    0.730600; 0.246290;,
    0.733715; 0.365870;,
    0.768465; 0.365240;,
    0.233993; 0.951630;,
    0.544922; 0.966810;,
    0.390350; 0.855340;,
    0.229122; 0.923620;,
    0.223873; 0.996090;,
    0.513338; 0.754910;,
    0.485444; 0.745950;,
    0.572387; 0.732680;,
    0.574931; 0.996090;,
    0.808594; 0.882810;,
    0.807882; 0.996090;,
    0.812295; 0.840810;,
    0.817391; 0.754910;,
    0.880023; 0.779590;,
    0.853097; 0.745950;,
    0.902344; 0.765850;,
    0.863208; 0.726210;,
    0.766155; 0.732680;,
    0.760182; 0.713540;,
    0.438802; 0.765850;,
    0.477938; 0.726210;,
    0.580964; 0.713540;,
    0.068822; 0.817110;,
    0.012505; 0.818940;,
    0.025834; 0.973920;,
    0.068822; 0.817110;,
    0.012505; 0.818940;,
    0.025834; 0.973920;,
    0.066613; 0.809890;,
    0.009708; 0.810250;,
    0.070514; 0.977420;,
    0.066613; 0.809890;,
    0.009708; 0.810250;,
    0.070514; 0.977420;,
    0.526247; 0.840810;,
    0.461123; 0.779590;,
    0.194297; 0.240730;,
    0.010879; 0.185210;,
    0.010879; 0.244500;,
    0.013927; 0.243210;,
    0.196533; 0.241690;,
    0.013945; 0.188680;,
    0.196901; 0.189340;,
    0.013465; 0.189700;,
    0.013483; 0.246630;,
    0.016549; 0.243360;,
    0.199137; 0.188300;,
    0.016549; 0.186560;,
    0.574219; 0.882810;;
   }

   MeshVertexColors {
    356;
    0; 0.000000; 0.000000; 0.000000; 1.000000;,
    1; 0.000000; 0.000000; 0.000000; 1.000000;,
    2; 0.000000; 0.000000; 0.000000; 1.000000;,
    3; 0.000000; 0.000000; 0.000000; 1.000000;,
    4; 0.000000; 0.000000; 0.000000; 1.000000;,
    5; 0.000000; 0.000000; 0.000000; 1.000000;,
    6; 0.000000; 0.000000; 0.000000; 1.000000;,
    7; 0.000000; 0.000000; 0.000000; 1.000000;,
    8; 0.000000; 0.000000; 0.000000; 1.000000;,
    9; 0.000000; 0.000000; 0.000000; 1.000000;,
    10; 0.000000; 0.000000; 0.000000; 1.000000;,
    11; 0.000000; 0.000000; 0.000000; 1.000000;,
    12; 0.000000; 0.000000; 0.000000; 1.000000;,
    13; 0.000000; 0.000000; 0.000000; 1.000000;,
    14; 0.000000; 0.000000; 0.000000; 1.000000;,
    15; 0.000000; 0.000000; 0.000000; 1.000000;,
    16; 0.000000; 0.000000; 0.000000; 1.000000;,
    17; 0.000000; 0.000000; 0.000000; 1.000000;,
    18; 0.000000; 0.000000; 0.000000; 1.000000;,
    19; 0.000000; 0.000000; 0.000000; 1.000000;,
    20; 0.000000; 0.000000; 0.000000; 1.000000;,
    21; 0.000000; 0.000000; 0.000000; 1.000000;,
    22; 0.000000; 0.000000; 0.000000; 1.000000;,
    23; 0.000000; 0.000000; 0.000000; 1.000000;,
    24; 0.000000; 0.000000; 0.000000; 1.000000;,
    25; 0.000000; 0.000000; 0.000000; 1.000000;,
    26; 0.000000; 0.000000; 0.000000; 1.000000;,
    27; 0.000000; 0.000000; 0.000000; 1.000000;,
    28; 0.000000; 0.000000; 0.000000; 1.000000;,
    29; 0.000000; 0.000000; 0.000000; 1.000000;,
    30; 0.000000; 0.000000; 0.000000; 1.000000;,
    31; 0.000000; 0.000000; 0.000000; 1.000000;,
    32; 0.000000; 0.000000; 0.000000; 1.000000;,
    33; 0.000000; 0.000000; 0.000000; 1.000000;,
    34; 0.000000; 0.000000; 0.000000; 1.000000;,
    35; 0.000000; 0.000000; 0.000000; 1.000000;,
    36; 0.000000; 0.000000; 0.000000; 1.000000;,
    37; 0.000000; 0.000000; 0.000000; 1.000000;,
    38; 0.000000; 0.000000; 0.000000; 1.000000;,
    39; 0.000000; 0.000000; 0.000000; 1.000000;,
    40; 0.000000; 0.000000; 0.000000; 1.000000;,
    41; 0.000000; 0.000000; 0.000000; 1.000000;,
    42; 0.000000; 0.000000; 0.000000; 1.000000;,
    43; 0.000000; 0.000000; 0.000000; 1.000000;,
    44; 0.000000; 0.000000; 0.000000; 1.000000;,
    45; 0.000000; 0.000000; 0.000000; 1.000000;,
    46; 0.000000; 0.000000; 0.000000; 1.000000;,
    47; 0.000000; 0.000000; 0.000000; 1.000000;,
    48; 0.000000; 0.000000; 0.000000; 1.000000;,
    49; 0.000000; 0.000000; 0.000000; 1.000000;,
    50; 0.000000; 0.000000; 0.000000; 1.000000;,
    51; 0.000000; 0.000000; 0.000000; 1.000000;,
    52; 0.000000; 0.000000; 0.000000; 1.000000;,
    53; 0.000000; 0.000000; 0.000000; 1.000000;,
    54; 0.000000; 0.000000; 0.000000; 1.000000;,
    55; 0.000000; 0.000000; 0.000000; 1.000000;,
    56; 0.000000; 0.000000; 0.000000; 1.000000;,
    57; 0.000000; 0.000000; 0.000000; 1.000000;,
    58; 0.000000; 0.000000; 0.000000; 1.000000;,
    59; 0.000000; 0.000000; 0.000000; 1.000000;,
    60; 0.000000; 0.000000; 0.000000; 1.000000;,
    61; 0.000000; 0.000000; 0.000000; 1.000000;,
    62; 0.000000; 0.000000; 0.000000; 1.000000;,
    63; 0.000000; 0.000000; 0.000000; 1.000000;,
    64; 0.000000; 0.000000; 0.000000; 1.000000;,
    65; 0.000000; 0.000000; 0.000000; 1.000000;,
    66; 0.000000; 0.000000; 0.000000; 1.000000;,
    67; 0.000000; 0.000000; 0.000000; 1.000000;,
    68; 0.000000; 0.000000; 0.000000; 1.000000;,
    69; 0.000000; 0.000000; 0.000000; 1.000000;,
    70; 0.000000; 0.000000; 0.000000; 1.000000;,
    71; 0.000000; 0.000000; 0.000000; 1.000000;,
    72; 0.000000; 0.000000; 0.000000; 1.000000;,
    73; 0.000000; 0.000000; 0.000000; 1.000000;,
    74; 0.000000; 0.000000; 0.000000; 1.000000;,
    75; 0.000000; 0.000000; 0.000000; 1.000000;,
    76; 0.000000; 0.000000; 0.000000; 1.000000;,
    77; 0.000000; 0.000000; 0.000000; 1.000000;,
    78; 0.000000; 0.000000; 0.000000; 1.000000;,
    79; 0.000000; 0.000000; 0.000000; 1.000000;,
    80; 0.000000; 0.000000; 0.000000; 1.000000;,
    81; 0.000000; 0.000000; 0.000000; 1.000000;,
    82; 0.000000; 0.000000; 0.000000; 1.000000;,
    83; 0.000000; 0.000000; 0.000000; 1.000000;,
    84; 0.000000; 0.000000; 0.000000; 1.000000;,
    85; 0.000000; 0.000000; 0.000000; 1.000000;,
    86; 0.000000; 0.000000; 0.000000; 1.000000;,
    87; 0.000000; 0.000000; 0.000000; 1.000000;,
    88; 0.000000; 0.000000; 0.000000; 1.000000;,
    89; 0.000000; 0.000000; 0.000000; 1.000000;,
    90; 0.000000; 0.000000; 0.000000; 1.000000;,
    91; 0.000000; 0.000000; 0.000000; 1.000000;,
    92; 0.000000; 0.000000; 0.000000; 1.000000;,
    93; 0.000000; 0.000000; 0.000000; 1.000000;,
    94; 0.000000; 0.000000; 0.000000; 1.000000;,
    95; 0.000000; 0.000000; 0.000000; 1.000000;,
    96; 0.000000; 0.000000; 0.000000; 1.000000;,
    97; 0.000000; 0.000000; 0.000000; 1.000000;,
    98; 0.000000; 0.000000; 0.000000; 1.000000;,
    99; 0.000000; 0.000000; 0.000000; 1.000000;,
    100; 0.000000; 0.000000; 0.000000; 1.000000;,
    101; 0.000000; 0.000000; 0.000000; 1.000000;,
    102; 0.000000; 0.000000; 0.000000; 1.000000;,
    103; 0.000000; 0.000000; 0.000000; 1.000000;,
    104; 0.000000; 0.000000; 0.000000; 1.000000;,
    105; 0.000000; 0.000000; 0.000000; 1.000000;,
    106; 0.000000; 0.000000; 0.000000; 1.000000;,
    107; 0.000000; 0.000000; 0.000000; 1.000000;,
    108; 0.000000; 0.000000; 0.000000; 1.000000;,
    109; 0.000000; 0.000000; 0.000000; 1.000000;,
    110; 0.000000; 0.000000; 0.000000; 1.000000;,
    111; 0.000000; 0.000000; 0.000000; 1.000000;,
    112; 0.000000; 0.000000; 0.000000; 1.000000;,
    113; 0.000000; 0.000000; 0.000000; 1.000000;,
    114; 0.000000; 0.000000; 0.000000; 1.000000;,
    115; 0.000000; 0.000000; 0.000000; 1.000000;,
    116; 0.000000; 0.000000; 0.000000; 1.000000;,
    117; 0.000000; 0.000000; 0.000000; 1.000000;,
    118; 0.000000; 0.000000; 0.000000; 1.000000;,
    119; 0.000000; 0.000000; 0.000000; 1.000000;,
    120; 0.000000; 0.000000; 0.000000; 1.000000;,
    121; 0.000000; 0.000000; 0.000000; 1.000000;,
    122; 0.000000; 0.000000; 0.000000; 1.000000;,
    123; 0.000000; 0.000000; 0.000000; 1.000000;,
    124; 0.000000; 0.000000; 0.000000; 1.000000;,
    125; 0.000000; 0.000000; 0.000000; 1.000000;,
    126; 0.000000; 0.000000; 0.000000; 1.000000;,
    127; 0.000000; 0.000000; 0.000000; 1.000000;,
    128; 0.000000; 0.000000; 0.000000; 1.000000;,
    129; 0.000000; 0.000000; 0.000000; 1.000000;,
    130; 0.000000; 0.000000; 0.000000; 1.000000;,
    131; 0.000000; 0.000000; 0.000000; 1.000000;,
    132; 0.000000; 0.000000; 0.000000; 1.000000;,
    133; 0.000000; 0.000000; 0.000000; 1.000000;,
    134; 0.000000; 0.000000; 0.000000; 1.000000;,
    135; 0.000000; 0.000000; 0.000000; 1.000000;,
    136; 0.000000; 0.000000; 0.000000; 1.000000;,
    137; 0.000000; 0.000000; 0.000000; 1.000000;,
    138; 0.000000; 0.000000; 0.000000; 1.000000;,
    139; 0.000000; 0.000000; 0.000000; 1.000000;,
    140; 0.000000; 0.000000; 0.000000; 1.000000;,
    141; 0.000000; 0.000000; 0.000000; 1.000000;,
    142; 0.000000; 0.000000; 0.000000; 1.000000;,
    143; 0.000000; 0.000000; 0.000000; 1.000000;,
    144; 0.000000; 0.000000; 0.000000; 1.000000;,
    145; 0.000000; 0.000000; 0.000000; 1.000000;,
    146; 0.000000; 0.000000; 0.000000; 1.000000;,
    147; 0.000000; 0.000000; 0.000000; 1.000000;,
    148; 0.000000; 0.000000; 0.000000; 1.000000;,
    149; 0.000000; 0.000000; 0.000000; 1.000000;,
    150; 0.000000; 0.000000; 0.000000; 1.000000;,
    151; 0.000000; 0.000000; 0.000000; 1.000000;,
    152; 0.000000; 0.000000; 0.000000; 1.000000;,
    153; 0.000000; 0.000000; 0.000000; 1.000000;,
    154; 0.000000; 0.000000; 0.000000; 1.000000;,
    155; 0.000000; 0.000000; 0.000000; 1.000000;,
    156; 0.000000; 0.000000; 0.000000; 1.000000;,
    157; 0.000000; 0.000000; 0.000000; 1.000000;,
    158; 0.000000; 0.000000; 0.000000; 1.000000;,
    159; 0.000000; 0.000000; 0.000000; 1.000000;,
    160; 0.000000; 0.000000; 0.000000; 1.000000;,
    161; 0.000000; 0.000000; 0.000000; 1.000000;,
    162; 0.000000; 0.000000; 0.000000; 1.000000;,
    163; 0.000000; 0.000000; 0.000000; 1.000000;,
    164; 0.000000; 0.000000; 0.000000; 1.000000;,
    165; 0.000000; 0.000000; 0.000000; 1.000000;,
    166; 0.000000; 0.000000; 0.000000; 1.000000;,
    167; 0.000000; 0.000000; 0.000000; 1.000000;,
    168; 0.000000; 0.000000; 0.000000; 1.000000;,
    169; 0.000000; 0.000000; 0.000000; 1.000000;,
    170; 0.000000; 0.000000; 0.000000; 1.000000;,
    171; 0.000000; 0.000000; 0.000000; 1.000000;,
    172; 0.000000; 0.000000; 0.000000; 1.000000;,
    173; 0.000000; 0.000000; 0.000000; 1.000000;,
    174; 0.000000; 0.000000; 0.000000; 1.000000;,
    175; 0.000000; 0.000000; 0.000000; 1.000000;,
    176; 0.000000; 0.000000; 0.000000; 1.000000;,
    177; 0.000000; 0.000000; 0.000000; 1.000000;,
    178; 0.000000; 0.000000; 0.000000; 1.000000;,
    179; 0.000000; 0.000000; 0.000000; 1.000000;,
    180; 0.000000; 0.000000; 0.000000; 1.000000;,
    181; 0.000000; 0.000000; 0.000000; 1.000000;,
    182; 0.000000; 0.000000; 0.000000; 1.000000;,
    183; 0.000000; 0.000000; 0.000000; 1.000000;,
    184; 0.000000; 0.000000; 0.000000; 1.000000;,
    185; 0.000000; 0.000000; 0.000000; 1.000000;,
    186; 0.000000; 0.000000; 0.000000; 1.000000;,
    187; 0.000000; 0.000000; 0.000000; 1.000000;,
    188; 0.000000; 0.000000; 0.000000; 1.000000;,
    189; 0.000000; 0.000000; 0.000000; 1.000000;,
    190; 0.000000; 0.000000; 0.000000; 1.000000;,
    191; 0.000000; 0.000000; 0.000000; 1.000000;,
    192; 0.000000; 0.000000; 0.000000; 1.000000;,
    193; 0.000000; 0.000000; 0.000000; 1.000000;,
    194; 0.000000; 0.000000; 0.000000; 1.000000;,
    195; 0.000000; 0.000000; 0.000000; 1.000000;,
    196; 0.000000; 0.000000; 0.000000; 1.000000;,
    197; 0.000000; 0.000000; 0.000000; 1.000000;,
    198; 0.000000; 0.000000; 0.000000; 1.000000;,
    199; 0.000000; 0.000000; 0.000000; 1.000000;,
    200; 0.000000; 0.000000; 0.000000; 1.000000;,
    201; 0.000000; 0.000000; 0.000000; 1.000000;,
    202; 0.000000; 0.000000; 0.000000; 1.000000;,
    203; 0.000000; 0.000000; 0.000000; 1.000000;,
    204; 0.000000; 0.000000; 0.000000; 1.000000;,
    205; 0.000000; 0.000000; 0.000000; 1.000000;,
    206; 0.000000; 0.000000; 0.000000; 1.000000;,
    207; 0.000000; 0.000000; 0.000000; 1.000000;,
    208; 0.000000; 0.000000; 0.000000; 1.000000;,
    209; 0.000000; 0.000000; 0.000000; 1.000000;,
    210; 0.000000; 0.000000; 0.000000; 1.000000;,
    211; 0.000000; 0.000000; 0.000000; 1.000000;,
    212; 0.000000; 0.000000; 0.000000; 1.000000;,
    213; 0.000000; 0.000000; 0.000000; 1.000000;,
    214; 0.000000; 0.000000; 0.000000; 1.000000;,
    215; 0.000000; 0.000000; 0.000000; 1.000000;,
    216; 0.000000; 0.000000; 0.000000; 1.000000;,
    217; 0.000000; 0.000000; 0.000000; 1.000000;,
    218; 0.000000; 0.000000; 0.000000; 1.000000;,
    219; 0.000000; 0.000000; 0.000000; 1.000000;,
    220; 0.000000; 0.000000; 0.000000; 1.000000;,
    221; 0.000000; 0.000000; 0.000000; 1.000000;,
    222; 0.000000; 0.000000; 0.000000; 1.000000;,
    223; 0.000000; 0.000000; 0.000000; 1.000000;,
    224; 0.000000; 0.000000; 0.000000; 1.000000;,
    225; 0.000000; 0.000000; 0.000000; 1.000000;,
    226; 0.000000; 0.000000; 0.000000; 1.000000;,
    227; 0.000000; 0.000000; 0.000000; 1.000000;,
    228; 0.000000; 0.000000; 0.000000; 1.000000;,
    229; 0.000000; 0.000000; 0.000000; 1.000000;,
    230; 0.000000; 0.000000; 0.000000; 1.000000;,
    231; 0.000000; 0.000000; 0.000000; 1.000000;,
    232; 0.000000; 0.000000; 0.000000; 1.000000;,
    233; 0.000000; 0.000000; 0.000000; 1.000000;,
    234; 0.000000; 0.000000; 0.000000; 1.000000;,
    235; 0.000000; 0.000000; 0.000000; 1.000000;,
    236; 0.000000; 0.000000; 0.000000; 1.000000;,
    237; 0.000000; 0.000000; 0.000000; 1.000000;,
    238; 0.000000; 0.000000; 0.000000; 1.000000;,
    239; 0.000000; 0.000000; 0.000000; 1.000000;,
    240; 0.000000; 0.000000; 0.000000; 1.000000;,
    241; 0.000000; 0.000000; 0.000000; 1.000000;,
    242; 0.000000; 0.000000; 0.000000; 1.000000;,
    243; 0.000000; 0.000000; 0.000000; 1.000000;,
    244; 0.000000; 0.000000; 0.000000; 1.000000;,
    245; 0.000000; 0.000000; 0.000000; 1.000000;,
    246; 0.000000; 0.000000; 0.000000; 1.000000;,
    247; 0.000000; 0.000000; 0.000000; 1.000000;,
    248; 0.000000; 0.000000; 0.000000; 1.000000;,
    249; 0.000000; 0.000000; 0.000000; 1.000000;,
    250; 0.000000; 0.000000; 0.000000; 1.000000;,
    251; 0.000000; 0.000000; 0.000000; 1.000000;,
    252; 0.000000; 0.000000; 0.000000; 1.000000;,
    253; 0.000000; 0.000000; 0.000000; 1.000000;,
    254; 0.000000; 0.000000; 0.000000; 1.000000;,
    255; 0.000000; 0.000000; 0.000000; 1.000000;,
    256; 0.000000; 0.000000; 0.000000; 1.000000;,
    257; 0.000000; 0.000000; 0.000000; 1.000000;,
    258; 0.000000; 0.000000; 0.000000; 1.000000;,
    259; 0.000000; 0.000000; 0.000000; 1.000000;,
    260; 0.000000; 0.000000; 0.000000; 1.000000;,
    261; 0.000000; 0.000000; 0.000000; 1.000000;,
    262; 0.000000; 0.000000; 0.000000; 1.000000;,
    263; 0.000000; 0.000000; 0.000000; 1.000000;,
    264; 0.000000; 0.000000; 0.000000; 1.000000;,
    265; 0.000000; 0.000000; 0.000000; 1.000000;,
    266; 0.000000; 0.000000; 0.000000; 1.000000;,
    267; 0.000000; 0.000000; 0.000000; 1.000000;,
    268; 0.000000; 0.000000; 0.000000; 1.000000;,
    269; 0.000000; 0.000000; 0.000000; 1.000000;,
    270; 0.000000; 0.000000; 0.000000; 1.000000;,
    271; 0.000000; 0.000000; 0.000000; 1.000000;,
    272; 0.000000; 0.000000; 0.000000; 1.000000;,
    273; 0.000000; 0.000000; 0.000000; 1.000000;,
    274; 0.000000; 0.000000; 0.000000; 1.000000;,
    275; 0.000000; 0.000000; 0.000000; 1.000000;,
    276; 0.000000; 0.000000; 0.000000; 1.000000;,
    277; 0.000000; 0.000000; 0.000000; 1.000000;,
    278; 0.000000; 0.000000; 0.000000; 1.000000;,
    279; 0.000000; 0.000000; 0.000000; 1.000000;,
    280; 0.000000; 0.000000; 0.000000; 1.000000;,
    281; 0.000000; 0.000000; 0.000000; 1.000000;,
    282; 0.000000; 0.000000; 0.000000; 1.000000;,
    283; 0.000000; 0.000000; 0.000000; 1.000000;,
    284; 0.000000; 0.000000; 0.000000; 1.000000;,
    285; 0.000000; 0.000000; 0.000000; 1.000000;,
    286; 0.000000; 0.000000; 0.000000; 1.000000;,
    287; 0.000000; 0.000000; 0.000000; 1.000000;,
    288; 0.000000; 0.000000; 0.000000; 1.000000;,
    289; 0.000000; 0.000000; 0.000000; 1.000000;,
    290; 0.000000; 0.000000; 0.000000; 1.000000;,
    291; 0.000000; 0.000000; 0.000000; 1.000000;,
    292; 0.000000; 0.000000; 0.000000; 1.000000;,
    293; 0.000000; 0.000000; 0.000000; 1.000000;,
    294; 0.000000; 0.000000; 0.000000; 1.000000;,
    295; 0.000000; 0.000000; 0.000000; 1.000000;,
    296; 0.000000; 0.000000; 0.000000; 1.000000;,
    297; 0.000000; 0.000000; 0.000000; 1.000000;,
    298; 0.000000; 0.000000; 0.000000; 1.000000;,
    299; 0.000000; 0.000000; 0.000000; 1.000000;,
    300; 0.000000; 0.000000; 0.000000; 1.000000;,
    301; 0.000000; 0.000000; 0.000000; 1.000000;,
    302; 0.000000; 0.000000; 0.000000; 1.000000;,
    303; 0.000000; 0.000000; 0.000000; 1.000000;,
    304; 0.000000; 0.000000; 0.000000; 1.000000;,
    305; 0.000000; 0.000000; 0.000000; 1.000000;,
    306; 0.000000; 0.000000; 0.000000; 1.000000;,
    307; 0.000000; 0.000000; 0.000000; 1.000000;,
    308; 0.000000; 0.000000; 0.000000; 1.000000;,
    309; 0.000000; 0.000000; 0.000000; 1.000000;,
    310; 0.000000; 0.000000; 0.000000; 1.000000;,
    311; 0.000000; 0.000000; 0.000000; 1.000000;,
    312; 0.000000; 0.000000; 0.000000; 1.000000;,
    313; 0.000000; 0.000000; 0.000000; 1.000000;,
    314; 0.000000; 0.000000; 0.000000; 1.000000;,
    315; 0.000000; 0.000000; 0.000000; 1.000000;,
    316; 0.000000; 0.000000; 0.000000; 1.000000;,
    317; 0.000000; 0.000000; 0.000000; 1.000000;,
    318; 0.000000; 0.000000; 0.000000; 1.000000;,
    319; 0.000000; 0.000000; 0.000000; 1.000000;,
    320; 0.000000; 0.000000; 0.000000; 1.000000;,
    321; 0.000000; 0.000000; 0.000000; 1.000000;,
    322; 0.000000; 0.000000; 0.000000; 1.000000;,
    323; 0.000000; 0.000000; 0.000000; 1.000000;,
    324; 0.000000; 0.000000; 0.000000; 1.000000;,
    325; 0.000000; 0.000000; 0.000000; 1.000000;,
    326; 0.000000; 0.000000; 0.000000; 1.000000;,
    327; 0.000000; 0.000000; 0.000000; 1.000000;,
    328; 0.000000; 0.000000; 0.000000; 1.000000;,
    329; 0.000000; 0.000000; 0.000000; 1.000000;,
    330; 0.000000; 0.000000; 0.000000; 1.000000;,
    331; 0.000000; 0.000000; 0.000000; 1.000000;,
    332; 0.000000; 0.000000; 0.000000; 1.000000;,
    333; 0.000000; 0.000000; 0.000000; 1.000000;,
    334; 0.000000; 0.000000; 0.000000; 1.000000;,
    335; 0.000000; 0.000000; 0.000000; 1.000000;,
    336; 0.000000; 0.000000; 0.000000; 1.000000;,
    337; 0.000000; 0.000000; 0.000000; 1.000000;,
    338; 0.000000; 0.000000; 0.000000; 1.000000;,
    339; 0.000000; 0.000000; 0.000000; 1.000000;,
    340; 0.000000; 0.000000; 0.000000; 1.000000;,
    341; 0.000000; 0.000000; 0.000000; 1.000000;,
    342; 0.000000; 0.000000; 0.000000; 1.000000;,
    343; 0.000000; 0.000000; 0.000000; 1.000000;,
    344; 0.000000; 0.000000; 0.000000; 1.000000;,
    345; 0.000000; 0.000000; 0.000000; 1.000000;,
    346; 0.000000; 0.000000; 0.000000; 1.000000;,
    347; 0.000000; 0.000000; 0.000000; 1.000000;,
    348; 0.000000; 0.000000; 0.000000; 1.000000;,
    349; 0.000000; 0.000000; 0.000000; 1.000000;,
    350; 0.000000; 0.000000; 0.000000; 1.000000;,
    351; 0.000000; 0.000000; 0.000000; 1.000000;,
    352; 0.000000; 0.000000; 0.000000; 1.000000;,
    353; 0.000000; 0.000000; 0.000000; 1.000000;,
    354; 0.000000; 0.000000; 0.000000; 1.000000;,
    355; 0.000000; 0.000000; 0.000000; 1.000000;;
   }

   MeshMaterialList {
    5;
    365;
    0,
    0,
    0,
    0,
    0,
    0,
    0,
    0,
    0,
    0,
    0,
    0,
    0,
    0,
    1,
    1,
    1,
    1,
    1,
    1,
    1,
    1,
    1,
    1,
    1,
    1,
    1,
    1,
    1,
    1,
    1,
    1,
    1,
    1,
    1,
    1,
    1,
    1,
    1,
    1,
    1,
    1,
    1,
    1,
    1,
    1,
    1,
    1,
    1,
    1,
    1,
    1,
    1,
    1,
    1,
    1,
    1,
    1,
    1,
    1,
    1,
    1,
    1,
    1,
    1,
    1,
    1,
    1,
    1,
    1,
    1,
    1,
    1,
    1,
    1,
    1,
    1,
    1,
    1,
    1,
    1,
    1,
    1,
    1,
    1,
    1,
    1,
    1,
    1,
    1,
    1,
    1,
    1,
    1,
    1,
    1,
    1,
    1,
    2,
    2,
    2,
    2,
    2,
    2,
    2,
    2,
    2,
    2,
    2,
    2,
    2,
    2,
    2,
    2,
    2,
    2,
    2,
    2,
    2,
    2,
    2,
    2,
    2,
    2,
    2,
    2,
    2,
    2,
    2,
    2,
    2,
    2,
    2,
    2,
    2,
    2,
    2,
    2,
    2,
    2,
    2,
    2,
    2,
    2,
    2,
    2,
    2,
    2,
    2,
    2,
    2,
    2,
    2,
    2,
    2,
    2,
    2,
    2,
    2,
    2,
    2,
    2,
    2,
    2,
    2,
    2,
    2,
    2,
    2,
    2,
    2,
    2,
    2,
    2,
    2,
    2,
    2,
    2,
    2,
    2,
    2,
    2,
    2,
    2,
    2,
    2,
    2,
    2,
    2,
    2,
    2,
    2,
    2,
    2,
    2,
    2,
    2,
    2,
    2,
    2,
    2,
    2,
    3,
    3,
    3,
    3,
    3,
    3,
    3,
    3,
    3,
    3,
    3,
    3,
    3,
    3,
    3,
    3,
    3,
    3,
    3,
    3,
    3,
    3,
    3,
    3,
    3,
    3,
    3,
    3,
    3,
    3,
    3,
    3,
    3,
    3,
    3,
    3,
    3,
    3,
    3,
    3,
    3,
    3,
    3,
    3,
    3,
    3,
    3,
    3,
    3,
    3,
    3,
    3,
    3,
    3,
    3,
    3,
    3,
    3,
    3,
    3,
    3,
    3,
    3,
    3,
    3,
    3,
    3,
    3,
    3,
    3,
    3,
    3,
    3,
    3,
    3,
    3,
    3,
    3,
    3,
    3,
    3,
    3,
    3,
    3,
    3,
    3,
    3,
    3,
    3,
    3,
    3,
    3,
    3,
    3,
    3,
    3,
    3,
    3,
    3,
    3,
    3,
    3,
    3,
    3,
    3,
    3,
    3,
    3,
    3,
    3,
    3,
    3,
    3,
    3,
    3,
    3,
    3,
    3,
    3,
    3,
    3,
    3,
    3,
    3,
    3,
    3,
    3,
    3,
    3,
    3,
    3,
    3,
    3,
    4,
    4,
    4,
    4,
    4,
    4,
    4,
    4,
    4,
    4,
    4,
    4,
    4,
    4,
    4,
    4,
    4,
    4,
    4,
    4,
    4,
    4,
    4,
    4,
    4,
    4,
    4,
    4,
    4,
    4;

    Material {
     1.000000; 1.000000; 1.000000; 1.000000;;
     128.000000;
     0.000000; 0.000000; 0.000000;;
     0.000000; 0.000000; 0.000000;;

     TextureFilename {
      "frigate2.bmp";
     }
    }

    Material {
     1.000000; 1.000000; 1.000000; 1.000000;;
     128.000000;
     0.000000; 0.000000; 0.000000;;
     0.000000; 0.000000; 0.000000;;

     TextureFilename {
      "frigate1.bmp";
     }
    }

    Material {
     1.000000; 1.000000; 1.000000; 1.000000;;
     128.000000;
     0.000000; 0.000000; 0.000000;;
     0.000000; 0.000000; 0.000000;;

     TextureFilename {
      "frigate4.bmp";
     }
    }

    Material {
     1.000000; 1.000000; 1.000000; 1.000000;;
     128.000000;
     0.000000; 0.000000; 0.000000;;
     0.000000; 0.000000; 0.000000;;

     TextureFilename {
      "frigate3.bmp";
     }
    }

    Material {
     1.000000; 1.000000; 1.000000; 1.000000;;
     128.000000;
     0.000000; 0.000000; 0.000000;;
     0.000000; 0.000000; 0.000000;;

     TextureFilename {
      "frigate3.bmp";
     }
    }

   }
  }
}
