xof 0303txt 0032

// DirectX 8.0 file
// Creator: Ultimate Unwrap3D Pro v3.44
// Website: http://www.unwrap3d.com
// Time: Fri May 10 23:06:18 2013

// Start of Templates

template VertexDuplicationIndices {
 <b8d65549-d7c9-4995-89cf-53a9a8b031e3>
 DWORD nIndices;
 DWORD nOriginalVertices;
 array DWORD indices[nIndices];
}

template FVFData {
 <b6e70a0e-8ef9-4e83-94ad-ecc8b0c04897>
 DWORD dwFVF;
 DWORD nDWords;
 array DWORD data[nDWords];
}

template Header {
 <3D82AB43-62DA-11cf-AB39-0020AF71E433>
 WORD major;
 WORD minor;
 DWORD flags;
}

template Vector {
 <3D82AB5E-62DA-11cf-AB39-0020AF71E433>
 FLOAT x;
 FLOAT y;
 FLOAT z;
}

template Coords2d {
 <F6F23F44-7686-11cf-8F52-0040333594A3>
 FLOAT u;
 FLOAT v;
}

template Matrix4x4 {
 <F6F23F45-7686-11cf-8F52-0040333594A3>
 array FLOAT matrix[16];
}

template ColorRGBA {
 <35FF44E0-6C7C-11cf-8F52-0040333594A3>
 FLOAT red;
 FLOAT green;
 FLOAT blue;
 FLOAT alpha;
}

template ColorRGB {
 <D3E16E81-7835-11cf-8F52-0040333594A3>
 FLOAT red;
 FLOAT green;
 FLOAT blue;
}

template IndexedColor {
 <1630B820-7842-11cf-8F52-0040333594A3>
 DWORD index;
 ColorRGBA indexColor;
}

template Material {
 <3D82AB4D-62DA-11cf-AB39-0020AF71E433>
 ColorRGBA faceColor;
 FLOAT power;
 ColorRGB specularColor;
 ColorRGB emissiveColor;
 [...]
}

template TextureFilename {
 <A42790E1-7810-11cf-8F52-0040333594A3>
 STRING filename;
}

template MeshFace {
 <3D82AB5F-62DA-11cf-AB39-0020AF71E433>
 DWORD nFaceVertexIndices;
 array DWORD faceVertexIndices[nFaceVertexIndices];
}

template MeshTextureCoords {
 <F6F23F40-7686-11cf-8F52-0040333594A3>
 DWORD nTextureCoords;
 array Coords2d textureCoords[nTextureCoords];
}

template MeshMaterialList {
 <F6F23F42-7686-11cf-8F52-0040333594A3>
 DWORD nMaterials;
 DWORD nFaceIndexes;
 array DWORD faceIndexes[nFaceIndexes];
 [Material]
}

template MeshNormals {
 <F6F23F43-7686-11cf-8F52-0040333594A3>
 DWORD nNormals;
 array Vector normals[nNormals];
 DWORD nFaceNormals;
 array MeshFace faceNormals[nFaceNormals];
}

template MeshVertexColors {
 <1630B821-7842-11cf-8F52-0040333594A3>
 DWORD nVertexColors;
 array IndexedColor vertexColors[nVertexColors];
}

template Mesh {
 <3D82AB44-62DA-11cf-AB39-0020AF71E433>
 DWORD nVertices;
 array Vector vertices[nVertices];
 DWORD nFaces;
 array MeshFace faces[nFaces];
 [...]
}

template FrameTransformMatrix {
 <F6F23F41-7686-11cf-8F52-0040333594A3>
 Matrix4x4 frameMatrix;
}

template Frame {
 <3D82AB46-62DA-11cf-AB39-0020AF71E433>
 [...]
}

template FloatKeys {
 <10DD46A9-775B-11cf-8F52-0040333594A3>
 DWORD nValues;
 array FLOAT values[nValues];
}

template TimedFloatKeys {
 <F406B180-7B3B-11cf-8F52-0040333594A3>
 DWORD time;
 FloatKeys tfkeys;
}

template AnimationKey {
 <10DD46A8-775B-11cf-8F52-0040333594A3>
 DWORD keyType;
 DWORD nKeys;
 array TimedFloatKeys keys[nKeys];
}

template AnimationOptions {
 <E2BF56C0-840F-11cf-8F52-0040333594A3>
 DWORD openclosed;
 DWORD positionquality;
}

template Animation {
 <3D82AB4F-62DA-11cf-AB39-0020AF71E433>
 [...]
}

template AnimationSet {
 <3D82AB50-62DA-11cf-AB39-0020AF71E433>
 [Animation]
}

template XSkinMeshHeader {
 <3CF169CE-FF7C-44ab-93C0-F78F62D172E2>
 WORD nMaxSkinWeightsPerVertex;
 WORD nMaxSkinWeightsPerFace;
 WORD nBones;
}

template SkinWeights {
 <6F0D123B-BAD2-4167-A0D0-80224F25FABB>
 STRING transformNodeName;
 DWORD nWeights;
 array DWORD vertexIndices[nWeights];
 array FLOAT weights[nWeights];
 Matrix4x4 matrixOffset;
}

template AnimTicksPerSecond {
 <9E415A43-7BA6-4a73-8743-B73D47E88476>
 DWORD AnimTicksPerSecond;
}

AnimTicksPerSecond {
 4800;
}

// Start of Frames

Frame Body {
   FrameTransformMatrix {
    1.000000, 0.000000, 0.000000, 0.000000,
    0.000000, 1.000000, 0.000000, 0.000000,
    0.000000, 0.000000, 1.000000, 0.000000,
    0.000000, 0.000000, 0.000000, 1.000000;;
   }

   Mesh staticMesh {
    373;
    -0.595044; 1.658251; -5.694728;,
    -0.634757; 1.687534; -9.919710;,
    -0.594837; 2.307763; -5.695274;,
    -0.634710; 2.305344; -9.920231;,
    -0.594885; 2.309857; -3.504227;,
    -0.594904; 2.311876; -1.390602;,
    -0.595065; 1.658251; -3.503691;,
    -0.594897; 1.693940; -1.390063;,
    -0.634757; 1.687534; -9.919710;,
    -0.595044; 1.658251; -5.694728;,
    -1.595527; 1.658251; -9.999472;,
    -0.595065; 1.658251; -3.503691;,
    -1.590936; 1.664927; -1.110906;,
    -0.594897; 1.693940; -1.390063;,
    -0.594904; 2.311876; -1.390602;,
    -1.590915; 2.362988; -1.111409;,
    -0.594897; 1.693940; -1.390063;,
    -1.590936; 1.664927; -1.110906;,
    -1.595527; 1.658251; -9.999472;,
    -1.590936; 1.664927; -1.110906;,
    -1.595537; 2.354709; -9.999969;,
    -1.590915; 2.362988; -1.111409;,
    -1.595537; 2.354709; -9.999969;,
    -1.590915; 2.362988; -1.111409;,
    -0.634710; 2.305344; -9.920231;,
    -0.594904; 2.311876; -1.390602;,
    -0.594837; 2.307763; -5.695274;,
    -0.634757; 1.687534; -9.919710;,
    -1.595527; 1.658251; -9.999472;,
    -0.634710; 2.305344; -9.920231;,
    -1.595537; 2.354709; -9.999969;,
    -0.595044; 1.658251; -5.694728;,
    -0.594837; 2.307763; -5.695274;,
    0.600277; 1.658251; -5.694745;,
    0.600685; 2.307859; -5.695265;,
    0.600253; 1.658251; -3.503709;,
    0.600690; 2.309952; -3.504239;,
    -0.595065; 1.658251; -3.503691;,
    -0.594885; 2.309857; -3.504227;,
    0.600685; 2.307859; -5.695265;,
    -0.594837; 2.307763; -5.695274;,
    0.600690; 2.309952; -3.504239;,
    -0.594885; 2.309857; -3.504227;,
    0.600253; 1.658251; -3.503709;,
    0.600654; 1.693940; -1.390063;,
    0.600690; 2.309952; -3.504239;,
    0.600698; 2.311939; -1.390602;,
    0.600685; 2.307859; -5.695265;,
    0.640539; 2.305537; -9.920270;,
    0.600277; 1.658251; -5.694745;,
    0.640532; 1.687554; -9.919730;,
    1.595162; 1.664942; -1.110920;,
    0.600277; 1.658251; -5.694745;,
    1.595186; 1.658268; -9.999488;,
    0.640532; 1.687554; -9.919730;,
    0.600253; 1.658251; -3.503709;,
    0.600654; 1.693940; -1.390063;,
    0.600654; 1.693940; -1.390063;,
    1.595162; 1.664942; -1.110920;,
    0.600698; 2.311939; -1.390602;,
    1.595212; 2.363130; -1.111396;,
    1.595162; 1.664942; -1.110920;,
    1.595186; 1.658268; -9.999488;,
    1.595212; 2.363130; -1.111396;,
    1.595240; 2.354799; -10.000000;,
    0.640539; 2.305537; -9.920270;,
    0.600685; 2.307859; -5.695265;,
    1.595240; 2.354799; -10.000000;,
    0.600698; 2.311939; -1.390602;,
    1.595212; 2.363130; -1.111396;,
    0.640539; 2.305537; -9.920270;,
    1.595240; 2.354799; -10.000000;,
    0.640532; 1.687554; -9.919730;,
    1.595186; 1.658268; -9.999488;,
    5.888834; 0.245564; 1.060478;,
    1.000634; 0.595972; 3.528657;,
    6.322436; 0.245564; 3.515365;,
    1.000634; 0.595972; 3.926876;,
    5.841167; 0.245564; 5.934874;,
    0.801447; 0.595972; 4.325095;,
    4.470624; 0.245564; 7.986034;,
    -5.841259; 0.245564; 5.934874;,
    -0.991238; 0.595972; 3.528658;,
    -6.322529; 0.245564; 3.515365;,
    -0.792050; 0.595972; 3.130439;,
    -5.841259; 0.245564; 1.095856;,
    -2.419556; 0.245564; 9.356576;,
    -0.792050; 0.595972; 4.325095;,
    -4.470717; 0.245564; 7.986034;,
    -0.991238; 0.595972; 3.926876;,
    0.403072; 0.595972; 2.533111;,
    0.801446; 0.595972; 3.130439;,
    1.511694; 0.403315; -0.138372;,
    4.660583; 0.245564; -0.138372;,
    0.403072; 0.595972; 4.524204;,
    -0.393676; 0.595971; 4.524204;,
    2.419463; 0.245564; 9.356576;,
    -0.000047; 0.245564; 9.837847;,
    -0.393678; 0.595971; 2.533111;,
    0.403072; 0.595971; 2.533111;,
    -4.607031; 0.245564; -0.138372;,
    1.511694; 0.403315; -0.138372;,
    -0.394602; 0.419447; -0.138372;,
    0.402146; 0.419447; -0.138372;,
    -0.394588; 0.422262; -0.138372;,
    0.402160; 0.422262; -0.138372;,
    0.502500; 0.956365; 3.859824;,
    0.402906; 0.956365; 3.660714;,
    0.502500; 0.956365; 4.058933;,
    0.203719; 0.956364; 3.362051;,
    0.402906; 0.956365; 4.258042;,
    -0.194655; 0.956364; 3.362051;,
    0.203719; 0.956365; 4.357597;,
    -0.393842; 0.956364; 3.660714;,
    -0.194655; 0.956365; 4.357597;,
    -0.493436; 0.956364; 3.859824;,
    -0.393842; 0.956364; 4.258042;,
    -0.493436; 0.956364; 4.058933;,
    0.403072; 0.595972; 2.533111;,
    0.801446; 0.595972; 3.130439;,
    -0.792050; 0.595972; 3.130439;,
    -0.393678; 0.595972; 2.533111;,
    1.000634; 0.595972; 3.528657;,
    -0.991238; 0.595972; 3.528658;,
    -0.991238; 0.595972; 3.926876;,
    1.000634; 0.595972; 3.926876;,
    0.801447; 0.595972; 4.325095;,
    0.403072; 0.595972; 4.524204;,
    -0.393676; 0.595972; 4.524204;,
    -0.792050; 0.595972; 4.325095;,
    0.401252; 0.245564; -2.726058;,
    0.600253; 1.658251; -3.503709;,
    -0.395488; 0.245564; -2.726048;,
    -0.595065; 1.658251; -3.503691;,
    -0.394595; 0.420854; -0.138372;,
    -2.419558; 0.245564; -2.325846;,
    -0.395488; 0.245564; -2.726048;,
    0.402153; 0.420855; -0.138372;,
    0.401252; 0.245564; -2.726058;,
    2.419461; 0.245564; -2.325846;,
    0.402165; 0.820195; -0.192455;,
    0.402153; 0.420855; -0.138372;,
    0.401252; 0.245564; -2.726058;,
    0.402165; 0.820195; -0.192455;,
    0.401252; 0.245564; -2.726058;,
    -0.394584; 0.820195; -0.192455;,
    -0.395488; 0.245564; -2.726048;,
    0.600253; 1.658251; -3.503709;,
    0.401252; 0.245564; -2.726058;,
    0.600277; 1.658251; -5.694745;,
    0.401272; 0.245564; -4.892258;,
    -0.395488; 0.245564; -2.726048;,
    -0.394595; 0.420854; -0.138372;,
    -0.394584; 0.820195; -0.192455;,
    0.600277; 1.658251; -5.694745;,
    0.401272; 0.245564; -4.892258;,
    -0.595044; 1.658251; -5.694728;,
    -0.395468; 0.245564; -4.892248;,
    -0.595044; 1.658251; -5.694728;,
    -0.395468; 0.245564; -4.892248;,
    -0.595065; 1.658251; -3.503691;,
    -0.395488; 0.245564; -2.726048;,
    0.402160; 0.422262; -0.138372;,
    0.402165; 0.820195; -0.192455;,
    -0.394588; 0.422262; -0.138372;,
    -0.394584; 0.820195; -0.192455;,
    -0.395456; -0.259911; -2.719782;,
    0.401300; -0.259911; -2.719777;,
    -2.481510; -0.259911; -2.389830;,
    2.481586; -0.259911; -2.389830;,
    -0.000004; -0.259911; 10.000000;,
    2.481544; -0.259911; 9.506389;,
    -0.000047; 0.245564; 9.837847;,
    2.419463; 0.245564; 9.356576;,
    2.310804; -0.259911; -3.926778;,
    1.598624; -0.259911; -3.924124;,
    2.194488; 0.245564; -3.922946;,
    1.598574; 0.245564; -3.924170;,
    1.598576; 0.245564; -4.892278;,
    0.401272; 0.245564; -4.892258;,
    1.598574; 0.245564; -3.924170;,
    -1.588428; 0.245564; -3.924170;,
    -1.588425; 0.245564; -4.892277;,
    -1.588378; -0.259911; -3.924124;,
    -1.588404; -0.259911; -4.892258;,
    -5.841259; 0.245564; 1.095856;,
    -2.270544; 0.245564; -3.924170;,
    -5.990990; -0.259911; 1.033857;,
    -2.385142; -0.259911; -3.924137;,
    -5.990990; -0.259911; 1.033857;,
    -2.385142; -0.259911; -3.924137;,
    -1.588378; -0.259911; -3.924124;,
    0.401273; -0.259911; -4.892258;,
    1.598598; -0.259911; -4.892258;,
    1.598624; -0.259911; -3.924124;,
    -1.588378; -0.259911; -3.924124;,
    -2.385142; -0.259911; -3.924137;,
    -1.588428; 0.245564; -3.924170;,
    -2.270544; 0.245564; -3.924170;,
    -5.990990; -0.259911; 1.033857;,
    -6.484595; -0.259911; 3.515410;,
    -5.841259; 0.245564; 1.095856;,
    -6.322529; 0.245564; 3.515365;,
    1.598598; -0.259911; -4.892258;,
    -1.588404; -0.259911; -4.892258;,
    1.598576; 0.245564; -4.892278;,
    -1.588425; 0.245564; -4.892277;,
    -1.588404; -0.259911; -4.892258;,
    -0.395477; -0.259911; -4.892258;,
    1.598624; -0.259911; -3.924124;,
    1.598598; -0.259911; -4.892258;,
    1.598574; 0.245564; -3.924170;,
    1.598576; 0.245564; -4.892278;,
    2.310804; -0.259911; -3.926778;,
    2.194488; 0.245564; -3.922946;,
    5.990990; -0.259911; 1.033862;,
    5.990990; -0.259911; 1.033862;,
    2.310804; -0.259911; -3.926778;,
    5.888834; 0.245564; 1.060478;,
    2.194488; 0.245564; -3.922946;,
    -1.588428; 0.245564; -3.924170;,
    -2.270544; 0.245564; -3.924170;,
    -0.395468; 0.245564; -4.892248;,
    -1.588425; 0.245564; -4.892277;,
    -2.481552; -0.259911; 9.506390;,
    -0.000004; -0.259911; 10.000000;,
    -2.419556; 0.245564; 9.356576;,
    -0.000047; 0.245564; 9.837847;,
    -4.585307; -0.259911; 8.100706;,
    -4.470717; 0.245564; 7.986034;,
    -5.990991; -0.259911; 5.996952;,
    -5.841259; 0.245564; 5.934874;,
    4.585300; -0.259911; 8.100706;,
    4.470624; 0.245564; 7.986034;,
    5.990984; -0.259911; 5.996952;,
    5.841167; 0.245564; 5.934874;,
    6.484595; -0.259911; 3.515404;,
    6.322436; 0.245564; 3.515365;,
    5.990990; -0.259911; 1.033862;,
    5.888834; 0.245564; 1.060478;,
    -0.000003; -0.700467; 4.417903;,
    5.990984; -0.259911; 5.996952;,
    -0.345375; -0.700467; 4.349205;,
    4.585300; -0.259911; 8.100706;,
    -2.481552; -0.259911; 9.506390;,
    2.481544; -0.259911; 9.506389;,
    -0.000004; -0.259911; 10.000000;,
    -0.638166; -0.700467; 4.153567;,
    -4.585307; -0.259911; 8.100706;,
    -0.794040; -0.700467; 3.905722;,
    -0.794040; -0.700468; 3.507503;,
    0.345368; -0.700467; 4.349204;,
    0.638160; -0.700467; 4.153567;,
    6.484595; -0.259911; 3.515404;,
    0.799460; -0.700467; 3.905722;,
    0.799460; -0.700467; 3.507503;,
    -6.484595; -0.259911; 3.515410;,
    -5.990991; -0.259911; 5.996952;,
    -0.594847; -0.700474; 3.109290;,
    -0.395665; -0.700468; 2.711066;,
    0.401093; -0.700476; 2.711074;,
    0.280777; -0.949105; 3.951942;,
    0.280777; -0.949104; 4.091318;,
    0.141346; -0.949105; 3.673189;,
    0.224322; -0.949104; 4.178064;,
    -0.137517; -0.949106; 3.673189;,
    0.121845; -0.949104; 4.246537;,
    -0.276948; -0.949105; 3.951942;,
    0.000965; -0.949104; 4.270582;,
    -0.276948; -0.949105; 4.091318;,
    -0.119915; -0.949105; 4.246537;,
    -0.222392; -0.949105; 4.178064;,
    0.401093; -0.700476; 2.711074;,
    -0.395665; -0.700468; 2.711066;,
    0.345368; -0.700467; 4.349204;,
    0.638160; -0.700467; 4.153567;,
    -0.000003; -0.700467; 4.417903;,
    -0.345375; -0.700467; 4.349205;,
    -0.638166; -0.700467; 4.153567;,
    0.799460; -0.700467; 3.507503;,
    0.799460; -0.700467; 3.905722;,
    -0.794040; -0.700467; 3.905722;,
    -0.794040; -0.700468; 3.507503;,
    0.401273; -0.259911; -4.892258;,
    0.599746; -1.599887; -5.694751;,
    -0.395477; -0.259911; -4.892258;,
    -0.595591; -1.599887; -5.694749;,
    -0.395477; -0.259911; -4.892258;,
    -0.595591; -1.599887; -5.694749;,
    -0.395456; -0.259911; -2.719782;,
    -0.595614; -1.599887; -3.503682;,
    0.401300; -0.259911; -2.719777;,
    0.599729; -1.599887; -3.503676;,
    0.401273; -0.259911; -4.892258;,
    0.599746; -1.599887; -5.694751;,
    -0.395456; -0.259911; -2.719782;,
    -0.595614; -1.599887; -3.503682;,
    0.401300; -0.259911; -2.719777;,
    0.599729; -1.599887; -3.503676;,
    -0.595614; -1.599887; -3.503682;,
    -0.594875; -1.599887; -1.390059;,
    -0.594855; -2.295932; -3.503117;,
    -0.594894; -2.294312; -1.389519;,
    -0.594882; -2.297544; -5.694201;,
    -0.634775; -2.300688; -9.919185;,
    -0.595591; -1.599887; -5.694749;,
    -0.634755; -1.599887; -9.919725;,
    -0.634775; -2.300688; -9.919185;,
    -1.595557; -2.356455; -9.998959;,
    -0.634755; -1.599887; -9.919725;,
    -1.595509; -1.599887; -9.999441;,
    -0.594875; -1.599887; -1.390059;,
    -1.590907; -1.599887; -1.110866;,
    -0.594894; -2.294312; -1.389519;,
    -1.590934; -2.349822; -1.110362;,
    -1.595557; -2.356455; -9.998959;,
    -1.590934; -2.349822; -1.110362;,
    -1.595509; -1.599887; -9.999441;,
    -1.590907; -1.599887; -1.110866;,
    -0.634755; -1.599887; -9.919725;,
    -1.595509; -1.599887; -9.999441;,
    -0.595591; -1.599887; -5.694749;,
    -1.590907; -1.599887; -1.110866;,
    -0.595614; -1.599887; -3.503682;,
    -0.594875; -1.599887; -1.390059;,
    -0.634775; -2.300688; -9.919185;,
    -0.594882; -2.297544; -5.694201;,
    -1.595557; -2.356455; -9.998959;,
    -0.594894; -2.294312; -1.389519;,
    -1.590934; -2.349822; -1.110362;,
    -0.595614; -1.599887; -3.503682;,
    -0.594855; -2.295932; -3.503117;,
    0.599729; -1.599887; -3.503676;,
    0.600686; -2.295924; -3.503125;,
    -0.594882; -2.297544; -5.694201;,
    0.600725; -2.297547; -5.694197;,
    -0.594855; -2.295932; -3.503117;,
    0.600686; -2.295924; -3.503125;,
    0.599746; -1.599887; -5.694751;,
    0.600725; -2.297547; -5.694197;,
    -0.595591; -1.599887; -5.694749;,
    -0.594882; -2.297544; -5.694201;,
    0.600686; -2.295924; -3.503125;,
    0.600631; -2.294312; -1.389519;,
    0.599729; -1.599887; -3.503676;,
    0.600675; -1.599887; -1.390059;,
    0.599746; -1.599887; -5.694751;,
    0.640574; -1.599887; -9.919704;,
    0.600725; -2.297547; -5.694197;,
    0.640521; -2.300728; -9.919145;,
    0.640574; -1.599887; -9.919704;,
    1.595240; -1.599887; -9.999426;,
    0.640521; -2.300728; -9.919145;,
    1.595209; -2.363130; -9.998926;,
    0.600631; -2.294312; -1.389519;,
    1.595169; -2.356452; -1.110376;,
    0.600675; -1.599887; -1.390059;,
    1.595218; -1.599887; -1.110855;,
    1.595169; -2.356452; -1.110376;,
    1.595209; -2.363130; -9.998926;,
    1.595218; -1.599887; -1.110855;,
    1.595240; -1.599887; -9.999426;,
    1.595218; -1.599887; -1.110855;,
    1.595240; -1.599887; -9.999426;,
    0.600675; -1.599887; -1.390059;,
    0.640574; -1.599887; -9.919704;,
    0.599729; -1.599887; -3.503676;,
    0.599746; -1.599887; -5.694751;,
    1.595209; -2.363130; -9.998926;,
    1.595169; -2.356452; -1.110376;,
    0.640521; -2.300728; -9.919145;,
    0.600631; -2.294312; -1.389519;,
    0.600725; -2.297547; -5.694197;;
    283;
    3;0, 1, 2;,
    3;1, 3, 2;,
    3;4, 5, 6;,
    3;5, 7, 6;,
    3;8, 9, 10;,
    3;9, 11, 10;,
    3;10, 11, 12;,
    3;11, 13, 12;,
    3;14, 15, 16;,
    3;15, 17, 16;,
    3;18, 19, 20;,
    3;19, 21, 20;,
    3;22, 23, 24;,
    3;23, 25, 24;,
    3;24, 25, 26;,
    3;27, 28, 29;,
    3;28, 30, 29;,
    3;31, 32, 33;,
    3;32, 34, 33;,
    3;35, 36, 37;,
    3;36, 38, 37;,
    3;39, 40, 41;,
    3;40, 42, 41;,
    3;43, 44, 45;,
    3;44, 46, 45;,
    3;47, 48, 49;,
    3;48, 50, 49;,
    3;51, 52, 53;,
    3;52, 54, 53;,
    3;52, 51, 55;,
    3;51, 56, 55;,
    3;57, 58, 59;,
    3;58, 60, 59;,
    3;61, 62, 63;,
    3;62, 64, 63;,
    3;65, 66, 67;,
    3;66, 68, 67;,
    3;67, 68, 69;,
    3;70, 71, 72;,
    3;71, 73, 72;,
    3;74, 75, 76;,
    3;75, 77, 76;,
    3;76, 77, 78;,
    3;77, 79, 78;,
    3;78, 79, 80;,
    3;81, 82, 83;,
    3;82, 84, 83;,
    3;83, 84, 85;,
    3;86, 87, 88;,
    3;87, 89, 88;,
    3;88, 89, 81;,
    3;89, 82, 81;,
    3;90, 91, 92;,
    3;91, 75, 92;,
    3;92, 75, 93;,
    3;75, 74, 93;,
    3;94, 95, 79;,
    3;95, 87, 79;,
    3;79, 87, 80;,
    3;87, 86, 80;,
    3;80, 86, 96;,
    3;86, 97, 96;,
    3;84, 98, 85;,
    3;98, 99, 85;,
    3;85, 99, 100;,
    3;99, 101, 100;,
    3;100, 101, 102;,
    3;101, 103, 102;,
    3;102, 103, 104;,
    3;103, 105, 104;,
    3;106, 107, 108;,
    3;107, 109, 108;,
    3;108, 109, 110;,
    3;109, 111, 110;,
    3;110, 111, 112;,
    3;111, 113, 112;,
    3;112, 113, 114;,
    3;113, 115, 114;,
    3;114, 115, 116;,
    3;115, 117, 116;,
    3;118, 109, 119;,
    3;109, 107, 119;,
    3;120, 113, 121;,
    3;113, 111, 121;,
    3;119, 107, 122;,
    3;107, 106, 122;,
    3;123, 115, 120;,
    3;115, 113, 120;,
    3;124, 117, 123;,
    3;117, 115, 123;,
    3;122, 106, 125;,
    3;106, 108, 125;,
    3;121, 111, 118;,
    3;111, 109, 118;,
    3;126, 110, 127;,
    3;110, 112, 127;,
    3;125, 108, 126;,
    3;108, 110, 126;,
    3;127, 112, 128;,
    3;112, 114, 128;,
    3;129, 116, 124;,
    3;116, 117, 124;,
    3;128, 114, 129;,
    3;114, 116, 129;,
    3;130, 131, 132;,
    3;131, 133, 132;,
    3;100, 134, 135;,
    3;134, 136, 135;,
    3;137, 101, 138;,
    3;101, 139, 138;,
    3;140, 141, 142;,
    3;143, 144, 145;,
    3;144, 146, 145;,
    3;147, 148, 149;,
    3;148, 150, 149;,
    3;93, 139, 92;,
    3;151, 152, 153;,
    3;154, 155, 156;,
    3;155, 157, 156;,
    3;158, 159, 160;,
    3;159, 161, 160;,
    3;162, 163, 164;,
    3;163, 165, 164;,
    3;166, 167, 168;,
    3;167, 169, 168;,
    3;170, 171, 172;,
    3;171, 173, 172;,
    3;174, 175, 176;,
    3;175, 177, 176;,
    3;178, 179, 180;,
    3;179, 138, 180;,
    3;181, 182, 183;,
    3;182, 184, 183;,
    3;185, 186, 187;,
    3;186, 188, 187;,
    3;168, 189, 190;,
    3;190, 191, 168;,
    3;191, 166, 168;,
    3;192, 193, 167;,
    3;193, 194, 167;,
    3;195, 196, 197;,
    3;196, 198, 197;,
    3;199, 200, 201;,
    3;200, 202, 201;,
    3;203, 204, 205;,
    3;204, 206, 205;,
    3;207, 208, 191;,
    3;208, 166, 191;,
    3;209, 210, 211;,
    3;210, 212, 211;,
    3;194, 213, 167;,
    3;213, 169, 167;,
    3;74, 214, 139;,
    3;214, 180, 139;,
    3;213, 215, 169;,
    3;216, 217, 218;,
    3;217, 219, 218;,
    3;220, 221, 135;,
    3;221, 85, 135;,
    3;136, 222, 220;,
    3;222, 223, 220;,
    3;220, 135, 136;,
    3;224, 225, 226;,
    3;225, 227, 226;,
    3;228, 224, 229;,
    3;224, 226, 229;,
    3;230, 228, 231;,
    3;228, 229, 231;,
    3;200, 230, 202;,
    3;230, 231, 202;,
    3;139, 180, 138;,
    3;171, 232, 173;,
    3;232, 233, 173;,
    3;232, 234, 233;,
    3;234, 235, 233;,
    3;234, 236, 235;,
    3;236, 237, 235;,
    3;236, 238, 237;,
    3;238, 239, 237;,
    3;240, 241, 242;,
    3;241, 243, 242;,
    3;242, 243, 244;,
    3;243, 245, 244;,
    3;244, 245, 246;,
    3;242, 244, 247;,
    3;244, 248, 247;,
    3;247, 248, 249;,
    3;248, 250, 249;,
    3;240, 251, 241;,
    3;251, 252, 241;,
    3;241, 252, 253;,
    3;252, 254, 253;,
    3;253, 254, 255;,
    3;250, 248, 256;,
    3;248, 257, 256;,
    3;189, 168, 258;,
    3;168, 259, 258;,
    3;256, 189, 250;,
    3;189, 258, 250;,
    3;168, 169, 259;,
    3;169, 260, 259;,
    3;215, 260, 169;,
    3;253, 260, 215;,
    3;253, 255, 260;,
    3;261, 262, 263;,
    3;262, 264, 263;,
    3;263, 264, 265;,
    3;264, 266, 265;,
    3;265, 266, 267;,
    3;266, 268, 267;,
    3;267, 268, 269;,
    3;268, 270, 269;,
    3;269, 270, 271;,
    3;272, 263, 273;,
    3;263, 265, 273;,
    3;274, 266, 275;,
    3;266, 264, 275;,
    3;276, 268, 274;,
    3;268, 266, 274;,
    3;277, 270, 276;,
    3;270, 268, 276;,
    3;278, 271, 277;,
    3;271, 270, 277;,
    3;279, 261, 272;,
    3;261, 263, 272;,
    3;280, 262, 279;,
    3;262, 261, 279;,
    3;275, 264, 280;,
    3;264, 262, 280;,
    3;281, 269, 278;,
    3;269, 271, 278;,
    3;282, 267, 281;,
    3;267, 269, 281;,
    3;282, 273, 267;,
    3;273, 265, 267;,
    3;283, 284, 285;,
    3;284, 286, 285;,
    3;287, 288, 289;,
    3;288, 290, 289;,
    3;291, 292, 293;,
    3;292, 294, 293;,
    3;295, 296, 297;,
    3;296, 298, 297;,
    3;299, 300, 301;,
    3;300, 302, 301;,
    3;303, 304, 305;,
    3;304, 306, 305;,
    3;307, 308, 309;,
    3;308, 310, 309;,
    3;311, 312, 313;,
    3;312, 314, 313;,
    3;315, 316, 317;,
    3;316, 318, 317;,
    3;319, 320, 321;,
    3;320, 322, 321;,
    3;321, 322, 323;,
    3;322, 324, 323;,
    3;325, 326, 327;,
    3;326, 328, 327;,
    3;327, 328, 329;,
    3;330, 331, 332;,
    3;331, 333, 332;,
    3;334, 335, 336;,
    3;335, 337, 336;,
    3;338, 339, 340;,
    3;339, 341, 340;,
    3;342, 343, 344;,
    3;343, 345, 344;,
    3;346, 347, 348;,
    3;347, 349, 348;,
    3;350, 351, 352;,
    3;351, 353, 352;,
    3;354, 355, 356;,
    3;355, 357, 356;,
    3;358, 359, 360;,
    3;359, 361, 360;,
    3;362, 363, 364;,
    3;363, 365, 364;,
    3;364, 365, 366;,
    3;365, 367, 366;,
    3;368, 369, 370;,
    3;369, 371, 370;,
    3;370, 371, 372;;

   MeshNormals {
    373;
    -0.239244; -0.590605; -0.770680;,
    0.355107; -0.584498; -0.729562;,
    0.424850; 0.807673; -0.408860;,
    0.624553; 0.549748; -0.554717;,
    0.577346; 0.577864; 0.576840;,
    0.689615; 0.521756; 0.502196;,
    -0.288976; -0.228910; 0.929566;,
    0.474788; -0.564279; 0.675401;,
    0.355107; -0.584498; -0.729562;,
    -0.239244; -0.590605; -0.770680;,
    -0.762574; -0.406877; -0.502923;,
    -0.288976; -0.228910; 0.929566;,
    -0.725514; -0.441103; 0.528259;,
    0.474788; -0.564279; 0.675401;,
    0.689615; 0.521756; 0.502196;,
    -0.439603; 0.646974; 0.623036;,
    0.474788; -0.564279; 0.675401;,
    -0.725514; -0.441103; 0.528259;,
    -0.762574; -0.406877; -0.502923;,
    -0.725514; -0.441103; 0.528259;,
    -0.523283; 0.602872; -0.602262;,
    -0.439603; 0.646974; 0.623036;,
    -0.523283; 0.602872; -0.602262;,
    -0.439603; 0.646974; 0.623036;,
    0.624553; 0.549748; -0.554717;,
    0.689615; 0.521756; 0.502196;,
    0.424850; 0.807673; -0.408860;,
    0.355107; -0.584498; -0.729562;,
    -0.762574; -0.406877; -0.502923;,
    0.624553; 0.549748; -0.554717;,
    -0.523283; 0.602872; -0.602262;,
    -0.239244; -0.590605; -0.770680;,
    0.424850; 0.807673; -0.408860;,
    -0.001292; -0.814246; -0.580519;,
    -0.421900; 0.808941; -0.409409;,
    -0.020655; -0.328604; 0.944242;,
    -0.577355; 0.577825; 0.576871;,
    -0.288976; -0.228910; 0.929566;,
    0.577346; 0.577864; 0.576840;,
    -0.421900; 0.808941; -0.409409;,
    0.424850; 0.807673; -0.408860;,
    -0.577355; 0.577825; 0.576871;,
    0.577346; 0.577864; 0.576840;,
    -0.020655; -0.328604; 0.944242;,
    -0.682720; -0.523816; 0.509421;,
    -0.577355; 0.577825; 0.576871;,
    -0.687160; 0.523523; 0.503720;,
    -0.421900; 0.808941; -0.409409;,
    -0.621634; 0.551522; -0.556233;,
    -0.001292; -0.814246; -0.580519;,
    -0.592280; -0.566181; -0.573274;,
    0.314589; -0.854849; 0.412635;,
    -0.001292; -0.814246; -0.580519;,
    0.558554; -0.585640; -0.587404;,
    -0.592280; -0.566181; -0.573274;,
    -0.020655; -0.328604; 0.944242;,
    -0.682720; -0.523816; 0.509421;,
    -0.682720; -0.523816; 0.509421;,
    0.314589; -0.854849; 0.412635;,
    -0.687160; 0.523523; 0.503720;,
    0.444095; 0.645660; 0.621211;,
    0.314589; -0.854849; 0.412635;,
    0.558554; -0.585640; -0.587404;,
    0.444095; 0.645660; 0.621211;,
    0.526804; 0.601281; -0.600782;,
    -0.621634; 0.551522; -0.556233;,
    -0.421900; 0.808941; -0.409409;,
    0.526804; 0.601281; -0.600782;,
    -0.687160; 0.523523; 0.503720;,
    0.444095; 0.645660; 0.621211;,
    -0.621634; 0.551522; -0.556233;,
    0.526804; 0.601281; -0.600782;,
    -0.592280; -0.566181; -0.573274;,
    0.558554; -0.585640; -0.587404;,
    0.753221; 0.574018; -0.321188;,
    0.555634; 0.823438; -0.114987;,
    0.794872; 0.606774; -0.001975;,
    0.444139; 0.889558; 0.106900;,
    0.716861; 0.636243; 0.285140;,
    0.536998; 0.651886; 0.535423;,
    0.692742; 0.296928; 0.657223;,
    -0.579278; 0.786094; 0.215622;,
    -0.318478; 0.945928; -0.061582;,
    -0.776703; 0.629584; -0.018874;,
    -0.475602; 0.836659; -0.271667;,
    -0.736991; 0.593566; -0.323301;,
    -0.393719; 0.293108; 0.871248;,
    -0.535864; 0.641395; 0.549056;,
    -0.556698; 0.631212; 0.540054;,
    -0.447405; 0.886063; 0.121329;,
    0.372410; 0.702903; -0.606002;,
    0.705658; 0.578926; -0.408524;,
    0.698042; -0.035792; -0.715162;,
    0.698042; -0.035792; -0.715162;,
    0.219956; -0.017136; 0.975359;,
    0.000000; -1.000000; -0.000003;,
    0.374240; -0.208903; 0.903495;,
    -0.000000; -0.208925; 0.977932;,
    0.000000; -1.000000; 0.000002;,
    0.000000; -1.000000; 0.000002;,
    -0.523101; -0.039652; -0.851348;,
    0.234297; -0.033661; -0.971582;,
    0.000000; -1.000000; 0.000002;,
    0.000000; -1.000000; 0.000002;,
    0.000000; -0.657772; 0.753217;,
    0.000000; -0.657772; 0.753217;,
    0.365455; 0.927317; -0.080779;,
    0.302700; 0.936837; -0.175241;,
    0.423349; 0.899508; 0.107986;,
    0.143446; 0.961737; -0.233422;,
    0.364264; 0.845880; 0.389613;,
    -0.143496; 0.961720; -0.233458;,
    0.143466; 0.758091; 0.636173;,
    -0.302813; 0.936788; -0.175306;,
    -0.143496; 0.758023; 0.636247;,
    -0.365617; 0.927251; -0.080812;,
    -0.364409; 0.845759; 0.389740;,
    -0.423553; 0.899406; 0.108037;,
    0.372410; 0.702903; -0.606002;,
    0.705658; 0.578926; -0.408524;,
    -0.475602; 0.836659; -0.271667;,
    -0.212776; 0.913725; -0.346168;,
    0.555634; 0.823438; -0.114987;,
    -0.318478; 0.945928; -0.061582;,
    -0.447405; 0.886063; 0.121329;,
    0.444139; 0.889558; 0.106900;,
    0.536998; 0.651886; 0.535423;,
    0.219956; -0.017136; 0.975359;,
    -0.190937; 0.496816; 0.846592;,
    -0.535864; 0.641395; 0.549056;,
    0.418319; 0.899954; 0.122850;,
    -0.020655; -0.328604; 0.944242;,
    -0.422819; 0.897923; 0.122305;,
    -0.288976; -0.228910; 0.929566;,
    -0.721606; 0.690737; -0.046542;,
    -0.013837; 0.999651; -0.022520;,
    -0.422819; 0.897923; 0.122305;,
    0.712680; 0.699971; -0.046131;,
    0.418319; 0.899954; 0.122850;,
    0.016446; 0.999439; -0.029169;,
    0.595107; 0.660467; 0.457854;,
    0.712680; 0.699971; -0.046131;,
    0.418319; 0.899954; 0.122850;,
    0.595107; 0.660467; 0.457854;,
    0.418319; 0.899954; 0.122850;,
    -0.594964; 0.660393; 0.458147;,
    -0.422819; 0.897923; 0.122305;,
    -0.020655; -0.328604; 0.944242;,
    0.418319; 0.899954; 0.122850;,
    -0.001292; -0.814246; -0.580519;,
    0.723935; 0.268010; -0.635679;,
    -0.422819; 0.897923; 0.122305;,
    -0.721606; 0.690737; -0.046542;,
    -0.594964; 0.660393; 0.458147;,
    -0.001292; -0.814246; -0.580519;,
    0.723935; 0.268010; -0.635679;,
    -0.239244; -0.590605; -0.770680;,
    -0.723975; 0.267738; -0.635750;,
    -0.239244; -0.590605; -0.770680;,
    -0.723975; 0.267738; -0.635750;,
    -0.288976; -0.228910; 0.929566;,
    -0.422819; 0.897923; 0.122305;,
    0.000000; -0.657772; 0.753217;,
    0.595107; 0.660467; 0.457854;,
    0.000000; -0.657772; 0.753217;,
    -0.594964; 0.660393; 0.458147;,
    -0.274370; -0.931337; 0.239444;,
    0.274327; -0.931368; 0.239370;,
    -0.012013; -0.999491; -0.029541;,
    0.012022; -0.999491; -0.029550;,
    0.031899; -0.203083; 0.978642;,
    0.394279; -0.201034; 0.896733;,
    -0.000000; -0.208925; 0.977932;,
    0.374240; -0.208903; 0.903495;,
    0.309934; -0.715890; -0.625653;,
    0.406972; -0.817007; -0.408502;,
    0.368727; 0.556782; -0.744335;,
    0.300493; 0.904836; -0.301623;,
    0.577344; 0.577347; -0.577360;,
    0.723935; 0.268010; -0.635679;,
    0.300493; 0.904836; -0.301623;,
    -0.301516; 0.904529; -0.301522;,
    -0.577365; 0.577318; -0.577367;,
    -0.408227; -0.816514; -0.408235;,
    -0.577334; -0.577381; -0.577336;,
    -0.736991; 0.593566; -0.323301;,
    -0.377615; 0.556808; -0.739846;,
    -0.577653; -0.774819; -0.256852;,
    -0.316410; -0.718034; -0.619929;,
    -0.577653; -0.774819; -0.256852;,
    -0.316410; -0.718034; -0.619929;,
    -0.408227; -0.816514; -0.408235;,
    0.731255; -0.251135; -0.634190;,
    0.577346; -0.577343; -0.577361;,
    0.406972; -0.817007; -0.408502;,
    -0.408227; -0.816514; -0.408235;,
    -0.316410; -0.718034; -0.619929;,
    -0.301516; 0.904529; -0.301522;,
    -0.377615; 0.556808; -0.739846;,
    -0.577653; -0.774819; -0.256852;,
    -0.821767; -0.569711; 0.011336;,
    -0.736991; 0.593566; -0.323301;,
    -0.776703; 0.629584; -0.018874;,
    0.577346; -0.577343; -0.577361;,
    -0.577334; -0.577381; -0.577336;,
    0.577344; 0.577347; -0.577360;,
    -0.577365; 0.577318; -0.577367;,
    -0.577334; -0.577381; -0.577336;,
    -0.731353; -0.250307; -0.634405;,
    0.406972; -0.817007; -0.408502;,
    0.577346; -0.577343; -0.577361;,
    0.300493; 0.904836; -0.301623;,
    0.577344; 0.577347; -0.577360;,
    0.309934; -0.715890; -0.625653;,
    0.368727; 0.556782; -0.744335;,
    0.566552; -0.783088; -0.256498;,
    0.566552; -0.783088; -0.256498;,
    0.309934; -0.715890; -0.625653;,
    0.753221; 0.574018; -0.321188;,
    0.368727; 0.556782; -0.744335;,
    -0.301516; 0.904529; -0.301522;,
    -0.377615; 0.556808; -0.739846;,
    -0.723975; 0.267738; -0.635750;,
    -0.577365; 0.577318; -0.577367;,
    -0.289817; -0.578482; 0.762473;,
    0.031899; -0.203083; 0.978642;,
    -0.393719; 0.293108; 0.871248;,
    -0.000000; -0.208925; 0.977932;,
    -0.582339; -0.566874; 0.582697;,
    -0.556698; 0.631212; 0.540054;,
    -0.902330; -0.199809; 0.381939;,
    -0.579278; 0.786094; 0.215622;,
    0.698019; -0.199953; 0.687596;,
    0.692742; 0.296928; 0.657223;,
    0.879643; 0.296214; 0.372136;,
    0.716861; 0.636243; 0.285140;,
    0.972247; -0.232316; -0.027675;,
    0.794872; 0.606774; -0.001975;,
    0.566552; -0.783088; -0.256498;,
    0.753221; 0.574018; -0.321188;,
    0.031124; -0.499327; 0.865854;,
    0.879643; 0.296214; 0.372136;,
    -0.161023; -0.880631; 0.445602;,
    0.698019; -0.199953; 0.687596;,
    -0.289817; -0.578482; 0.762473;,
    0.394279; -0.201034; 0.896733;,
    0.031899; -0.203083; 0.978642;,
    -0.343278; -0.867557; 0.359869;,
    -0.582339; -0.566874; 0.582697;,
    -0.337328; -0.932152; 0.131538;,
    -0.189583; -0.981781; -0.012812;,
    0.369803; -0.091209; 0.924622;,
    0.657725; -0.316960; 0.683326;,
    0.972247; -0.232316; -0.027675;,
    0.769178; -0.579788; 0.268723;,
    0.407717; -0.907952; -0.096906;,
    -0.821767; -0.569711; 0.011336;,
    -0.902330; -0.199809; 0.381939;,
    -0.067832; -0.996962; -0.038287;,
    -0.094782; -0.985545; -0.140416;,
    0.088416; -0.990814; -0.102326;,
    0.253997; -0.965726; -0.053471;,
    0.324207; -0.939181; 0.113267;,
    0.106510; -0.984675; -0.138097;,
    0.332216; -0.877785; 0.345147;,
    -0.106713; -0.984638; -0.138205;,
    0.221794; -0.802046; 0.554553;,
    -0.254591; -0.965563; -0.053578;,
    0.000044; -0.763472; 0.645840;,
    -0.324175; -0.939662; 0.109294;,
    -0.221325; -0.802819; 0.553621;,
    -0.331675; -0.879787; 0.340540;,
    0.088416; -0.990814; -0.102326;,
    -0.094782; -0.985545; -0.140416;,
    0.369803; -0.091209; 0.924622;,
    0.657725; -0.316960; 0.683326;,
    0.031124; -0.499327; 0.865854;,
    -0.161023; -0.880631; 0.445602;,
    -0.343278; -0.867557; 0.359869;,
    0.407717; -0.907952; -0.096906;,
    0.769178; -0.579788; 0.268723;,
    -0.337328; -0.932152; 0.131538;,
    -0.189583; -0.981781; -0.012812;,
    0.731255; -0.251135; -0.634190;,
    -0.004298; 0.664243; -0.747504;,
    -0.731353; -0.250307; -0.634405;,
    0.004373; 0.664535; -0.747245;,
    -0.731353; -0.250307; -0.634405;,
    0.004373; 0.664535; -0.747245;,
    -0.274370; -0.931337; 0.239444;,
    0.005567; 0.326531; 0.945170;,
    0.274327; -0.931368; 0.239370;,
    -0.005472; 0.325963; 0.945367;,
    0.731255; -0.251135; -0.634190;,
    -0.004298; 0.664243; -0.747504;,
    -0.274370; -0.931337; 0.239444;,
    0.005567; 0.326531; 0.945170;,
    0.274327; -0.931368; 0.239370;,
    -0.005472; 0.325963; 0.945367;,
    0.005567; 0.326531; 0.945170;,
    0.674912; 0.531791; 0.511558;,
    0.577427; -0.576973; 0.577651;,
    0.674814; -0.531345; 0.512150;,
    0.407353; -0.815622; -0.410883;,
    0.606532; -0.560906; -0.563475;,
    0.004373; 0.664535; -0.747245;,
    0.606881; 0.560127; -0.563874;,
    0.606532; -0.560906; -0.563475;,
    -0.545207; -0.594343; -0.591190;,
    0.606881; 0.560127; -0.563874;,
    -0.545019; 0.593849; -0.591860;,
    0.674912; 0.531791; 0.511558;,
    -0.465253; 0.637676; 0.613929;,
    0.674814; -0.531345; 0.512150;,
    -0.465702; -0.636854; 0.614442;,
    -0.545207; -0.594343; -0.591190;,
    -0.465702; -0.636854; 0.614442;,
    -0.545019; 0.593849; -0.591860;,
    -0.465253; 0.637676; 0.613929;,
    0.606881; 0.560127; -0.563874;,
    -0.545019; 0.593849; -0.591860;,
    0.004373; 0.664535; -0.747245;,
    -0.465253; 0.637676; 0.613929;,
    0.005567; 0.326531; 0.945170;,
    0.674912; 0.531791; 0.511558;,
    0.606532; -0.560906; -0.563475;,
    0.407353; -0.815622; -0.410883;,
    -0.545207; -0.594343; -0.591190;,
    0.674814; -0.531345; 0.512150;,
    -0.465702; -0.636854; 0.614442;,
    0.005567; 0.326531; 0.945170;,
    0.577427; -0.576973; 0.577651;,
    -0.005472; 0.325963; 0.945367;,
    -0.577380; -0.576876; 0.577794;,
    0.407353; -0.815622; -0.410883;,
    -0.428784; -0.806608; -0.406851;,
    0.577427; -0.576973; 0.577651;,
    -0.577380; -0.576876; 0.577794;,
    -0.004298; 0.664243; -0.747504;,
    -0.428784; -0.806608; -0.406851;,
    0.004373; 0.664535; -0.747245;,
    0.407353; -0.815622; -0.410883;,
    -0.577380; -0.576876; 0.577794;,
    -0.692932; -0.518542; 0.500958;,
    -0.005472; 0.325963; 0.945367;,
    -0.674937; 0.531732; 0.511586;,
    -0.004298; 0.664243; -0.747504;,
    -0.606980; 0.560048; -0.563845;,
    -0.428784; -0.806608; -0.406851;,
    -0.628723; -0.547992; -0.551736;,
    -0.606980; 0.560048; -0.563845;,
    0.544761; 0.593800; -0.592146;,
    -0.628723; -0.547992; -0.551736;,
    0.518066; -0.605712; -0.603921;,
    -0.692932; -0.518542; 0.500958;,
    0.433547; -0.648112; 0.626089;,
    -0.674937; 0.531732; 0.511586;,
    0.465231; 0.637849; 0.613766;,
    0.433547; -0.648112; 0.626089;,
    0.518066; -0.605712; -0.603921;,
    0.465231; 0.637849; 0.613766;,
    0.544761; 0.593800; -0.592146;,
    0.465231; 0.637849; 0.613766;,
    0.544761; 0.593800; -0.592146;,
    -0.674937; 0.531732; 0.511586;,
    -0.606980; 0.560048; -0.563845;,
    -0.005472; 0.325963; 0.945367;,
    -0.004298; 0.664243; -0.747504;,
    0.518066; -0.605712; -0.603921;,
    0.433547; -0.648112; 0.626089;,
    -0.628723; -0.547992; -0.551736;,
    -0.692932; -0.518542; 0.500958;,
    -0.428784; -0.806608; -0.406851;;
    283;
    3;0, 1, 2;,
    3;1, 3, 2;,
    3;4, 5, 6;,
    3;5, 7, 6;,
    3;8, 9, 10;,
    3;9, 11, 10;,
    3;10, 11, 12;,
    3;11, 13, 12;,
    3;14, 15, 16;,
    3;15, 17, 16;,
    3;18, 19, 20;,
    3;19, 21, 20;,
    3;22, 23, 24;,
    3;23, 25, 24;,
    3;24, 25, 26;,
    3;27, 28, 29;,
    3;28, 30, 29;,
    3;31, 32, 33;,
    3;32, 34, 33;,
    3;35, 36, 37;,
    3;36, 38, 37;,
    3;39, 40, 41;,
    3;40, 42, 41;,
    3;43, 44, 45;,
    3;44, 46, 45;,
    3;47, 48, 49;,
    3;48, 50, 49;,
    3;51, 52, 53;,
    3;52, 54, 53;,
    3;52, 51, 55;,
    3;51, 56, 55;,
    3;57, 58, 59;,
    3;58, 60, 59;,
    3;61, 62, 63;,
    3;62, 64, 63;,
    3;65, 66, 67;,
    3;66, 68, 67;,
    3;67, 68, 69;,
    3;70, 71, 72;,
    3;71, 73, 72;,
    3;74, 75, 76;,
    3;75, 77, 76;,
    3;76, 77, 78;,
    3;77, 79, 78;,
    3;78, 79, 80;,
    3;81, 82, 83;,
    3;82, 84, 83;,
    3;83, 84, 85;,
    3;86, 87, 88;,
    3;87, 89, 88;,
    3;88, 89, 81;,
    3;89, 82, 81;,
    3;90, 91, 92;,
    3;91, 75, 92;,
    3;92, 75, 93;,
    3;75, 74, 93;,
    3;94, 95, 79;,
    3;95, 87, 79;,
    3;79, 87, 80;,
    3;87, 86, 80;,
    3;80, 86, 96;,
    3;86, 97, 96;,
    3;84, 98, 85;,
    3;98, 99, 85;,
    3;85, 99, 100;,
    3;99, 101, 100;,
    3;100, 101, 102;,
    3;101, 103, 102;,
    3;102, 103, 104;,
    3;103, 105, 104;,
    3;106, 107, 108;,
    3;107, 109, 108;,
    3;108, 109, 110;,
    3;109, 111, 110;,
    3;110, 111, 112;,
    3;111, 113, 112;,
    3;112, 113, 114;,
    3;113, 115, 114;,
    3;114, 115, 116;,
    3;115, 117, 116;,
    3;118, 109, 119;,
    3;109, 107, 119;,
    3;120, 113, 121;,
    3;113, 111, 121;,
    3;119, 107, 122;,
    3;107, 106, 122;,
    3;123, 115, 120;,
    3;115, 113, 120;,
    3;124, 117, 123;,
    3;117, 115, 123;,
    3;122, 106, 125;,
    3;106, 108, 125;,
    3;121, 111, 118;,
    3;111, 109, 118;,
    3;126, 110, 127;,
    3;110, 112, 127;,
    3;125, 108, 126;,
    3;108, 110, 126;,
    3;127, 112, 128;,
    3;112, 114, 128;,
    3;129, 116, 124;,
    3;116, 117, 124;,
    3;128, 114, 129;,
    3;114, 116, 129;,
    3;130, 131, 132;,
    3;131, 133, 132;,
    3;100, 134, 135;,
    3;134, 136, 135;,
    3;137, 101, 138;,
    3;101, 139, 138;,
    3;140, 141, 142;,
    3;143, 144, 145;,
    3;144, 146, 145;,
    3;147, 148, 149;,
    3;148, 150, 149;,
    3;93, 139, 92;,
    3;151, 152, 153;,
    3;154, 155, 156;,
    3;155, 157, 156;,
    3;158, 159, 160;,
    3;159, 161, 160;,
    3;162, 163, 164;,
    3;163, 165, 164;,
    3;166, 167, 168;,
    3;167, 169, 168;,
    3;170, 171, 172;,
    3;171, 173, 172;,
    3;174, 175, 176;,
    3;175, 177, 176;,
    3;178, 179, 180;,
    3;179, 138, 180;,
    3;181, 182, 183;,
    3;182, 184, 183;,
    3;185, 186, 187;,
    3;186, 188, 187;,
    3;168, 189, 190;,
    3;190, 191, 168;,
    3;191, 166, 168;,
    3;192, 193, 167;,
    3;193, 194, 167;,
    3;195, 196, 197;,
    3;196, 198, 197;,
    3;199, 200, 201;,
    3;200, 202, 201;,
    3;203, 204, 205;,
    3;204, 206, 205;,
    3;207, 208, 191;,
    3;208, 166, 191;,
    3;209, 210, 211;,
    3;210, 212, 211;,
    3;194, 213, 167;,
    3;213, 169, 167;,
    3;74, 214, 139;,
    3;214, 180, 139;,
    3;213, 215, 169;,
    3;216, 217, 218;,
    3;217, 219, 218;,
    3;220, 221, 135;,
    3;221, 85, 135;,
    3;136, 222, 220;,
    3;222, 223, 220;,
    3;220, 135, 136;,
    3;224, 225, 226;,
    3;225, 227, 226;,
    3;228, 224, 229;,
    3;224, 226, 229;,
    3;230, 228, 231;,
    3;228, 229, 231;,
    3;200, 230, 202;,
    3;230, 231, 202;,
    3;139, 180, 138;,
    3;171, 232, 173;,
    3;232, 233, 173;,
    3;232, 234, 233;,
    3;234, 235, 233;,
    3;234, 236, 235;,
    3;236, 237, 235;,
    3;236, 238, 237;,
    3;238, 239, 237;,
    3;240, 241, 242;,
    3;241, 243, 242;,
    3;242, 243, 244;,
    3;243, 245, 244;,
    3;244, 245, 246;,
    3;242, 244, 247;,
    3;244, 248, 247;,
    3;247, 248, 249;,
    3;248, 250, 249;,
    3;240, 251, 241;,
    3;251, 252, 241;,
    3;241, 252, 253;,
    3;252, 254, 253;,
    3;253, 254, 255;,
    3;250, 248, 256;,
    3;248, 257, 256;,
    3;189, 168, 258;,
    3;168, 259, 258;,
    3;256, 189, 250;,
    3;189, 258, 250;,
    3;168, 169, 259;,
    3;169, 260, 259;,
    3;215, 260, 169;,
    3;253, 260, 215;,
    3;253, 255, 260;,
    3;261, 262, 263;,
    3;262, 264, 263;,
    3;263, 264, 265;,
    3;264, 266, 265;,
    3;265, 266, 267;,
    3;266, 268, 267;,
    3;267, 268, 269;,
    3;268, 270, 269;,
    3;269, 270, 271;,
    3;272, 263, 273;,
    3;263, 265, 273;,
    3;274, 266, 275;,
    3;266, 264, 275;,
    3;276, 268, 274;,
    3;268, 266, 274;,
    3;277, 270, 276;,
    3;270, 268, 276;,
    3;278, 271, 277;,
    3;271, 270, 277;,
    3;279, 261, 272;,
    3;261, 263, 272;,
    3;280, 262, 279;,
    3;262, 261, 279;,
    3;275, 264, 280;,
    3;264, 262, 280;,
    3;281, 269, 278;,
    3;269, 271, 278;,
    3;282, 267, 281;,
    3;267, 269, 281;,
    3;282, 273, 267;,
    3;273, 265, 267;,
    3;283, 284, 285;,
    3;284, 286, 285;,
    3;287, 288, 289;,
    3;288, 290, 289;,
    3;291, 292, 293;,
    3;292, 294, 293;,
    3;295, 296, 297;,
    3;296, 298, 297;,
    3;299, 300, 301;,
    3;300, 302, 301;,
    3;303, 304, 305;,
    3;304, 306, 305;,
    3;307, 308, 309;,
    3;308, 310, 309;,
    3;311, 312, 313;,
    3;312, 314, 313;,
    3;315, 316, 317;,
    3;316, 318, 317;,
    3;319, 320, 321;,
    3;320, 322, 321;,
    3;321, 322, 323;,
    3;322, 324, 323;,
    3;325, 326, 327;,
    3;326, 328, 327;,
    3;327, 328, 329;,
    3;330, 331, 332;,
    3;331, 333, 332;,
    3;334, 335, 336;,
    3;335, 337, 336;,
    3;338, 339, 340;,
    3;339, 341, 340;,
    3;342, 343, 344;,
    3;343, 345, 344;,
    3;346, 347, 348;,
    3;347, 349, 348;,
    3;350, 351, 352;,
    3;351, 353, 352;,
    3;354, 355, 356;,
    3;355, 357, 356;,
    3;358, 359, 360;,
    3;359, 361, 360;,
    3;362, 363, 364;,
    3;363, 365, 364;,
    3;364, 365, 366;,
    3;365, 367, 366;,
    3;368, 369, 370;,
    3;369, 371, 370;,
    3;370, 371, 372;;
   }

   MeshTextureCoords {
    373;
    0.532502; 0.810380;,
    0.779243; 0.810996;,
    0.532534; 0.779732;,
    0.779276; 0.779853;,
    0.404575; 0.779627;,
    0.281137; 0.779526;,
    0.404543; 0.810339;,
    0.281104; 0.810674;,
    0.440285; 0.487607;,
    0.438164; 0.252913;,
    0.491613; 0.492040;,
    0.438164; 0.131201;,
    0.491367; -0.001716;,
    0.438154; 0.013790;,
    0.183250; 0.765295;,
    0.232367; 0.767817;,
    0.183248; 0.734821;,
    0.232367; 0.733392;,
    0.295087; 0.750221;,
    0.779824; 0.749885;,
    0.295058; 0.715113;,
    0.779795; 0.714697;,
    0.491615; 0.492069;,
    0.491367; -0.001686;,
    0.440284; 0.487639;,
    0.438156; 0.013821;,
    0.438153; 0.252944;,
    0.183618; 0.674898;,
    0.230998; 0.673456;,
    0.183618; 0.705366;,
    0.231000; 0.707802;,
    0.265984; 0.992091;,
    0.266000; 0.940139;,
    0.363253; 0.992091;,
    0.363284; 0.940130;,
    0.475624; 0.989037;,
    0.475656; 0.941811;,
    0.382986; 0.989037;,
    0.382999; 0.941818;,
    0.244957; 0.976608;,
    0.147620; 0.976608;,
    0.244960; 0.798215;,
    0.147617; 0.798215;,
    0.404543; 0.810339;,
    0.281104; 0.810674;,
    0.404575; 0.779623;,
    0.281137; 0.779523;,
    0.532534; 0.779727;,
    0.779276; 0.779845;,
    0.532502; 0.810380;,
    0.779243; 0.810996;,
    0.491487; -0.001134;,
    0.438337; 0.253495;,
    0.491487; 0.492621;,
    0.440489; 0.488189;,
    0.438337; 0.131783;,
    0.438358; 0.014371;,
    0.232216; 0.733831;,
    0.179162; 0.732399;,
    0.232215; 0.764358;,
    0.179162; 0.766889;,
    0.779824; 0.749885;,
    0.295087; 0.750220;,
    0.779795; 0.714690;,
    0.295058; 0.715110;,
    0.440488; 0.488220;,
    0.438357; 0.253525;,
    0.491489; 0.492651;,
    0.438360; 0.014402;,
    0.491487; -0.001105;,
    0.230376; 0.706129;,
    0.179446; 0.708564;,
    0.230375; 0.675602;,
    0.179448; 0.674157;,
    0.408297; 0.297916;,
    0.249318; 0.218846;,
    0.424104; 0.219278;,
    0.249318; 0.205903;,
    0.408298; 0.140640;,
    0.242776; 0.192961;,
    0.363284; 0.073974;,
    0.024608; 0.140640;,
    0.183899; 0.218846;,
    0.008802; 0.219278;,
    0.190441; 0.231789;,
    0.024608; 0.297916;,
    0.136988; 0.029430;,
    0.190441; 0.192961;,
    0.069621; 0.073974;,
    0.183899; 0.205903;,
    0.229692; 0.251203;,
    0.242776; 0.231789;,
    0.266241; 0.338131;,
    0.368512; 0.337287;,
    0.229693; 0.186489;,
    0.203525; 0.186489;,
    0.295917; 0.029430;,
    0.216453; 0.013788;,
    0.203525; 0.251203;,
    0.229692; 0.251203;,
    0.065144; 0.338030;,
    0.266103; 0.338030;,
    0.203494; 0.338030;,
    0.229662; 0.338030;,
    0.203495; 0.336668;,
    0.229663; 0.336668;,
    0.896940; 0.709355;,
    0.890850; 0.721651;,
    0.896940; 0.697059;,
    0.878669; 0.740094;,
    0.890850; 0.684763;,
    0.854309; 0.740094;,
    0.878669; 0.678615;,
    0.842129; 0.721651;,
    0.854309; 0.678615;,
    0.836039; 0.709355;,
    0.842129; 0.684763;,
    0.836039; 0.697059;,
    0.890860; 0.791285;,
    0.915220; 0.754397;,
    0.817779; 0.754397;,
    0.842139; 0.791285;,
    0.927401; 0.729806;,
    0.805598; 0.729806;,
    0.805598; 0.705214;,
    0.927401; 0.705214;,
    0.915220; 0.680623;,
    0.890860; 0.668327;,
    0.842139; 0.668327;,
    0.817779; 0.680623;,
    0.038499; -0.037775;,
    0.022372; -0.152022;,
    0.103068; -0.037775;,
    0.119243; -0.152022;,
    0.203494; 0.338030;,
    0.136988; 0.409127;,
    0.203465; 0.422134;,
    0.229662; 0.338030;,
    0.229633; 0.422134;,
    0.295917; 0.409127;,
    0.810401; 0.979108;,
    0.807442; 0.962083;,
    0.927517; 0.950953;,
    0.842047; 0.817196;,
    0.841987; 0.935542;,
    0.808442; 0.817196;,
    0.808889; 0.935542;,
    0.200290; 0.513860;,
    0.268021; 0.639076;,
    0.009456; 0.513931;,
    0.079350; 0.639334;,
    0.918763; 0.949350;,
    0.807346; 0.959694;,
    0.812667; 0.979079;,
    0.866814; -0.182904;,
    0.882941; -0.068486;,
    0.963686; -0.182904;,
    0.947511; -0.068486;,
    0.009456; 0.513931;,
    0.079350; 0.639334;,
    0.200290; 0.513860;,
    0.268021; 0.639076;,
    0.011360; 0.671233;,
    0.011360; 0.732839;,
    0.134708; 0.671233;,
    0.134708; 0.732839;,
    0.769040; 0.421932;,
    0.795208; 0.421932;,
    0.700526; 0.411209;,
    0.863530; 0.411209;,
    0.282060; 0.851794;,
    0.364613; 0.851794;,
    0.288417; 0.875428;,
    0.368906; 0.875428;,
    0.123728; 0.753663;,
    0.025472; 0.753663;,
    0.107913; 0.827848;,
    0.025472; 0.827848;,
    0.268957; 0.492540;,
    0.229633; 0.492540;,
    0.268957; 0.461075;,
    0.383813; 0.988823;,
    0.479582; 0.988823;,
    0.383813; 0.940771;,
    0.479582; 0.940771;,
    0.293013; 0.676441;,
    0.765194; 0.675991;,
    0.286756; 0.638456;,
    0.758046; 0.638007;,
    0.585264; 0.299932;,
    0.703692; 0.461075;,
    0.729860; 0.461075;,
    0.795208; 0.492540;,
    0.834532; 0.492540;,
    0.834532; 0.461075;,
    0.019258; 0.755975;,
    0.127025; 0.755975;,
    0.019258; 0.830161;,
    0.111520; 0.830161;,
    0.780587; 0.853511;,
    0.715721; 0.853512;,
    0.773559; 0.877145;,
    0.710314; 0.877145;,
    0.782079; 0.507912;,
    0.288831; 0.507912;,
    0.782079; 0.583861;,
    0.288831; 0.583860;,
    0.729860; 0.492540;,
    0.769040; 0.492540;,
    0.383813; 0.940771;,
    0.479582; 0.940771;,
    0.383813; 0.988823;,
    0.479582; 0.988823;,
    0.857923; 0.461160;,
    0.288583; 0.461075;,
    0.978792; 0.299932;,
    0.305327; 0.637425;,
    0.778769; 0.636976;,
    0.304888; 0.675410;,
    0.781781; 0.674960;,
    0.164285; 0.461074;,
    0.141882; 0.461075;,
    0.203465; 0.492540;,
    0.164285; 0.492539;,
    0.385875; 0.853512;,
    0.286937; 0.853512;,
    0.388714; 0.877145;,
    0.292250; 0.877145;,
    0.502104; 0.853512;,
    0.502038; 0.877145;,
    0.617931; 0.853512;,
    0.614969; 0.877145;,
    0.473311; 0.851794;,
    0.474887; 0.875428;,
    0.591607; 0.851794;,
    0.590225; 0.875428;,
    0.701490; 0.851794;,
    0.697362; 0.875428;,
    0.786233; 0.851794;,
    0.779986; 0.875428;,
    0.782028; 0.189946;,
    0.978792; 0.138624;,
    0.770685; 0.192178;,
    0.932625; 0.070249;,
    0.700526; 0.024562;,
    0.863530; 0.024562;,
    0.782028; 0.008519;,
    0.761069; 0.198537;,
    0.631432; 0.070249;,
    0.755949; 0.206592;,
    0.755949; 0.219535;,
    0.793371; 0.192178;,
    0.802987; 0.198537;,
    0.995004; 0.219278;,
    0.808285; 0.206592;,
    0.808285; 0.219535;,
    0.569052; 0.219278;,
    0.585264; 0.138624;,
    0.762491; 0.232478;,
    0.769033; 0.245421;,
    0.795201; 0.245421;,
    0.875311; 0.556478;,
    0.875311; 0.546580;,
    0.865792; 0.576274;,
    0.871457; 0.540419;,
    0.846753; 0.576274;,
    0.864461; 0.535556;,
    0.837233; 0.556478;,
    0.856208; 0.533849;,
    0.837233; 0.546580;,
    0.847955; 0.535556;,
    0.840958; 0.540419;,
    0.883523; 0.644604;,
    0.829126; 0.644604;,
    0.879719; 0.528268;,
    0.899709; 0.542162;,
    0.856139; 0.523389;,
    0.832559; 0.528268;,
    0.812569; 0.542162;,
    0.910721; 0.588043;,
    0.910721; 0.559763;,
    0.801927; 0.559763;,
    0.801927; 0.588043;,
    0.885165; 0.927996;,
    0.869081; 0.815884;,
    0.949735; 0.927996;,
    0.965953; 0.815884;,
    0.080298; 0.636316;,
    0.010403; 0.512213;,
    0.269512; 0.636577;,
    0.201237; 0.512344;,
    0.269512; 0.636577;,
    0.201237; 0.512344;,
    0.080298; 0.636317;,
    0.010403; 0.512213;,
    0.103068; 0.962201;,
    0.119288; 0.849972;,
    0.038498; 0.962201;,
    0.022417; 0.849972;,
    0.404543; 0.779797;,
    0.281105; 0.779338;,
    0.404510; 0.810677;,
    0.281072; 0.810597;,
    0.532470; 0.810759;,
    0.779211; 0.810918;,
    0.532503; 0.779872;,
    0.779244; 0.779708;,
    0.182687; 0.674061;,
    0.230067; 0.671312;,
    0.182687; 0.704595;,
    0.230067; 0.708623;,
    0.178590; 0.765551;,
    0.227709; 0.769580;,
    0.178590; 0.734971;,
    0.227709; 0.732235;,
    0.296427; 0.750403;,
    0.781163; 0.750068;,
    0.296398; 0.712265;,
    0.781134; 0.711895;,
    0.440285; 0.487608;,
    0.491613; 0.492039;,
    0.438193; 0.252914;,
    0.491367; -0.001717;,
    0.438194; 0.131202;,
    0.438154; 0.013790;,
    0.440285; 0.487577;,
    0.438154; 0.252883;,
    0.491613; 0.492009;,
    0.438154; 0.013759;,
    0.491367; -0.001746;,
    0.475627; 1.990933;,
    0.475568; 1.943455;,
    0.382989; 1.990933;,
    0.382914; 1.943455;,
    0.147619; 0.976518;,
    0.244963; 0.976518;,
    0.147619; 0.798125;,
    0.244959; 0.798125;,
    0.267403; 1.990609;,
    0.267323; 1.938253;,
    0.364672; 1.990609;,
    0.364614; 1.938253;,
    0.404510; 0.810677;,
    0.281072; 0.810597;,
    0.404543; 0.779797;,
    0.281105; 0.779338;,
    0.532503; 0.779872;,
    0.779244; 0.779708;,
    0.532470; 0.810759;,
    0.779211; 0.810918;,
    0.229944; 0.704884;,
    0.179017; 0.708556;,
    0.229947; 0.674299;,
    0.179017; 0.671217;,
    0.232676; 0.736275;,
    0.179620; 0.733207;,
    0.232675; 0.766907;,
    0.179620; 0.770580;,
    0.781163; 0.750403;,
    0.296427; 0.750738;,
    0.781134; 0.712265;,
    0.296398; 0.712635;,
    0.491487; -0.001135;,
    0.491487; 0.492620;,
    0.438359; 0.014372;,
    0.440489; 0.488190;,
    0.438307; 0.131783;,
    0.438309; 0.253495;,
    0.491488; 0.492591;,
    0.491487; -0.001165;,
    0.440486; 0.488159;,
    0.438357; 0.014341;,
    0.438361; 0.253464;;
   }

   MeshVertexColors {
    373;
    0; 1.000000; 1.000000; 1.000000; 1.000000;,
    1; 1.000000; 1.000000; 1.000000; 1.000000;,
    2; 1.000000; 1.000000; 1.000000; 1.000000;,
    3; 1.000000; 1.000000; 1.000000; 1.000000;,
    4; 1.000000; 1.000000; 1.000000; 1.000000;,
    5; 1.000000; 1.000000; 1.000000; 1.000000;,
    6; 1.000000; 1.000000; 1.000000; 1.000000;,
    7; 1.000000; 1.000000; 1.000000; 1.000000;,
    8; 1.000000; 1.000000; 1.000000; 1.000000;,
    9; 1.000000; 1.000000; 1.000000; 1.000000;,
    10; 1.000000; 1.000000; 1.000000; 1.000000;,
    11; 1.000000; 1.000000; 1.000000; 1.000000;,
    12; 1.000000; 1.000000; 1.000000; 1.000000;,
    13; 1.000000; 1.000000; 1.000000; 1.000000;,
    14; 1.000000; 1.000000; 1.000000; 1.000000;,
    15; 1.000000; 1.000000; 1.000000; 1.000000;,
    16; 1.000000; 1.000000; 1.000000; 1.000000;,
    17; 1.000000; 1.000000; 1.000000; 1.000000;,
    18; 1.000000; 1.000000; 1.000000; 1.000000;,
    19; 1.000000; 1.000000; 1.000000; 1.000000;,
    20; 1.000000; 1.000000; 1.000000; 1.000000;,
    21; 1.000000; 1.000000; 1.000000; 1.000000;,
    22; 1.000000; 1.000000; 1.000000; 1.000000;,
    23; 1.000000; 1.000000; 1.000000; 1.000000;,
    24; 1.000000; 1.000000; 1.000000; 1.000000;,
    25; 1.000000; 1.000000; 1.000000; 1.000000;,
    26; 1.000000; 1.000000; 1.000000; 1.000000;,
    27; 1.000000; 1.000000; 1.000000; 1.000000;,
    28; 1.000000; 1.000000; 1.000000; 1.000000;,
    29; 1.000000; 1.000000; 1.000000; 1.000000;,
    30; 1.000000; 1.000000; 1.000000; 1.000000;,
    31; 1.000000; 1.000000; 1.000000; 1.000000;,
    32; 1.000000; 1.000000; 1.000000; 1.000000;,
    33; 1.000000; 1.000000; 1.000000; 1.000000;,
    34; 1.000000; 1.000000; 1.000000; 1.000000;,
    35; 1.000000; 1.000000; 1.000000; 1.000000;,
    36; 1.000000; 1.000000; 1.000000; 1.000000;,
    37; 1.000000; 1.000000; 1.000000; 1.000000;,
    38; 1.000000; 1.000000; 1.000000; 1.000000;,
    39; 1.000000; 1.000000; 1.000000; 1.000000;,
    40; 1.000000; 1.000000; 1.000000; 1.000000;,
    41; 1.000000; 1.000000; 1.000000; 1.000000;,
    42; 1.000000; 1.000000; 1.000000; 1.000000;,
    43; 1.000000; 1.000000; 1.000000; 1.000000;,
    44; 1.000000; 1.000000; 1.000000; 1.000000;,
    45; 1.000000; 1.000000; 1.000000; 1.000000;,
    46; 1.000000; 1.000000; 1.000000; 1.000000;,
    47; 1.000000; 1.000000; 1.000000; 1.000000;,
    48; 1.000000; 1.000000; 1.000000; 1.000000;,
    49; 1.000000; 1.000000; 1.000000; 1.000000;,
    50; 1.000000; 1.000000; 1.000000; 1.000000;,
    51; 1.000000; 1.000000; 1.000000; 1.000000;,
    52; 1.000000; 1.000000; 1.000000; 1.000000;,
    53; 1.000000; 1.000000; 1.000000; 1.000000;,
    54; 1.000000; 1.000000; 1.000000; 1.000000;,
    55; 1.000000; 1.000000; 1.000000; 1.000000;,
    56; 1.000000; 1.000000; 1.000000; 1.000000;,
    57; 1.000000; 1.000000; 1.000000; 1.000000;,
    58; 1.000000; 1.000000; 1.000000; 1.000000;,
    59; 1.000000; 1.000000; 1.000000; 1.000000;,
    60; 1.000000; 1.000000; 1.000000; 1.000000;,
    61; 1.000000; 1.000000; 1.000000; 1.000000;,
    62; 1.000000; 1.000000; 1.000000; 1.000000;,
    63; 1.000000; 1.000000; 1.000000; 1.000000;,
    64; 1.000000; 1.000000; 1.000000; 1.000000;,
    65; 1.000000; 1.000000; 1.000000; 1.000000;,
    66; 1.000000; 1.000000; 1.000000; 1.000000;,
    67; 1.000000; 1.000000; 1.000000; 1.000000;,
    68; 1.000000; 1.000000; 1.000000; 1.000000;,
    69; 1.000000; 1.000000; 1.000000; 1.000000;,
    70; 1.000000; 1.000000; 1.000000; 1.000000;,
    71; 1.000000; 1.000000; 1.000000; 1.000000;,
    72; 1.000000; 1.000000; 1.000000; 1.000000;,
    73; 1.000000; 1.000000; 1.000000; 1.000000;,
    74; 1.000000; 1.000000; 1.000000; 1.000000;,
    75; 1.000000; 1.000000; 1.000000; 1.000000;,
    76; 1.000000; 1.000000; 1.000000; 1.000000;,
    77; 1.000000; 1.000000; 1.000000; 1.000000;,
    78; 1.000000; 1.000000; 1.000000; 1.000000;,
    79; 1.000000; 1.000000; 1.000000; 1.000000;,
    80; 1.000000; 1.000000; 1.000000; 1.000000;,
    81; 1.000000; 1.000000; 1.000000; 1.000000;,
    82; 1.000000; 1.000000; 1.000000; 1.000000;,
    83; 1.000000; 1.000000; 1.000000; 1.000000;,
    84; 1.000000; 1.000000; 1.000000; 1.000000;,
    85; 1.000000; 1.000000; 1.000000; 1.000000;,
    86; 1.000000; 1.000000; 1.000000; 1.000000;,
    87; 1.000000; 1.000000; 1.000000; 1.000000;,
    88; 1.000000; 1.000000; 1.000000; 1.000000;,
    89; 1.000000; 1.000000; 1.000000; 1.000000;,
    90; 1.000000; 1.000000; 1.000000; 1.000000;,
    91; 1.000000; 1.000000; 1.000000; 1.000000;,
    92; 1.000000; 1.000000; 1.000000; 1.000000;,
    93; 1.000000; 1.000000; 1.000000; 1.000000;,
    94; 1.000000; 1.000000; 1.000000; 1.000000;,
    95; 1.000000; 1.000000; 1.000000; 1.000000;,
    96; 1.000000; 1.000000; 1.000000; 1.000000;,
    97; 1.000000; 1.000000; 1.000000; 1.000000;,
    98; 1.000000; 1.000000; 1.000000; 1.000000;,
    99; 1.000000; 1.000000; 1.000000; 1.000000;,
    100; 1.000000; 1.000000; 1.000000; 1.000000;,
    101; 1.000000; 1.000000; 1.000000; 1.000000;,
    102; 1.000000; 1.000000; 1.000000; 1.000000;,
    103; 1.000000; 1.000000; 1.000000; 1.000000;,
    104; 1.000000; 1.000000; 1.000000; 1.000000;,
    105; 1.000000; 1.000000; 1.000000; 1.000000;,
    106; 1.000000; 1.000000; 1.000000; 1.000000;,
    107; 1.000000; 1.000000; 1.000000; 1.000000;,
    108; 1.000000; 1.000000; 1.000000; 1.000000;,
    109; 1.000000; 1.000000; 1.000000; 1.000000;,
    110; 1.000000; 1.000000; 1.000000; 1.000000;,
    111; 1.000000; 1.000000; 1.000000; 1.000000;,
    112; 1.000000; 1.000000; 1.000000; 1.000000;,
    113; 1.000000; 1.000000; 1.000000; 1.000000;,
    114; 1.000000; 1.000000; 1.000000; 1.000000;,
    115; 1.000000; 1.000000; 1.000000; 1.000000;,
    116; 1.000000; 1.000000; 1.000000; 1.000000;,
    117; 1.000000; 1.000000; 1.000000; 1.000000;,
    118; 1.000000; 1.000000; 1.000000; 1.000000;,
    119; 1.000000; 1.000000; 1.000000; 1.000000;,
    120; 1.000000; 1.000000; 1.000000; 1.000000;,
    121; 1.000000; 1.000000; 1.000000; 1.000000;,
    122; 1.000000; 1.000000; 1.000000; 1.000000;,
    123; 1.000000; 1.000000; 1.000000; 1.000000;,
    124; 1.000000; 1.000000; 1.000000; 1.000000;,
    125; 1.000000; 1.000000; 1.000000; 1.000000;,
    126; 1.000000; 1.000000; 1.000000; 1.000000;,
    127; 1.000000; 1.000000; 1.000000; 1.000000;,
    128; 1.000000; 1.000000; 1.000000; 1.000000;,
    129; 1.000000; 1.000000; 1.000000; 1.000000;,
    130; 1.000000; 1.000000; 1.000000; 1.000000;,
    131; 1.000000; 1.000000; 1.000000; 1.000000;,
    132; 1.000000; 1.000000; 1.000000; 1.000000;,
    133; 1.000000; 1.000000; 1.000000; 1.000000;,
    134; 1.000000; 1.000000; 1.000000; 1.000000;,
    135; 1.000000; 1.000000; 1.000000; 1.000000;,
    136; 1.000000; 1.000000; 1.000000; 1.000000;,
    137; 1.000000; 1.000000; 1.000000; 1.000000;,
    138; 1.000000; 1.000000; 1.000000; 1.000000;,
    139; 1.000000; 1.000000; 1.000000; 1.000000;,
    140; 1.000000; 1.000000; 1.000000; 1.000000;,
    141; 1.000000; 1.000000; 1.000000; 1.000000;,
    142; 1.000000; 1.000000; 1.000000; 1.000000;,
    143; 1.000000; 1.000000; 1.000000; 1.000000;,
    144; 1.000000; 1.000000; 1.000000; 1.000000;,
    145; 1.000000; 1.000000; 1.000000; 1.000000;,
    146; 1.000000; 1.000000; 1.000000; 1.000000;,
    147; 1.000000; 1.000000; 1.000000; 1.000000;,
    148; 1.000000; 1.000000; 1.000000; 1.000000;,
    149; 1.000000; 1.000000; 1.000000; 1.000000;,
    150; 1.000000; 1.000000; 1.000000; 1.000000;,
    151; 1.000000; 1.000000; 1.000000; 1.000000;,
    152; 1.000000; 1.000000; 1.000000; 1.000000;,
    153; 1.000000; 1.000000; 1.000000; 1.000000;,
    154; 1.000000; 1.000000; 1.000000; 1.000000;,
    155; 1.000000; 1.000000; 1.000000; 1.000000;,
    156; 1.000000; 1.000000; 1.000000; 1.000000;,
    157; 1.000000; 1.000000; 1.000000; 1.000000;,
    158; 1.000000; 1.000000; 1.000000; 1.000000;,
    159; 1.000000; 1.000000; 1.000000; 1.000000;,
    160; 1.000000; 1.000000; 1.000000; 1.000000;,
    161; 1.000000; 1.000000; 1.000000; 1.000000;,
    162; 1.000000; 1.000000; 1.000000; 1.000000;,
    163; 1.000000; 1.000000; 1.000000; 1.000000;,
    164; 1.000000; 1.000000; 1.000000; 1.000000;,
    165; 1.000000; 1.000000; 1.000000; 1.000000;,
    166; 1.000000; 1.000000; 1.000000; 1.000000;,
    167; 1.000000; 1.000000; 1.000000; 1.000000;,
    168; 1.000000; 1.000000; 1.000000; 1.000000;,
    169; 1.000000; 1.000000; 1.000000; 1.000000;,
    170; 1.000000; 1.000000; 1.000000; 1.000000;,
    171; 1.000000; 1.000000; 1.000000; 1.000000;,
    172; 1.000000; 1.000000; 1.000000; 1.000000;,
    173; 1.000000; 1.000000; 1.000000; 1.000000;,
    174; 1.000000; 1.000000; 1.000000; 1.000000;,
    175; 1.000000; 1.000000; 1.000000; 1.000000;,
    176; 1.000000; 1.000000; 1.000000; 1.000000;,
    177; 1.000000; 1.000000; 1.000000; 1.000000;,
    178; 1.000000; 1.000000; 1.000000; 1.000000;,
    179; 1.000000; 1.000000; 1.000000; 1.000000;,
    180; 1.000000; 1.000000; 1.000000; 1.000000;,
    181; 1.000000; 1.000000; 1.000000; 1.000000;,
    182; 1.000000; 1.000000; 1.000000; 1.000000;,
    183; 1.000000; 1.000000; 1.000000; 1.000000;,
    184; 1.000000; 1.000000; 1.000000; 1.000000;,
    185; 1.000000; 1.000000; 1.000000; 1.000000;,
    186; 1.000000; 1.000000; 1.000000; 1.000000;,
    187; 1.000000; 1.000000; 1.000000; 1.000000;,
    188; 1.000000; 1.000000; 1.000000; 1.000000;,
    189; 1.000000; 1.000000; 1.000000; 1.000000;,
    190; 1.000000; 1.000000; 1.000000; 1.000000;,
    191; 1.000000; 1.000000; 1.000000; 1.000000;,
    192; 1.000000; 1.000000; 1.000000; 1.000000;,
    193; 1.000000; 1.000000; 1.000000; 1.000000;,
    194; 1.000000; 1.000000; 1.000000; 1.000000;,
    195; 1.000000; 1.000000; 1.000000; 1.000000;,
    196; 1.000000; 1.000000; 1.000000; 1.000000;,
    197; 1.000000; 1.000000; 1.000000; 1.000000;,
    198; 1.000000; 1.000000; 1.000000; 1.000000;,
    199; 1.000000; 1.000000; 1.000000; 1.000000;,
    200; 1.000000; 1.000000; 1.000000; 1.000000;,
    201; 1.000000; 1.000000; 1.000000; 1.000000;,
    202; 1.000000; 1.000000; 1.000000; 1.000000;,
    203; 1.000000; 1.000000; 1.000000; 1.000000;,
    204; 1.000000; 1.000000; 1.000000; 1.000000;,
    205; 1.000000; 1.000000; 1.000000; 1.000000;,
    206; 1.000000; 1.000000; 1.000000; 1.000000;,
    207; 1.000000; 1.000000; 1.000000; 1.000000;,
    208; 1.000000; 1.000000; 1.000000; 1.000000;,
    209; 1.000000; 1.000000; 1.000000; 1.000000;,
    210; 1.000000; 1.000000; 1.000000; 1.000000;,
    211; 1.000000; 1.000000; 1.000000; 1.000000;,
    212; 1.000000; 1.000000; 1.000000; 1.000000;,
    213; 1.000000; 1.000000; 1.000000; 1.000000;,
    214; 1.000000; 1.000000; 1.000000; 1.000000;,
    215; 1.000000; 1.000000; 1.000000; 1.000000;,
    216; 1.000000; 1.000000; 1.000000; 1.000000;,
    217; 1.000000; 1.000000; 1.000000; 1.000000;,
    218; 1.000000; 1.000000; 1.000000; 1.000000;,
    219; 1.000000; 1.000000; 1.000000; 1.000000;,
    220; 1.000000; 1.000000; 1.000000; 1.000000;,
    221; 1.000000; 1.000000; 1.000000; 1.000000;,
    222; 1.000000; 1.000000; 1.000000; 1.000000;,
    223; 1.000000; 1.000000; 1.000000; 1.000000;,
    224; 1.000000; 1.000000; 1.000000; 1.000000;,
    225; 1.000000; 1.000000; 1.000000; 1.000000;,
    226; 1.000000; 1.000000; 1.000000; 1.000000;,
    227; 1.000000; 1.000000; 1.000000; 1.000000;,
    228; 1.000000; 1.000000; 1.000000; 1.000000;,
    229; 1.000000; 1.000000; 1.000000; 1.000000;,
    230; 1.000000; 1.000000; 1.000000; 1.000000;,
    231; 1.000000; 1.000000; 1.000000; 1.000000;,
    232; 1.000000; 1.000000; 1.000000; 1.000000;,
    233; 1.000000; 1.000000; 1.000000; 1.000000;,
    234; 1.000000; 1.000000; 1.000000; 1.000000;,
    235; 1.000000; 1.000000; 1.000000; 1.000000;,
    236; 1.000000; 1.000000; 1.000000; 1.000000;,
    237; 1.000000; 1.000000; 1.000000; 1.000000;,
    238; 1.000000; 1.000000; 1.000000; 1.000000;,
    239; 1.000000; 1.000000; 1.000000; 1.000000;,
    240; 1.000000; 1.000000; 1.000000; 1.000000;,
    241; 1.000000; 1.000000; 1.000000; 1.000000;,
    242; 1.000000; 1.000000; 1.000000; 1.000000;,
    243; 1.000000; 1.000000; 1.000000; 1.000000;,
    244; 1.000000; 1.000000; 1.000000; 1.000000;,
    245; 1.000000; 1.000000; 1.000000; 1.000000;,
    246; 1.000000; 1.000000; 1.000000; 1.000000;,
    247; 1.000000; 1.000000; 1.000000; 1.000000;,
    248; 1.000000; 1.000000; 1.000000; 1.000000;,
    249; 1.000000; 1.000000; 1.000000; 1.000000;,
    250; 1.000000; 1.000000; 1.000000; 1.000000;,
    251; 1.000000; 1.000000; 1.000000; 1.000000;,
    252; 1.000000; 1.000000; 1.000000; 1.000000;,
    253; 1.000000; 1.000000; 1.000000; 1.000000;,
    254; 1.000000; 1.000000; 1.000000; 1.000000;,
    255; 1.000000; 1.000000; 1.000000; 1.000000;,
    256; 1.000000; 1.000000; 1.000000; 1.000000;,
    257; 1.000000; 1.000000; 1.000000; 1.000000;,
    258; 1.000000; 1.000000; 1.000000; 1.000000;,
    259; 1.000000; 1.000000; 1.000000; 1.000000;,
    260; 1.000000; 1.000000; 1.000000; 1.000000;,
    261; 1.000000; 1.000000; 1.000000; 1.000000;,
    262; 1.000000; 1.000000; 1.000000; 1.000000;,
    263; 1.000000; 1.000000; 1.000000; 1.000000;,
    264; 1.000000; 1.000000; 1.000000; 1.000000;,
    265; 1.000000; 1.000000; 1.000000; 1.000000;,
    266; 1.000000; 1.000000; 1.000000; 1.000000;,
    267; 1.000000; 1.000000; 1.000000; 1.000000;,
    268; 1.000000; 1.000000; 1.000000; 1.000000;,
    269; 1.000000; 1.000000; 1.000000; 1.000000;,
    270; 1.000000; 1.000000; 1.000000; 1.000000;,
    271; 1.000000; 1.000000; 1.000000; 1.000000;,
    272; 1.000000; 1.000000; 1.000000; 1.000000;,
    273; 1.000000; 1.000000; 1.000000; 1.000000;,
    274; 1.000000; 1.000000; 1.000000; 1.000000;,
    275; 1.000000; 1.000000; 1.000000; 1.000000;,
    276; 1.000000; 1.000000; 1.000000; 1.000000;,
    277; 1.000000; 1.000000; 1.000000; 1.000000;,
    278; 1.000000; 1.000000; 1.000000; 1.000000;,
    279; 1.000000; 1.000000; 1.000000; 1.000000;,
    280; 1.000000; 1.000000; 1.000000; 1.000000;,
    281; 1.000000; 1.000000; 1.000000; 1.000000;,
    282; 1.000000; 1.000000; 1.000000; 1.000000;,
    283; 1.000000; 1.000000; 1.000000; 1.000000;,
    284; 1.000000; 1.000000; 1.000000; 1.000000;,
    285; 1.000000; 1.000000; 1.000000; 1.000000;,
    286; 1.000000; 1.000000; 1.000000; 1.000000;,
    287; 1.000000; 1.000000; 1.000000; 1.000000;,
    288; 1.000000; 1.000000; 1.000000; 1.000000;,
    289; 1.000000; 1.000000; 1.000000; 1.000000;,
    290; 1.000000; 1.000000; 1.000000; 1.000000;,
    291; 1.000000; 1.000000; 1.000000; 1.000000;,
    292; 1.000000; 1.000000; 1.000000; 1.000000;,
    293; 1.000000; 1.000000; 1.000000; 1.000000;,
    294; 1.000000; 1.000000; 1.000000; 1.000000;,
    295; 1.000000; 1.000000; 1.000000; 1.000000;,
    296; 1.000000; 1.000000; 1.000000; 1.000000;,
    297; 1.000000; 1.000000; 1.000000; 1.000000;,
    298; 1.000000; 1.000000; 1.000000; 1.000000;,
    299; 1.000000; 1.000000; 1.000000; 1.000000;,
    300; 1.000000; 1.000000; 1.000000; 1.000000;,
    301; 1.000000; 1.000000; 1.000000; 1.000000;,
    302; 1.000000; 1.000000; 1.000000; 1.000000;,
    303; 1.000000; 1.000000; 1.000000; 1.000000;,
    304; 1.000000; 1.000000; 1.000000; 1.000000;,
    305; 1.000000; 1.000000; 1.000000; 1.000000;,
    306; 1.000000; 1.000000; 1.000000; 1.000000;,
    307; 1.000000; 1.000000; 1.000000; 1.000000;,
    308; 1.000000; 1.000000; 1.000000; 1.000000;,
    309; 1.000000; 1.000000; 1.000000; 1.000000;,
    310; 1.000000; 1.000000; 1.000000; 1.000000;,
    311; 1.000000; 1.000000; 1.000000; 1.000000;,
    312; 1.000000; 1.000000; 1.000000; 1.000000;,
    313; 1.000000; 1.000000; 1.000000; 1.000000;,
    314; 1.000000; 1.000000; 1.000000; 1.000000;,
    315; 1.000000; 1.000000; 1.000000; 1.000000;,
    316; 1.000000; 1.000000; 1.000000; 1.000000;,
    317; 1.000000; 1.000000; 1.000000; 1.000000;,
    318; 1.000000; 1.000000; 1.000000; 1.000000;,
    319; 1.000000; 1.000000; 1.000000; 1.000000;,
    320; 1.000000; 1.000000; 1.000000; 1.000000;,
    321; 1.000000; 1.000000; 1.000000; 1.000000;,
    322; 1.000000; 1.000000; 1.000000; 1.000000;,
    323; 1.000000; 1.000000; 1.000000; 1.000000;,
    324; 1.000000; 1.000000; 1.000000; 1.000000;,
    325; 1.000000; 1.000000; 1.000000; 1.000000;,
    326; 1.000000; 1.000000; 1.000000; 1.000000;,
    327; 1.000000; 1.000000; 1.000000; 1.000000;,
    328; 1.000000; 1.000000; 1.000000; 1.000000;,
    329; 1.000000; 1.000000; 1.000000; 1.000000;,
    330; 1.000000; 1.000000; 1.000000; 1.000000;,
    331; 1.000000; 1.000000; 1.000000; 1.000000;,
    332; 1.000000; 1.000000; 1.000000; 1.000000;,
    333; 1.000000; 1.000000; 1.000000; 1.000000;,
    334; 1.000000; 1.000000; 1.000000; 1.000000;,
    335; 1.000000; 1.000000; 1.000000; 1.000000;,
    336; 1.000000; 1.000000; 1.000000; 1.000000;,
    337; 1.000000; 1.000000; 1.000000; 1.000000;,
    338; 1.000000; 1.000000; 1.000000; 1.000000;,
    339; 1.000000; 1.000000; 1.000000; 1.000000;,
    340; 1.000000; 1.000000; 1.000000; 1.000000;,
    341; 1.000000; 1.000000; 1.000000; 1.000000;,
    342; 1.000000; 1.000000; 1.000000; 1.000000;,
    343; 1.000000; 1.000000; 1.000000; 1.000000;,
    344; 1.000000; 1.000000; 1.000000; 1.000000;,
    345; 1.000000; 1.000000; 1.000000; 1.000000;,
    346; 1.000000; 1.000000; 1.000000; 1.000000;,
    347; 1.000000; 1.000000; 1.000000; 1.000000;,
    348; 1.000000; 1.000000; 1.000000; 1.000000;,
    349; 1.000000; 1.000000; 1.000000; 1.000000;,
    350; 1.000000; 1.000000; 1.000000; 1.000000;,
    351; 1.000000; 1.000000; 1.000000; 1.000000;,
    352; 1.000000; 1.000000; 1.000000; 1.000000;,
    353; 1.000000; 1.000000; 1.000000; 1.000000;,
    354; 1.000000; 1.000000; 1.000000; 1.000000;,
    355; 1.000000; 1.000000; 1.000000; 1.000000;,
    356; 1.000000; 1.000000; 1.000000; 1.000000;,
    357; 1.000000; 1.000000; 1.000000; 1.000000;,
    358; 1.000000; 1.000000; 1.000000; 1.000000;,
    359; 1.000000; 1.000000; 1.000000; 1.000000;,
    360; 1.000000; 1.000000; 1.000000; 1.000000;,
    361; 1.000000; 1.000000; 1.000000; 1.000000;,
    362; 1.000000; 1.000000; 1.000000; 1.000000;,
    363; 1.000000; 1.000000; 1.000000; 1.000000;,
    364; 1.000000; 1.000000; 1.000000; 1.000000;,
    365; 1.000000; 1.000000; 1.000000; 1.000000;,
    366; 1.000000; 1.000000; 1.000000; 1.000000;,
    367; 1.000000; 1.000000; 1.000000; 1.000000;,
    368; 1.000000; 1.000000; 1.000000; 1.000000;,
    369; 1.000000; 1.000000; 1.000000; 1.000000;,
    370; 1.000000; 1.000000; 1.000000; 1.000000;,
    371; 1.000000; 1.000000; 1.000000; 1.000000;,
    372; 1.000000; 1.000000; 1.000000; 1.000000;;
   }

   MeshMaterialList {
    1;
    283;
    0,
    0,
    0,
    0,
    0,
    0,
    0,
    0,
    0,
    0,
    0,
    0,
    0,
    0,
    0,
    0,
    0,
    0,
    0,
    0,
    0,
    0,
    0,
    0,
    0,
    0,
    0,
    0,
    0,
    0,
    0,
    0,
    0,
    0,
    0,
    0,
    0,
    0,
    0,
    0,
    0,
    0,
    0,
    0,
    0,
    0,
    0,
    0,
    0,
    0,
    0,
    0,
    0,
    0,
    0,
    0,
    0,
    0,
    0,
    0,
    0,
    0,
    0,
    0,
    0,
    0,
    0,
    0,
    0,
    0,
    0,
    0,
    0,
    0,
    0,
    0,
    0,
    0,
    0,
    0,
    0,
    0,
    0,
    0,
    0,
    0,
    0,
    0,
    0,
    0,
    0,
    0,
    0,
    0,
    0,
    0,
    0,
    0,
    0,
    0,
    0,
    0,
    0,
    0,
    0,
    0,
    0,
    0,
    0,
    0,
    0,
    0,
    0,
    0,
    0,
    0,
    0,
    0,
    0,
    0,
    0,
    0,
    0,
    0,
    0,
    0,
    0,
    0,
    0,
    0,
    0,
    0,
    0,
    0,
    0,
    0,
    0,
    0,
    0,
    0,
    0,
    0,
    0,
    0,
    0,
    0,
    0,
    0,
    0,
    0,
    0,
    0,
    0,
    0,
    0,
    0,
    0,
    0,
    0,
    0,
    0,
    0,
    0,
    0,
    0,
    0,
    0,
    0,
    0,
    0,
    0,
    0,
    0,
    0,
    0,
    0,
    0,
    0,
    0,
    0,
    0,
    0,
    0,
    0,
    0,
    0,
    0,
    0,
    0,
    0,
    0,
    0,
    0,
    0,
    0,
    0,
    0,
    0,
    0,
    0,
    0,
    0,
    0,
    0,
    0,
    0,
    0,
    0,
    0,
    0,
    0,
    0,
    0,
    0,
    0,
    0,
    0,
    0,
    0,
    0,
    0,
    0,
    0,
    0,
    0,
    0,
    0,
    0,
    0,
    0,
    0,
    0,
    0,
    0,
    0,
    0,
    0,
    0,
    0,
    0,
    0,
    0,
    0,
    0,
    0,
    0,
    0,
    0,
    0,
    0,
    0,
    0,
    0,
    0,
    0,
    0,
    0,
    0,
    0,
    0,
    0,
    0,
    0,
    0,
    0,
    0,
    0,
    0,
    0,
    0,
    0,
    0,
    0,
    0,
    0,
    0,
    0,
    0,
    0,
    0,
    0,
    0,
    0;

    Material hl1_a {
     1.000000; 1.000000; 1.000000; 1.000000;;
     128.000000;
     0.000000; 0.000000; 0.000000;;
     0.000000; 0.000000; 0.000000;;

     TextureFilename {
      "hl1_a.jpg";
     }
    }

   }
  }
}
