xof 0303txt 0032

// DirectX 8.0 file
// Creator: Ultimate Unwrap3D Pro v3.44
// Website: http://www.unwrap3d.com
// Time: Fri May 10 23:06:41 2013

// Start of Templates

template VertexDuplicationIndices {
 <b8d65549-d7c9-4995-89cf-53a9a8b031e3>
 DWORD nIndices;
 DWORD nOriginalVertices;
 array DWORD indices[nIndices];
}

template FVFData {
 <b6e70a0e-8ef9-4e83-94ad-ecc8b0c04897>
 DWORD dwFVF;
 DWORD nDWords;
 array DWORD data[nDWords];
}

template Header {
 <3D82AB43-62DA-11cf-AB39-0020AF71E433>
 WORD major;
 WORD minor;
 DWORD flags;
}

template Vector {
 <3D82AB5E-62DA-11cf-AB39-0020AF71E433>
 FLOAT x;
 FLOAT y;
 FLOAT z;
}

template Coords2d {
 <F6F23F44-7686-11cf-8F52-0040333594A3>
 FLOAT u;
 FLOAT v;
}

template Matrix4x4 {
 <F6F23F45-7686-11cf-8F52-0040333594A3>
 array FLOAT matrix[16];
}

template ColorRGBA {
 <35FF44E0-6C7C-11cf-8F52-0040333594A3>
 FLOAT red;
 FLOAT green;
 FLOAT blue;
 FLOAT alpha;
}

template ColorRGB {
 <D3E16E81-7835-11cf-8F52-0040333594A3>
 FLOAT red;
 FLOAT green;
 FLOAT blue;
}

template IndexedColor {
 <1630B820-7842-11cf-8F52-0040333594A3>
 DWORD index;
 ColorRGBA indexColor;
}

template Material {
 <3D82AB4D-62DA-11cf-AB39-0020AF71E433>
 ColorRGBA faceColor;
 FLOAT power;
 ColorRGB specularColor;
 ColorRGB emissiveColor;
 [...]
}

template TextureFilename {
 <A42790E1-7810-11cf-8F52-0040333594A3>
 STRING filename;
}

template MeshFace {
 <3D82AB5F-62DA-11cf-AB39-0020AF71E433>
 DWORD nFaceVertexIndices;
 array DWORD faceVertexIndices[nFaceVertexIndices];
}

template MeshTextureCoords {
 <F6F23F40-7686-11cf-8F52-0040333594A3>
 DWORD nTextureCoords;
 array Coords2d textureCoords[nTextureCoords];
}

template MeshMaterialList {
 <F6F23F42-7686-11cf-8F52-0040333594A3>
 DWORD nMaterials;
 DWORD nFaceIndexes;
 array DWORD faceIndexes[nFaceIndexes];
 [Material]
}

template MeshNormals {
 <F6F23F43-7686-11cf-8F52-0040333594A3>
 DWORD nNormals;
 array Vector normals[nNormals];
 DWORD nFaceNormals;
 array MeshFace faceNormals[nFaceNormals];
}

template MeshVertexColors {
 <1630B821-7842-11cf-8F52-0040333594A3>
 DWORD nVertexColors;
 array IndexedColor vertexColors[nVertexColors];
}

template Mesh {
 <3D82AB44-62DA-11cf-AB39-0020AF71E433>
 DWORD nVertices;
 array Vector vertices[nVertices];
 DWORD nFaces;
 array MeshFace faces[nFaces];
 [...]
}

template FrameTransformMatrix {
 <F6F23F41-7686-11cf-8F52-0040333594A3>
 Matrix4x4 frameMatrix;
}

template Frame {
 <3D82AB46-62DA-11cf-AB39-0020AF71E433>
 [...]
}

template FloatKeys {
 <10DD46A9-775B-11cf-8F52-0040333594A3>
 DWORD nValues;
 array FLOAT values[nValues];
}

template TimedFloatKeys {
 <F406B180-7B3B-11cf-8F52-0040333594A3>
 DWORD time;
 FloatKeys tfkeys;
}

template AnimationKey {
 <10DD46A8-775B-11cf-8F52-0040333594A3>
 DWORD keyType;
 DWORD nKeys;
 array TimedFloatKeys keys[nKeys];
}

template AnimationOptions {
 <E2BF56C0-840F-11cf-8F52-0040333594A3>
 DWORD openclosed;
 DWORD positionquality;
}

template Animation {
 <3D82AB4F-62DA-11cf-AB39-0020AF71E433>
 [...]
}

template AnimationSet {
 <3D82AB50-62DA-11cf-AB39-0020AF71E433>
 [Animation]
}

template XSkinMeshHeader {
 <3CF169CE-FF7C-44ab-93C0-F78F62D172E2>
 WORD nMaxSkinWeightsPerVertex;
 WORD nMaxSkinWeightsPerFace;
 WORD nBones;
}

template SkinWeights {
 <6F0D123B-BAD2-4167-A0D0-80224F25FABB>
 STRING transformNodeName;
 DWORD nWeights;
 array DWORD vertexIndices[nWeights];
 array FLOAT weights[nWeights];
 Matrix4x4 matrixOffset;
}

template AnimTicksPerSecond {
 <9E415A43-7BA6-4a73-8743-B73D47E88476>
 DWORD AnimTicksPerSecond;
}

AnimTicksPerSecond {
 4800;
}

// Start of Frames

Frame Body {
   FrameTransformMatrix {
    1.000000, 0.000000, 0.000000, 0.000000,
    0.000000, 1.000000, 0.000000, 0.000000,
    0.000000, 0.000000, 1.000000, 0.000000,
    0.000000, 0.000000, 0.000000, 1.000000;;
   }

   Mesh staticMesh {
    271;
    5.021925; 0.445677; -5.008407;,
    5.021925; 0.445677; 0.057688;,
    5.124804; -0.034429; -3.705263;,
    5.124804; -0.034429; 0.400620;,
    4.677796; -0.034429; 0.400621;,
    4.574917; 0.445677; 0.057688;,
    4.677796; -0.034429; -3.705263;,
    4.574916; 0.445677; -5.008407;,
    4.677796; -0.034429; -3.705263;,
    4.574916; 0.445677; -5.008407;,
    5.124804; -0.034429; -3.705263;,
    5.021925; 0.445677; -5.008407;,
    4.677796; -0.034429; 0.400621;,
    5.124804; -0.034429; 0.400620;,
    4.574917; 0.445677; 0.057688;,
    5.021925; 0.445677; 0.057688;,
    4.574917; 0.445677; 0.057688;,
    5.021925; 0.445677; 0.057688;,
    4.574917; 0.445677; 2.711413;,
    5.021925; 0.445677; 2.711413;,
    5.021925; 0.445677; -5.008407;,
    4.574916; 0.445677; -5.008407;,
    5.021925; 0.445677; -9.983624;,
    4.574916; 0.445677; -9.983625;,
    5.021925; 0.445677; 2.711413;,
    5.074864; 0.579462; 2.754638;,
    4.574917; 0.445677; 2.711413;,
    4.508654; 0.579462; 2.754638;,
    5.021925; 0.445677; -9.983624;,
    5.074864; 0.579462; -9.999999;,
    5.021925; 0.445677; 2.711413;,
    5.074864; 0.579462; 2.754638;,
    4.500415; 1.488696; -9.776496;,
    4.500415; 1.488696; 2.620536;,
    4.947423; 1.488696; -9.776496;,
    4.947424; 1.488696; 2.620536;,
    4.947423; 1.488696; -9.776496;,
    4.947424; 1.488696; 2.620536;,
    4.947424; 1.488696; 2.620536;,
    4.500415; 1.488696; 2.620536;,
    4.574916; 0.445677; -9.983625;,
    4.508653; 0.579462; -9.999999;,
    5.021925; 0.445677; -9.983624;,
    5.074864; 0.579462; -9.999999;,
    4.500415; 1.488696; -9.776496;,
    4.947423; 1.488696; -9.776496;,
    4.508654; 0.579462; 2.754638;,
    4.508653; 0.579462; -9.999999;,
    4.574917; 0.445677; 2.711413;,
    4.574916; 0.445677; -9.983625;,
    4.500415; 1.488696; 2.620536;,
    4.500415; 1.488696; -9.776496;,
    1.056139; -0.335300; 0.787492;,
    1.951487; -0.458124; -1.374068;,
    -0.000000; -0.335300; 0.577413;,
    -0.000000; -0.458124; -1.762242;,
    -0.000000; -0.597344; -5.262587;,
    4.337773; -0.597343; -4.755412;,
    2.549739; -0.335299; 2.281092;,
    2.759817; -0.335299; 3.337226;,
    4.711299; -0.458123; 1.385745;,
    5.099473; -0.458123; 3.337227;,
    4.798421; -0.597342; -2.177354;,
    1.951487; -0.335300; 1.385744;,
    4.798421; -0.597342; 0.802701;,
    6.662780; -0.597342; 3.337227;,
    6.155608; -0.597342; 0.787493;,
    1.951485; -0.335299; 5.288708;,
    2.549738; -0.335299; 4.393361;,
    -0.000000; -0.034429; 3.337226;,
    3.605871; -0.458122; 6.943095;,
    4.711298; -0.458122; 5.288708;,
    4.711296; -0.597341; 8.048520;,
    6.155606; -0.597341; 5.886961;,
    -0.000000; -0.335299; 6.097038;,
    1.056137; -0.335299; 5.886960;,
    -0.000000; -0.458122; 8.436693;,
    1.951484; -0.458122; 8.048519;,
    -0.000000; -0.597341; 9.999999;,
    2.549735; -0.597341; 9.492827;,
    5.545715; -0.597343; -1.374067;,
    5.245428; -0.597342; 0.802701;,
    5.245428; -0.597343; -2.177354;,
    4.798421; -0.597342; 0.802701;,
    4.798421; -0.597342; -2.177354;,
    5.245428; -0.597343; -2.177354;,
    5.245428; -0.597342; 0.802701;,
    6.155606; -0.925783; 0.787492;,
    6.092255; -1.342991; 0.562968;,
    6.092255; -1.342991; 0.562968;,
    6.155606; -0.925783; 0.787492;,
    -0.000000; -1.488697; 3.337223;,
    4.710013; -1.063336; 1.383010;,
    2.561916; -1.203622; 2.307005;,
    2.759815; -1.187826; 3.337224;,
    -0.000000; -1.488697; 3.337223;,
    2.561916; -1.203622; 2.307005;,
    6.155608; -0.597342; 0.787493;,
    6.662780; -0.597342; 3.337227;,
    6.155606; -0.925783; 0.787492;,
    6.662779; -0.925782; 3.337226;,
    2.549736; -1.187825; 4.393358;,
    1.951483; -1.187825; 5.288706;,
    5.099471; -1.065002; 3.337225;,
    4.711296; -1.065001; 5.288706;,
    3.605869; -1.065001; 6.943093;,
    6.662779; -0.925782; 3.337226;,
    6.155605; -0.925782; 5.886960;,
    4.711296; -0.925781; 8.048519;,
    -0.000000; -1.187825; 6.097035;,
    1.056135; -1.187825; 5.886958;,
    1.951482; -1.065001; 8.048517;,
    -0.000000; -1.065001; 8.436691;,
    2.549734; -0.925782; 9.492826;,
    -0.000000; -0.925782; 9.999999;,
    6.155606; -0.925783; 0.787492;,
    4.710013; -1.063336; 1.383010;,
    -0.000000; -0.597344; -5.262587;,
    4.337773; -0.597343; -4.755412;,
    -0.000000; -1.356768; -5.560594;,
    4.486776; -1.356768; -5.053419;,
    6.155608; -0.597342; 0.787493;,
    6.092255; -1.342991; 0.562968;,
    4.486776; -1.356768; -5.053419;,
    -0.000000; -1.450843; 0.786090;,
    -0.000000; -1.356768; -5.560594;,
    0.908518; -1.435279; 0.786291;,
    6.092255; -1.342991; 0.562968;,
    -0.000000; -1.488696; 3.337159;,
    4.658456; -1.377414; 1.224728;,
    -0.000000; -1.450843; 0.786075;,
    0.908492; -1.435280; 0.786317;,
    4.337773; -0.597343; -4.755412;,
    4.486776; -1.356768; -5.053419;,
    6.155606; -0.597341; 5.886961;,
    6.155605; -0.925782; 5.886960;,
    4.711296; -0.597341; 8.048520;,
    4.711296; -0.925781; 8.048519;,
    2.549735; -0.597341; 9.492827;,
    -0.000000; -0.597341; 9.999999;,
    2.549734; -0.925782; 9.492826;,
    -0.000000; -0.925782; 9.999999;,
    4.711296; -0.597341; 8.048520;,
    4.711296; -0.925781; 8.048519;,
    -5.035763; 0.445677; -5.008407;,
    -5.035763; 0.445677; -9.983624;,
    -4.588756; 0.445677; -5.008407;,
    -4.588755; 0.445677; -9.983624;,
    -5.035765; 0.445677; 2.711412;,
    -4.588756; 0.445677; 2.711412;,
    -5.088703; 0.579462; 2.754638;,
    -4.522493; 0.579462; 2.754638;,
    -5.035763; 0.445677; -9.983624;,
    -5.035765; 0.445677; 2.711412;,
    -5.088703; 0.579462; -9.999999;,
    -5.088703; 0.579462; 2.754638;,
    -4.588756; 0.445677; 0.057688;,
    -4.588756; 0.445677; 2.711412;,
    -5.035764; 0.445677; 0.057688;,
    -5.035765; 0.445677; 2.711412;,
    -4.961262; 1.488697; 2.620536;,
    -4.514254; 1.488697; 2.620536;,
    -4.522492; 0.579462; -9.999999;,
    -5.088703; 0.579462; -9.999999;,
    -4.514254; 1.488696; -9.776494;,
    -4.961262; 1.488696; -9.776496;,
    -4.588756; 0.445677; 2.711412;,
    -4.588755; 0.445677; -9.983624;,
    -4.522493; 0.579462; 2.754638;,
    -4.522492; 0.579462; -9.999999;,
    -4.961262; 1.488696; -9.776496;,
    -4.961262; 1.488697; 2.620536;,
    -4.588755; 0.445677; -9.983624;,
    -5.035763; 0.445677; -9.983624;,
    -4.514254; 1.488697; 2.620536;,
    -4.514254; 1.488696; -9.776494;,
    -4.961262; 1.488696; -9.776496;,
    -4.961262; 1.488697; 2.620536;,
    -4.514254; 1.488696; -9.776494;,
    -4.514254; 1.488697; 2.620536;,
    -4.588756; 0.445677; 0.057688;,
    -5.035764; 0.445677; 0.057688;,
    -4.691635; -0.034429; 0.400620;,
    -5.138644; -0.034429; 0.400620;,
    -4.691635; -0.034429; -3.705263;,
    -5.138643; -0.034429; -3.705262;,
    -4.588756; 0.445677; -5.008407;,
    -5.035763; 0.445677; -5.008407;,
    -4.691635; -0.034429; 0.400620;,
    -4.691635; -0.034429; -3.705263;,
    -4.588756; 0.445677; 0.057688;,
    -4.588756; 0.445677; -5.008407;,
    -5.138643; -0.034429; -3.705262;,
    -5.138644; -0.034429; 0.400620;,
    -5.035763; 0.445677; -5.008407;,
    -5.035764; 0.445677; 0.057688;,
    -4.812259; -0.597342; 0.802701;,
    -4.711291; -0.458124; 1.385742;,
    -1.951478; -0.335300; 1.385743;,
    -2.549731; -0.335300; 2.281090;,
    -4.812258; -0.597343; -2.177356;,
    -1.951477; -0.458124; -1.374069;,
    -4.337762; -0.597344; -4.755415;,
    -5.259269; -0.597342; -2.177355;,
    -5.545707; -0.597344; -1.374070;,
    -5.259270; -0.597342; 0.802701;,
    -6.155600; -0.597344; 0.787489;,
    -1.056130; -0.335300; 0.787491;,
    -6.662775; -0.597343; 3.337223;,
    -5.099467; -0.458124; 3.337224;,
    -4.812259; -0.597342; 0.802701;,
    -4.812258; -0.597343; -2.177356;,
    -4.711293; -0.458124; 5.288706;,
    -2.759810; -0.335300; 3.337225;,
    -3.605868; -0.458123; 6.943092;,
    -2.549732; -0.335300; 4.393359;,
    -1.951480; -0.335299; 5.288707;,
    -1.951481; -0.458123; 8.048518;,
    -2.549735; -0.597342; 9.492826;,
    -4.711295; -0.597342; 8.048517;,
    -6.155602; -0.597343; 5.886956;,
    -1.056133; -0.335299; 5.886960;,
    -5.259269; -0.597342; -2.177355;,
    -5.259270; -0.597342; 0.802701;,
    -6.092255; -1.342991; 0.562968;,
    -6.155606; -0.925783; 0.787492;,
    -6.155608; -0.597342; 0.787493;,
    -6.155606; -0.925783; 0.787492;,
    -6.092255; -1.342991; 0.562968;,
    -4.710013; -1.063336; 1.383010;,
    -2.561916; -1.203622; 2.307005;,
    -2.549736; -1.187825; 4.393358;,
    -2.759815; -1.187826; 3.337224;,
    -1.951483; -1.187825; 5.288706;,
    -4.711296; -1.065001; 5.288706;,
    -5.099471; -1.065002; 3.337225;,
    -3.605869; -1.065001; 6.943093;,
    -6.155605; -0.925782; 5.886960;,
    -6.662779; -0.925782; 3.337226;,
    -4.711296; -0.925781; 8.048519;,
    -1.056135; -1.187825; 5.886958;,
    -1.951482; -1.065001; 8.048517;,
    -2.549734; -0.925782; 9.492826;,
    -6.155606; -0.925783; 0.787492;,
    -4.710013; -1.063336; 1.383010;,
    -2.561916; -1.203622; 2.307005;,
    -0.908492; -1.435280; 0.786317;,
    -4.658456; -1.377414; 1.224728;,
    -6.092255; -1.342991; 0.562968;,
    -0.908518; -1.435279; 0.786291;,
    -4.337774; -0.597343; -4.755412;,
    -4.486776; -1.356768; -5.053419;,
    -4.486776; -1.356768; -5.053419;,
    -4.486776; -1.356768; -5.053419;,
    -6.092255; -1.342991; 0.562968;,
    -6.155608; -0.597342; 0.787493;,
    -4.337774; -0.597343; -4.755412;,
    -2.549735; -0.597341; 9.492827;,
    -2.549734; -0.925782; 9.492826;,
    -2.549735; -0.597341; 9.492827;,
    -4.711297; -0.597341; 8.048520;,
    -2.549734; -0.925782; 9.492826;,
    -4.711296; -0.925781; 8.048519;,
    -6.155606; -0.597341; 5.886961;,
    -6.662780; -0.597342; 3.337227;,
    -6.155605; -0.925782; 5.886960;,
    -6.662779; -0.925782; 3.337226;,
    -6.662780; -0.597342; 3.337227;,
    -6.155608; -0.597342; 0.787493;,
    -6.662779; -0.925782; 3.337226;,
    -6.155606; -0.925783; 0.787492;;
    261;
    3;0, 1, 2;,
    3;1, 3, 2;,
    3;4, 5, 6;,
    3;5, 7, 6;,
    3;8, 9, 10;,
    3;9, 11, 10;,
    3;12, 13, 14;,
    3;13, 15, 14;,
    3;16, 17, 18;,
    3;17, 19, 18;,
    3;20, 21, 22;,
    3;21, 23, 22;,
    3;24, 25, 26;,
    3;25, 27, 26;,
    3;28, 29, 30;,
    3;29, 31, 30;,
    3;32, 33, 34;,
    3;33, 35, 34;,
    3;36, 37, 29;,
    3;37, 31, 29;,
    3;25, 38, 27;,
    3;38, 39, 27;,
    3;40, 41, 42;,
    3;41, 43, 42;,
    3;41, 44, 43;,
    3;44, 45, 43;,
    3;46, 47, 48;,
    3;47, 49, 48;,
    3;46, 50, 47;,
    3;50, 51, 47;,
    3;52, 53, 54;,
    3;53, 55, 54;,
    3;55, 53, 56;,
    3;53, 57, 56;,
    3;58, 59, 60;,
    3;59, 61, 60;,
    3;53, 52, 62;,
    3;52, 63, 62;,
    3;62, 63, 64;,
    3;63, 60, 64;,
    3;65, 66, 61;,
    3;66, 60, 61;,
    3;67, 68, 69;,
    3;68, 59, 69;,
    3;70, 71, 67;,
    3;71, 61, 67;,
    3;67, 61, 68;,
    3;61, 59, 68;,
    3;72, 73, 70;,
    3;73, 65, 70;,
    3;70, 65, 71;,
    3;65, 61, 71;,
    3;74, 75, 69;,
    3;75, 67, 69;,
    3;76, 77, 74;,
    3;77, 70, 74;,
    3;74, 70, 75;,
    3;70, 67, 75;,
    3;78, 79, 76;,
    3;79, 72, 76;,
    3;76, 72, 77;,
    3;72, 70, 77;,
    3;66, 80, 81;,
    3;80, 82, 81;,
    3;57, 62, 82;,
    3;52, 69, 63;,
    3;69, 58, 63;,
    3;63, 58, 60;,
    3;64, 60, 81;,
    3;81, 60, 66;,
    3;69, 52, 54;,
    3;69, 59, 58;,
    3;57, 53, 62;,
    3;12, 64, 13;,
    3;64, 81, 13;,
    3;8, 10, 62;,
    3;10, 82, 62;,
    3;4, 6, 83;,
    3;6, 84, 83;,
    3;2, 3, 85;,
    3;3, 86, 85;,
    3;66, 87, 88;,
    3;89, 90, 91;,
    3;90, 92, 91;,
    3;91, 92, 93;,
    3;94, 95, 96;,
    3;97, 98, 99;,
    3;98, 100, 99;,
    3;94, 101, 95;,
    3;101, 102, 95;,
    3;103, 104, 94;,
    3;104, 105, 94;,
    3;94, 105, 101;,
    3;105, 102, 101;,
    3;106, 107, 103;,
    3;107, 108, 103;,
    3;103, 108, 104;,
    3;108, 105, 104;,
    3;109, 95, 110;,
    3;95, 102, 110;,
    3;111, 112, 105;,
    3;112, 109, 105;,
    3;105, 109, 102;,
    3;109, 110, 102;,
    3;113, 114, 108;,
    3;114, 112, 108;,
    3;108, 112, 105;,
    3;112, 111, 105;,
    3;115, 106, 116;,
    3;106, 103, 116;,
    3;116, 103, 96;,
    3;103, 94, 96;,
    3;117, 118, 119;,
    3;118, 120, 119;,
    3;121, 122, 123;,
    3;124, 125, 126;,
    3;125, 127, 126;,
    3;95, 128, 129;,
    3;128, 130, 129;,
    3;129, 130, 127;,
    3;130, 131, 127;,
    3;121, 123, 132;,
    3;127, 125, 133;,
    3;98, 134, 100;,
    3;134, 135, 100;,
    3;134, 136, 135;,
    3;136, 137, 135;,
    3;138, 139, 140;,
    3;139, 141, 140;,
    3;142, 138, 143;,
    3;138, 140, 143;,
    3;144, 145, 146;,
    3;145, 147, 146;,
    3;148, 149, 150;,
    3;149, 151, 150;,
    3;152, 153, 154;,
    3;153, 155, 154;,
    3;156, 157, 158;,
    3;157, 159, 158;,
    3;150, 151, 160;,
    3;151, 161, 160;,
    3;162, 163, 164;,
    3;163, 165, 164;,
    3;166, 167, 168;,
    3;167, 169, 168;,
    3;154, 155, 170;,
    3;155, 171, 170;,
    3;172, 173, 162;,
    3;173, 163, 162;,
    3;168, 169, 174;,
    3;169, 175, 174;,
    3;176, 177, 178;,
    3;177, 179, 178;,
    3;180, 181, 182;,
    3;181, 183, 182;,
    3;184, 185, 186;,
    3;185, 187, 186;,
    3;188, 189, 190;,
    3;189, 191, 190;,
    3;192, 193, 194;,
    3;193, 195, 194;,
    3;196, 197, 198;,
    3;197, 199, 198;,
    3;196, 198, 200;,
    3;198, 201, 200;,
    3;200, 201, 202;,
    3;203, 204, 205;,
    3;204, 206, 205;,
    3;206, 197, 205;,
    3;197, 196, 205;,
    3;198, 207, 201;,
    3;199, 69, 198;,
    3;69, 207, 198;,
    3;202, 203, 200;,
    3;69, 54, 207;,
    3;207, 54, 201;,
    3;54, 55, 201;,
    3;202, 201, 56;,
    3;201, 55, 56;,
    3;182, 183, 196;,
    3;183, 205, 196;,
    3;206, 208, 197;,
    3;208, 209, 197;,
    3;210, 211, 188;,
    3;211, 189, 188;,
    3;209, 212, 213;,
    3;212, 214, 213;,
    3;213, 214, 215;,
    3;214, 216, 215;,
    3;76, 217, 78;,
    3;217, 214, 78;,
    3;78, 214, 218;,
    3;214, 219, 218;,
    3;208, 220, 209;,
    3;220, 219, 209;,
    3;209, 219, 212;,
    3;219, 214, 212;,
    3;69, 199, 213;,
    3;213, 199, 209;,
    3;199, 197, 209;,
    3;74, 221, 76;,
    3;221, 216, 76;,
    3;76, 216, 217;,
    3;216, 214, 217;,
    3;74, 69, 221;,
    3;69, 216, 221;,
    3;213, 215, 69;,
    3;215, 216, 69;,
    3;200, 203, 184;,
    3;203, 185, 184;,
    3;192, 222, 193;,
    3;222, 223, 193;,
    3;224, 225, 226;,
    3;227, 228, 229;,
    3;228, 91, 229;,
    3;229, 91, 230;,
    3;231, 232, 233;,
    3;232, 95, 233;,
    3;234, 235, 236;,
    3;235, 232, 236;,
    3;236, 232, 233;,
    3;232, 231, 233;,
    3;237, 238, 239;,
    3;238, 235, 239;,
    3;239, 235, 236;,
    3;235, 234, 236;,
    3;95, 109, 233;,
    3;109, 240, 233;,
    3;112, 241, 109;,
    3;241, 236, 109;,
    3;109, 236, 240;,
    3;236, 233, 240;,
    3;114, 242, 112;,
    3;242, 239, 112;,
    3;112, 239, 241;,
    3;239, 236, 241;,
    3;238, 243, 235;,
    3;243, 244, 235;,
    3;235, 244, 232;,
    3;244, 245, 232;,
    3;245, 95, 232;,
    3;130, 95, 246;,
    3;95, 247, 246;,
    3;246, 247, 248;,
    3;125, 124, 248;,
    3;124, 249, 248;,
    3;250, 117, 251;,
    3;117, 119, 251;,
    3;252, 125, 248;,
    3;253, 254, 255;,
    3;256, 253, 255;,
    3;139, 257, 141;,
    3;257, 258, 141;,
    3;259, 260, 261;,
    3;260, 262, 261;,
    3;263, 264, 265;,
    3;264, 266, 265;,
    3;260, 263, 262;,
    3;263, 265, 262;,
    3;267, 268, 269;,
    3;268, 270, 269;;

   MeshNormals {
    271;
    0.485012; -0.857531; -0.171478;,
    0.758456; -0.162297; 0.631192;,
    0.771388; -0.574962; -0.272727;,
    0.652802; 0.527932; 0.543266;,
    -0.737795; 0.280471; 0.613998;,
    -0.689173; -0.442830; 0.573534;,
    -0.632062; -0.741997; -0.223468;,
    -0.409954; -0.900517; -0.144940;,
    -0.632062; -0.741997; -0.223468;,
    -0.409954; -0.900517; -0.144940;,
    0.771388; -0.574962; -0.272727;,
    0.485012; -0.857531; -0.171478;,
    -0.737795; 0.280471; 0.613998;,
    0.652802; 0.527932; 0.543266;,
    -0.689173; -0.442830; 0.573534;,
    0.758456; -0.162297; 0.631192;,
    -0.689173; -0.442830; 0.573534;,
    0.758456; -0.162297; 0.631192;,
    -0.410065; -0.801397; 0.435442;,
    0.434630; -0.783113; 0.444781;,
    0.485012; -0.857531; -0.171478;,
    -0.409954; -0.900517; -0.144940;,
    0.461007; -0.738440; -0.492116;,
    -0.435268; -0.760322; -0.482133;,
    0.434630; -0.783113; 0.444781;,
    0.696215; -0.141651; 0.703719;,
    -0.410065; -0.801397; 0.435442;,
    -0.681547; -0.220860; 0.697649;,
    0.461007; -0.738440; -0.492116;,
    0.698560; -0.040714; -0.714392;,
    0.434630; -0.783113; 0.444781;,
    0.696215; -0.141651; 0.703719;,
    -0.537973; 0.661544; -0.522442;,
    -0.552889; 0.628578; 0.546995;,
    0.506606; 0.704678; -0.496769;,
    0.521225; 0.676172; 0.520688;,
    0.506606; 0.704678; -0.496769;,
    0.521225; 0.676172; 0.520688;,
    0.521225; 0.676172; 0.520688;,
    -0.552889; 0.628578; 0.546995;,
    -0.435268; -0.760322; -0.482133;,
    -0.689420; -0.122051; -0.714006;,
    0.461007; -0.738440; -0.492116;,
    0.698560; -0.040714; -0.714392;,
    -0.537973; 0.661544; -0.522442;,
    0.506606; 0.704678; -0.496769;,
    -0.681547; -0.220860; 0.697649;,
    -0.689420; -0.122051; -0.714006;,
    -0.410065; -0.801397; 0.435442;,
    -0.435268; -0.760322; -0.482133;,
    -0.552889; 0.628578; 0.546995;,
    -0.537973; 0.661544; -0.522442;,
    0.036160; 0.996744; -0.072071;,
    0.023456; 0.999101; -0.035322;,
    -0.000000; 0.996760; -0.080430;,
    -0.000000; 0.999020; -0.044254;,
    -0.000254; 0.819857; -0.572569;,
    0.265310; 0.912010; -0.312807;,
    0.072071; 0.996744; -0.036160;,
    0.040235; 0.999158; -0.008003;,
    0.035412; 0.994795; -0.095543;,
    0.035303; 0.999352; -0.007022;,
    -0.430185; 0.882495; -0.190116;,
    0.052359; 0.997255; -0.052360;,
    -0.366925; 0.906735; 0.207839;,
    0.716528; 0.697531; -0.006165;,
    0.743032; 0.622237; -0.246424;,
    -0.000000; 1.000000; -0.000000;,
    -0.000000; 1.000000; -0.000000;,
    -0.004503; 0.999482; -0.031854;,
    -0.000000; 1.000000; -0.000000;,
    -0.000000; 1.000000; -0.000000;,
    0.495127; 0.713931; 0.495128;,
    0.823093; 0.454180; 0.340937;,
    -0.022462; 0.998276; 0.054227;,
    -0.000000; 1.000000; -0.000000;,
    -0.732832; 0.675959; 0.077695;,
    -0.000000; 1.000000; -0.000000;,
    -0.000000; -0.000003; 1.000000;,
    0.340936; 0.454180; 0.823094;,
    0.000005; 1.000000; -0.000002;,
    0.251284; 0.963792; 0.089230;,
    0.596010; 0.774834; -0.210721;,
    -0.366925; 0.906735; 0.207839;,
    -0.430185; 0.882495; -0.190116;,
    0.596010; 0.774834; -0.210721;,
    0.251284; 0.963792; 0.089230;,
    0.846730; -0.520835; 0.108534;,
    0.799098; -0.598550; 0.056385;,
    0.799098; -0.598550; 0.056385;,
    0.846730; -0.520835; 0.108534;,
    0.109684; -0.969414; 0.219557;,
    0.194310; -0.937432; 0.288903;,
    0.201323; -0.934728; 0.292835;,
    0.040240; -0.999181; -0.004223;,
    0.109684; -0.969414; 0.219557;,
    0.201323; -0.934728; 0.292835;,
    0.743032; 0.622237; -0.246424;,
    0.716528; 0.697531; -0.006165;,
    0.846730; -0.520835; 0.108534;,
    0.716528; -0.697532; -0.006165;,
    0.000000; -1.000000; 0.000000;,
    0.013835; -0.999095; 0.040220;,
    0.035304; -0.999350; -0.007240;,
    0.000000; -1.000000; 0.000000;,
    0.007022; -0.999352; 0.035304;,
    0.716528; -0.697532; -0.006165;,
    0.823092; -0.454183; 0.340936;,
    0.492505; -0.699800; 0.517416;,
    0.008441; -0.997694; 0.067348;,
    0.027652; -0.996380; 0.080388;,
    0.014037; -0.997408; 0.070568;,
    0.007022; -0.999352; 0.035304;,
    0.337061; -0.436915; 0.833963;,
    0.006165; -0.697532; 0.716527;,
    0.846730; -0.520835; 0.108534;,
    0.194310; -0.937432; 0.288903;,
    -0.000254; 0.819857; -0.572569;,
    0.265310; 0.912010; -0.312807;,
    -0.000219; -0.867302; -0.497782;,
    0.792152; -0.129287; -0.596474;,
    0.743032; 0.622237; -0.246424;,
    0.799098; -0.598550; 0.056385;,
    0.792152; -0.129287; -0.596474;,
    0.000013; -0.999890; -0.014821;,
    -0.000219; -0.867302; -0.497782;,
    0.017156; -0.999743; -0.014819;,
    0.799098; -0.598550; 0.056385;,
    1.000000; 0.000000; 0.000000;,
    1.000000; 0.000000; 0.000000;,
    0.701015; -0.713068; -0.010580;,
    1.000000; 0.000000; 0.000000;,
    0.265310; 0.912010; -0.312807;,
    0.792152; -0.129287; -0.596474;,
    0.823093; 0.454180; 0.340937;,
    0.823092; -0.454183; 0.340936;,
    0.495127; 0.713931; 0.495128;,
    0.492505; -0.699800; 0.517416;,
    0.340936; 0.454180; 0.823094;,
    -0.000000; -0.000003; 1.000000;,
    0.337061; -0.436915; 0.833963;,
    0.006165; -0.697532; 0.716527;,
    0.495127; 0.713931; 0.495128;,
    0.492505; -0.699800; 0.517416;,
    -0.485012; -0.857530; -0.171478;,
    -0.461007; -0.738442; -0.492114;,
    0.409954; -0.900517; -0.144940;,
    0.435265; -0.760325; -0.482130;,
    -0.434632; -0.783112; 0.444782;,
    0.410064; -0.801397; 0.435441;,
    -0.696216; -0.141649; 0.703718;,
    0.681547; -0.220860; 0.697649;,
    -0.461007; -0.738442; -0.492114;,
    -0.434632; -0.783112; 0.444782;,
    -0.698561; -0.040716; -0.714391;,
    -0.696216; -0.141649; 0.703718;,
    0.689173; -0.442830; 0.573535;,
    0.410064; -0.801397; 0.435441;,
    -0.758456; -0.162296; 0.631192;,
    -0.434632; -0.783112; 0.444782;,
    -0.521225; 0.676172; 0.520687;,
    0.552889; 0.628578; 0.546995;,
    0.689420; -0.122056; -0.714005;,
    -0.698561; -0.040716; -0.714391;,
    0.537973; 0.661544; -0.522442;,
    -0.506606; 0.704678; -0.496769;,
    0.410064; -0.801397; 0.435441;,
    0.435265; -0.760325; -0.482130;,
    0.681547; -0.220860; 0.697649;,
    0.689420; -0.122056; -0.714005;,
    -0.506606; 0.704678; -0.496769;,
    -0.521225; 0.676172; 0.520687;,
    0.435265; -0.760325; -0.482130;,
    -0.461007; -0.738442; -0.492114;,
    0.552889; 0.628578; 0.546995;,
    0.537973; 0.661544; -0.522442;,
    -0.506606; 0.704678; -0.496769;,
    -0.521225; 0.676172; 0.520687;,
    0.537973; 0.661544; -0.522442;,
    0.552889; 0.628578; 0.546995;,
    0.689173; -0.442830; 0.573535;,
    -0.758456; -0.162296; 0.631192;,
    0.737795; 0.280472; 0.613998;,
    -0.652801; 0.527933; 0.543265;,
    0.632063; -0.741997; -0.223468;,
    -0.771389; -0.574960; -0.272727;,
    0.409954; -0.900517; -0.144940;,
    -0.485012; -0.857530; -0.171478;,
    0.737795; 0.280472; 0.613998;,
    0.632063; -0.741997; -0.223468;,
    0.689173; -0.442830; 0.573535;,
    0.409954; -0.900517; -0.144940;,
    -0.771389; -0.574960; -0.272727;,
    -0.652801; 0.527933; 0.543265;,
    -0.485012; -0.857530; -0.171478;,
    -0.758456; -0.162296; 0.631192;,
    0.272782; 0.958213; 0.086133;,
    -0.023806; 0.991751; -0.125946;,
    -0.037864; 0.993941; -0.103190;,
    -0.050213; 0.994761; -0.089043;,
    0.410078; 0.891526; -0.192398;,
    -0.035155; 0.998690; -0.037170;,
    -0.017805; 0.999731; -0.014868;,
    -0.596017; 0.774828; -0.210723;,
    -0.000026; 1.000000; -0.000007;,
    -0.326436; 0.924992; 0.194499;,
    -0.028884; 0.996047; -0.083997;,
    -0.036161; 0.996744; -0.072071;,
    -0.044390; 0.998975; -0.008830;,
    -0.035304; 0.999352; -0.007023;,
    0.272782; 0.958213; 0.086133;,
    0.410078; 0.891526; -0.192398;,
    -0.000000; 1.000000; -0.000000;,
    -0.040235; 0.999158; -0.008004;,
    -0.682973; 0.391507; 0.616661;,
    -0.000000; 1.000000; -0.000000;,
    -0.022462; 0.998276; 0.054227;,
    0.000000; -1.000000; 0.000000;,
    0.000000; -1.000000; 0.000000;,
    -0.918461; 0.000000; -0.395511;,
    -0.000000; 1.000000; -0.000000;,
    -0.382024; -0.058695; 0.922287;,
    -0.596017; 0.774828; -0.210723;,
    -0.326436; 0.924992; 0.194499;,
    -0.555490; -0.829884; 0.052191;,
    -0.846598; -0.521027; 0.108643;,
    -0.962104; 0.074705; -0.262251;,
    -0.846598; -0.521027; 0.108643;,
    -0.555490; -0.829884; 0.052191;,
    -0.196610; -0.937115; 0.288376;,
    -0.204022; -0.934337; 0.292215;,
    -0.080419; -0.996633; 0.015997;,
    -0.082248; -0.996606; 0.003415;,
    -0.045662; -0.998339; 0.035145;,
    -0.070568; -0.997408; 0.014037;,
    -0.072120; -0.997396; -0.000526;,
    -0.035304; -0.999352; 0.007022;,
    -0.833963; -0.436915; 0.337062;,
    -0.731638; -0.681693; 0.000075;,
    -0.517415; -0.699800; 0.492505;,
    -0.010793; -0.998469; 0.054259;,
    -0.000000; -1.000000; 0.000000;,
    -0.340935; -0.454185; 0.823091;,
    -0.846598; -0.521027; 0.108643;,
    -0.196610; -0.937115; 0.288376;,
    -0.204022; -0.934337; 0.292215;,
    -0.017155; -0.999743; -0.014834;,
    -0.017155; -0.999743; -0.014834;,
    -0.555490; -0.829884; 0.052191;,
    -0.017130; -0.999744; -0.014819;,
    -0.590428; 0.382413; -0.710743;,
    -0.790141; -0.136183; -0.597604;,
    -0.790141; -0.136183; -0.597604;,
    -0.790141; -0.136183; -0.597604;,
    -0.555490; -0.829884; 0.052191;,
    -0.962104; 0.074705; -0.262251;,
    -0.590428; 0.382413; -0.710743;,
    -0.382683; -0.000005; 0.923880;,
    -0.340935; -0.454185; 0.823091;,
    -0.382683; -0.000005; 0.923880;,
    -0.707106; -0.000003; 0.707107;,
    -0.340935; -0.454185; 0.823091;,
    -0.517415; -0.699800; 0.492505;,
    -0.923879; -0.000003; 0.382684;,
    -1.000000; -0.000004; 0.000000;,
    -0.833963; -0.436915; 0.337062;,
    -0.731638; -0.681693; 0.000075;,
    -1.000000; -0.000004; 0.000000;,
    -0.962104; 0.074705; -0.262251;,
    -0.731638; -0.681693; 0.000075;,
    -0.846598; -0.521027; 0.108643;;
    261;
    3;0, 1, 2;,
    3;1, 3, 2;,
    3;4, 5, 6;,
    3;5, 7, 6;,
    3;8, 9, 10;,
    3;9, 11, 10;,
    3;12, 13, 14;,
    3;13, 15, 14;,
    3;16, 17, 18;,
    3;17, 19, 18;,
    3;20, 21, 22;,
    3;21, 23, 22;,
    3;24, 25, 26;,
    3;25, 27, 26;,
    3;28, 29, 30;,
    3;29, 31, 30;,
    3;32, 33, 34;,
    3;33, 35, 34;,
    3;36, 37, 29;,
    3;37, 31, 29;,
    3;25, 38, 27;,
    3;38, 39, 27;,
    3;40, 41, 42;,
    3;41, 43, 42;,
    3;41, 44, 43;,
    3;44, 45, 43;,
    3;46, 47, 48;,
    3;47, 49, 48;,
    3;46, 50, 47;,
    3;50, 51, 47;,
    3;52, 53, 54;,
    3;53, 55, 54;,
    3;55, 53, 56;,
    3;53, 57, 56;,
    3;58, 59, 60;,
    3;59, 61, 60;,
    3;53, 52, 62;,
    3;52, 63, 62;,
    3;62, 63, 64;,
    3;63, 60, 64;,
    3;65, 66, 61;,
    3;66, 60, 61;,
    3;67, 68, 69;,
    3;68, 59, 69;,
    3;70, 71, 67;,
    3;71, 61, 67;,
    3;67, 61, 68;,
    3;61, 59, 68;,
    3;72, 73, 70;,
    3;73, 65, 70;,
    3;70, 65, 71;,
    3;65, 61, 71;,
    3;74, 75, 69;,
    3;75, 67, 69;,
    3;76, 77, 74;,
    3;77, 70, 74;,
    3;74, 70, 75;,
    3;70, 67, 75;,
    3;78, 79, 76;,
    3;79, 72, 76;,
    3;76, 72, 77;,
    3;72, 70, 77;,
    3;66, 80, 81;,
    3;80, 82, 81;,
    3;57, 62, 82;,
    3;52, 69, 63;,
    3;69, 58, 63;,
    3;63, 58, 60;,
    3;64, 60, 81;,
    3;81, 60, 66;,
    3;69, 52, 54;,
    3;69, 59, 58;,
    3;57, 53, 62;,
    3;12, 64, 13;,
    3;64, 81, 13;,
    3;8, 10, 62;,
    3;10, 82, 62;,
    3;4, 6, 83;,
    3;6, 84, 83;,
    3;2, 3, 85;,
    3;3, 86, 85;,
    3;66, 87, 88;,
    3;89, 90, 91;,
    3;90, 92, 91;,
    3;91, 92, 93;,
    3;94, 95, 96;,
    3;97, 98, 99;,
    3;98, 100, 99;,
    3;94, 101, 95;,
    3;101, 102, 95;,
    3;103, 104, 94;,
    3;104, 105, 94;,
    3;94, 105, 101;,
    3;105, 102, 101;,
    3;106, 107, 103;,
    3;107, 108, 103;,
    3;103, 108, 104;,
    3;108, 105, 104;,
    3;109, 95, 110;,
    3;95, 102, 110;,
    3;111, 112, 105;,
    3;112, 109, 105;,
    3;105, 109, 102;,
    3;109, 110, 102;,
    3;113, 114, 108;,
    3;114, 112, 108;,
    3;108, 112, 105;,
    3;112, 111, 105;,
    3;115, 106, 116;,
    3;106, 103, 116;,
    3;116, 103, 96;,
    3;103, 94, 96;,
    3;117, 118, 119;,
    3;118, 120, 119;,
    3;121, 122, 123;,
    3;124, 125, 126;,
    3;125, 127, 126;,
    3;95, 128, 129;,
    3;128, 130, 129;,
    3;129, 130, 127;,
    3;130, 131, 127;,
    3;121, 123, 132;,
    3;127, 125, 133;,
    3;98, 134, 100;,
    3;134, 135, 100;,
    3;134, 136, 135;,
    3;136, 137, 135;,
    3;138, 139, 140;,
    3;139, 141, 140;,
    3;142, 138, 143;,
    3;138, 140, 143;,
    3;144, 145, 146;,
    3;145, 147, 146;,
    3;148, 149, 150;,
    3;149, 151, 150;,
    3;152, 153, 154;,
    3;153, 155, 154;,
    3;156, 157, 158;,
    3;157, 159, 158;,
    3;150, 151, 160;,
    3;151, 161, 160;,
    3;162, 163, 164;,
    3;163, 165, 164;,
    3;166, 167, 168;,
    3;167, 169, 168;,
    3;154, 155, 170;,
    3;155, 171, 170;,
    3;172, 173, 162;,
    3;173, 163, 162;,
    3;168, 169, 174;,
    3;169, 175, 174;,
    3;176, 177, 178;,
    3;177, 179, 178;,
    3;180, 181, 182;,
    3;181, 183, 182;,
    3;184, 185, 186;,
    3;185, 187, 186;,
    3;188, 189, 190;,
    3;189, 191, 190;,
    3;192, 193, 194;,
    3;193, 195, 194;,
    3;196, 197, 198;,
    3;197, 199, 198;,
    3;196, 198, 200;,
    3;198, 201, 200;,
    3;200, 201, 202;,
    3;203, 204, 205;,
    3;204, 206, 205;,
    3;206, 197, 205;,
    3;197, 196, 205;,
    3;198, 207, 201;,
    3;199, 69, 198;,
    3;69, 207, 198;,
    3;202, 203, 200;,
    3;69, 54, 207;,
    3;207, 54, 201;,
    3;54, 55, 201;,
    3;202, 201, 56;,
    3;201, 55, 56;,
    3;182, 183, 196;,
    3;183, 205, 196;,
    3;206, 208, 197;,
    3;208, 209, 197;,
    3;210, 211, 188;,
    3;211, 189, 188;,
    3;209, 212, 213;,
    3;212, 214, 213;,
    3;213, 214, 215;,
    3;214, 216, 215;,
    3;76, 217, 78;,
    3;217, 214, 78;,
    3;78, 214, 218;,
    3;214, 219, 218;,
    3;208, 220, 209;,
    3;220, 219, 209;,
    3;209, 219, 212;,
    3;219, 214, 212;,
    3;69, 199, 213;,
    3;213, 199, 209;,
    3;199, 197, 209;,
    3;74, 221, 76;,
    3;221, 216, 76;,
    3;76, 216, 217;,
    3;216, 214, 217;,
    3;74, 69, 221;,
    3;69, 216, 221;,
    3;213, 215, 69;,
    3;215, 216, 69;,
    3;200, 203, 184;,
    3;203, 185, 184;,
    3;192, 222, 193;,
    3;222, 223, 193;,
    3;224, 225, 226;,
    3;227, 228, 229;,
    3;228, 91, 229;,
    3;229, 91, 230;,
    3;231, 232, 233;,
    3;232, 95, 233;,
    3;234, 235, 236;,
    3;235, 232, 236;,
    3;236, 232, 233;,
    3;232, 231, 233;,
    3;237, 238, 239;,
    3;238, 235, 239;,
    3;239, 235, 236;,
    3;235, 234, 236;,
    3;95, 109, 233;,
    3;109, 240, 233;,
    3;112, 241, 109;,
    3;241, 236, 109;,
    3;109, 236, 240;,
    3;236, 233, 240;,
    3;114, 242, 112;,
    3;242, 239, 112;,
    3;112, 239, 241;,
    3;239, 236, 241;,
    3;238, 243, 235;,
    3;243, 244, 235;,
    3;235, 244, 232;,
    3;244, 245, 232;,
    3;245, 95, 232;,
    3;130, 95, 246;,
    3;95, 247, 246;,
    3;246, 247, 248;,
    3;125, 124, 248;,
    3;124, 249, 248;,
    3;250, 117, 251;,
    3;117, 119, 251;,
    3;252, 125, 248;,
    3;253, 254, 255;,
    3;256, 253, 255;,
    3;139, 257, 141;,
    3;257, 258, 141;,
    3;259, 260, 261;,
    3;260, 262, 261;,
    3;263, 264, 265;,
    3;264, 266, 265;,
    3;260, 263, 262;,
    3;263, 265, 262;,
    3;267, 268, 269;,
    3;268, 270, 269;;
   }

   MeshTextureCoords {
    271;
    0.498047; 0.824219;,
    0.226563; 0.824219;,
    0.428610; 0.795450;,
    0.208582; 0.795450;,
    0.208582; 0.804440;,
    0.226563; 0.824219;,
    0.428610; 0.804440;,
    0.498047; 0.824219;,
    0.391406; 0.066514;,
    0.389456; 0.023210;,
    0.406259; 0.066353;,
    0.404309; 0.023048;,
    0.386830; 0.198716;,
    0.401683; 0.198554;,
    0.383810; 0.186328;,
    0.398663; 0.186166;,
    0.117622; 0.743211;,
    0.117622; 0.718540;,
    0.013470; 0.742449;,
    0.013470; 0.717778;,
    0.316454; 0.719995;,
    0.316454; 0.744666;,
    0.511719; 0.721423;,
    0.511719; 0.746094;,
    0.666447; 0.632740;,
    0.661213; 0.635219;,
    0.666447; 0.613209;,
    0.661213; 0.610479;,
    0.515433; 0.667014;,
    0.515030; 0.671862;,
    0.015849; 0.668086;,
    0.013100; 0.672940;,
    0.023438; 0.652344;,
    0.507813; 0.652344;,
    0.023438; 0.623047;,
    0.507813; 0.623047;,
    0.499576; 0.705984;,
    0.011719; 0.707031;,
    0.623047; 0.630859;,
    0.623047; 0.611328;,
    0.714844; 0.611979;,
    0.718318; 0.617074;,
    0.691406; 0.611979;,
    0.688631; 0.617074;,
    0.718750; 0.654297;,
    0.695313; 0.654297;,
    0.009810; 0.673130;,
    0.510167; 0.673130;,
    0.011719; 0.667969;,
    0.509737; 0.667969;,
    0.013672; 0.707031;,
    0.500000; 0.707031;,
    0.266057; 0.213350;,
    0.298210; 0.143781;,
    0.231200; 0.206968;,
    0.233803; 0.131989;,
    0.237700; 0.019686;,
    0.381261; 0.034446;,
    0.314018; 0.260900;,
    0.319821; 0.294829;,
    0.386832; 0.231643;,
    0.397554; 0.294336;,
    0.393693; 0.117288;,
    0.295139; 0.232288;,
    0.390372; 0.213240;,
    0.449492; 0.294172;,
    0.435482; 0.212259;,
    0.290789; 0.357956;,
    0.311664; 0.328911;,
    0.228134; 0.294962;,
    0.343909; 0.410979;,
    0.382482; 0.357311;,
    0.379401; 0.446572;,
    0.429799; 0.376451;,
    0.225048; 0.384689;,
    0.260373; 0.377542;,
    0.222437; 0.460375;,
    0.287709; 0.447170;,
    0.220690; 0.511111;,
    0.305972; 0.493858;,
    0.417627; 0.142882;,
    0.405224; 0.213078;,
    0.408545; 0.117126;,
    0.187500; 0.781250;,
    0.347197; 0.781250;,
    0.347197; 0.761719;,
    0.187500; 0.761719;,
    0.435471; 0.213205;,
    0.433603; 0.207200;,
    0.958984; 0.525391;,
    0.955078; 0.554688;,
    0.660156; 0.525391;,
    0.885909; 0.547430;,
    0.782043; 0.541164;,
    0.684572; 0.295674;,
    0.771810; 0.295674;,
    0.690827; 0.262571;,
    0.509766; 0.864746;,
    0.668809; 0.865370;,
    0.509766; 0.802279;,
    0.668809; 0.802902;,
    0.691212; 0.329611;,
    0.710123; 0.358380;,
    0.610614; 0.295674;,
    0.622885; 0.358380;,
    0.657828; 0.411540;,
    0.561198; 0.295674;,
    0.577230; 0.377604;,
    0.622885; 0.447060;,
    0.771810; 0.384354;,
    0.738425; 0.377604;,
    0.710123; 0.447060;,
    0.771810; 0.459533;,
    0.691212; 0.493469;,
    0.771810; 0.509766;,
    0.577230; 0.213745;,
    0.622925; 0.232881;,
    0.028013; 0.527118;,
    0.507813; 0.527344;,
    0.011841; 0.600734;,
    0.507813; 0.601563;,
    0.484375; 0.980469;,
    0.486064; 0.924216;,
    0.976563; 0.917969;,
    0.771810; 0.213700;,
    0.771810; 0.009766;,
    0.743091; 0.213707;,
    0.579232; 0.206531;,
    0.771810; 0.295672;,
    0.624555; 0.227795;,
    0.771810; 0.213700;,
    0.743092; 0.213707;,
    0.976563; 0.980469;,
    0.629982; 0.026062;,
    0.840957; 0.866044;,
    0.840957; 0.803577;,
    1.000000; 0.866667;,
    1.000000; 0.804199;,
    0.812897; 0.793638;,
    0.660410; 0.792952;,
    0.814850; 0.732440;,
    0.662364; 0.731754;,
    0.953776; 0.794271;,
    0.955729; 0.733073;,
    0.316041; 0.743172;,
    0.511077; 0.743172;,
    0.316041; 0.718501;,
    0.511077; 0.718501;,
    0.666016; 0.632813;,
    0.666016; 0.609375;,
    0.660700; 0.636071;,
    0.660700; 0.606384;,
    0.513859; 0.666779;,
    0.013840; 0.666779;,
    0.513818; 0.671623;,
    0.011452; 0.671623;,
    0.117443; 0.718501;,
    0.013413; 0.718501;,
    0.117443; 0.743172;,
    0.013413; 0.743172;,
    0.623047; 0.632813;,
    0.623047; 0.609375;,
    0.721763; 0.617101;,
    0.692076; 0.617101;,
    0.718750; 0.654297;,
    0.695313; 0.654297;,
    0.013672; 0.667969;,
    0.513691; 0.667969;,
    0.011238; 0.673130;,
    0.513605; 0.673130;,
    0.500169; 0.705842;,
    0.011887; 0.705842;,
    0.718752; 0.612095;,
    0.695315; 0.612095;,
    0.011719; 0.707031;,
    0.500000; 0.707031;,
    0.011719; 0.654297;,
    0.507813; 0.654297;,
    0.011719; 0.621094;,
    0.507813; 0.621094;,
    0.079340; 0.189645;,
    0.064487; 0.189807;,
    0.075523; 0.202107;,
    0.060671; 0.202269;,
    0.080099; 0.069905;,
    0.065247; 0.070067;,
    0.084986; 0.026527;,
    0.070134; 0.026688;,
    0.208582; 0.795450;,
    0.428610; 0.795450;,
    0.226563; 0.824219;,
    0.498047; 0.824219;,
    0.428610; 0.795450;,
    0.208582; 0.795450;,
    0.498047; 0.824219;,
    0.226563; 0.824219;,
    0.071049; 0.216718;,
    0.073758; 0.235053;,
    0.165459; 0.233701;,
    0.144584; 0.262746;,
    0.074370; 0.120766;,
    0.168531; 0.145194;,
    0.093009; 0.037586;,
    0.059518; 0.120928;,
    0.049105; 0.146896;,
    0.056196; 0.216880;,
    0.026432; 0.216714;,
    0.195875; 0.214114;,
    0.006739; 0.298994;,
    0.058686; 0.298028;,
    0.187500; 0.761719;,
    0.347197; 0.761719;,
    0.069408; 0.360721;,
    0.136427; 0.296827;,
    0.104293; 0.413589;,
    0.142230; 0.330756;,
    0.161109; 0.359368;,
    0.158030; 0.448583;,
    0.136538; 0.495704;,
    0.066328; 0.449982;,
    0.020749; 0.380907;,
    0.190191; 0.378307;,
    0.347197; 0.761719;,
    0.187500; 0.761719;,
    0.433603; 0.207200;,
    0.435471; 0.213205;,
    0.435482; 0.212259;,
    0.955078; 0.554688;,
    0.958984; 0.525391;,
    0.885909; 0.547430;,
    0.782043; 0.541164;,
    0.852408; 0.329611;,
    0.859048; 0.295674;,
    0.833497; 0.358380;,
    0.920735; 0.358380;,
    0.933005; 0.295674;,
    0.885792; 0.411540;,
    0.966390; 0.377604;,
    0.982422; 0.295674;,
    0.920735; 0.447060;,
    0.805195; 0.377604;,
    0.833497; 0.447060;,
    0.852408; 0.493469;,
    0.966390; 0.213745;,
    0.920694; 0.232881;,
    0.852793; 0.262571;,
    0.800528; 0.213707;,
    0.919065; 0.227795;,
    0.964387; 0.206531;,
    0.800528; 0.213707;,
    0.507813; 0.527344;,
    0.507813; 0.601563;,
    0.913638; 0.026062;,
    0.976563; 0.917969;,
    0.486064; 0.924216;,
    0.484375; 0.980469;,
    0.976563; 0.980469;,
    0.519531; 0.792318;,
    0.521484; 0.731120;,
    0.913086; 0.791016;,
    0.785408; 0.791016;,
    0.913086; 0.733398;,
    0.785408; 0.733399;,
    0.647210; 0.791016;,
    0.519531; 0.791016;,
    0.647210; 0.733399;,
    0.519531; 0.733398;,
    0.655599; 0.792318;,
    0.519531; 0.791667;,
    0.655599; 0.732422;,
    0.519531; 0.731771;;
   }

   MeshVertexColors {
    271;
    0; 1.000000; 1.000000; 1.000000; 1.000000;,
    1; 1.000000; 1.000000; 1.000000; 1.000000;,
    2; 1.000000; 1.000000; 1.000000; 1.000000;,
    3; 1.000000; 1.000000; 1.000000; 1.000000;,
    4; 1.000000; 1.000000; 1.000000; 1.000000;,
    5; 1.000000; 1.000000; 1.000000; 1.000000;,
    6; 1.000000; 1.000000; 1.000000; 1.000000;,
    7; 1.000000; 1.000000; 1.000000; 1.000000;,
    8; 1.000000; 1.000000; 1.000000; 1.000000;,
    9; 1.000000; 1.000000; 1.000000; 1.000000;,
    10; 1.000000; 1.000000; 1.000000; 1.000000;,
    11; 1.000000; 1.000000; 1.000000; 1.000000;,
    12; 1.000000; 1.000000; 1.000000; 1.000000;,
    13; 1.000000; 1.000000; 1.000000; 1.000000;,
    14; 1.000000; 1.000000; 1.000000; 1.000000;,
    15; 1.000000; 1.000000; 1.000000; 1.000000;,
    16; 1.000000; 1.000000; 1.000000; 1.000000;,
    17; 1.000000; 1.000000; 1.000000; 1.000000;,
    18; 1.000000; 1.000000; 1.000000; 1.000000;,
    19; 1.000000; 1.000000; 1.000000; 1.000000;,
    20; 1.000000; 1.000000; 1.000000; 1.000000;,
    21; 1.000000; 1.000000; 1.000000; 1.000000;,
    22; 1.000000; 1.000000; 1.000000; 1.000000;,
    23; 1.000000; 1.000000; 1.000000; 1.000000;,
    24; 1.000000; 1.000000; 1.000000; 1.000000;,
    25; 1.000000; 1.000000; 1.000000; 1.000000;,
    26; 1.000000; 1.000000; 1.000000; 1.000000;,
    27; 1.000000; 1.000000; 1.000000; 1.000000;,
    28; 1.000000; 1.000000; 1.000000; 1.000000;,
    29; 1.000000; 1.000000; 1.000000; 1.000000;,
    30; 1.000000; 1.000000; 1.000000; 1.000000;,
    31; 1.000000; 1.000000; 1.000000; 1.000000;,
    32; 1.000000; 1.000000; 1.000000; 1.000000;,
    33; 1.000000; 1.000000; 1.000000; 1.000000;,
    34; 1.000000; 1.000000; 1.000000; 1.000000;,
    35; 1.000000; 1.000000; 1.000000; 1.000000;,
    36; 1.000000; 1.000000; 1.000000; 1.000000;,
    37; 1.000000; 1.000000; 1.000000; 1.000000;,
    38; 1.000000; 1.000000; 1.000000; 1.000000;,
    39; 1.000000; 1.000000; 1.000000; 1.000000;,
    40; 1.000000; 1.000000; 1.000000; 1.000000;,
    41; 1.000000; 1.000000; 1.000000; 1.000000;,
    42; 1.000000; 1.000000; 1.000000; 1.000000;,
    43; 1.000000; 1.000000; 1.000000; 1.000000;,
    44; 1.000000; 1.000000; 1.000000; 1.000000;,
    45; 1.000000; 1.000000; 1.000000; 1.000000;,
    46; 1.000000; 1.000000; 1.000000; 1.000000;,
    47; 1.000000; 1.000000; 1.000000; 1.000000;,
    48; 1.000000; 1.000000; 1.000000; 1.000000;,
    49; 1.000000; 1.000000; 1.000000; 1.000000;,
    50; 1.000000; 1.000000; 1.000000; 1.000000;,
    51; 1.000000; 1.000000; 1.000000; 1.000000;,
    52; 1.000000; 1.000000; 1.000000; 1.000000;,
    53; 1.000000; 1.000000; 1.000000; 1.000000;,
    54; 1.000000; 1.000000; 1.000000; 1.000000;,
    55; 1.000000; 1.000000; 1.000000; 1.000000;,
    56; 1.000000; 1.000000; 1.000000; 1.000000;,
    57; 1.000000; 1.000000; 1.000000; 1.000000;,
    58; 1.000000; 1.000000; 1.000000; 1.000000;,
    59; 1.000000; 1.000000; 1.000000; 1.000000;,
    60; 1.000000; 1.000000; 1.000000; 1.000000;,
    61; 1.000000; 1.000000; 1.000000; 1.000000;,
    62; 1.000000; 1.000000; 1.000000; 1.000000;,
    63; 1.000000; 1.000000; 1.000000; 1.000000;,
    64; 1.000000; 1.000000; 1.000000; 1.000000;,
    65; 1.000000; 1.000000; 1.000000; 1.000000;,
    66; 1.000000; 1.000000; 1.000000; 1.000000;,
    67; 1.000000; 1.000000; 1.000000; 1.000000;,
    68; 1.000000; 1.000000; 1.000000; 1.000000;,
    69; 1.000000; 1.000000; 1.000000; 1.000000;,
    70; 1.000000; 1.000000; 1.000000; 1.000000;,
    71; 1.000000; 1.000000; 1.000000; 1.000000;,
    72; 1.000000; 1.000000; 1.000000; 1.000000;,
    73; 1.000000; 1.000000; 1.000000; 1.000000;,
    74; 1.000000; 1.000000; 1.000000; 1.000000;,
    75; 1.000000; 1.000000; 1.000000; 1.000000;,
    76; 1.000000; 1.000000; 1.000000; 1.000000;,
    77; 1.000000; 1.000000; 1.000000; 1.000000;,
    78; 1.000000; 1.000000; 1.000000; 1.000000;,
    79; 1.000000; 1.000000; 1.000000; 1.000000;,
    80; 1.000000; 1.000000; 1.000000; 1.000000;,
    81; 1.000000; 1.000000; 1.000000; 1.000000;,
    82; 1.000000; 1.000000; 1.000000; 1.000000;,
    83; 1.000000; 1.000000; 1.000000; 1.000000;,
    84; 1.000000; 1.000000; 1.000000; 1.000000;,
    85; 1.000000; 1.000000; 1.000000; 1.000000;,
    86; 1.000000; 1.000000; 1.000000; 1.000000;,
    87; 1.000000; 1.000000; 1.000000; 1.000000;,
    88; 1.000000; 1.000000; 1.000000; 1.000000;,
    89; 1.000000; 1.000000; 1.000000; 1.000000;,
    90; 1.000000; 1.000000; 1.000000; 1.000000;,
    91; 1.000000; 1.000000; 1.000000; 1.000000;,
    92; 1.000000; 1.000000; 1.000000; 1.000000;,
    93; 1.000000; 1.000000; 1.000000; 1.000000;,
    94; 1.000000; 1.000000; 1.000000; 1.000000;,
    95; 1.000000; 1.000000; 1.000000; 1.000000;,
    96; 1.000000; 1.000000; 1.000000; 1.000000;,
    97; 1.000000; 1.000000; 1.000000; 1.000000;,
    98; 1.000000; 1.000000; 1.000000; 1.000000;,
    99; 1.000000; 1.000000; 1.000000; 1.000000;,
    100; 1.000000; 1.000000; 1.000000; 1.000000;,
    101; 1.000000; 1.000000; 1.000000; 1.000000;,
    102; 1.000000; 1.000000; 1.000000; 1.000000;,
    103; 1.000000; 1.000000; 1.000000; 1.000000;,
    104; 1.000000; 1.000000; 1.000000; 1.000000;,
    105; 1.000000; 1.000000; 1.000000; 1.000000;,
    106; 1.000000; 1.000000; 1.000000; 1.000000;,
    107; 1.000000; 1.000000; 1.000000; 1.000000;,
    108; 1.000000; 1.000000; 1.000000; 1.000000;,
    109; 1.000000; 1.000000; 1.000000; 1.000000;,
    110; 1.000000; 1.000000; 1.000000; 1.000000;,
    111; 1.000000; 1.000000; 1.000000; 1.000000;,
    112; 1.000000; 1.000000; 1.000000; 1.000000;,
    113; 1.000000; 1.000000; 1.000000; 1.000000;,
    114; 1.000000; 1.000000; 1.000000; 1.000000;,
    115; 1.000000; 1.000000; 1.000000; 1.000000;,
    116; 1.000000; 1.000000; 1.000000; 1.000000;,
    117; 1.000000; 1.000000; 1.000000; 1.000000;,
    118; 1.000000; 1.000000; 1.000000; 1.000000;,
    119; 1.000000; 1.000000; 1.000000; 1.000000;,
    120; 1.000000; 1.000000; 1.000000; 1.000000;,
    121; 1.000000; 1.000000; 1.000000; 1.000000;,
    122; 1.000000; 1.000000; 1.000000; 1.000000;,
    123; 1.000000; 1.000000; 1.000000; 1.000000;,
    124; 1.000000; 1.000000; 1.000000; 1.000000;,
    125; 1.000000; 1.000000; 1.000000; 1.000000;,
    126; 1.000000; 1.000000; 1.000000; 1.000000;,
    127; 1.000000; 1.000000; 1.000000; 1.000000;,
    128; 1.000000; 1.000000; 1.000000; 1.000000;,
    129; 1.000000; 1.000000; 1.000000; 1.000000;,
    130; 1.000000; 1.000000; 1.000000; 1.000000;,
    131; 1.000000; 1.000000; 1.000000; 1.000000;,
    132; 1.000000; 1.000000; 1.000000; 1.000000;,
    133; 1.000000; 1.000000; 1.000000; 1.000000;,
    134; 1.000000; 1.000000; 1.000000; 1.000000;,
    135; 1.000000; 1.000000; 1.000000; 1.000000;,
    136; 1.000000; 1.000000; 1.000000; 1.000000;,
    137; 1.000000; 1.000000; 1.000000; 1.000000;,
    138; 1.000000; 1.000000; 1.000000; 1.000000;,
    139; 1.000000; 1.000000; 1.000000; 1.000000;,
    140; 1.000000; 1.000000; 1.000000; 1.000000;,
    141; 1.000000; 1.000000; 1.000000; 1.000000;,
    142; 1.000000; 1.000000; 1.000000; 1.000000;,
    143; 1.000000; 1.000000; 1.000000; 1.000000;,
    144; 1.000000; 1.000000; 1.000000; 1.000000;,
    145; 1.000000; 1.000000; 1.000000; 1.000000;,
    146; 1.000000; 1.000000; 1.000000; 1.000000;,
    147; 1.000000; 1.000000; 1.000000; 1.000000;,
    148; 1.000000; 1.000000; 1.000000; 1.000000;,
    149; 1.000000; 1.000000; 1.000000; 1.000000;,
    150; 1.000000; 1.000000; 1.000000; 1.000000;,
    151; 1.000000; 1.000000; 1.000000; 1.000000;,
    152; 1.000000; 1.000000; 1.000000; 1.000000;,
    153; 1.000000; 1.000000; 1.000000; 1.000000;,
    154; 1.000000; 1.000000; 1.000000; 1.000000;,
    155; 1.000000; 1.000000; 1.000000; 1.000000;,
    156; 1.000000; 1.000000; 1.000000; 1.000000;,
    157; 1.000000; 1.000000; 1.000000; 1.000000;,
    158; 1.000000; 1.000000; 1.000000; 1.000000;,
    159; 1.000000; 1.000000; 1.000000; 1.000000;,
    160; 1.000000; 1.000000; 1.000000; 1.000000;,
    161; 1.000000; 1.000000; 1.000000; 1.000000;,
    162; 1.000000; 1.000000; 1.000000; 1.000000;,
    163; 1.000000; 1.000000; 1.000000; 1.000000;,
    164; 1.000000; 1.000000; 1.000000; 1.000000;,
    165; 1.000000; 1.000000; 1.000000; 1.000000;,
    166; 1.000000; 1.000000; 1.000000; 1.000000;,
    167; 1.000000; 1.000000; 1.000000; 1.000000;,
    168; 1.000000; 1.000000; 1.000000; 1.000000;,
    169; 1.000000; 1.000000; 1.000000; 1.000000;,
    170; 1.000000; 1.000000; 1.000000; 1.000000;,
    171; 1.000000; 1.000000; 1.000000; 1.000000;,
    172; 1.000000; 1.000000; 1.000000; 1.000000;,
    173; 1.000000; 1.000000; 1.000000; 1.000000;,
    174; 1.000000; 1.000000; 1.000000; 1.000000;,
    175; 1.000000; 1.000000; 1.000000; 1.000000;,
    176; 1.000000; 1.000000; 1.000000; 1.000000;,
    177; 1.000000; 1.000000; 1.000000; 1.000000;,
    178; 1.000000; 1.000000; 1.000000; 1.000000;,
    179; 1.000000; 1.000000; 1.000000; 1.000000;,
    180; 1.000000; 1.000000; 1.000000; 1.000000;,
    181; 1.000000; 1.000000; 1.000000; 1.000000;,
    182; 1.000000; 1.000000; 1.000000; 1.000000;,
    183; 1.000000; 1.000000; 1.000000; 1.000000;,
    184; 1.000000; 1.000000; 1.000000; 1.000000;,
    185; 1.000000; 1.000000; 1.000000; 1.000000;,
    186; 1.000000; 1.000000; 1.000000; 1.000000;,
    187; 1.000000; 1.000000; 1.000000; 1.000000;,
    188; 1.000000; 1.000000; 1.000000; 1.000000;,
    189; 1.000000; 1.000000; 1.000000; 1.000000;,
    190; 1.000000; 1.000000; 1.000000; 1.000000;,
    191; 1.000000; 1.000000; 1.000000; 1.000000;,
    192; 1.000000; 1.000000; 1.000000; 1.000000;,
    193; 1.000000; 1.000000; 1.000000; 1.000000;,
    194; 1.000000; 1.000000; 1.000000; 1.000000;,
    195; 1.000000; 1.000000; 1.000000; 1.000000;,
    196; 1.000000; 1.000000; 1.000000; 1.000000;,
    197; 1.000000; 1.000000; 1.000000; 1.000000;,
    198; 1.000000; 1.000000; 1.000000; 1.000000;,
    199; 1.000000; 1.000000; 1.000000; 1.000000;,
    200; 1.000000; 1.000000; 1.000000; 1.000000;,
    201; 1.000000; 1.000000; 1.000000; 1.000000;,
    202; 1.000000; 1.000000; 1.000000; 1.000000;,
    203; 1.000000; 1.000000; 1.000000; 1.000000;,
    204; 1.000000; 1.000000; 1.000000; 1.000000;,
    205; 1.000000; 1.000000; 1.000000; 1.000000;,
    206; 1.000000; 1.000000; 1.000000; 1.000000;,
    207; 1.000000; 1.000000; 1.000000; 1.000000;,
    208; 1.000000; 1.000000; 1.000000; 1.000000;,
    209; 1.000000; 1.000000; 1.000000; 1.000000;,
    210; 1.000000; 1.000000; 1.000000; 1.000000;,
    211; 1.000000; 1.000000; 1.000000; 1.000000;,
    212; 1.000000; 1.000000; 1.000000; 1.000000;,
    213; 1.000000; 1.000000; 1.000000; 1.000000;,
    214; 1.000000; 1.000000; 1.000000; 1.000000;,
    215; 1.000000; 1.000000; 1.000000; 1.000000;,
    216; 1.000000; 1.000000; 1.000000; 1.000000;,
    217; 1.000000; 1.000000; 1.000000; 1.000000;,
    218; 1.000000; 1.000000; 1.000000; 1.000000;,
    219; 1.000000; 1.000000; 1.000000; 1.000000;,
    220; 1.000000; 1.000000; 1.000000; 1.000000;,
    221; 1.000000; 1.000000; 1.000000; 1.000000;,
    222; 1.000000; 1.000000; 1.000000; 1.000000;,
    223; 1.000000; 1.000000; 1.000000; 1.000000;,
    224; 1.000000; 1.000000; 1.000000; 1.000000;,
    225; 1.000000; 1.000000; 1.000000; 1.000000;,
    226; 1.000000; 1.000000; 1.000000; 1.000000;,
    227; 1.000000; 1.000000; 1.000000; 1.000000;,
    228; 1.000000; 1.000000; 1.000000; 1.000000;,
    229; 1.000000; 1.000000; 1.000000; 1.000000;,
    230; 1.000000; 1.000000; 1.000000; 1.000000;,
    231; 1.000000; 1.000000; 1.000000; 1.000000;,
    232; 1.000000; 1.000000; 1.000000; 1.000000;,
    233; 1.000000; 1.000000; 1.000000; 1.000000;,
    234; 1.000000; 1.000000; 1.000000; 1.000000;,
    235; 1.000000; 1.000000; 1.000000; 1.000000;,
    236; 1.000000; 1.000000; 1.000000; 1.000000;,
    237; 1.000000; 1.000000; 1.000000; 1.000000;,
    238; 1.000000; 1.000000; 1.000000; 1.000000;,
    239; 1.000000; 1.000000; 1.000000; 1.000000;,
    240; 1.000000; 1.000000; 1.000000; 1.000000;,
    241; 1.000000; 1.000000; 1.000000; 1.000000;,
    242; 1.000000; 1.000000; 1.000000; 1.000000;,
    243; 1.000000; 1.000000; 1.000000; 1.000000;,
    244; 1.000000; 1.000000; 1.000000; 1.000000;,
    245; 1.000000; 1.000000; 1.000000; 1.000000;,
    246; 1.000000; 1.000000; 1.000000; 1.000000;,
    247; 1.000000; 1.000000; 1.000000; 1.000000;,
    248; 1.000000; 1.000000; 1.000000; 1.000000;,
    249; 1.000000; 1.000000; 1.000000; 1.000000;,
    250; 1.000000; 1.000000; 1.000000; 1.000000;,
    251; 1.000000; 1.000000; 1.000000; 1.000000;,
    252; 1.000000; 1.000000; 1.000000; 1.000000;,
    253; 1.000000; 1.000000; 1.000000; 1.000000;,
    254; 1.000000; 1.000000; 1.000000; 1.000000;,
    255; 1.000000; 1.000000; 1.000000; 1.000000;,
    256; 1.000000; 1.000000; 1.000000; 1.000000;,
    257; 1.000000; 1.000000; 1.000000; 1.000000;,
    258; 1.000000; 1.000000; 1.000000; 1.000000;,
    259; 1.000000; 1.000000; 1.000000; 1.000000;,
    260; 1.000000; 1.000000; 1.000000; 1.000000;,
    261; 1.000000; 1.000000; 1.000000; 1.000000;,
    262; 1.000000; 1.000000; 1.000000; 1.000000;,
    263; 1.000000; 1.000000; 1.000000; 1.000000;,
    264; 1.000000; 1.000000; 1.000000; 1.000000;,
    265; 1.000000; 1.000000; 1.000000; 1.000000;,
    266; 1.000000; 1.000000; 1.000000; 1.000000;,
    267; 1.000000; 1.000000; 1.000000; 1.000000;,
    268; 1.000000; 1.000000; 1.000000; 1.000000;,
    269; 1.000000; 1.000000; 1.000000; 1.000000;,
    270; 1.000000; 1.000000; 1.000000; 1.000000;;
   }

   MeshMaterialList {
    1;
    261;
    0,
    0,
    0,
    0,
    0,
    0,
    0,
    0,
    0,
    0,
    0,
    0,
    0,
    0,
    0,
    0,
    0,
    0,
    0,
    0,
    0,
    0,
    0,
    0,
    0,
    0,
    0,
    0,
    0,
    0,
    0,
    0,
    0,
    0,
    0,
    0,
    0,
    0,
    0,
    0,
    0,
    0,
    0,
    0,
    0,
    0,
    0,
    0,
    0,
    0,
    0,
    0,
    0,
    0,
    0,
    0,
    0,
    0,
    0,
    0,
    0,
    0,
    0,
    0,
    0,
    0,
    0,
    0,
    0,
    0,
    0,
    0,
    0,
    0,
    0,
    0,
    0,
    0,
    0,
    0,
    0,
    0,
    0,
    0,
    0,
    0,
    0,
    0,
    0,
    0,
    0,
    0,
    0,
    0,
    0,
    0,
    0,
    0,
    0,
    0,
    0,
    0,
    0,
    0,
    0,
    0,
    0,
    0,
    0,
    0,
    0,
    0,
    0,
    0,
    0,
    0,
    0,
    0,
    0,
    0,
    0,
    0,
    0,
    0,
    0,
    0,
    0,
    0,
    0,
    0,
    0,
    0,
    0,
    0,
    0,
    0,
    0,
    0,
    0,
    0,
    0,
    0,
    0,
    0,
    0,
    0,
    0,
    0,
    0,
    0,
    0,
    0,
    0,
    0,
    0,
    0,
    0,
    0,
    0,
    0,
    0,
    0,
    0,
    0,
    0,
    0,
    0,
    0,
    0,
    0,
    0,
    0,
    0,
    0,
    0,
    0,
    0,
    0,
    0,
    0,
    0,
    0,
    0,
    0,
    0,
    0,
    0,
    0,
    0,
    0,
    0,
    0,
    0,
    0,
    0,
    0,
    0,
    0,
    0,
    0,
    0,
    0,
    0,
    0,
    0,
    0,
    0,
    0,
    0,
    0,
    0,
    0,
    0,
    0,
    0,
    0,
    0,
    0,
    0,
    0,
    0,
    0,
    0,
    0,
    0,
    0,
    0,
    0,
    0,
    0,
    0,
    0,
    0,
    0,
    0,
    0,
    0,
    0,
    0,
    0,
    0,
    0,
    0,
    0,
    0,
    0,
    0,
    0,
    0,
    0,
    0,
    0,
    0,
    0,
    0,
    0,
    0,
    0,
    0,
    0,
    0;

    Material hl2_a {
     1.000000; 1.000000; 1.000000; 1.000000;;
     128.000000;
     0.000000; 0.000000; 0.000000;;
     0.000000; 0.000000; 0.000000;;

     TextureFilename {
      "hl2_a.jpg";
     }
    }

   }
  }
}
