xof 0303txt 0032

// DirectX 8.0 file
// Creator: Ultimate Unwrap3D Pro v3.44
// Website: http://www.unwrap3d.com
// Time: Fri May 10 23:07:55 2013

// Start of Templates

template VertexDuplicationIndices {
 <b8d65549-d7c9-4995-89cf-53a9a8b031e3>
 DWORD nIndices;
 DWORD nOriginalVertices;
 array DWORD indices[nIndices];
}

template FVFData {
 <b6e70a0e-8ef9-4e83-94ad-ecc8b0c04897>
 DWORD dwFVF;
 DWORD nDWords;
 array DWORD data[nDWords];
}

template Header {
 <3D82AB43-62DA-11cf-AB39-0020AF71E433>
 WORD major;
 WORD minor;
 DWORD flags;
}

template Vector {
 <3D82AB5E-62DA-11cf-AB39-0020AF71E433>
 FLOAT x;
 FLOAT y;
 FLOAT z;
}

template Coords2d {
 <F6F23F44-7686-11cf-8F52-0040333594A3>
 FLOAT u;
 FLOAT v;
}

template Matrix4x4 {
 <F6F23F45-7686-11cf-8F52-0040333594A3>
 array FLOAT matrix[16];
}

template ColorRGBA {
 <35FF44E0-6C7C-11cf-8F52-0040333594A3>
 FLOAT red;
 FLOAT green;
 FLOAT blue;
 FLOAT alpha;
}

template ColorRGB {
 <D3E16E81-7835-11cf-8F52-0040333594A3>
 FLOAT red;
 FLOAT green;
 FLOAT blue;
}

template IndexedColor {
 <1630B820-7842-11cf-8F52-0040333594A3>
 DWORD index;
 ColorRGBA indexColor;
}

template Material {
 <3D82AB4D-62DA-11cf-AB39-0020AF71E433>
 ColorRGBA faceColor;
 FLOAT power;
 ColorRGB specularColor;
 ColorRGB emissiveColor;
 [...]
}

template TextureFilename {
 <A42790E1-7810-11cf-8F52-0040333594A3>
 STRING filename;
}

template MeshFace {
 <3D82AB5F-62DA-11cf-AB39-0020AF71E433>
 DWORD nFaceVertexIndices;
 array DWORD faceVertexIndices[nFaceVertexIndices];
}

template MeshTextureCoords {
 <F6F23F40-7686-11cf-8F52-0040333594A3>
 DWORD nTextureCoords;
 array Coords2d textureCoords[nTextureCoords];
}

template MeshMaterialList {
 <F6F23F42-7686-11cf-8F52-0040333594A3>
 DWORD nMaterials;
 DWORD nFaceIndexes;
 array DWORD faceIndexes[nFaceIndexes];
 [Material]
}

template MeshNormals {
 <F6F23F43-7686-11cf-8F52-0040333594A3>
 DWORD nNormals;
 array Vector normals[nNormals];
 DWORD nFaceNormals;
 array MeshFace faceNormals[nFaceNormals];
}

template MeshVertexColors {
 <1630B821-7842-11cf-8F52-0040333594A3>
 DWORD nVertexColors;
 array IndexedColor vertexColors[nVertexColors];
}

template Mesh {
 <3D82AB44-62DA-11cf-AB39-0020AF71E433>
 DWORD nVertices;
 array Vector vertices[nVertices];
 DWORD nFaces;
 array MeshFace faces[nFaces];
 [...]
}

template FrameTransformMatrix {
 <F6F23F41-7686-11cf-8F52-0040333594A3>
 Matrix4x4 frameMatrix;
}

template Frame {
 <3D82AB46-62DA-11cf-AB39-0020AF71E433>
 [...]
}

template FloatKeys {
 <10DD46A9-775B-11cf-8F52-0040333594A3>
 DWORD nValues;
 array FLOAT values[nValues];
}

template TimedFloatKeys {
 <F406B180-7B3B-11cf-8F52-0040333594A3>
 DWORD time;
 FloatKeys tfkeys;
}

template AnimationKey {
 <10DD46A8-775B-11cf-8F52-0040333594A3>
 DWORD keyType;
 DWORD nKeys;
 array TimedFloatKeys keys[nKeys];
}

template AnimationOptions {
 <E2BF56C0-840F-11cf-8F52-0040333594A3>
 DWORD openclosed;
 DWORD positionquality;
}

template Animation {
 <3D82AB4F-62DA-11cf-AB39-0020AF71E433>
 [...]
}

template AnimationSet {
 <3D82AB50-62DA-11cf-AB39-0020AF71E433>
 [Animation]
}

template XSkinMeshHeader {
 <3CF169CE-FF7C-44ab-93C0-F78F62D172E2>
 WORD nMaxSkinWeightsPerVertex;
 WORD nMaxSkinWeightsPerFace;
 WORD nBones;
}

template SkinWeights {
 <6F0D123B-BAD2-4167-A0D0-80224F25FABB>
 STRING transformNodeName;
 DWORD nWeights;
 array DWORD vertexIndices[nWeights];
 array FLOAT weights[nWeights];
 Matrix4x4 matrixOffset;
}

template AnimTicksPerSecond {
 <9E415A43-7BA6-4a73-8743-B73D47E88476>
 DWORD AnimTicksPerSecond;
}

AnimTicksPerSecond {
 4800;
}

// Start of Frames

Frame Body {
   FrameTransformMatrix {
    1.000000, 0.000000, 0.000000, 0.000000,
    0.000000, 1.000000, 0.000000, 0.000000,
    0.000000, 0.000000, 1.000000, 0.000000,
    0.000000, 0.000000, 0.000000, 1.000000;;
   }

   Mesh staticMesh {
    383;
    0.801591; 0.049146; -1.088181;,
    0.636843; 0.049146; 0.323858;,
    0.014106; 0.049146; -1.088181;,
    0.014106; 0.049146; 0.951916;,
    0.983588; 0.249130; 0.825696;,
    1.936119; 0.423800; -3.601475;,
    2.390275; 1.379107; -0.028400;,
    2.753664; 0.933737; -1.955417;,
    2.781088; 1.417773; -0.557395;,
    2.353386; 1.575310; -3.076761;,
    2.766862; 1.417773; -0.557395;,
    3.125699; 1.400100; -1.922051;,
    0.014106; 1.994707; -1.939123;,
    0.014106; 1.847552; -0.194019;,
    2.367445; 1.379107; -0.028400;,
    0.801069; 0.049146; -6.892040;,
    3.125699; 1.400100; -1.922051;,
    2.442321; 1.403017; -6.803424;,
    0.014106; 1.403017; -6.803424;,
    0.014106; 2.001271; -5.401859;,
    1.963470; 1.226633; -9.963786;,
    2.442321; 1.403018; -6.803423;,
    0.014106; 0.049146; 0.951916;,
    0.014106; 0.049146; 0.951916;,
    0.636843; 0.049146; 0.323858;,
    0.983588; 0.249130; 0.825696;,
    0.014106; 0.049146; 0.951916;,
    0.014106; 0.049146; 0.951916;,
    0.983588; 0.249130; 0.825696;,
    0.014106; 1.847552; -0.194019;,
    0.674755; 0.049146; -9.551267;,
    2.390275; 1.379107; -0.028400;,
    0.014106; 1.225961; -9.964201;,
    1.963470; 1.226633; -9.963786;,
    2.353386; 1.575310; -3.076761;,
    0.014106; 0.049146; -9.551267;,
    0.014106; 1.225957; -9.964205;,
    0.674755; 0.049146; -9.551267;,
    1.963470; 1.226633; -9.963786;,
    0.014106; 2.001271; -5.401859;,
    3.125699; 1.400100; -1.922051;,
    4.989478; 0.049146; -6.892040;,
    4.716952; 0.049146; -6.892040;,
    5.247948; 1.050885; -6.303179;,
    5.467787; 0.917234; -6.303179;,
    5.467788; 0.712653; -3.746177;,
    5.095148; 0.049146; -3.993508;,
    4.989478; 0.049146; -6.892040;,
    5.467787; 0.917234; -6.303179;,
    5.512261; 1.222894; -7.228253;,
    5.467788; 0.712653; -3.746176;,
    5.467788; 0.917234; -6.303179;,
    5.512264; 1.225192; -2.550466;,
    5.254986; 1.225193; -2.550466;,
    5.247949; 0.846304; -3.746179;,
    5.467788; 0.712653; -3.746177;,
    5.512264; 1.225192; -2.550466;,
    5.095148; 0.049146; -3.993508;,
    4.822622; 0.049146; -3.989178;,
    5.254984; 1.222894; -7.228253;,
    5.247948; 1.050885; -6.303179;,
    4.822622; 0.049146; -3.989178;,
    5.247949; 0.846304; -3.746179;,
    4.716952; 0.049146; -6.892040;,
    5.512261; 1.222894; -7.228253;,
    5.247948; 1.050885; -6.303179;,
    5.247949; 0.846304; -3.746178;,
    5.254986; 1.225193; -2.550466;,
    5.254984; 1.222894; -7.228253;,
    6.455689; 2.124122; -2.322541;,
    6.050182; 2.001529; 1.913605;,
    6.455688; 1.596910; -2.322541;,
    6.050180; 1.719495; 1.913605;,
    4.296668; 1.596906; -2.322541;,
    4.702156; 1.719495; 1.913605;,
    4.296667; 2.124118; -2.322541;,
    4.702157; 2.001529; 1.913605;,
    6.267245; 2.064722; -8.538841;,
    6.267248; 1.656304; -8.538841;,
    4.485082; 1.656303; -8.538843;,
    4.485082; 2.064722; -8.538843;,
    5.007067; 1.367509; -8.538839;,
    5.254984; 1.222894; -7.228253;,
    4.485083; 1.656303; -8.538843;,
    5.254986; 1.225193; -2.550466;,
    5.512264; 1.225192; -2.550466;,
    5.655354; 1.520068; 1.913605;,
    5.096985; 1.520068; 1.913605;,
    5.745263; 1.367509; -8.538841;,
    5.512261; 1.222894; -7.228253;,
    5.376163; 2.496913; -2.322541;,
    5.096983; 2.200956; 1.913605;,
    5.655354; 2.200957; 1.913605;,
    6.455691; 2.124123; -2.322541;,
    6.050184; 2.001529; 1.913605;,
    4.702158; 2.001529; 1.913605;,
    4.296668; 2.124118; -2.322541;,
    5.745260; 2.353516; -8.538841;,
    5.007066; 2.353518; -8.538839;,
    6.267246; 2.064722; -8.538841;,
    4.485082; 2.064722; -8.538843;,
    5.655352; 2.200957; 1.913605;,
    5.096982; 2.200956; 1.913605;,
    5.376167; 1.860512; 2.047810;,
    6.050182; 2.001529; 1.913605;,
    6.050179; 1.719495; 1.913605;,
    5.655352; 1.520068; 1.913605;,
    5.096984; 1.520068; 1.913605;,
    4.702155; 1.719495; 1.913605;,
    4.702157; 2.001529; 1.913605;,
    5.007066; 2.353518; -8.538839;,
    5.745259; 2.353516; -8.538841;,
    5.376163; 1.860513; -8.689302;,
    6.267245; 2.064722; -8.538841;,
    6.267248; 1.656304; -8.538841;,
    5.745263; 1.367509; -8.538841;,
    5.007066; 1.367509; -8.538839;,
    4.485082; 1.656303; -8.538843;,
    4.485082; 2.064722; -8.538843;,
    6.050181; 1.719495; 1.913605;,
    6.455689; 1.596910; -2.322541;,
    4.296669; 1.596906; -2.322541;,
    4.702157; 1.719495; 1.913605;,
    6.267248; 1.656304; -8.538841;,
    0.459777; -2.035226; -8.347391;,
    0.014106; -2.035226; -8.347391;,
    0.674755; 0.049146; -9.551267;,
    0.801069; 0.049146; -6.892040;,
    0.459777; -2.035226; -8.347391;,
    0.459777; -2.035226; -6.627571;,
    0.801069; 0.049146; -6.892040;,
    0.014106; 0.049146; -6.892035;,
    0.459777; -2.035226; -6.627571;,
    0.014106; -2.035226; -6.627571;,
    2.698173; -0.921089; -6.265598;,
    1.821558; -0.296780; -0.975568;,
    5.023314; -0.436050; -2.155446;,
    0.014106; 0.049146; 1.960821;,
    0.014106; -0.469786; -2.441343;,
    9.993937; -0.921089; 4.042453;,
    9.999999; -0.921089; -0.305809;,
    7.315866; -0.921089; -4.047840;,
    7.310827; -0.921089; 7.806073;,
    0.014106; -0.443396; 7.134326;,
    1.818098; -0.443396; 7.525601;,
    0.014106; -0.634107; 8.503077;,
    2.675034; -0.921089; 9.964451;,
    0.014106; -0.919172; 9.964308;,
    8.683132; -1.388541; 3.688122;,
    0.014106; -2.035226; 1.810334;,
    6.363853; -1.388534; -3.318276;,
    0.014106; -2.035226; 1.775902;,
    0.014106; -0.919172; 9.964308;,
    0.014106; -1.170939; 9.348691;,
    2.675034; -0.921089; 9.964451;,
    2.344777; -1.388547; 8.816723;,
    0.014106; -1.388534; -4.695496;,
    2.698173; -0.921089; -6.265598;,
    0.014106; -1.171538; -5.690531;,
    0.014106; -0.919172; -6.264786;,
    0.014106; -1.388547; 8.311214;,
    0.014106; -2.035226; 1.819557;,
    9.999999; -0.921089; -0.305809;,
    9.993937; -0.921089; 4.042453;,
    7.310827; -0.921089; 7.806073;,
    7.315866; -0.921089; -4.047840;,
    0.801069; 0.049146; -6.892040;,
    0.801885; 0.049146; -3.927943;,
    4.716952; 0.049146; -6.892040;,
    4.822622; 0.049146; -3.989178;,
    1.878630; -0.311841; -1.102863;,
    0.801591; 0.049146; -1.088181;,
    0.014106; 0.049146; -1.088181;,
    0.014106; -0.311841; -1.102861;,
    0.801591; 0.049146; -1.088181;,
    1.878630; -0.311841; -1.102863;,
    2.698173; -0.921087; -6.265575;,
    4.989478; 0.049146; -6.892040;,
    5.095148; 0.049146; -3.993508;,
    1.878630; -0.311841; -1.102863;,
    1.878630; -0.311841; -1.102863;,
    2.698173; -0.921087; -6.265575;,
    4.716952; 0.049146; -6.892040;,
    2.698173; -0.921087; -6.265575;,
    0.014106; 0.049146; -6.892035;,
    0.014106; -0.922721; -6.279625;,
    0.014106; -2.035226; -2.598211;,
    6.227174; -2.035226; -5.097003;,
    0.014106; -2.035226; -6.627571;,
    6.227173; -2.035226; -8.347391;,
    0.459777; -2.035226; -6.627571;,
    0.459777; -2.035226; -8.347391;,
    5.987257; -2.495695; -8.347391;,
    6.227173; -2.035226; -8.347391;,
    5.987257; -2.496920; -5.097003;,
    6.227174; -2.035226; -5.097003;,
    0.014106; -2.496920; -2.811387;,
    0.014106; -2.495695; -8.347391;,
    5.987257; -2.496920; -5.097003;,
    5.987257; -2.495695; -8.347391;,
    5.987257; -2.495695; -8.347391;,
    0.014106; -2.495695; -8.347391;,
    6.227173; -2.035226; -8.347391;,
    0.014106; -2.035226; -8.347391;,
    0.014106; -2.035226; -2.598211;,
    5.987257; -2.496920; -5.097003;,
    6.227174; -2.035226; -5.097003;,
    0.014106; -2.496920; -2.811387;,
    -5.416767; 0.917233; -6.303176;,
    -5.118855; 0.049146; -3.994874;,
    -5.416765; 0.712652; -3.746173;,
    -5.029865; 0.049146; -6.892040;,
    -5.416767; 0.917233; -6.303174;,
    -5.416765; 0.712652; -3.746172;,
    -5.461244; 1.222894; -7.228250;,
    -5.461242; 1.225192; -2.550461;,
    -5.416765; 0.712652; -3.746173;,
    -5.196927; 0.846303; -3.746175;,
    -5.203963; 1.225192; -2.550462;,
    -5.461242; 1.225192; -2.550461;,
    -4.771600; 0.049146; -3.989175;,
    -5.118855; 0.049146; -3.994874;,
    -5.416767; 0.917233; -6.303176;,
    -5.461244; 1.222894; -7.228250;,
    -5.203966; 1.222894; -7.228251;,
    -5.196928; 1.050884; -6.303176;,
    -4.771601; 0.049146; -6.892040;,
    -5.029865; 0.049146; -6.892040;,
    -5.203963; 1.225192; -2.550462;,
    -5.196927; 0.846303; -3.746174;,
    -5.196928; 1.050884; -6.303174;,
    -5.203966; 1.222894; -7.228251;,
    -5.196927; 0.846303; -3.746175;,
    -4.771601; 0.049146; -6.892040;,
    -5.196928; 1.050884; -6.303176;,
    -4.771600; 0.049146; -3.989175;,
    -6.404646; 2.124125; -2.322537;,
    -6.404646; 1.596910; -2.322537;,
    -5.999170; 2.001535; 1.913610;,
    -5.999167; 1.719499; 1.913610;,
    -4.245649; 1.596910; -2.322538;,
    -4.245649; 2.124125; -2.322538;,
    -4.651134; 1.719499; 1.913609;,
    -4.651134; 2.001535; 1.913609;,
    -6.216231; 2.064728; -8.538836;,
    -6.216231; 1.656308; -8.538836;,
    -4.434070; 2.064728; -8.538838;,
    -4.434070; 1.656307; -8.538838;,
    -5.203963; 1.225192; -2.550462;,
    -5.045961; 1.520071; 1.913610;,
    -5.461242; 1.225192; -2.550461;,
    -5.604337; 1.520071; 1.913610;,
    -4.956052; 1.367512; -8.538835;,
    -5.203966; 1.222894; -7.228251;,
    -5.694255; 1.367512; -8.538836;,
    -5.461244; 1.222894; -7.228250;,
    -4.434069; 1.656307; -8.538838;,
    -5.604330; 2.200963; 1.913610;,
    -5.045961; 2.200963; 1.913610;,
    -5.325149; 2.496920; -2.322537;,
    -5.999170; 2.001535; 1.913610;,
    -6.404646; 2.124125; -2.322537;,
    -4.651134; 2.001535; 1.913610;,
    -4.956052; 2.353523; -8.538835;,
    -5.694251; 2.353524; -8.538836;,
    -5.325146; 1.860519; 2.047815;,
    -5.045961; 2.200963; 1.913609;,
    -5.604330; 2.200963; 1.913609;,
    -5.999170; 2.001535; 1.913610;,
    -5.999167; 1.719499; 1.913610;,
    -5.604337; 1.520071; 1.913609;,
    -5.045961; 1.520071; 1.913609;,
    -4.651134; 1.719499; 1.913609;,
    -4.651134; 2.001535; 1.913609;,
    -5.325150; 1.860520; -8.689298;,
    -5.694251; 2.353524; -8.538836;,
    -4.956052; 2.353523; -8.538835;,
    -6.216231; 2.064728; -8.538836;,
    -6.216231; 1.656308; -8.538836;,
    -5.694255; 1.367512; -8.538836;,
    -4.956053; 1.367512; -8.538835;,
    -4.434070; 1.656307; -8.538838;,
    -4.434070; 2.064728; -8.538838;,
    -5.999167; 1.719499; 1.913610;,
    -6.404646; 1.596910; -2.322537;,
    -4.651134; 1.719499; 1.913610;,
    -2.711227; 0.933737; -1.955416;,
    -2.408809; 1.302051; -0.003085;,
    -2.738651; 1.417773; -0.557395;,
    -3.088003; 1.400100; -1.922051;,
    -0.941150; 0.249130; 0.825697;,
    -0.589386; 0.049146; 0.323867;,
    -1.893682; 0.423800; -3.601475;,
    -0.745532; 0.049146; -6.892040;,
    -0.746248; 0.049146; -1.088180;,
    0.014106; 1.225958; -9.964205;,
    -2.398465; 1.403018; -6.803424;,
    -1.909260; 1.225559; -9.964451;,
    -1.909260; 1.225559; -9.964451;,
    0.014106; 1.225958; -9.964205;,
    -0.615111; 0.049146; -9.551267;,
    0.014106; 0.336472; -9.651928;,
    -2.738651; 1.417773; -0.557395;,
    -2.408809; 1.302051; -0.003085;,
    -2.320433; 1.575310; -3.076760;,
    -3.088003; 1.400100; -1.922051;,
    -2.398465; 1.403018; -6.803424;,
    -1.909260; 1.225559; -9.964451;,
    -2.398465; 1.403018; -6.803424;,
    -0.615111; 0.049146; -9.551267;,
    -0.941150; 0.249130; 0.825697;,
    0.014106; 0.049146; 0.951916;,
    0.014106; 1.847552; -0.194019;,
    -2.408809; 1.302051; -0.003085;,
    -0.400134; -2.035226; -8.347391;,
    -0.400133; -2.035226; -6.627571;,
    -0.745532; 0.049146; -6.892040;,
    -0.400134; -2.035226; -8.347391;,
    -0.615111; 0.049146; -9.551267;,
    0.014106; 0.049146; -6.892040;,
    -0.400133; -2.035226; -6.627571;,
    -0.745532; 0.049146; -6.892040;,
    -9.994649; -0.921089; 4.028617;,
    -7.321935; -0.921089; 7.796170;,
    -5.086360; -0.443396; 6.028067;,
    -9.999999; -0.921089; -0.294109;,
    -1.844351; -0.305216; -1.046285;,
    -7.315266; -0.921089; -4.061381;,
    -2.659857; -0.921089; -6.263977;,
    -2.682420; -0.921089; 9.964165;,
    0.014106; -0.472073; -2.459859;,
    0.014106; -0.921089; 9.964308;,
    0.014106; -0.311911; -1.102861;,
    -1.844351; -0.305216; -1.046285;,
    -0.746248; 0.049146; -1.088180;,
    -0.745531; 0.049146; -3.932148;,
    -0.745532; 0.049146; -6.892040;,
    -4.771600; 0.049146; -3.989175;,
    -4.771601; 0.049146; -6.892040;,
    -1.844351; -0.305216; -1.046285;,
    -1.844351; -0.305216; -1.046285;,
    -0.746248; 0.049146; -1.088180;,
    -2.659857; -0.921089; -6.263977;,
    -5.029865; 0.049146; -6.892040;,
    -2.659857; -0.921089; -6.263977;,
    -5.118855; 0.049146; -3.994874;,
    -1.844351; -0.305216; -1.046285;,
    0.014106; -0.922000; -6.272205;,
    -2.659857; -0.921089; -6.263977;,
    0.014106; 0.049146; -6.892040;,
    -4.771601; 0.049146; -6.892040;,
    -6.312852; -1.388547; 6.938939;,
    -8.632125; -1.388540; -0.067452;,
    -2.682420; -0.921089; 9.964165;,
    -2.659857; -0.921089; -6.263977;,
    0.014106; -0.922000; -6.272205;,
    -2.293775; -1.388533; -5.196061;,
    0.014106; -0.921089; 9.964308;,
    -7.321935; -0.921089; 7.796170;,
    -9.994649; -0.921089; 4.028617;,
    -9.999999; -0.921089; -0.294109;,
    -7.315266; -0.921089; -4.061381;,
    0.014106; -2.495695; -8.347391;,
    -6.097583; -2.495695; -8.347390;,
    -6.253336; -2.035226; -8.347390;,
    -6.253335; -2.035226; -5.097001;,
    -6.253336; -2.035226; -8.347390;,
    -6.097581; -2.496920; -5.097001;,
    -6.097583; -2.495695; -8.347390;,
    0.014106; -2.496920; -2.814996;,
    -6.097581; -2.496920; -5.097001;,
    0.014106; -2.495695; -8.347391;,
    -6.097583; -2.495695; -8.347390;,
    -6.253336; -2.035226; -8.347390;,
    -6.253335; -2.035226; -5.097001;,
    -0.400134; -2.035226; -8.347391;,
    0.014106; -2.035226; -2.601882;,
    -0.400133; -2.035226; -6.627571;,
    -6.097581; -2.496920; -5.097001;,
    0.014106; -2.496920; -2.814996;,
    0.014106; -2.035226; -2.601882;,
    -6.253335; -2.035226; -5.097001;,
    0.014106; -2.035226; -2.601882;;
    312;
    3;0, 1, 2;,
    3;1, 3, 2;,
    3;4, 1, 5;,
    3;1, 0, 5;,
    3;6, 7, 8;,
    3;4, 7, 6;,
    3;9, 10, 11;,
    3;12, 13, 10;,
    3;10, 13, 14;,
    3;4, 5, 7;,
    3;1, 4, 3;,
    3;5, 0, 15;,
    3;7, 16, 8;,
    3;17, 18, 19;,
    3;20, 5, 15;,
    3;12, 10, 9;,
    3;5, 20, 7;,
    3;7, 20, 21;,
    3;22, 23, 24;,
    3;22, 25, 26;,
    3;27, 28, 29;,
    3;21, 16, 7;,
    3;20, 15, 30;,
    3;29, 28, 31;,
    3;32, 18, 33;,
    3;18, 17, 33;,
    3;34, 17, 19;,
    3;35, 36, 37;,
    3;36, 38, 37;,
    3;12, 9, 39;,
    3;34, 40, 17;,
    3;41, 42, 43;,
    3;44, 41, 43;,
    3;45, 46, 47;,
    3;45, 47, 48;,
    3;49, 50, 51;,
    3;49, 52, 50;,
    3;53, 54, 55;,
    3;55, 56, 53;,
    3;54, 57, 55;,
    3;54, 58, 57;,
    3;59, 44, 43;,
    3;60, 61, 62;,
    3;60, 63, 61;,
    3;59, 64, 44;,
    3;65, 66, 67;,
    3;65, 67, 68;,
    3;69, 70, 71;,
    3;70, 72, 71;,
    3;73, 74, 75;,
    3;74, 76, 75;,
    3;77, 69, 78;,
    3;69, 71, 78;,
    3;73, 75, 79;,
    3;75, 80, 79;,
    3;81, 82, 83;,
    3;82, 84, 83;,
    3;85, 86, 84;,
    3;86, 87, 84;,
    3;81, 88, 82;,
    3;88, 89, 82;,
    3;90, 91, 92;,
    3;93, 92, 94;,
    3;93, 90, 92;,
    3;90, 95, 91;,
    3;90, 96, 95;,
    3;97, 98, 90;,
    3;99, 90, 93;,
    3;99, 97, 90;,
    3;98, 96, 90;,
    3;98, 100, 96;,
    3;101, 102, 103;,
    3;104, 101, 103;,
    3;105, 104, 103;,
    3;106, 105, 103;,
    3;107, 106, 103;,
    3;108, 107, 103;,
    3;109, 108, 103;,
    3;102, 109, 103;,
    3;110, 111, 112;,
    3;111, 113, 112;,
    3;113, 114, 112;,
    3;114, 115, 112;,
    3;115, 116, 112;,
    3;116, 117, 112;,
    3;117, 118, 112;,
    3;118, 110, 112;,
    3;85, 119, 86;,
    3;85, 120, 119;,
    3;121, 87, 122;,
    3;121, 84, 87;,
    3;88, 120, 85;,
    3;88, 123, 120;,
    3;83, 84, 121;,
    3;89, 88, 85;,
    3;37, 124, 35;,
    3;124, 125, 35;,
    3;126, 127, 128;,
    3;127, 129, 128;,
    3;130, 131, 132;,
    3;131, 133, 132;,
    3;134, 135, 136;,
    3;137, 135, 138;,
    3;139, 140, 136;,
    3;141, 136, 140;,
    3;134, 136, 141;,
    3;139, 136, 142;,
    3;136, 135, 142;,
    3;142, 135, 137;,
    3;137, 143, 144;,
    3;143, 145, 144;,
    3;137, 144, 142;,
    3;146, 144, 147;,
    3;144, 145, 147;,
    3;142, 144, 146;,
    3;148, 149, 150;,
    3;149, 151, 150;,
    3;152, 153, 154;,
    3;153, 155, 154;,
    3;150, 156, 157;,
    3;156, 158, 157;,
    3;159, 157, 158;,
    3;155, 160, 161;,
    3;151, 156, 150;,
    3;149, 148, 155;,
    3;162, 163, 148;,
    3;162, 148, 150;,
    3;148, 163, 164;,
    3;164, 154, 155;,
    3;164, 155, 148;,
    3;160, 155, 153;,
    3;157, 165, 150;,
    3;150, 165, 162;,
    3;166, 167, 168;,
    3;167, 169, 168;,
    3;170, 169, 167;,
    3;171, 170, 167;,
    3;172, 173, 174;,
    3;173, 175, 174;,
    3;176, 177, 178;,
    3;176, 178, 179;,
    3;57, 58, 180;,
    3;42, 41, 181;,
    3;182, 183, 184;,
    3;183, 185, 184;,
    3;186, 187, 188;,
    3;187, 189, 188;,
    3;188, 189, 190;,
    3;189, 191, 190;,
    3;192, 193, 194;,
    3;193, 195, 194;,
    3;196, 197, 198;,
    3;197, 199, 198;,
    3;200, 201, 202;,
    3;201, 203, 202;,
    3;204, 205, 206;,
    3;204, 207, 205;,
    3;208, 209, 210;,
    3;208, 211, 209;,
    3;212, 213, 214;,
    3;213, 215, 214;,
    3;216, 217, 218;,
    3;218, 219, 216;,
    3;216, 220, 217;,
    3;216, 221, 220;,
    3;222, 223, 224;,
    3;225, 226, 227;,
    3;225, 227, 222;,
    3;225, 222, 224;,
    3;228, 229, 230;,
    3;228, 230, 231;,
    3;232, 233, 234;,
    3;232, 235, 233;,
    3;236, 237, 238;,
    3;237, 239, 238;,
    3;240, 241, 242;,
    3;241, 243, 242;,
    3;244, 245, 236;,
    3;245, 237, 236;,
    3;246, 241, 247;,
    3;241, 240, 247;,
    3;248, 249, 250;,
    3;249, 251, 250;,
    3;252, 253, 254;,
    3;253, 255, 254;,
    3;248, 253, 256;,
    3;253, 252, 256;,
    3;257, 258, 259;,
    3;260, 257, 261;,
    3;257, 259, 261;,
    3;258, 262, 259;,
    3;262, 241, 259;,
    3;259, 263, 264;,
    3;261, 259, 244;,
    3;259, 264, 244;,
    3;259, 241, 263;,
    3;241, 246, 263;,
    3;265, 266, 267;,
    3;265, 267, 268;,
    3;265, 268, 269;,
    3;265, 269, 270;,
    3;265, 270, 271;,
    3;265, 271, 272;,
    3;265, 272, 273;,
    3;265, 273, 266;,
    3;274, 275, 276;,
    3;274, 277, 275;,
    3;274, 278, 277;,
    3;274, 279, 278;,
    3;274, 280, 279;,
    3;274, 281, 280;,
    3;274, 282, 281;,
    3;274, 276, 282;,
    3;251, 283, 250;,
    3;283, 284, 250;,
    3;285, 249, 240;,
    3;249, 248, 240;,
    3;254, 255, 250;,
    3;250, 284, 254;,
    3;284, 245, 254;,
    3;240, 248, 256;,
    3;286, 287, 288;,
    3;289, 286, 288;,
    3;286, 290, 287;,
    3;291, 290, 286;,
    3;291, 3, 290;,
    3;292, 293, 294;,
    3;292, 291, 286;,
    3;292, 294, 291;,
    3;18, 295, 296;,
    3;295, 297, 296;,
    3;298, 299, 300;,
    3;299, 301, 300;,
    3;302, 303, 13;,
    3;12, 302, 13;,
    3;304, 302, 12;,
    3;304, 305, 302;,
    3;39, 18, 306;,
    3;3, 294, 2;,
    3;307, 293, 292;,
    3;286, 307, 292;,
    3;39, 304, 12;,
    3;308, 307, 286;,
    3;286, 289, 308;,
    3;39, 306, 304;,
    3;3, 291, 294;,
    3;307, 309, 293;,
    3;304, 306, 305;,
    3;29, 310, 311;,
    3;310, 312, 313;,
    3;299, 35, 298;,
    3;35, 300, 298;,
    3;35, 125, 300;,
    3;125, 314, 300;,
    3;315, 316, 317;,
    3;316, 318, 317;,
    3;133, 319, 320;,
    3;319, 321, 320;,
    3;322, 323, 324;,
    3;137, 322, 324;,
    3;325, 322, 326;,
    3;322, 137, 326;,
    3;327, 325, 326;,
    3;327, 326, 328;,
    3;143, 329, 145;,
    3;137, 330, 326;,
    3;145, 329, 331;,
    3;329, 137, 324;,
    3;143, 137, 329;,
    3;329, 324, 323;,
    3;332, 172, 333;,
    3;172, 334, 333;,
    3;335, 336, 337;,
    3;336, 338, 337;,
    3;335, 337, 339;,
    3;340, 220, 221;,
    3;335, 339, 341;,
    3;226, 342, 227;,
    3;343, 344, 345;,
    3;345, 344, 346;,
    3;347, 348, 349;,
    3;348, 350, 349;,
    3;351, 352, 161;,
    3;352, 151, 161;,
    3;351, 160, 353;,
    3;160, 153, 353;,
    3;354, 355, 356;,
    3;355, 158, 356;,
    3;160, 351, 161;,
    3;151, 356, 156;,
    3;357, 353, 153;,
    3;352, 356, 151;,
    3;353, 358, 351;,
    3;351, 358, 359;,
    3;156, 356, 158;,
    3;359, 360, 352;,
    3;359, 352, 351;,
    3;352, 360, 361;,
    3;361, 354, 356;,
    3;361, 356, 352;,
    3;362, 363, 203;,
    3;363, 364, 203;,
    3;365, 366, 367;,
    3;366, 368, 367;,
    3;369, 370, 371;,
    3;370, 372, 371;,
    3;373, 374, 375;,
    3;374, 376, 375;,
    3;375, 376, 377;,
    3;376, 188, 377;,
    3;378, 379, 380;,
    3;381, 378, 382;;

   MeshNormals {
    383;
    0.437763; -0.790361; 0.428595;,
    0.227185; -0.969353; 0.093500;,
    0.000000; -1.000000; 0.000000;,
    -0.000650; -0.873735; 0.486403;,
    0.496881; -0.615255; 0.612022;,
    0.488139; -0.872607; -0.016640;,
    0.586908; -0.451842; 0.671847;,
    0.689185; -0.720506; 0.076782;,
    0.622777; -0.743036; 0.245044;,
    0.206993; 0.978339; -0.002569;,
    0.176996; 0.980290; 0.087770;,
    0.940962; 0.336107; 0.040288;,
    -0.000092; 0.999245; 0.038854;,
    -0.002467; 0.833685; 0.552234;,
    0.177267; 0.962742; 0.204216;,
    0.821977; -0.504687; 0.263904;,
    0.940962; 0.336107; 0.040288;,
    0.125439; 0.982980; -0.134221;,
    -0.000051; 0.973736; -0.227682;,
    -0.000231; 0.988983; -0.148028;,
    0.737379; -0.574039; -0.356022;,
    0.824325; -0.555960; -0.106755;,
    -0.000650; -0.873735; 0.486403;,
    -0.000650; -0.873735; 0.486403;,
    0.227185; -0.969353; 0.093500;,
    0.496881; -0.615255; 0.612022;,
    -0.000650; -0.873735; 0.486403;,
    -0.000650; -0.873735; 0.486403;,
    0.496881; -0.615255; 0.612022;,
    -0.002467; 0.833685; 0.552234;,
    0.541357; -0.570030; -0.618060;,
    0.586908; -0.451842; 0.671847;,
    0.000000; 0.998435; -0.055929;,
    0.737379; -0.574039; -0.356022;,
    0.206993; 0.978339; -0.002569;,
    0.000080; -0.417433; -0.908708;,
    0.000317; -0.331103; -0.943594;,
    0.541357; -0.570030; -0.618060;,
    0.737379; -0.574039; -0.356022;,
    -0.000231; 0.988983; -0.148028;,
    0.940962; 0.336107; 0.040288;,
    0.624038; -0.378482; -0.683614;,
    -0.316969; 0.310536; -0.896157;,
    -0.697853; 0.349871; -0.624973;,
    0.269887; -0.768944; -0.579557;,
    0.313906; -0.841707; 0.439309;,
    0.427839; -0.606081; 0.670537;,
    0.624038; -0.378482; -0.683614;,
    0.269887; -0.768944; -0.579557;,
    0.629063; -0.769546; -0.109903;,
    0.990442; -0.137723; -0.007531;,
    0.981953; -0.188524; -0.015083;,
    0.431732; -0.897570; 0.089302;,
    -0.562848; -0.818639; 0.114156;,
    -0.539465; -0.325791; 0.776426;,
    0.313906; -0.841707; 0.439309;,
    0.431732; -0.897570; 0.089302;,
    0.427839; -0.606081; 0.670537;,
    -0.418146; 0.856211; 0.303408;,
    -0.483159; -0.864300; -0.139797;,
    -0.697853; 0.349871; -0.624973;,
    -0.418146; 0.856211; 0.303408;,
    -0.539465; -0.325791; 0.776426;,
    -0.316969; 0.310536; -0.896157;,
    0.629063; -0.769546; -0.109903;,
    -0.999613; 0.027800; 0.000584;,
    -0.999889; 0.014827; 0.001187;,
    -0.562848; -0.818639; 0.114156;,
    -0.483159; -0.864300; -0.139797;,
    0.999470; -0.000004; 0.032559;,
    0.995450; -0.000007; 0.095290;,
    0.999470; -0.000004; 0.032559;,
    0.995450; -0.000007; 0.095290;,
    -0.999470; 0.000000; 0.032559;,
    -0.995450; 0.000003; 0.095285;,
    -0.999470; 0.000000; 0.032559;,
    -0.995450; 0.000003; 0.095285;,
    0.539971; 0.088254; -0.837044;,
    0.539970; -0.088254; -0.837044;,
    -0.539970; -0.088258; -0.837044;,
    -0.539970; 0.088255; -0.837044;,
    -0.262280; -0.963326; -0.056683;,
    -0.483159; -0.864300; -0.139797;,
    -0.436953; -0.899431; -0.009806;,
    -0.562848; -0.818639; 0.114156;,
    0.431732; -0.897570; 0.089302;,
    0.231498; -0.971180; 0.056731;,
    -0.272316; -0.960169; 0.062601;,
    0.353942; -0.934578; -0.035891;,
    0.629063; -0.769546; -0.109903;,
    0.004458; 0.999738; 0.022461;,
    -0.231635; 0.971380; 0.052599;,
    0.263688; 0.962601; 0.062195;,
    0.368407; 0.929129; 0.031547;,
    0.449782; 0.890483; 0.068826;,
    -0.389160; 0.920037; 0.045673;,
    -0.380246; 0.924819; 0.011060;,
    0.250014; 0.968213; -0.007490;,
    -0.276186; 0.960962; -0.016533;,
    0.406779; 0.913512; -0.005202;,
    -0.483982; 0.874775; -0.023028;,
    0.067440; 0.317551; 0.945840;,
    -0.067440; 0.317551; 0.945840;,
    -0.000000; -0.000001; 1.000000;,
    0.166408; 0.134304; 0.976868;,
    0.166409; -0.134307; 0.976867;,
    0.067440; -0.317552; 0.945840;,
    -0.067440; -0.317552; 0.945839;,
    -0.166409; -0.134305; 0.976867;,
    -0.166409; 0.134306; 0.976867;,
    -0.058109; 0.251360; -0.966148;,
    0.058109; 0.251357; -0.966148;,
    0.000001; 0.000000; -1.000000;,
    0.539971; 0.088254; -0.837044;,
    0.539970; -0.088254; -0.837044;,
    0.058109; -0.251357; -0.966149;,
    -0.058109; -0.251360; -0.966148;,
    -0.539970; -0.088258; -0.837044;,
    -0.539970; 0.088255; -0.837044;,
    0.402355; -0.913965; 0.052719;,
    0.402877; -0.915199; 0.010035;,
    -0.389541; -0.920425; 0.032793;,
    -0.449782; -0.890483; 0.068823;,
    0.483981; -0.874775; -0.023029;,
    0.711918; 0.240484; -0.659802;,
    -0.000000; -0.258899; -0.965904;,
    0.541357; -0.570030; -0.618060;,
    0.821977; -0.504687; 0.263904;,
    0.711918; 0.240484; -0.659802;,
    0.590393; 0.574724; 0.566682;,
    0.821977; -0.504687; 0.263904;,
    0.000005; 0.125871; 0.992047;,
    0.590393; 0.574724; 0.566682;,
    0.000002; 0.750291; 0.661108;,
    0.192801; -0.542174; -0.817847;,
    0.051728; 0.997068; -0.056390;,
    0.072346; 0.995080; -0.067686;,
    0.120479; 0.992713; 0.002177;,
    -0.000120; 0.993124; -0.117070;,
    0.947432; 0.138608; 0.288377;,
    0.737275; -0.624007; -0.258923;,
    0.629230; 0.114529; -0.768735;,
    0.539010; 0.648981; 0.536929;,
    0.408257; 0.906657; 0.106296;,
    0.362045; 0.922972; 0.130562;,
    0.307706; 0.936911; 0.165878;,
    0.211575; 0.099307; 0.972304;,
    0.000560; 0.097301; 0.995255;,
    0.176193; -0.982408; 0.061891;,
    0.066535; -0.997126; 0.036229;,
    0.132400; -0.978358; -0.159018;,
    -0.004334; -0.998781; -0.049172;,
    0.000560; 0.097301; 0.995255;,
    -0.022346; -0.956021; 0.292444;,
    0.211575; 0.099307; 0.972304;,
    0.045675; -0.976861; 0.208943;,
    0.033922; -0.987111; -0.156399;,
    0.192801; -0.542174; -0.817847;,
    0.022620; -0.951405; -0.307111;,
    -0.000776; -0.915495; -0.402329;,
    -0.033037; -0.987779; 0.152320;,
    -0.041098; -0.996337; 0.074989;,
    0.737275; -0.624007; -0.258923;,
    0.947432; 0.138608; 0.288377;,
    0.539010; 0.648981; 0.536929;,
    0.629230; 0.114529; -0.768735;,
    0.821977; -0.504687; 0.263904;,
    0.108003; 0.993238; 0.042585;,
    -0.316969; 0.310536; -0.896157;,
    -0.418146; 0.856211; 0.303408;,
    0.230368; 0.787610; 0.571491;,
    0.437763; -0.790361; 0.428595;,
    0.000001; -0.040631; 0.999174;,
    0.000001; -0.040635; 0.999174;,
    0.437763; -0.790361; 0.428595;,
    0.230368; 0.787610; 0.571491;,
    0.186498; -0.872524; -0.451575;,
    0.624038; -0.378482; -0.683614;,
    0.427839; -0.606081; 0.670537;,
    0.230368; 0.787610; 0.571491;,
    0.230368; 0.787610; 0.571491;,
    0.186498; -0.872524; -0.451575;,
    -0.316969; 0.310536; -0.896157;,
    0.186498; -0.872524; -0.451575;,
    0.004708; -0.549327; -0.835594;,
    0.004708; -0.549327; -0.835594;,
    0.357165; 0.212745; 0.909490;,
    0.789291; 0.218920; 0.573668;,
    0.000002; 0.750291; 0.661108;,
    0.615528; 0.373360; -0.694066;,
    0.590393; 0.574724; 0.566682;,
    0.711918; 0.240484; -0.659802;,
    0.447663; -0.738025; -0.504893;,
    0.615528; 0.373360; -0.694066;,
    0.504541; -0.653569; 0.564169;,
    0.789291; 0.218920; 0.573668;,
    0.196412; -0.835516; 0.513163;,
    0.000000; -0.707029; -0.707185;,
    0.504541; -0.653569; 0.564169;,
    0.447663; -0.738025; -0.504893;,
    0.447663; -0.738025; -0.504893;,
    0.000000; -0.707029; -0.707185;,
    0.615528; 0.373360; -0.694066;,
    -0.000000; -0.258899; -0.965904;,
    0.357165; 0.212745; 0.909490;,
    0.504541; -0.653569; 0.564169;,
    0.789291; 0.218920; 0.573668;,
    0.196412; -0.835516; 0.513163;,
    -0.532696; -0.709885; -0.460759;,
    -0.726663; -0.600430; 0.333832;,
    -0.079299; -0.730721; 0.678055;,
    -0.497246; -0.285198; -0.819395;,
    -0.981951; -0.188532; -0.015083;,
    -0.990441; -0.137728; -0.007530;,
    -0.629061; -0.769548; -0.109904;,
    -0.431733; -0.897570; 0.089302;,
    -0.079299; -0.730721; 0.678055;,
    0.886584; -0.072539; 0.456844;,
    0.562851; -0.818637; 0.114156;,
    -0.431733; -0.897570; 0.089302;,
    0.268149; 0.772663; 0.575403;,
    -0.726663; -0.600430; 0.333832;,
    -0.532696; -0.709885; -0.460759;,
    -0.629061; -0.769548; -0.109904;,
    0.483161; -0.864298; -0.139799;,
    0.521248; 0.220222; -0.824501;,
    0.540918; 0.378051; -0.751322;,
    -0.497246; -0.285198; -0.819395;,
    0.562851; -0.818637; 0.114156;,
    0.999889; 0.014826; 0.001186;,
    0.999613; 0.027801; 0.000583;,
    0.483161; -0.864298; -0.139799;,
    0.886584; -0.072539; 0.456844;,
    0.540918; 0.378051; -0.751322;,
    0.521248; 0.220222; -0.824501;,
    0.268149; 0.772663; 0.575403;,
    -0.999470; 0.000000; 0.032558;,
    -0.999470; 0.000000; 0.032558;,
    -0.543248; 0.109081; 0.832456;,
    -0.543248; -0.109081; 0.832456;,
    0.753206; -0.656634; 0.038878;,
    0.749546; 0.661536; 0.023467;,
    0.543250; -0.109080; 0.832455;,
    0.543250; 0.109080; 0.832455;,
    -0.592117; 0.574326; -0.565286;,
    -0.611664; -0.375562; -0.696290;,
    0.860985; 0.507688; -0.030948;,
    0.999541; -0.000001; -0.030297;,
    0.562851; -0.818637; 0.114156;,
    0.272318; -0.960169; 0.062601;,
    -0.431733; -0.897570; 0.089302;,
    -0.231497; -0.971180; 0.056732;,
    0.262285; -0.963324; -0.056684;,
    0.483161; -0.864298; -0.139799;,
    -0.353945; -0.934578; -0.035891;,
    -0.629061; -0.769548; -0.109904;,
    0.436960; -0.899427; -0.009806;,
    -0.263689; 0.962601; 0.062193;,
    0.231634; 0.971380; 0.052599;,
    -0.004462; 0.999738; 0.022461;,
    -0.449772; 0.890488; 0.068821;,
    -0.368412; 0.929127; 0.031545;,
    0.389159; 0.920038; 0.045672;,
    0.233100; 0.835734; -0.497205;,
    -0.191895; 0.759927; -0.621038;,
    0.000001; 0.000001; 1.000000;,
    0.067441; 0.317553; 0.945839;,
    -0.067438; 0.317554; 0.945839;,
    -0.543248; 0.109081; 0.832456;,
    -0.543248; -0.109081; 0.832456;,
    -0.067439; -0.317550; 0.945840;,
    0.067440; -0.317550; 0.945840;,
    0.543250; -0.109080; 0.832455;,
    0.543250; 0.109080; 0.832455;,
    -0.000001; 0.000001; -1.000000;,
    -0.191895; 0.759927; -0.621038;,
    0.233100; 0.835734; -0.497205;,
    -0.592117; 0.574326; -0.565286;,
    -0.611664; -0.375562; -0.696290;,
    -0.058109; -0.251354; -0.966149;,
    0.058109; -0.251359; -0.966148;,
    0.142038; -0.105382; -0.984236;,
    0.142038; 0.105383; -0.984236;,
    -0.402357; -0.913964; 0.052719;,
    -0.402884; -0.915196; 0.010035;,
    0.449783; -0.890482; 0.068823;,
    -0.671448; -0.738445; 0.062096;,
    -0.694754; 0.024360; 0.718834;,
    -0.619895; 0.740535; 0.259497;,
    -0.942335; 0.332232; 0.040318;,
    -0.463162; -0.495697; 0.734688;,
    -0.304494; -0.949412; 0.076815;,
    -0.477989; -0.878172; -0.018438;,
    -0.820442; -0.507579; 0.263132;,
    -0.307500; -0.897355; 0.316541;,
    -0.000005; 0.170432; -0.985369;,
    -0.601601; 0.770799; -0.209629;,
    -0.630732; -0.572442; -0.523915;,
    -0.630732; -0.572442; -0.523915;,
    -0.000005; 0.170432; -0.985369;,
    -0.425251; -0.534925; -0.730080;,
    0.000190; -0.331254; -0.943542;,
    -0.619895; 0.740535; 0.259497;,
    -0.694754; 0.024360; 0.718834;,
    -0.208232; 0.978075; -0.003049;,
    -0.942335; 0.332232; 0.040318;,
    -0.601601; 0.770799; -0.209629;,
    -0.630732; -0.572442; -0.523915;,
    -0.601601; 0.770799; -0.209629;,
    -0.425251; -0.534925; -0.730080;,
    -0.463162; -0.495697; 0.734688;,
    -0.000650; -0.873735; 0.486403;,
    -0.002467; 0.833685; 0.552234;,
    -0.694754; 0.024360; 0.718834;,
    -0.711512; 0.238962; -0.660794;,
    -0.590945; 0.574277; 0.566559;,
    -0.820442; -0.507579; 0.263132;,
    -0.711512; 0.238962; -0.660794;,
    -0.425251; -0.534925; -0.730080;,
    -0.006143; -0.938363; 0.345598;,
    -0.590945; 0.574277; 0.566559;,
    -0.820442; -0.507579; 0.263132;,
    -0.949742; 0.090416; 0.299691;,
    -0.628911; 0.092900; 0.771907;,
    -0.077607; 0.992360; 0.095911;,
    -0.941245; 0.129210; -0.312032;,
    -0.128354; 0.974733; 0.182815;,
    -0.502514; -0.603033; -0.619541;,
    -0.182264; -0.834105; -0.520623;,
    -0.142718; 0.783799; 0.604392;,
    0.000102; 0.993121; -0.117094;,
    -0.000053; 0.095660; 0.995414;,
    0.000000; -0.040627; 0.999174;,
    -0.128354; 0.974733; 0.182815;,
    -0.307500; -0.897355; 0.316541;,
    -0.104231; 0.993712; 0.040890;,
    -0.820442; -0.507579; 0.263132;,
    0.268149; 0.772663; 0.575403;,
    0.540918; 0.378051; -0.751322;,
    -0.128354; 0.974733; 0.182815;,
    -0.128354; 0.974733; 0.182815;,
    -0.307500; -0.897355; 0.316541;,
    -0.182264; -0.834105; -0.520623;,
    -0.497246; -0.285198; -0.819395;,
    -0.182264; -0.834105; -0.520623;,
    -0.726663; -0.600430; 0.333832;,
    -0.128354; 0.974733; 0.182815;,
    -0.002239; -0.765964; -0.642880;,
    -0.182264; -0.834105; -0.520623;,
    -0.006143; -0.938363; 0.345598;,
    0.540918; 0.378051; -0.751322;,
    -0.124665; -0.980372; 0.152740;,
    -0.175798; -0.982660; -0.058941;,
    -0.142718; 0.783799; 0.604392;,
    -0.182264; -0.834105; -0.520623;,
    -0.002239; -0.765964; -0.642880;,
    -0.047805; -0.975173; -0.216223;,
    -0.000053; 0.095660; 0.995414;,
    -0.628911; 0.092900; 0.771907;,
    -0.949742; 0.090416; 0.299691;,
    -0.941245; 0.129210; -0.312032;,
    -0.502514; -0.603033; -0.619541;,
    0.000099; -0.706974; -0.707240;,
    -0.496345; -0.691960; -0.524245;,
    -0.616734; 0.442450; -0.651059;,
    -0.773625; 0.327135; 0.542667;,
    -0.616734; 0.442450; -0.651059;,
    -0.538030; -0.605781; 0.586134;,
    -0.496345; -0.691960; -0.524245;,
    -0.192025; -0.835847; 0.514283;,
    -0.538030; -0.605781; 0.586134;,
    0.000099; -0.706974; -0.707240;,
    -0.496345; -0.691960; -0.524245;,
    -0.616734; 0.442450; -0.651059;,
    -0.773625; 0.327135; 0.542667;,
    -0.711512; 0.238962; -0.660794;,
    -0.349415; 0.243376; 0.904808;,
    -0.590945; 0.574277; 0.566559;,
    -0.538030; -0.605781; 0.586134;,
    -0.192025; -0.835847; 0.514283;,
    -0.349415; 0.243376; 0.904808;,
    -0.773625; 0.327135; 0.542667;,
    -0.349415; 0.243376; 0.904808;;
    312;
    3;0, 1, 2;,
    3;1, 3, 2;,
    3;4, 1, 5;,
    3;1, 0, 5;,
    3;6, 7, 8;,
    3;4, 7, 6;,
    3;9, 10, 11;,
    3;12, 13, 10;,
    3;10, 13, 14;,
    3;4, 5, 7;,
    3;1, 4, 3;,
    3;5, 0, 15;,
    3;7, 16, 8;,
    3;17, 18, 19;,
    3;20, 5, 15;,
    3;12, 10, 9;,
    3;5, 20, 7;,
    3;7, 20, 21;,
    3;22, 23, 24;,
    3;22, 25, 26;,
    3;27, 28, 29;,
    3;21, 16, 7;,
    3;20, 15, 30;,
    3;29, 28, 31;,
    3;32, 18, 33;,
    3;18, 17, 33;,
    3;34, 17, 19;,
    3;35, 36, 37;,
    3;36, 38, 37;,
    3;12, 9, 39;,
    3;34, 40, 17;,
    3;41, 42, 43;,
    3;44, 41, 43;,
    3;45, 46, 47;,
    3;45, 47, 48;,
    3;49, 50, 51;,
    3;49, 52, 50;,
    3;53, 54, 55;,
    3;55, 56, 53;,
    3;54, 57, 55;,
    3;54, 58, 57;,
    3;59, 44, 43;,
    3;60, 61, 62;,
    3;60, 63, 61;,
    3;59, 64, 44;,
    3;65, 66, 67;,
    3;65, 67, 68;,
    3;69, 70, 71;,
    3;70, 72, 71;,
    3;73, 74, 75;,
    3;74, 76, 75;,
    3;77, 69, 78;,
    3;69, 71, 78;,
    3;73, 75, 79;,
    3;75, 80, 79;,
    3;81, 82, 83;,
    3;82, 84, 83;,
    3;85, 86, 84;,
    3;86, 87, 84;,
    3;81, 88, 82;,
    3;88, 89, 82;,
    3;90, 91, 92;,
    3;93, 92, 94;,
    3;93, 90, 92;,
    3;90, 95, 91;,
    3;90, 96, 95;,
    3;97, 98, 90;,
    3;99, 90, 93;,
    3;99, 97, 90;,
    3;98, 96, 90;,
    3;98, 100, 96;,
    3;101, 102, 103;,
    3;104, 101, 103;,
    3;105, 104, 103;,
    3;106, 105, 103;,
    3;107, 106, 103;,
    3;108, 107, 103;,
    3;109, 108, 103;,
    3;102, 109, 103;,
    3;110, 111, 112;,
    3;111, 113, 112;,
    3;113, 114, 112;,
    3;114, 115, 112;,
    3;115, 116, 112;,
    3;116, 117, 112;,
    3;117, 118, 112;,
    3;118, 110, 112;,
    3;85, 119, 86;,
    3;85, 120, 119;,
    3;121, 87, 122;,
    3;121, 84, 87;,
    3;88, 120, 85;,
    3;88, 123, 120;,
    3;83, 84, 121;,
    3;89, 88, 85;,
    3;37, 124, 35;,
    3;124, 125, 35;,
    3;126, 127, 128;,
    3;127, 129, 128;,
    3;130, 131, 132;,
    3;131, 133, 132;,
    3;134, 135, 136;,
    3;137, 135, 138;,
    3;139, 140, 136;,
    3;141, 136, 140;,
    3;134, 136, 141;,
    3;139, 136, 142;,
    3;136, 135, 142;,
    3;142, 135, 137;,
    3;137, 143, 144;,
    3;143, 145, 144;,
    3;137, 144, 142;,
    3;146, 144, 147;,
    3;144, 145, 147;,
    3;142, 144, 146;,
    3;148, 149, 150;,
    3;149, 151, 150;,
    3;152, 153, 154;,
    3;153, 155, 154;,
    3;150, 156, 157;,
    3;156, 158, 157;,
    3;159, 157, 158;,
    3;155, 160, 161;,
    3;151, 156, 150;,
    3;149, 148, 155;,
    3;162, 163, 148;,
    3;162, 148, 150;,
    3;148, 163, 164;,
    3;164, 154, 155;,
    3;164, 155, 148;,
    3;160, 155, 153;,
    3;157, 165, 150;,
    3;150, 165, 162;,
    3;166, 167, 168;,
    3;167, 169, 168;,
    3;170, 169, 167;,
    3;171, 170, 167;,
    3;172, 173, 174;,
    3;173, 175, 174;,
    3;176, 177, 178;,
    3;176, 178, 179;,
    3;57, 58, 180;,
    3;42, 41, 181;,
    3;182, 183, 184;,
    3;183, 185, 184;,
    3;186, 187, 188;,
    3;187, 189, 188;,
    3;188, 189, 190;,
    3;189, 191, 190;,
    3;192, 193, 194;,
    3;193, 195, 194;,
    3;196, 197, 198;,
    3;197, 199, 198;,
    3;200, 201, 202;,
    3;201, 203, 202;,
    3;204, 205, 206;,
    3;204, 207, 205;,
    3;208, 209, 210;,
    3;208, 211, 209;,
    3;212, 213, 214;,
    3;213, 215, 214;,
    3;216, 217, 218;,
    3;218, 219, 216;,
    3;216, 220, 217;,
    3;216, 221, 220;,
    3;222, 223, 224;,
    3;225, 226, 227;,
    3;225, 227, 222;,
    3;225, 222, 224;,
    3;228, 229, 230;,
    3;228, 230, 231;,
    3;232, 233, 234;,
    3;232, 235, 233;,
    3;236, 237, 238;,
    3;237, 239, 238;,
    3;240, 241, 242;,
    3;241, 243, 242;,
    3;244, 245, 236;,
    3;245, 237, 236;,
    3;246, 241, 247;,
    3;241, 240, 247;,
    3;248, 249, 250;,
    3;249, 251, 250;,
    3;252, 253, 254;,
    3;253, 255, 254;,
    3;248, 253, 256;,
    3;253, 252, 256;,
    3;257, 258, 259;,
    3;260, 257, 261;,
    3;257, 259, 261;,
    3;258, 262, 259;,
    3;262, 241, 259;,
    3;259, 263, 264;,
    3;261, 259, 244;,
    3;259, 264, 244;,
    3;259, 241, 263;,
    3;241, 246, 263;,
    3;265, 266, 267;,
    3;265, 267, 268;,
    3;265, 268, 269;,
    3;265, 269, 270;,
    3;265, 270, 271;,
    3;265, 271, 272;,
    3;265, 272, 273;,
    3;265, 273, 266;,
    3;274, 275, 276;,
    3;274, 277, 275;,
    3;274, 278, 277;,
    3;274, 279, 278;,
    3;274, 280, 279;,
    3;274, 281, 280;,
    3;274, 282, 281;,
    3;274, 276, 282;,
    3;251, 283, 250;,
    3;283, 284, 250;,
    3;285, 249, 240;,
    3;249, 248, 240;,
    3;254, 255, 250;,
    3;250, 284, 254;,
    3;284, 245, 254;,
    3;240, 248, 256;,
    3;286, 287, 288;,
    3;289, 286, 288;,
    3;286, 290, 287;,
    3;291, 290, 286;,
    3;291, 3, 290;,
    3;292, 293, 294;,
    3;292, 291, 286;,
    3;292, 294, 291;,
    3;18, 295, 296;,
    3;295, 297, 296;,
    3;298, 299, 300;,
    3;299, 301, 300;,
    3;302, 303, 13;,
    3;12, 302, 13;,
    3;304, 302, 12;,
    3;304, 305, 302;,
    3;39, 18, 306;,
    3;3, 294, 2;,
    3;307, 293, 292;,
    3;286, 307, 292;,
    3;39, 304, 12;,
    3;308, 307, 286;,
    3;286, 289, 308;,
    3;39, 306, 304;,
    3;3, 291, 294;,
    3;307, 309, 293;,
    3;304, 306, 305;,
    3;29, 310, 311;,
    3;310, 312, 313;,
    3;299, 35, 298;,
    3;35, 300, 298;,
    3;35, 125, 300;,
    3;125, 314, 300;,
    3;315, 316, 317;,
    3;316, 318, 317;,
    3;133, 319, 320;,
    3;319, 321, 320;,
    3;322, 323, 324;,
    3;137, 322, 324;,
    3;325, 322, 326;,
    3;322, 137, 326;,
    3;327, 325, 326;,
    3;327, 326, 328;,
    3;143, 329, 145;,
    3;137, 330, 326;,
    3;145, 329, 331;,
    3;329, 137, 324;,
    3;143, 137, 329;,
    3;329, 324, 323;,
    3;332, 172, 333;,
    3;172, 334, 333;,
    3;335, 336, 337;,
    3;336, 338, 337;,
    3;335, 337, 339;,
    3;340, 220, 221;,
    3;335, 339, 341;,
    3;226, 342, 227;,
    3;343, 344, 345;,
    3;345, 344, 346;,
    3;347, 348, 349;,
    3;348, 350, 349;,
    3;351, 352, 161;,
    3;352, 151, 161;,
    3;351, 160, 353;,
    3;160, 153, 353;,
    3;354, 355, 356;,
    3;355, 158, 356;,
    3;160, 351, 161;,
    3;151, 356, 156;,
    3;357, 353, 153;,
    3;352, 356, 151;,
    3;353, 358, 351;,
    3;351, 358, 359;,
    3;156, 356, 158;,
    3;359, 360, 352;,
    3;359, 352, 351;,
    3;352, 360, 361;,
    3;361, 354, 356;,
    3;361, 356, 352;,
    3;362, 363, 203;,
    3;363, 364, 203;,
    3;365, 366, 367;,
    3;366, 368, 367;,
    3;369, 370, 371;,
    3;370, 372, 371;,
    3;373, 374, 375;,
    3;374, 376, 375;,
    3;375, 376, 377;,
    3;376, 188, 377;,
    3;378, 379, 380;,
    3;381, 378, 382;;
   }

   MeshTextureCoords {
    383;
    0.685857; 0.287317;,
    0.690725; 0.331784;,
    0.708789; 0.287317;,
    0.708789; 0.351563;,
    0.680480; 0.347588;,
    0.652336; 0.208170;,
    0.638917; 0.320691;,
    0.628180; 0.260007;,
    0.627370; 0.304032;,
    0.828963; 0.123106;,
    0.812222; 0.026352;,
    0.806465; 0.086775;,
    0.900494; 0.087360;,
    0.900326; 0.011194;,
    0.824423; 0.009708;,
    0.685872; 0.104546;,
    0.617188; 0.261057;,
    0.974452; 0.240361;,
    0.900624; 0.240361;,
    0.900624; 0.196316;,
    0.651527; 0.007813;,
    0.637379; 0.107337;,
    0.709741; 0.353649;,
    0.709741; 0.353615;,
    0.691065; 0.334468;,
    0.680473; 0.349797;,
    0.709741; 0.353684;,
    0.891390; 0.908303;,
    0.850966; 0.916824;,
    0.891389; 0.981245;,
    0.689605; 0.020803;,
    0.798625; 0.961613;,
    0.900624; 0.349302;,
    0.959825; 0.349290;,
    0.972025; 0.123106;,
    0.806908; 0.548265;,
    0.806908; 0.589813;,
    0.831343; 0.548265;,
    0.879009; 0.589837;,
    0.900494; 0.196239;,
    0.995472; 0.086775;,
    0.259295; 0.147540;,
    0.267999; 0.160934;,
    0.245811; 0.221452;,
    0.234343; 0.212310;,
    0.529709; 0.968137;,
    0.542659; 0.932961;,
    0.716396; 0.932961;,
    0.665981; 0.977830;,
    0.715281; 0.992313;,
    0.529709; 0.968137;,
    0.665981; 0.977830;,
    0.465985; 0.992422;,
    0.245444; 0.233374;,
    0.245811; 0.207459;,
    0.234343; 0.198318;,
    0.232023; 0.233374;,
    0.259295; 0.147540;,
    0.267999; 0.160935;,
    0.245444; 0.233217;,
    0.665981; 0.984163;,
    0.542659; 0.942240;,
    0.529709; 0.974470;,
    0.716396; 0.942240;,
    0.232023; 0.233217;,
    0.665981; 0.984163;,
    0.529709; 0.974470;,
    0.465985; 0.992422;,
    0.715281; 0.992313;,
    0.608983; 0.175447;,
    0.591944; 0.012990;,
    0.608983; 0.175447;,
    0.591944; 0.012990;,
    0.518262; 0.175447;,
    0.535300; 0.012990;,
    0.518262; 0.175447;,
    0.535300; 0.012990;,
    0.601065; 0.413844;,
    0.601065; 0.413844;,
    0.526179; 0.413844;,
    0.526179; 0.413844;,
    0.548112; 0.413843;,
    0.558530; 0.363582;,
    0.526179; 0.413844;,
    0.558530; 0.184188;,
    0.569341; 0.184188;,
    0.575353; 0.012990;,
    0.551891; 0.012990;,
    0.579131; 0.413844;,
    0.569340; 0.363582;,
    0.563622; 0.175447;,
    0.551891; 0.012990;,
    0.575353; 0.012990;,
    0.608983; 0.175447;,
    0.591944; 0.012990;,
    0.535300; 0.012990;,
    0.518262; 0.175447;,
    0.579131; 0.413844;,
    0.548112; 0.413843;,
    0.601065; 0.413844;,
    0.526179; 0.413844;,
    1.586836; 0.474278;,
    1.560050; 0.474278;,
    1.573443; 0.457947;,
    1.605777; 0.464711;,
    1.605777; 0.451182;,
    1.586836; 0.441615;,
    1.560050; 0.441615;,
    1.541109; 0.451182;,
    1.541109; 0.464711;,
    0.744811; 0.690521;,
    0.780223; 0.690521;,
    0.762517; 0.666870;,
    0.805264; 0.676667;,
    0.805264; 0.657074;,
    0.780224; 0.643220;,
    0.744811; 0.643220;,
    0.719770; 0.657074;,
    0.719770; 0.676667;,
    0.591944; 0.012990;,
    0.608983; 0.175447;,
    0.518262; 0.175447;,
    0.535300; 0.012990;,
    0.601065; 0.413844;,
    0.823392; 0.481505;,
    0.806908; 0.481505;,
    0.984261; 0.663419;,
    0.875987; 0.663381;,
    0.935470; 0.595515;,
    0.875825; 0.595467;,
    0.016951; 0.980794;,
    0.076478; 0.980794;,
    0.042767; 0.837745;,
    0.076478; 0.837745;,
    0.328166; 0.421713;,
    0.306581; 0.291898;,
    0.385419; 0.320851;,
    0.262075; 0.219840;,
    0.262075; 0.327867;,
    0.507813; 0.168757;,
    0.507962; 0.275462;,
    0.441869; 0.367290;,
    0.441745; 0.076400;,
    0.262075; 0.092884;,
    0.306495; 0.083282;,
    0.262075; 0.059296;,
    0.327596; 0.023434;,
    0.262075; 0.023438;,
    0.477233; 0.582504;,
    0.262078; 0.628810;,
    0.419671; 0.755281;,
    0.262078; 0.629660;,
    0.262078; 0.427734;,
    0.262078; 0.442915;,
    0.328119; 0.427731;,
    0.319922; 0.456034;,
    0.262078; 0.789244;,
    0.328693; 0.827962;,
    0.262078; 0.813781;,
    0.262078; 0.827942;,
    0.262078; 0.468499;,
    0.262078; 0.628583;,
    0.509916; 0.680994;,
    0.509766; 0.573767;,
    0.443174; 0.480956;,
    0.443299; 0.773272;,
    0.778686; 0.464387;,
    0.778672; 0.413682;,
    0.709892; 0.470496;,
    0.709892; 0.414729;,
    0.760253; 0.365361;,
    0.778677; 0.365103;,
    0.891405; 0.889554;,
    0.891405; 0.886184;,
    0.906768; 0.889554;,
    0.928087; 0.886178;,
    0.962945; 0.397233;,
    0.885402; 0.363678;,
    0.885402; 0.476523;,
    0.990973; 0.576421;,
    0.421578; 0.141172;,
    0.378494; 0.086662;,
    0.986363; 0.891897;,
    0.944435; 0.870403;,
    0.891405; 0.889563;,
    0.891405; 0.870403;,
    0.791284; 0.364826;,
    0.875959; 0.407285;,
    0.791284; 0.433359;,
    0.875959; 0.462657;,
    0.797358; 0.433359;,
    0.797358; 0.462657;,
    0.631861; 0.893836;,
    0.631861; 0.924396;,
    0.778063; 0.893777;,
    0.785745; 0.924336;,
    0.302301; 0.975410;,
    0.297505; 0.844087;,
    0.147864; 0.925539;,
    0.147864; 0.839938;,
    0.534998; 0.797545;,
    0.682619; 0.797545;,
    0.530893; 0.825701;,
    0.684443; 0.825701;,
    0.625144; 0.870088;,
    0.477827; 0.840633;,
    0.473721; 0.870088;,
    0.625144; 0.840633;,
    0.665981; 0.977830;,
    0.542659; 0.932961;,
    0.529709; 0.968137;,
    0.716361; 0.932961;,
    0.665981; 0.977830;,
    0.529709; 0.968137;,
    0.715281; 0.992313;,
    0.465985; 0.992422;,
    0.155657; 0.203886;,
    0.167125; 0.213028;,
    0.166758; 0.238943;,
    0.153337; 0.238943;,
    0.189313; 0.166503;,
    0.180609; 0.153109;,
    0.155657; 0.217879;,
    0.153337; 0.238785;,
    0.166758; 0.238785;,
    0.167125; 0.227020;,
    0.189313; 0.166503;,
    0.180609; 0.153109;,
    0.465985; 0.992422;,
    0.529709; 0.974470;,
    0.665981; 0.984163;,
    0.715281; 0.992313;,
    0.529709; 0.974470;,
    0.716361; 0.942240;,
    0.665981; 0.984163;,
    0.542659; 0.942240;,
    0.517100; 0.175952;,
    0.517100; 0.175952;,
    0.533974; 0.013495;,
    0.533975; 0.013495;,
    0.606948; 0.175952;,
    0.606948; 0.175952;,
    0.590074; 0.013495;,
    0.590074; 0.013495;,
    0.524941; 0.414348;,
    0.524941; 0.414348;,
    0.599107; 0.414348;,
    0.599107; 0.414348;,
    0.567067; 0.184693;,
    0.573643; 0.013495;,
    0.556361; 0.184693;,
    0.550406; 0.013495;,
    0.577384; 0.414348;,
    0.567067; 0.364087;,
    0.546664; 0.414348;,
    0.556361; 0.364087;,
    0.599107; 0.414348;,
    0.550406; 0.013495;,
    0.573643; 0.013495;,
    0.562024; 0.175952;,
    0.533974; 0.013495;,
    0.517100; 0.175952;,
    0.590074; 0.013495;,
    0.577384; 0.414348;,
    0.546664; 0.414348;,
    0.567811; 0.463052;,
    0.581204; 0.479384;,
    0.554418; 0.479384;,
    0.535476; 0.469817;,
    0.535476; 0.456287;,
    0.554417; 0.446720;,
    0.581204; 0.446720;,
    0.600145; 0.456287;,
    0.600145; 0.469817;,
    0.761137; 0.657220;,
    0.743431; 0.680871;,
    0.778844; 0.680871;,
    0.718390; 0.667016;,
    0.718390; 0.647424;,
    0.743430; 0.633569;,
    0.778844; 0.633569;,
    0.803884; 0.647423;,
    0.803884; 0.667016;,
    0.533975; 0.013495;,
    0.517100; 0.175952;,
    0.590074; 0.013495;,
    0.789649; 0.260007;,
    0.780713; 0.321488;,
    0.790459; 0.304032;,
    0.800781; 0.261057;,
    0.737349; 0.347588;,
    0.726956; 0.331784;,
    0.765493; 0.208170;,
    0.731569; 0.104546;,
    0.731590; 0.287317;,
    0.900624; 0.349302;,
    0.974452; 0.240361;,
    0.959825; 0.349290;,
    0.735799; 0.589790;,
    0.806908; 0.589813;,
    0.783635; 0.548265;,
    0.806908; 0.558409;,
    0.812222; 0.026352;,
    0.824423; 0.009708;,
    0.828963; 0.123106;,
    0.806465; 0.086775;,
    0.826536; 0.240361;,
    0.765953; 0.007792;,
    0.780408; 0.107337;,
    0.727716; 0.020803;,
    0.932173; 0.916824;,
    0.891574; 0.908264;,
    0.891569; 0.981531;,
    0.984563; 0.961613;,
    0.791587; 0.481505;,
    0.875825; 0.597117;,
    0.875986; 0.662282;,
    0.937670; 0.597165;,
    0.982061; 0.662319;,
    0.076478; 0.980794;,
    0.107812; 0.837745;,
    0.133938; 0.980794;,
    0.015625; 0.169097;,
    0.081436; 0.076643;,
    0.136484; 0.120031;,
    0.015493; 0.275175;,
    0.216313; 0.293633;,
    0.081601; 0.367622;,
    0.196233; 0.421673;,
    0.195677; 0.023441;,
    0.262075; 0.328322;,
    0.262075; 0.023438;,
    0.891405; 0.886184;,
    0.854894; 0.886190;,
    0.876129; 0.889554;,
    0.805143; 0.413754;,
    0.805143; 0.464387;,
    0.874015; 0.414729;,
    0.874015; 0.470485;,
    0.823506; 0.365361;,
    0.343342; 0.146782;,
    0.805155; 0.365103;,
    0.299848; 0.092275;,
    0.885448; 0.365648;,
    0.964569; 0.399176;,
    0.885448; 0.478471;,
    0.993430; 0.578368;,
    0.891405; 0.870403;,
    0.838390; 0.870415;,
    0.891405; 0.889563;,
    0.796448; 0.891897;,
    0.105050; 0.502340;,
    0.047488; 0.675116;,
    0.195153; 0.427738;,
    0.195713; 0.827922;,
    0.262078; 0.828125;,
    0.204799; 0.801587;,
    0.262078; 0.427734;,
    0.080006; 0.481200;,
    0.013672; 0.574108;,
    0.013539; 0.680706;,
    0.080171; 0.773606;,
    0.682619; 0.797545;,
    0.830209; 0.797545;,
    0.839336; 0.825701;,
    0.469565; 0.923728;,
    0.621594; 0.923141;,
    0.477321; 0.895057;,
    0.621594; 0.895117;,
    0.302301; 0.975410;,
    0.453429; 0.925539;,
    0.297505; 0.844087;,
    0.453429; 0.839938;,
    0.705869; 0.462657;,
    0.705869; 0.407285;,
    0.785639; 0.462657;,
    0.791284; 0.364826;,
    0.785639; 0.433359;,
    0.772387; 0.840633;,
    0.625917; 0.840633;,
    0.625917; 0.869933;,
    0.780215; 0.870088;,
    0.625938; 0.870088;;
   }

   MeshVertexColors {
    383;
    0; 1.000000; 1.000000; 1.000000; 1.000000;,
    1; 1.000000; 1.000000; 1.000000; 1.000000;,
    2; 1.000000; 1.000000; 1.000000; 1.000000;,
    3; 1.000000; 1.000000; 1.000000; 1.000000;,
    4; 1.000000; 1.000000; 1.000000; 1.000000;,
    5; 1.000000; 1.000000; 1.000000; 1.000000;,
    6; 1.000000; 1.000000; 1.000000; 1.000000;,
    7; 1.000000; 1.000000; 1.000000; 1.000000;,
    8; 1.000000; 1.000000; 1.000000; 1.000000;,
    9; 1.000000; 1.000000; 1.000000; 1.000000;,
    10; 1.000000; 1.000000; 1.000000; 1.000000;,
    11; 1.000000; 1.000000; 1.000000; 1.000000;,
    12; 1.000000; 1.000000; 1.000000; 1.000000;,
    13; 1.000000; 1.000000; 1.000000; 1.000000;,
    14; 1.000000; 1.000000; 1.000000; 1.000000;,
    15; 1.000000; 1.000000; 1.000000; 1.000000;,
    16; 1.000000; 1.000000; 1.000000; 1.000000;,
    17; 1.000000; 1.000000; 1.000000; 1.000000;,
    18; 1.000000; 1.000000; 1.000000; 1.000000;,
    19; 1.000000; 1.000000; 1.000000; 1.000000;,
    20; 1.000000; 1.000000; 1.000000; 1.000000;,
    21; 1.000000; 1.000000; 1.000000; 1.000000;,
    22; 1.000000; 1.000000; 1.000000; 1.000000;,
    23; 1.000000; 1.000000; 1.000000; 1.000000;,
    24; 1.000000; 1.000000; 1.000000; 1.000000;,
    25; 1.000000; 1.000000; 1.000000; 1.000000;,
    26; 1.000000; 1.000000; 1.000000; 1.000000;,
    27; 1.000000; 1.000000; 1.000000; 1.000000;,
    28; 1.000000; 1.000000; 1.000000; 1.000000;,
    29; 1.000000; 1.000000; 1.000000; 1.000000;,
    30; 1.000000; 1.000000; 1.000000; 1.000000;,
    31; 1.000000; 1.000000; 1.000000; 1.000000;,
    32; 1.000000; 1.000000; 1.000000; 1.000000;,
    33; 1.000000; 1.000000; 1.000000; 1.000000;,
    34; 1.000000; 1.000000; 1.000000; 1.000000;,
    35; 1.000000; 1.000000; 1.000000; 1.000000;,
    36; 1.000000; 1.000000; 1.000000; 1.000000;,
    37; 1.000000; 1.000000; 1.000000; 1.000000;,
    38; 1.000000; 1.000000; 1.000000; 1.000000;,
    39; 1.000000; 1.000000; 1.000000; 1.000000;,
    40; 1.000000; 1.000000; 1.000000; 1.000000;,
    41; 1.000000; 1.000000; 1.000000; 1.000000;,
    42; 1.000000; 1.000000; 1.000000; 1.000000;,
    43; 1.000000; 1.000000; 1.000000; 1.000000;,
    44; 1.000000; 1.000000; 1.000000; 1.000000;,
    45; 1.000000; 1.000000; 1.000000; 1.000000;,
    46; 1.000000; 1.000000; 1.000000; 1.000000;,
    47; 1.000000; 1.000000; 1.000000; 1.000000;,
    48; 1.000000; 1.000000; 1.000000; 1.000000;,
    49; 1.000000; 1.000000; 1.000000; 1.000000;,
    50; 1.000000; 1.000000; 1.000000; 1.000000;,
    51; 1.000000; 1.000000; 1.000000; 1.000000;,
    52; 1.000000; 1.000000; 1.000000; 1.000000;,
    53; 1.000000; 1.000000; 1.000000; 1.000000;,
    54; 1.000000; 1.000000; 1.000000; 1.000000;,
    55; 1.000000; 1.000000; 1.000000; 1.000000;,
    56; 1.000000; 1.000000; 1.000000; 1.000000;,
    57; 1.000000; 1.000000; 1.000000; 1.000000;,
    58; 1.000000; 1.000000; 1.000000; 1.000000;,
    59; 1.000000; 1.000000; 1.000000; 1.000000;,
    60; 1.000000; 1.000000; 1.000000; 1.000000;,
    61; 1.000000; 1.000000; 1.000000; 1.000000;,
    62; 1.000000; 1.000000; 1.000000; 1.000000;,
    63; 1.000000; 1.000000; 1.000000; 1.000000;,
    64; 1.000000; 1.000000; 1.000000; 1.000000;,
    65; 1.000000; 1.000000; 1.000000; 1.000000;,
    66; 1.000000; 1.000000; 1.000000; 1.000000;,
    67; 1.000000; 1.000000; 1.000000; 1.000000;,
    68; 1.000000; 1.000000; 1.000000; 1.000000;,
    69; 1.000000; 1.000000; 1.000000; 1.000000;,
    70; 1.000000; 1.000000; 1.000000; 1.000000;,
    71; 1.000000; 1.000000; 1.000000; 1.000000;,
    72; 1.000000; 1.000000; 1.000000; 1.000000;,
    73; 1.000000; 1.000000; 1.000000; 1.000000;,
    74; 1.000000; 1.000000; 1.000000; 1.000000;,
    75; 1.000000; 1.000000; 1.000000; 1.000000;,
    76; 1.000000; 1.000000; 1.000000; 1.000000;,
    77; 1.000000; 1.000000; 1.000000; 1.000000;,
    78; 1.000000; 1.000000; 1.000000; 1.000000;,
    79; 1.000000; 1.000000; 1.000000; 1.000000;,
    80; 1.000000; 1.000000; 1.000000; 1.000000;,
    81; 1.000000; 1.000000; 1.000000; 1.000000;,
    82; 1.000000; 1.000000; 1.000000; 1.000000;,
    83; 1.000000; 1.000000; 1.000000; 1.000000;,
    84; 1.000000; 1.000000; 1.000000; 1.000000;,
    85; 1.000000; 1.000000; 1.000000; 1.000000;,
    86; 1.000000; 1.000000; 1.000000; 1.000000;,
    87; 1.000000; 1.000000; 1.000000; 1.000000;,
    88; 1.000000; 1.000000; 1.000000; 1.000000;,
    89; 1.000000; 1.000000; 1.000000; 1.000000;,
    90; 1.000000; 1.000000; 1.000000; 1.000000;,
    91; 1.000000; 1.000000; 1.000000; 1.000000;,
    92; 1.000000; 1.000000; 1.000000; 1.000000;,
    93; 1.000000; 1.000000; 1.000000; 1.000000;,
    94; 1.000000; 1.000000; 1.000000; 1.000000;,
    95; 1.000000; 1.000000; 1.000000; 1.000000;,
    96; 1.000000; 1.000000; 1.000000; 1.000000;,
    97; 1.000000; 1.000000; 1.000000; 1.000000;,
    98; 1.000000; 1.000000; 1.000000; 1.000000;,
    99; 1.000000; 1.000000; 1.000000; 1.000000;,
    100; 1.000000; 1.000000; 1.000000; 1.000000;,
    101; 1.000000; 1.000000; 1.000000; 1.000000;,
    102; 1.000000; 1.000000; 1.000000; 1.000000;,
    103; 1.000000; 1.000000; 1.000000; 1.000000;,
    104; 1.000000; 1.000000; 1.000000; 1.000000;,
    105; 1.000000; 1.000000; 1.000000; 1.000000;,
    106; 1.000000; 1.000000; 1.000000; 1.000000;,
    107; 1.000000; 1.000000; 1.000000; 1.000000;,
    108; 1.000000; 1.000000; 1.000000; 1.000000;,
    109; 1.000000; 1.000000; 1.000000; 1.000000;,
    110; 1.000000; 1.000000; 1.000000; 1.000000;,
    111; 1.000000; 1.000000; 1.000000; 1.000000;,
    112; 1.000000; 1.000000; 1.000000; 1.000000;,
    113; 1.000000; 1.000000; 1.000000; 1.000000;,
    114; 1.000000; 1.000000; 1.000000; 1.000000;,
    115; 1.000000; 1.000000; 1.000000; 1.000000;,
    116; 1.000000; 1.000000; 1.000000; 1.000000;,
    117; 1.000000; 1.000000; 1.000000; 1.000000;,
    118; 1.000000; 1.000000; 1.000000; 1.000000;,
    119; 1.000000; 1.000000; 1.000000; 1.000000;,
    120; 1.000000; 1.000000; 1.000000; 1.000000;,
    121; 1.000000; 1.000000; 1.000000; 1.000000;,
    122; 1.000000; 1.000000; 1.000000; 1.000000;,
    123; 1.000000; 1.000000; 1.000000; 1.000000;,
    124; 1.000000; 1.000000; 1.000000; 1.000000;,
    125; 1.000000; 1.000000; 1.000000; 1.000000;,
    126; 1.000000; 1.000000; 1.000000; 1.000000;,
    127; 1.000000; 1.000000; 1.000000; 1.000000;,
    128; 1.000000; 1.000000; 1.000000; 1.000000;,
    129; 1.000000; 1.000000; 1.000000; 1.000000;,
    130; 1.000000; 1.000000; 1.000000; 1.000000;,
    131; 1.000000; 1.000000; 1.000000; 1.000000;,
    132; 1.000000; 1.000000; 1.000000; 1.000000;,
    133; 1.000000; 1.000000; 1.000000; 1.000000;,
    134; 1.000000; 1.000000; 1.000000; 1.000000;,
    135; 1.000000; 1.000000; 1.000000; 1.000000;,
    136; 1.000000; 1.000000; 1.000000; 1.000000;,
    137; 1.000000; 1.000000; 1.000000; 1.000000;,
    138; 1.000000; 1.000000; 1.000000; 1.000000;,
    139; 1.000000; 1.000000; 1.000000; 1.000000;,
    140; 1.000000; 1.000000; 1.000000; 1.000000;,
    141; 1.000000; 1.000000; 1.000000; 1.000000;,
    142; 1.000000; 1.000000; 1.000000; 1.000000;,
    143; 1.000000; 1.000000; 1.000000; 1.000000;,
    144; 1.000000; 1.000000; 1.000000; 1.000000;,
    145; 1.000000; 1.000000; 1.000000; 1.000000;,
    146; 1.000000; 1.000000; 1.000000; 1.000000;,
    147; 1.000000; 1.000000; 1.000000; 1.000000;,
    148; 1.000000; 1.000000; 1.000000; 1.000000;,
    149; 1.000000; 1.000000; 1.000000; 1.000000;,
    150; 1.000000; 1.000000; 1.000000; 1.000000;,
    151; 1.000000; 1.000000; 1.000000; 1.000000;,
    152; 1.000000; 1.000000; 1.000000; 1.000000;,
    153; 1.000000; 1.000000; 1.000000; 1.000000;,
    154; 1.000000; 1.000000; 1.000000; 1.000000;,
    155; 1.000000; 1.000000; 1.000000; 1.000000;,
    156; 1.000000; 1.000000; 1.000000; 1.000000;,
    157; 1.000000; 1.000000; 1.000000; 1.000000;,
    158; 1.000000; 1.000000; 1.000000; 1.000000;,
    159; 1.000000; 1.000000; 1.000000; 1.000000;,
    160; 1.000000; 1.000000; 1.000000; 1.000000;,
    161; 1.000000; 1.000000; 1.000000; 1.000000;,
    162; 1.000000; 1.000000; 1.000000; 1.000000;,
    163; 1.000000; 1.000000; 1.000000; 1.000000;,
    164; 1.000000; 1.000000; 1.000000; 1.000000;,
    165; 1.000000; 1.000000; 1.000000; 1.000000;,
    166; 1.000000; 1.000000; 1.000000; 1.000000;,
    167; 1.000000; 1.000000; 1.000000; 1.000000;,
    168; 1.000000; 1.000000; 1.000000; 1.000000;,
    169; 1.000000; 1.000000; 1.000000; 1.000000;,
    170; 1.000000; 1.000000; 1.000000; 1.000000;,
    171; 1.000000; 1.000000; 1.000000; 1.000000;,
    172; 1.000000; 1.000000; 1.000000; 1.000000;,
    173; 1.000000; 1.000000; 1.000000; 1.000000;,
    174; 1.000000; 1.000000; 1.000000; 1.000000;,
    175; 1.000000; 1.000000; 1.000000; 1.000000;,
    176; 1.000000; 1.000000; 1.000000; 1.000000;,
    177; 1.000000; 1.000000; 1.000000; 1.000000;,
    178; 1.000000; 1.000000; 1.000000; 1.000000;,
    179; 1.000000; 1.000000; 1.000000; 1.000000;,
    180; 1.000000; 1.000000; 1.000000; 1.000000;,
    181; 1.000000; 1.000000; 1.000000; 1.000000;,
    182; 1.000000; 1.000000; 1.000000; 1.000000;,
    183; 1.000000; 1.000000; 1.000000; 1.000000;,
    184; 1.000000; 1.000000; 1.000000; 1.000000;,
    185; 1.000000; 1.000000; 1.000000; 1.000000;,
    186; 1.000000; 1.000000; 1.000000; 1.000000;,
    187; 1.000000; 1.000000; 1.000000; 1.000000;,
    188; 1.000000; 1.000000; 1.000000; 1.000000;,
    189; 1.000000; 1.000000; 1.000000; 1.000000;,
    190; 1.000000; 1.000000; 1.000000; 1.000000;,
    191; 1.000000; 1.000000; 1.000000; 1.000000;,
    192; 1.000000; 1.000000; 1.000000; 1.000000;,
    193; 1.000000; 1.000000; 1.000000; 1.000000;,
    194; 1.000000; 1.000000; 1.000000; 1.000000;,
    195; 1.000000; 1.000000; 1.000000; 1.000000;,
    196; 1.000000; 1.000000; 1.000000; 1.000000;,
    197; 1.000000; 1.000000; 1.000000; 1.000000;,
    198; 1.000000; 1.000000; 1.000000; 1.000000;,
    199; 1.000000; 1.000000; 1.000000; 1.000000;,
    200; 1.000000; 1.000000; 1.000000; 1.000000;,
    201; 1.000000; 1.000000; 1.000000; 1.000000;,
    202; 1.000000; 1.000000; 1.000000; 1.000000;,
    203; 1.000000; 1.000000; 1.000000; 1.000000;,
    204; 1.000000; 1.000000; 1.000000; 1.000000;,
    205; 1.000000; 1.000000; 1.000000; 1.000000;,
    206; 1.000000; 1.000000; 1.000000; 1.000000;,
    207; 1.000000; 1.000000; 1.000000; 1.000000;,
    208; 1.000000; 1.000000; 1.000000; 1.000000;,
    209; 1.000000; 1.000000; 1.000000; 1.000000;,
    210; 1.000000; 1.000000; 1.000000; 1.000000;,
    211; 1.000000; 1.000000; 1.000000; 1.000000;,
    212; 1.000000; 1.000000; 1.000000; 1.000000;,
    213; 1.000000; 1.000000; 1.000000; 1.000000;,
    214; 1.000000; 1.000000; 1.000000; 1.000000;,
    215; 1.000000; 1.000000; 1.000000; 1.000000;,
    216; 1.000000; 1.000000; 1.000000; 1.000000;,
    217; 1.000000; 1.000000; 1.000000; 1.000000;,
    218; 1.000000; 1.000000; 1.000000; 1.000000;,
    219; 1.000000; 1.000000; 1.000000; 1.000000;,
    220; 1.000000; 1.000000; 1.000000; 1.000000;,
    221; 1.000000; 1.000000; 1.000000; 1.000000;,
    222; 1.000000; 1.000000; 1.000000; 1.000000;,
    223; 1.000000; 1.000000; 1.000000; 1.000000;,
    224; 1.000000; 1.000000; 1.000000; 1.000000;,
    225; 1.000000; 1.000000; 1.000000; 1.000000;,
    226; 1.000000; 1.000000; 1.000000; 1.000000;,
    227; 1.000000; 1.000000; 1.000000; 1.000000;,
    228; 1.000000; 1.000000; 1.000000; 1.000000;,
    229; 1.000000; 1.000000; 1.000000; 1.000000;,
    230; 1.000000; 1.000000; 1.000000; 1.000000;,
    231; 1.000000; 1.000000; 1.000000; 1.000000;,
    232; 1.000000; 1.000000; 1.000000; 1.000000;,
    233; 1.000000; 1.000000; 1.000000; 1.000000;,
    234; 1.000000; 1.000000; 1.000000; 1.000000;,
    235; 1.000000; 1.000000; 1.000000; 1.000000;,
    236; 1.000000; 1.000000; 1.000000; 1.000000;,
    237; 1.000000; 1.000000; 1.000000; 1.000000;,
    238; 1.000000; 1.000000; 1.000000; 1.000000;,
    239; 1.000000; 1.000000; 1.000000; 1.000000;,
    240; 1.000000; 1.000000; 1.000000; 1.000000;,
    241; 1.000000; 1.000000; 1.000000; 1.000000;,
    242; 1.000000; 1.000000; 1.000000; 1.000000;,
    243; 1.000000; 1.000000; 1.000000; 1.000000;,
    244; 1.000000; 1.000000; 1.000000; 1.000000;,
    245; 1.000000; 1.000000; 1.000000; 1.000000;,
    246; 1.000000; 1.000000; 1.000000; 1.000000;,
    247; 1.000000; 1.000000; 1.000000; 1.000000;,
    248; 1.000000; 1.000000; 1.000000; 1.000000;,
    249; 1.000000; 1.000000; 1.000000; 1.000000;,
    250; 1.000000; 1.000000; 1.000000; 1.000000;,
    251; 1.000000; 1.000000; 1.000000; 1.000000;,
    252; 1.000000; 1.000000; 1.000000; 1.000000;,
    253; 1.000000; 1.000000; 1.000000; 1.000000;,
    254; 1.000000; 1.000000; 1.000000; 1.000000;,
    255; 1.000000; 1.000000; 1.000000; 1.000000;,
    256; 1.000000; 1.000000; 1.000000; 1.000000;,
    257; 1.000000; 1.000000; 1.000000; 1.000000;,
    258; 1.000000; 1.000000; 1.000000; 1.000000;,
    259; 1.000000; 1.000000; 1.000000; 1.000000;,
    260; 1.000000; 1.000000; 1.000000; 1.000000;,
    261; 1.000000; 1.000000; 1.000000; 1.000000;,
    262; 1.000000; 1.000000; 1.000000; 1.000000;,
    263; 1.000000; 1.000000; 1.000000; 1.000000;,
    264; 1.000000; 1.000000; 1.000000; 1.000000;,
    265; 1.000000; 1.000000; 1.000000; 1.000000;,
    266; 1.000000; 1.000000; 1.000000; 1.000000;,
    267; 1.000000; 1.000000; 1.000000; 1.000000;,
    268; 1.000000; 1.000000; 1.000000; 1.000000;,
    269; 1.000000; 1.000000; 1.000000; 1.000000;,
    270; 1.000000; 1.000000; 1.000000; 1.000000;,
    271; 1.000000; 1.000000; 1.000000; 1.000000;,
    272; 1.000000; 1.000000; 1.000000; 1.000000;,
    273; 1.000000; 1.000000; 1.000000; 1.000000;,
    274; 1.000000; 1.000000; 1.000000; 1.000000;,
    275; 1.000000; 1.000000; 1.000000; 1.000000;,
    276; 1.000000; 1.000000; 1.000000; 1.000000;,
    277; 1.000000; 1.000000; 1.000000; 1.000000;,
    278; 1.000000; 1.000000; 1.000000; 1.000000;,
    279; 1.000000; 1.000000; 1.000000; 1.000000;,
    280; 1.000000; 1.000000; 1.000000; 1.000000;,
    281; 1.000000; 1.000000; 1.000000; 1.000000;,
    282; 1.000000; 1.000000; 1.000000; 1.000000;,
    283; 1.000000; 1.000000; 1.000000; 1.000000;,
    284; 1.000000; 1.000000; 1.000000; 1.000000;,
    285; 1.000000; 1.000000; 1.000000; 1.000000;,
    286; 1.000000; 1.000000; 1.000000; 1.000000;,
    287; 1.000000; 1.000000; 1.000000; 1.000000;,
    288; 1.000000; 1.000000; 1.000000; 1.000000;,
    289; 1.000000; 1.000000; 1.000000; 1.000000;,
    290; 1.000000; 1.000000; 1.000000; 1.000000;,
    291; 1.000000; 1.000000; 1.000000; 1.000000;,
    292; 1.000000; 1.000000; 1.000000; 1.000000;,
    293; 1.000000; 1.000000; 1.000000; 1.000000;,
    294; 1.000000; 1.000000; 1.000000; 1.000000;,
    295; 1.000000; 1.000000; 1.000000; 1.000000;,
    296; 1.000000; 1.000000; 1.000000; 1.000000;,
    297; 1.000000; 1.000000; 1.000000; 1.000000;,
    298; 1.000000; 1.000000; 1.000000; 1.000000;,
    299; 1.000000; 1.000000; 1.000000; 1.000000;,
    300; 1.000000; 1.000000; 1.000000; 1.000000;,
    301; 1.000000; 1.000000; 1.000000; 1.000000;,
    302; 1.000000; 1.000000; 1.000000; 1.000000;,
    303; 1.000000; 1.000000; 1.000000; 1.000000;,
    304; 1.000000; 1.000000; 1.000000; 1.000000;,
    305; 1.000000; 1.000000; 1.000000; 1.000000;,
    306; 1.000000; 1.000000; 1.000000; 1.000000;,
    307; 1.000000; 1.000000; 1.000000; 1.000000;,
    308; 1.000000; 1.000000; 1.000000; 1.000000;,
    309; 1.000000; 1.000000; 1.000000; 1.000000;,
    310; 1.000000; 1.000000; 1.000000; 1.000000;,
    311; 1.000000; 1.000000; 1.000000; 1.000000;,
    312; 1.000000; 1.000000; 1.000000; 1.000000;,
    313; 1.000000; 1.000000; 1.000000; 1.000000;,
    314; 1.000000; 1.000000; 1.000000; 1.000000;,
    315; 1.000000; 1.000000; 1.000000; 1.000000;,
    316; 1.000000; 1.000000; 1.000000; 1.000000;,
    317; 1.000000; 1.000000; 1.000000; 1.000000;,
    318; 1.000000; 1.000000; 1.000000; 1.000000;,
    319; 1.000000; 1.000000; 1.000000; 1.000000;,
    320; 1.000000; 1.000000; 1.000000; 1.000000;,
    321; 1.000000; 1.000000; 1.000000; 1.000000;,
    322; 1.000000; 1.000000; 1.000000; 1.000000;,
    323; 1.000000; 1.000000; 1.000000; 1.000000;,
    324; 1.000000; 1.000000; 1.000000; 1.000000;,
    325; 1.000000; 1.000000; 1.000000; 1.000000;,
    326; 1.000000; 1.000000; 1.000000; 1.000000;,
    327; 1.000000; 1.000000; 1.000000; 1.000000;,
    328; 1.000000; 1.000000; 1.000000; 1.000000;,
    329; 1.000000; 1.000000; 1.000000; 1.000000;,
    330; 1.000000; 1.000000; 1.000000; 1.000000;,
    331; 1.000000; 1.000000; 1.000000; 1.000000;,
    332; 1.000000; 1.000000; 1.000000; 1.000000;,
    333; 1.000000; 1.000000; 1.000000; 1.000000;,
    334; 1.000000; 1.000000; 1.000000; 1.000000;,
    335; 1.000000; 1.000000; 1.000000; 1.000000;,
    336; 1.000000; 1.000000; 1.000000; 1.000000;,
    337; 1.000000; 1.000000; 1.000000; 1.000000;,
    338; 1.000000; 1.000000; 1.000000; 1.000000;,
    339; 1.000000; 1.000000; 1.000000; 1.000000;,
    340; 1.000000; 1.000000; 1.000000; 1.000000;,
    341; 1.000000; 1.000000; 1.000000; 1.000000;,
    342; 1.000000; 1.000000; 1.000000; 1.000000;,
    343; 1.000000; 1.000000; 1.000000; 1.000000;,
    344; 1.000000; 1.000000; 1.000000; 1.000000;,
    345; 1.000000; 1.000000; 1.000000; 1.000000;,
    346; 1.000000; 1.000000; 1.000000; 1.000000;,
    347; 1.000000; 1.000000; 1.000000; 1.000000;,
    348; 1.000000; 1.000000; 1.000000; 1.000000;,
    349; 1.000000; 1.000000; 1.000000; 1.000000;,
    350; 1.000000; 1.000000; 1.000000; 1.000000;,
    351; 1.000000; 1.000000; 1.000000; 1.000000;,
    352; 1.000000; 1.000000; 1.000000; 1.000000;,
    353; 1.000000; 1.000000; 1.000000; 1.000000;,
    354; 1.000000; 1.000000; 1.000000; 1.000000;,
    355; 1.000000; 1.000000; 1.000000; 1.000000;,
    356; 1.000000; 1.000000; 1.000000; 1.000000;,
    357; 1.000000; 1.000000; 1.000000; 1.000000;,
    358; 1.000000; 1.000000; 1.000000; 1.000000;,
    359; 1.000000; 1.000000; 1.000000; 1.000000;,
    360; 1.000000; 1.000000; 1.000000; 1.000000;,
    361; 1.000000; 1.000000; 1.000000; 1.000000;,
    362; 1.000000; 1.000000; 1.000000; 1.000000;,
    363; 1.000000; 1.000000; 1.000000; 1.000000;,
    364; 1.000000; 1.000000; 1.000000; 1.000000;,
    365; 1.000000; 1.000000; 1.000000; 1.000000;,
    366; 1.000000; 1.000000; 1.000000; 1.000000;,
    367; 1.000000; 1.000000; 1.000000; 1.000000;,
    368; 1.000000; 1.000000; 1.000000; 1.000000;,
    369; 1.000000; 1.000000; 1.000000; 1.000000;,
    370; 1.000000; 1.000000; 1.000000; 1.000000;,
    371; 1.000000; 1.000000; 1.000000; 1.000000;,
    372; 1.000000; 1.000000; 1.000000; 1.000000;,
    373; 1.000000; 1.000000; 1.000000; 1.000000;,
    374; 1.000000; 1.000000; 1.000000; 1.000000;,
    375; 1.000000; 1.000000; 1.000000; 1.000000;,
    376; 1.000000; 1.000000; 1.000000; 1.000000;,
    377; 1.000000; 1.000000; 1.000000; 1.000000;,
    378; 1.000000; 1.000000; 1.000000; 1.000000;,
    379; 1.000000; 1.000000; 1.000000; 1.000000;,
    380; 1.000000; 1.000000; 1.000000; 1.000000;,
    381; 1.000000; 1.000000; 1.000000; 1.000000;,
    382; 1.000000; 1.000000; 1.000000; 1.000000;;
   }

   MeshMaterialList {
    1;
    312;
    0,
    0,
    0,
    0,
    0,
    0,
    0,
    0,
    0,
    0,
    0,
    0,
    0,
    0,
    0,
    0,
    0,
    0,
    0,
    0,
    0,
    0,
    0,
    0,
    0,
    0,
    0,
    0,
    0,
    0,
    0,
    0,
    0,
    0,
    0,
    0,
    0,
    0,
    0,
    0,
    0,
    0,
    0,
    0,
    0,
    0,
    0,
    0,
    0,
    0,
    0,
    0,
    0,
    0,
    0,
    0,
    0,
    0,
    0,
    0,
    0,
    0,
    0,
    0,
    0,
    0,
    0,
    0,
    0,
    0,
    0,
    0,
    0,
    0,
    0,
    0,
    0,
    0,
    0,
    0,
    0,
    0,
    0,
    0,
    0,
    0,
    0,
    0,
    0,
    0,
    0,
    0,
    0,
    0,
    0,
    0,
    0,
    0,
    0,
    0,
    0,
    0,
    0,
    0,
    0,
    0,
    0,
    0,
    0,
    0,
    0,
    0,
    0,
    0,
    0,
    0,
    0,
    0,
    0,
    0,
    0,
    0,
    0,
    0,
    0,
    0,
    0,
    0,
    0,
    0,
    0,
    0,
    0,
    0,
    0,
    0,
    0,
    0,
    0,
    0,
    0,
    0,
    0,
    0,
    0,
    0,
    0,
    0,
    0,
    0,
    0,
    0,
    0,
    0,
    0,
    0,
    0,
    0,
    0,
    0,
    0,
    0,
    0,
    0,
    0,
    0,
    0,
    0,
    0,
    0,
    0,
    0,
    0,
    0,
    0,
    0,
    0,
    0,
    0,
    0,
    0,
    0,
    0,
    0,
    0,
    0,
    0,
    0,
    0,
    0,
    0,
    0,
    0,
    0,
    0,
    0,
    0,
    0,
    0,
    0,
    0,
    0,
    0,
    0,
    0,
    0,
    0,
    0,
    0,
    0,
    0,
    0,
    0,
    0,
    0,
    0,
    0,
    0,
    0,
    0,
    0,
    0,
    0,
    0,
    0,
    0,
    0,
    0,
    0,
    0,
    0,
    0,
    0,
    0,
    0,
    0,
    0,
    0,
    0,
    0,
    0,
    0,
    0,
    0,
    0,
    0,
    0,
    0,
    0,
    0,
    0,
    0,
    0,
    0,
    0,
    0,
    0,
    0,
    0,
    0,
    0,
    0,
    0,
    0,
    0,
    0,
    0,
    0,
    0,
    0,
    0,
    0,
    0,
    0,
    0,
    0,
    0,
    0,
    0,
    0,
    0,
    0,
    0,
    0,
    0,
    0,
    0,
    0,
    0,
    0,
    0,
    0,
    0,
    0,
    0,
    0,
    0,
    0,
    0,
    0,
    0,
    0,
    0,
    0,
    0,
    0,
    0,
    0,
    0,
    0,
    0,
    0;

    Material hm2_a {
     1.000000; 1.000000; 1.000000; 1.000000;;
     128.000000;
     0.000000; 0.000000; 0.000000;;
     0.000000; 0.000000; 0.000000;;

     TextureFilename {
      "hm2_a.jpg";
     }
    }

   }
  }
}
