xof 0303txt 0032

// DirectX 8.0 file
// Creator: Ultimate Unwrap3D Pro v3.44
// Website: http://www.unwrap3d.com
// Time: Fri May 10 23:09:13 2013

// Start of Templates

template VertexDuplicationIndices {
 <b8d65549-d7c9-4995-89cf-53a9a8b031e3>
 DWORD nIndices;
 DWORD nOriginalVertices;
 array DWORD indices[nIndices];
}

template FVFData {
 <b6e70a0e-8ef9-4e83-94ad-ecc8b0c04897>
 DWORD dwFVF;
 DWORD nDWords;
 array DWORD data[nDWords];
}

template Header {
 <3D82AB43-62DA-11cf-AB39-0020AF71E433>
 WORD major;
 WORD minor;
 DWORD flags;
}

template Vector {
 <3D82AB5E-62DA-11cf-AB39-0020AF71E433>
 FLOAT x;
 FLOAT y;
 FLOAT z;
}

template Coords2d {
 <F6F23F44-7686-11cf-8F52-0040333594A3>
 FLOAT u;
 FLOAT v;
}

template Matrix4x4 {
 <F6F23F45-7686-11cf-8F52-0040333594A3>
 array FLOAT matrix[16];
}

template ColorRGBA {
 <35FF44E0-6C7C-11cf-8F52-0040333594A3>
 FLOAT red;
 FLOAT green;
 FLOAT blue;
 FLOAT alpha;
}

template ColorRGB {
 <D3E16E81-7835-11cf-8F52-0040333594A3>
 FLOAT red;
 FLOAT green;
 FLOAT blue;
}

template IndexedColor {
 <1630B820-7842-11cf-8F52-0040333594A3>
 DWORD index;
 ColorRGBA indexColor;
}

template Material {
 <3D82AB4D-62DA-11cf-AB39-0020AF71E433>
 ColorRGBA faceColor;
 FLOAT power;
 ColorRGB specularColor;
 ColorRGB emissiveColor;
 [...]
}

template TextureFilename {
 <A42790E1-7810-11cf-8F52-0040333594A3>
 STRING filename;
}

template MeshFace {
 <3D82AB5F-62DA-11cf-AB39-0020AF71E433>
 DWORD nFaceVertexIndices;
 array DWORD faceVertexIndices[nFaceVertexIndices];
}

template MeshTextureCoords {
 <F6F23F40-7686-11cf-8F52-0040333594A3>
 DWORD nTextureCoords;
 array Coords2d textureCoords[nTextureCoords];
}

template MeshMaterialList {
 <F6F23F42-7686-11cf-8F52-0040333594A3>
 DWORD nMaterials;
 DWORD nFaceIndexes;
 array DWORD faceIndexes[nFaceIndexes];
 [Material]
}

template MeshNormals {
 <F6F23F43-7686-11cf-8F52-0040333594A3>
 DWORD nNormals;
 array Vector normals[nNormals];
 DWORD nFaceNormals;
 array MeshFace faceNormals[nFaceNormals];
}

template MeshVertexColors {
 <1630B821-7842-11cf-8F52-0040333594A3>
 DWORD nVertexColors;
 array IndexedColor vertexColors[nVertexColors];
}

template Mesh {
 <3D82AB44-62DA-11cf-AB39-0020AF71E433>
 DWORD nVertices;
 array Vector vertices[nVertices];
 DWORD nFaces;
 array MeshFace faces[nFaces];
 [...]
}

template FrameTransformMatrix {
 <F6F23F41-7686-11cf-8F52-0040333594A3>
 Matrix4x4 frameMatrix;
}

template Frame {
 <3D82AB46-62DA-11cf-AB39-0020AF71E433>
 [...]
}

template FloatKeys {
 <10DD46A9-775B-11cf-8F52-0040333594A3>
 DWORD nValues;
 array FLOAT values[nValues];
}

template TimedFloatKeys {
 <F406B180-7B3B-11cf-8F52-0040333594A3>
 DWORD time;
 FloatKeys tfkeys;
}

template AnimationKey {
 <10DD46A8-775B-11cf-8F52-0040333594A3>
 DWORD keyType;
 DWORD nKeys;
 array TimedFloatKeys keys[nKeys];
}

template AnimationOptions {
 <E2BF56C0-840F-11cf-8F52-0040333594A3>
 DWORD openclosed;
 DWORD positionquality;
}

template Animation {
 <3D82AB4F-62DA-11cf-AB39-0020AF71E433>
 [...]
}

template AnimationSet {
 <3D82AB50-62DA-11cf-AB39-0020AF71E433>
 [Animation]
}

template XSkinMeshHeader {
 <3CF169CE-FF7C-44ab-93C0-F78F62D172E2>
 WORD nMaxSkinWeightsPerVertex;
 WORD nMaxSkinWeightsPerFace;
 WORD nBones;
}

template SkinWeights {
 <6F0D123B-BAD2-4167-A0D0-80224F25FABB>
 STRING transformNodeName;
 DWORD nWeights;
 array DWORD vertexIndices[nWeights];
 array FLOAT weights[nWeights];
 Matrix4x4 matrixOffset;
}

template AnimTicksPerSecond {
 <9E415A43-7BA6-4a73-8743-B73D47E88476>
 DWORD AnimTicksPerSecond;
}

AnimTicksPerSecond {
 4800;
}

// Start of Frames

Frame Body {
   FrameTransformMatrix {
    1.000000, 0.000000, 0.000000, 0.000000,
    0.000000, 1.000000, 0.000000, 0.000000,
    0.000000, 0.000000, 1.000000, 0.000000,
    0.000000, 0.000000, 0.000000, 1.000000;;
   }

   Mesh staticMesh {
    306;
    -2.417174; -1.507858; -2.106772;,
    -2.967050; -1.496791; -2.106766;,
    -2.417174; -1.505022; -9.999999;,
    -2.966742; -1.493912; -9.999993;,
    -2.417174; -1.436658; -1.584447;,
    -2.974225; -1.426588; -1.584442;,
    -2.417174; -0.667894; -1.584447;,
    -3.051276; -0.668533; -1.584448;,
    -2.417174; -1.436658; -1.584447;,
    -2.974225; -1.426588; -1.584442;,
    -2.417174; -0.441131; -9.826362;,
    -3.073385; -0.444844; -9.826364;,
    -2.417174; -0.441089; -2.158339;,
    -3.073964; -0.444882; -2.158341;,
    -2.417174; -1.507858; -2.106772;,
    -2.417174; -1.505022; -9.999999;,
    -2.417174; -1.436658; -1.584447;,
    -2.417174; -0.441131; -9.826362;,
    -2.417174; -0.667894; -1.584447;,
    -2.417174; -0.441089; -2.158339;,
    -3.073964; -0.444882; -2.158341;,
    -3.073385; -0.444844; -9.826364;,
    -3.051276; -0.668533; -1.584448;,
    -2.966742; -1.493912; -9.999993;,
    -2.974225; -1.426588; -1.584442;,
    -2.967050; -1.496791; -2.106766;,
    -2.417174; -1.505022; -9.999999;,
    -2.966742; -1.493912; -9.999993;,
    -2.417174; -0.441131; -9.826362;,
    -3.073385; -0.444844; -9.826364;,
    -2.417174; -0.667894; -1.584447;,
    -3.051276; -0.668533; -1.584448;,
    -2.374152; 1.507858; -1.170692;,
    0.000000; 1.504122; -1.611925;,
    -1.832165; 1.121025; -3.248437;,
    -2.075330; 1.121025; -2.297622;,
    0.000000; 1.121641; -4.296645;,
    -1.620108; 1.121025; -4.077616;,
    -2.054087; 0.562257; -2.305816;,
    -1.738560; 0.562257; -3.539579;,
    -2.127842; 0.030169; -1.170692;,
    0.000000; -0.117026; -1.561449;,
    -1.527403; 0.562257; -4.365239;,
    0.000000; 0.562257; -4.559912;,
    -1.738560; 0.562257; -3.539579;,
    -2.054087; 0.562257; -2.305816;,
    -2.075330; 1.121025; -2.297622;,
    -1.832165; 1.121025; -3.248437;,
    -1.527403; 0.562257; -4.365239;,
    -1.620108; 1.121025; -4.077616;,
    0.000000; 0.562257; -4.559912;,
    0.000000; 1.121641; -4.296645;,
    -2.127842; 0.030169; -1.170692;,
    -2.374152; 1.507858; -1.170692;,
    -2.534713; -0.441085; -5.717812;,
    -2.528456; -0.441866; -4.467638;,
    -2.528456; -0.441866; -4.467638;,
    -1.738560; 0.562257; -3.539579;,
    -2.962032; -0.439783; -4.616875;,
    -1.832165; 1.121025; -3.248437;,
    -2.962032; -0.439783; -4.616875;,
    -2.950093; -0.439416; -6.214002;,
    -2.950093; -0.439416; -6.214002;,
    -2.534713; -0.441085; -5.717812;,
    -1.153769; -0.017548; 7.843328;,
    -2.155090; 0.030013; 7.247816;,
    0.000000; -0.120248; 7.745494;,
    -2.154821; 0.029964; 7.246664;,
    -1.208523; -0.024071; 7.847429;,
    -2.278774; 0.052742; 7.778440;,
    -2.984288; 0.158495; 7.999102;,
    -2.278928; 0.052770; 7.779098;,
    -2.335009; 1.432023; 7.806756;,
    -2.396152; 1.505331; 7.229719;,
    -2.364737; 0.771335; 7.780596;,
    0.000000; 1.439850; 7.789284;,
    -2.396152; 1.505331; 7.229719;,
    0.000000; 1.439850; 7.789284;,
    -2.335009; 1.432023; 7.806756;,
    -2.154821; 0.029964; 7.246664;,
    -2.278928; 0.052770; 7.779098;,
    -3.062871; 1.403341; 8.041086;,
    -2.335009; 1.432023; 7.806756;,
    -2.364737; 0.771335; 7.780596;,
    -3.143737; 0.771531; 8.029737;,
    -3.062871; 1.403341; 8.041086;,
    -2.278928; 0.052770; 7.779098;,
    -2.984288; 0.158495; 7.999102;,
    -1.153769; -0.017548; 7.843328;,
    0.000000; -0.120248; 7.745494;,
    0.000000; 0.303684; 9.666661;,
    -0.886910; 0.316238; 9.632727;,
    -1.153769; -0.017548; 7.843328;,
    -2.713660; 0.777555; 8.679048;,
    -2.677054; 1.335206; 8.652590;,
    -3.143737; 0.771531; 8.029737;,
    -3.062871; 1.403341; 8.041086;,
    -1.944977; 1.262000; 9.301824;,
    -2.677054; 1.335206; 8.652590;,
    -1.955574; 0.771435; 9.381127;,
    -2.713660; 0.777555; 8.679048;,
    -0.919564; 1.205531; 9.807122;,
    -0.878341; 0.771435; 9.918758;,
    0.000000; 1.197839; 9.883574;,
    0.000000; 0.771435; 9.999999;,
    -1.889843; 0.122674; 9.261002;,
    -2.576182; 0.150938; 8.582414;,
    -1.208523; -0.024071; 7.847429;,
    -2.984288; 0.158495; 7.999102;,
    -2.979128; 0.157692; 7.998653;,
    -2.576182; 0.150938; 8.582414;,
    -2.984288; 0.158495; 7.999102;,
    0.000000; 0.303684; 9.666661;,
    -0.886910; 0.316238; 9.632727;,
    -1.889843; 0.122674; 9.261002;,
    -2.576182; 0.150938; 8.582414;,
    0.000000; 1.439850; 7.789284;,
    -3.062871; 1.403341; 8.041086;,
    0.000000; 1.197839; 9.883574;,
    -2.677054; 1.335206; 8.652590;,
    -0.919564; 1.205531; 9.807122;,
    -1.944977; 1.262000; 9.301824;,
    0.000000; 1.507653; 1.698100;,
    -3.483881; 1.507653; -0.857780;,
    -3.483881; 1.455867; 1.723248;,
    0.000000; 1.504123; -1.611907;,
    -2.374151; 1.507858; -1.170693;,
    0.000000; 1.507653; 1.698100;,
    -3.483881; 1.455516; 1.723419;,
    -3.483881; 1.507653; 6.562910;,
    0.000000; 1.503492; 7.202710;,
    0.000000; 1.439741; 7.786786;,
    -3.314836; 0.030169; -0.851240;,
    -2.127841; 0.030169; -1.170693;,
    -3.314836; -0.017400; 1.721101;,
    -2.136183; 0.029964; 1.698100;,
    -3.314836; -0.017379; 1.721091;,
    -2.141093; 0.029964; 1.698100;,
    -3.314836; 0.029964; 6.632090;,
    -0.832407; -0.602534; 6.336486;,
    0.000000; -0.602534; 6.605618;,
    0.000000; -0.120685; 7.746830;,
    0.000000; -0.602534; 1.694470;,
    -0.831901; -0.602534; 1.694471;,
    0.000000; -0.602534; -0.860054;,
    -0.831706; -0.602534; -0.862082;,
    -0.832053; -0.602534; 1.694511;,
    0.000000; -0.602534; 1.694508;,
    -0.831901; -0.602534; 1.694471;,
    -0.832053; -0.602534; 1.694511;,
    -3.314836; 0.029964; 6.632090;,
    -2.154821; 0.029964; 7.246664;,
    -3.483881; 1.507653; 6.562910;,
    -2.396152; 1.505331; 7.229719;,
    -3.314836; -0.017400; 1.721101;,
    -3.483881; 1.455867; 1.723248;,
    -3.314836; 0.030169; -0.851240;,
    -3.483881; 1.507653; -0.857780;,
    -3.483881; 1.507653; 6.562910;,
    -3.483881; 1.455516; 1.723419;,
    -3.314836; 0.029964; 6.632090;,
    -3.314836; -0.017379; 1.721091;,
    -3.483881; 1.507653; -0.857780;,
    -2.374151; 1.507858; -1.170693;,
    -3.314836; 0.030169; -0.851240;,
    -2.127841; 0.030169; -1.170693;,
    2.967050; -1.496791; -2.106766;,
    2.417174; -1.507858; -2.106772;,
    2.966742; -1.493912; -9.999993;,
    2.417174; -1.505022; -9.999999;,
    2.974225; -1.426588; -1.584442;,
    2.417174; -1.436658; -1.584447;,
    3.051276; -0.668533; -1.584448;,
    2.417174; -0.667894; -1.584447;,
    2.974225; -1.426588; -1.584442;,
    2.417174; -1.436658; -1.584447;,
    3.073385; -0.444844; -9.826364;,
    2.417174; -0.441131; -9.826362;,
    3.073964; -0.444882; -2.158341;,
    2.417174; -0.441089; -2.158339;,
    2.417174; -1.505022; -9.999999;,
    2.417174; -1.507858; -2.106772;,
    2.417174; -0.441131; -9.826362;,
    2.417174; -1.436658; -1.584447;,
    2.417174; -0.441089; -2.158339;,
    2.417174; -0.667894; -1.584447;,
    3.073385; -0.444844; -9.826364;,
    3.073964; -0.444882; -2.158341;,
    2.966742; -1.493912; -9.999993;,
    3.051276; -0.668533; -1.584448;,
    2.967050; -1.496791; -2.106766;,
    2.974225; -1.426588; -1.584442;,
    2.966742; -1.493912; -9.999993;,
    2.417174; -1.505022; -9.999999;,
    3.073385; -0.444844; -9.826364;,
    2.417174; -0.441131; -9.826362;,
    3.051276; -0.668533; -1.584448;,
    2.417174; -0.667894; -1.584447;,
    1.832165; 1.121025; -3.248437;,
    2.374152; 1.507858; -1.170692;,
    2.075330; 1.121025; -2.297622;,
    1.620108; 1.121025; -4.077616;,
    2.127843; 0.030169; -1.170692;,
    1.738560; 0.562257; -3.539579;,
    2.054087; 0.562257; -2.305816;,
    1.527403; 0.562257; -4.365239;,
    2.075330; 1.121025; -2.297622;,
    2.054087; 0.562257; -2.305816;,
    1.738560; 0.562257; -3.539579;,
    1.832165; 1.121025; -3.248437;,
    1.620108; 1.121025; -4.077616;,
    1.527403; 0.562257; -4.365239;,
    2.374152; 1.507858; -1.170692;,
    2.127843; 0.030169; -1.170692;,
    2.534713; -0.441085; -5.717812;,
    2.528456; -0.441866; -4.467638;,
    1.738560; 0.562257; -3.539579;,
    2.528456; -0.441866; -4.467638;,
    1.832165; 1.121025; -3.248437;,
    2.962032; -0.439783; -4.616875;,
    2.962032; -0.439783; -4.616875;,
    2.950093; -0.439416; -6.214002;,
    2.950093; -0.439416; -6.214002;,
    2.534713; -0.441085; -5.717812;,
    2.364737; 0.771335; 7.780596;,
    2.154821; 0.029964; 7.246664;,
    2.396152; 1.505331; 7.229719;,
    2.278927; 0.052770; 7.779098;,
    2.335009; 1.432023; 7.806756;,
    2.154821; 0.029964; 7.246664;,
    2.278927; 0.052770; 7.779098;,
    2.396152; 1.505331; 7.229719;,
    2.335009; 1.432023; 7.806756;,
    3.062871; 1.403341; 8.041086;,
    2.335009; 1.432023; 7.806756;,
    3.143737; 0.771531; 8.029737;,
    2.364737; 0.771335; 7.780596;,
    2.335009; 1.432023; 7.806756;,
    3.062871; 1.403341; 8.041086;,
    2.278927; 0.052770; 7.779098;,
    2.984288; 0.158495; 7.999102;,
    2.984288; 0.158495; 7.999102;,
    2.278774; 0.052742; 7.778440;,
    1.208523; -0.024071; 7.847429;,
    2.155090; 0.030013; 7.247816;,
    1.153769; -0.017548; 7.843328;,
    2.677054; 1.335206; 8.652590;,
    2.713660; 0.777555; 8.679048;,
    3.062871; 1.403341; 8.041086;,
    3.143737; 0.771531; 8.029737;,
    2.677054; 1.335206; 8.652590;,
    1.944977; 1.262000; 9.301824;,
    2.713660; 0.777555; 8.679048;,
    1.955574; 0.771435; 9.381127;,
    0.919564; 1.205531; 9.807122;,
    0.878341; 0.771435; 9.918758;,
    2.576182; 0.150938; 8.582414;,
    2.984288; 0.158495; 7.999102;,
    0.886910; 0.316238; 9.632727;,
    1.889843; 0.122674; 9.261002;,
    2.576182; 0.150938; 8.582414;,
    2.677054; 1.335206; 8.652590;,
    1.944977; 1.262000; 9.301824;,
    0.919564; 1.205531; 9.807122;,
    2.576182; 0.150938; 8.582414;,
    1.889843; 0.122674; 9.261002;,
    2.984288; 0.158495; 7.999102;,
    1.208523; -0.024071; 7.847429;,
    2.979128; 0.157692; 7.998653;,
    0.886910; 0.316238; 9.632727;,
    1.153769; -0.017548; 7.843328;,
    1.153769; -0.017548; 7.843328;,
    3.483881; 1.507653; -0.857780;,
    2.374151; 1.507858; -1.170693;,
    3.483881; 1.455867; 1.723248;,
    3.483881; 1.455516; 1.723419;,
    3.483881; 1.507653; 6.562910;,
    2.127841; 0.030169; -1.170693;,
    3.314836; 0.030169; -0.851240;,
    2.136183; 0.029964; 1.698100;,
    3.314836; -0.017400; 1.721101;,
    2.141093; 0.029964; 1.698100;,
    3.314836; -0.017379; 1.721091;,
    3.314836; 0.029964; 6.632090;,
    0.832408; -0.602534; 6.336486;,
    0.831901; -0.602534; 1.694471;,
    0.831706; -0.602534; -0.862082;,
    0.832053; -0.602534; 1.694511;,
    0.831901; -0.602534; 1.694471;,
    0.832053; -0.602534; 1.694511;,
    2.154821; 0.029964; 7.246664;,
    3.314836; 0.029964; 6.632090;,
    2.396152; 1.505331; 7.229719;,
    3.483881; 1.507653; 6.562910;,
    3.483881; 1.455867; 1.723248;,
    3.314836; -0.017400; 1.721101;,
    3.483881; 1.507653; -0.857780;,
    3.314836; 0.030169; -0.851240;,
    3.483881; 1.455516; 1.723419;,
    3.483881; 1.507653; 6.562910;,
    3.314836; -0.017379; 1.721091;,
    3.314836; 0.029964; 6.632090;,
    2.374151; 1.507858; -1.170693;,
    3.483881; 1.507653; -0.857780;,
    2.127841; 0.030169; -1.170693;,
    3.314836; 0.030169; -0.851240;;
    232;
    3;0, 1, 2;,
    3;1, 3, 2;,
    3;4, 5, 0;,
    3;5, 1, 0;,
    3;6, 7, 8;,
    3;7, 9, 8;,
    3;10, 11, 12;,
    3;11, 13, 12;,
    3;14, 15, 16;,
    3;15, 17, 16;,
    3;16, 17, 18;,
    3;17, 19, 18;,
    3;20, 21, 22;,
    3;21, 23, 22;,
    3;22, 23, 24;,
    3;23, 25, 24;,
    3;26, 27, 28;,
    3;27, 29, 28;,
    3;12, 13, 30;,
    3;13, 31, 30;,
    3;32, 33, 34;,
    3;32, 34, 35;,
    3;33, 36, 37;,
    3;33, 37, 34;,
    3;38, 39, 40;,
    3;40, 39, 41;,
    3;42, 41, 39;,
    3;42, 43, 41;,
    3;44, 45, 46;,
    3;44, 46, 47;,
    3;48, 49, 50;,
    3;49, 51, 50;,
    3;52, 53, 45;,
    3;53, 46, 45;,
    3;54, 42, 55;,
    3;42, 39, 55;,
    3;56, 57, 58;,
    3;57, 59, 58;,
    3;60, 34, 61;,
    3;34, 37, 61;,
    3;62, 49, 48;,
    3;48, 63, 62;,
    3;64, 65, 66;,
    3;65, 67, 66;,
    3;65, 64, 68;,
    3;69, 65, 68;,
    3;70, 71, 68;,
    3;71, 69, 68;,
    3;72, 73, 74;,
    3;75, 76, 77;,
    3;76, 78, 77;,
    3;79, 80, 73;,
    3;80, 74, 73;,
    3;77, 78, 81;,
    3;82, 83, 84;,
    3;85, 82, 84;,
    3;84, 83, 86;,
    3;84, 86, 87;,
    3;88, 89, 90;,
    3;91, 92, 90;,
    3;93, 94, 95;,
    3;94, 96, 95;,
    3;97, 98, 99;,
    3;98, 100, 99;,
    3;101, 97, 102;,
    3;97, 99, 102;,
    3;103, 101, 104;,
    3;101, 102, 104;,
    3;105, 106, 107;,
    3;106, 108, 107;,
    3;107, 108, 109;,
    3;91, 105, 92;,
    3;105, 107, 92;,
    3;110, 93, 111;,
    3;93, 95, 111;,
    3;104, 102, 112;,
    3;102, 113, 112;,
    3;102, 99, 113;,
    3;99, 114, 113;,
    3;99, 100, 114;,
    3;100, 115, 114;,
    3;116, 117, 118;,
    3;117, 119, 118;,
    3;118, 119, 120;,
    3;119, 121, 120;,
    3;122, 123, 124;,
    3;125, 123, 122;,
    3;125, 126, 123;,
    3;127, 128, 129;,
    3;127, 129, 130;,
    3;130, 76, 131;,
    3;130, 129, 76;,
    3;132, 133, 134;,
    3;133, 135, 134;,
    3;136, 137, 138;,
    3;137, 67, 138;,
    3;139, 140, 67;,
    3;140, 141, 67;,
    3;142, 143, 144;,
    3;143, 145, 144;,
    3;139, 146, 140;,
    3;146, 147, 140;,
    3;148, 135, 145;,
    3;135, 133, 145;,
    3;139, 67, 149;,
    3;67, 137, 149;,
    3;145, 133, 41;,
    3;41, 144, 145;,
    3;150, 151, 152;,
    3;151, 153, 152;,
    3;154, 155, 156;,
    3;155, 157, 156;,
    3;158, 159, 160;,
    3;159, 161, 160;,
    3;162, 163, 164;,
    3;163, 165, 164;,
    3;166, 167, 168;,
    3;167, 169, 168;,
    3;170, 171, 166;,
    3;171, 167, 166;,
    3;172, 173, 174;,
    3;173, 175, 174;,
    3;176, 177, 178;,
    3;177, 179, 178;,
    3;180, 181, 182;,
    3;181, 183, 182;,
    3;182, 183, 184;,
    3;183, 185, 184;,
    3;186, 187, 188;,
    3;187, 189, 188;,
    3;188, 189, 190;,
    3;189, 191, 190;,
    3;192, 193, 194;,
    3;193, 195, 194;,
    3;178, 179, 196;,
    3;179, 197, 196;,
    3;198, 33, 199;,
    3;200, 198, 199;,
    3;201, 36, 33;,
    3;198, 201, 33;,
    3;202, 203, 204;,
    3;41, 203, 202;,
    3;203, 41, 205;,
    3;41, 43, 205;,
    3;206, 207, 208;,
    3;209, 206, 208;,
    3;210, 211, 51;,
    3;211, 50, 51;,
    3;212, 213, 206;,
    3;213, 207, 206;,
    3;205, 214, 203;,
    3;214, 215, 203;,
    3;216, 217, 218;,
    3;217, 219, 218;,
    3;198, 220, 201;,
    3;220, 221, 201;,
    3;211, 210, 222;,
    3;222, 223, 211;,
    3;224, 225, 226;,
    3;224, 227, 225;,
    3;224, 226, 228;,
    3;66, 229, 230;,
    3;231, 75, 232;,
    3;75, 77, 232;,
    3;233, 234, 116;,
    3;235, 236, 237;,
    3;235, 237, 238;,
    3;239, 236, 235;,
    3;240, 239, 235;,
    3;230, 241, 242;,
    3;241, 243, 242;,
    3;244, 245, 229;,
    3;245, 66, 229;,
    3;243, 244, 242;,
    3;246, 247, 248;,
    3;247, 249, 248;,
    3;250, 251, 252;,
    3;251, 253, 252;,
    3;251, 254, 253;,
    3;254, 255, 253;,
    3;254, 103, 255;,
    3;103, 104, 255;,
    3;247, 256, 249;,
    3;256, 257, 249;,
    3;255, 104, 258;,
    3;104, 112, 258;,
    3;253, 255, 259;,
    3;255, 258, 259;,
    3;252, 253, 260;,
    3;253, 259, 260;,
    3;233, 116, 261;,
    3;116, 118, 261;,
    3;261, 118, 262;,
    3;118, 263, 262;,
    3;264, 265, 266;,
    3;265, 267, 266;,
    3;266, 267, 268;,
    3;265, 269, 267;,
    3;269, 270, 267;,
    3;90, 270, 269;,
    3;90, 89, 271;,
    3;125, 272, 273;,
    3;122, 272, 125;,
    3;122, 274, 272;,
    3;275, 127, 276;,
    3;127, 130, 276;,
    3;131, 231, 130;,
    3;277, 278, 279;,
    3;278, 280, 279;,
    3;130, 231, 276;,
    3;281, 282, 229;,
    3;282, 283, 229;,
    3;140, 284, 141;,
    3;284, 229, 141;,
    3;285, 142, 286;,
    3;142, 144, 286;,
    3;287, 284, 147;,
    3;284, 140, 147;,
    3;279, 288, 277;,
    3;288, 286, 277;,
    3;229, 284, 281;,
    3;284, 289, 281;,
    3;41, 277, 286;,
    3;286, 144, 41;,
    3;290, 291, 292;,
    3;291, 293, 292;,
    3;294, 295, 296;,
    3;295, 297, 296;,
    3;298, 299, 300;,
    3;299, 301, 300;,
    3;302, 303, 304;,
    3;303, 305, 304;;

   MeshNormals {
    306;
    0.434303; -0.898776; 0.059856;,
    -0.442027; -0.895208; 0.056704;,
    0.605128; -0.514658; -0.607411;,
    -0.596546; -0.552681; -0.581959;,
    0.546444; -0.551378; 0.630382;,
    -0.541221; -0.583593; 0.605392;,
    0.515975; 0.483319; 0.707229;,
    -0.530980; 0.440891; 0.723654;,
    0.546444; -0.551378; 0.630382;,
    -0.541221; -0.583593; 0.605392;,
    0.547324; 0.638371; -0.541220;,
    -0.566694; 0.603768; -0.560645;,
    0.449469; 0.877904; 0.165111;,
    -0.474476; 0.863435; 0.171325;,
    0.434303; -0.898776; 0.059856;,
    0.605128; -0.514658; -0.607411;,
    0.546444; -0.551378; 0.630382;,
    0.547324; 0.638371; -0.541220;,
    0.515975; 0.483319; 0.707229;,
    0.449469; 0.877904; 0.165111;,
    -0.474476; 0.863435; 0.171325;,
    -0.566694; 0.603768; -0.560645;,
    -0.530980; 0.440891; 0.723654;,
    -0.596546; -0.552681; -0.581959;,
    -0.541221; -0.583593; 0.605392;,
    -0.442027; -0.895208; 0.056704;,
    0.605128; -0.514658; -0.607411;,
    -0.596546; -0.552681; -0.581959;,
    0.547324; 0.638371; -0.541220;,
    -0.566694; 0.603768; -0.560645;,
    0.515975; 0.483319; 0.707229;,
    -0.530980; 0.440891; 0.723654;,
    -0.888038; 0.357804; -0.288730;,
    0.000000; 0.992031; -0.125998;,
    -0.834780; 0.549919; -0.027028;,
    -0.969572; -0.063615; -0.236395;,
    -0.001993; 0.810733; -0.585412;,
    -0.109964; 0.871291; -0.478288;,
    -0.954991; -0.188936; -0.228680;,
    -0.636053; -0.771479; -0.016019;,
    -0.770589; -0.582025; -0.259689;,
    -0.000000; -0.926556; -0.376156;,
    0.452841; -0.529804; -0.717107;,
    -0.002847; -0.434190; -0.900817;,
    -0.636053; -0.771479; -0.016019;,
    -0.954991; -0.188936; -0.228680;,
    -0.969572; -0.063615; -0.236395;,
    -0.834780; 0.549919; -0.027028;,
    0.452841; -0.529804; -0.717107;,
    -0.109964; 0.871291; -0.478288;,
    -0.002847; -0.434190; -0.900817;,
    -0.001993; 0.810733; -0.585412;,
    -0.770589; -0.582025; -0.259689;,
    -0.888038; 0.357804; -0.288730;,
    0.845793; -0.437470; -0.305376;,
    0.153171; -0.789141; 0.594807;,
    0.153171; -0.789141; 0.594807;,
    -0.636053; -0.771479; -0.016019;,
    -0.848989; 0.159161; 0.503871;,
    -0.834780; 0.549919; -0.027028;,
    -0.848989; 0.159161; 0.503871;,
    0.306829; 0.598770; -0.739818;,
    0.306829; 0.598770; -0.739818;,
    0.845793; -0.437470; -0.305376;,
    0.014625; -0.997318; 0.071717;,
    -0.013518; -0.997923; -0.062981;,
    0.019072; -0.993811; 0.109435;,
    -0.438176; -0.868071; 0.233354;,
    0.069822; -0.997555; -0.002902;,
    0.967714; -0.102686; 0.230185;,
    -0.910669; -0.255419; -0.324720;,
    -0.530739; 0.300387; -0.792517;,
    -0.521061; 0.690476; -0.501736;,
    -0.626843; 0.734392; 0.260261;,
    -0.787066; -0.017730; -0.616614;,
    -0.000827; 0.993022; 0.117923;,
    -0.626843; 0.734392; 0.260261;,
    -0.000827; 0.993022; 0.117923;,
    -0.521061; 0.690476; -0.501736;,
    -0.438176; -0.868071; 0.233354;,
    -0.530739; 0.300387; -0.792517;,
    -0.475319; 0.876490; -0.076405;,
    -0.521061; 0.690476; -0.501736;,
    -0.787066; -0.017730; -0.616614;,
    -0.722814; -0.034294; -0.690192;,
    -0.475319; 0.876490; -0.076405;,
    -0.530739; 0.300387; -0.792517;,
    -0.910669; -0.255419; -0.324720;,
    0.014625; -0.997318; 0.071717;,
    0.019072; -0.993811; 0.109435;,
    -0.000541; -0.898045; 0.439904;,
    -0.119137; -0.787543; 0.604635;,
    0.014625; -0.997318; 0.071717;,
    -0.756667; -0.090377; 0.647524;,
    -0.636899; 0.490026; 0.595176;,
    -0.722814; -0.034294; -0.690192;,
    -0.475319; 0.876490; -0.076405;,
    -0.454095; 0.510703; 0.730055;,
    -0.636899; 0.490026; 0.595176;,
    -0.559638; -0.058540; 0.826667;,
    -0.756667; -0.090377; 0.647524;,
    -0.207477; 0.563577; 0.799584;,
    -0.273921; -0.091347; 0.957404;,
    -0.000255; 0.756085; 0.654473;,
    -0.001007; -0.166143; 0.986101;,
    -0.330256; -0.758978; 0.561145;,
    -0.616062; -0.597474; 0.513315;,
    0.069822; -0.997555; -0.002902;,
    -0.910669; -0.255419; -0.324720;,
    -0.091533; -0.994487; 0.051156;,
    -0.616062; -0.597474; 0.513315;,
    -0.910669; -0.255419; -0.324720;,
    -0.000541; -0.898045; 0.439904;,
    -0.119137; -0.787543; 0.604635;,
    -0.330256; -0.758978; 0.561145;,
    -0.616062; -0.597474; 0.513315;,
    -0.000827; 0.993022; 0.117923;,
    -0.475319; 0.876490; -0.076405;,
    -0.000255; 0.756085; 0.654473;,
    -0.636899; 0.490026; 0.595176;,
    -0.207477; 0.563577; 0.799584;,
    -0.454095; 0.510703; 0.730055;,
    0.000139; 0.999992; 0.004104;,
    -0.392133; 0.874556; -0.285277;,
    -0.751206; 0.659935; 0.013241;,
    -0.000000; 0.999963; 0.008607;,
    -0.194524; 0.697761; -0.689413;,
    0.000139; 0.999992; 0.004104;,
    -0.751319; 0.659901; -0.007109;,
    -0.446655; 0.854495; 0.265214;,
    0.002672; 0.999304; 0.037199;,
    0.000000; 0.994096; 0.108504;,
    -0.642675; -0.589098; -0.489830;,
    -0.272402; -0.815292; -0.510975;,
    -0.665592; -0.746315; -0.001580;,
    -0.223861; -0.974621; -0.000720;,
    -0.650394; -0.759596; 0.000906;,
    -0.201843; -0.979418; -0.000499;,
    -0.694010; -0.576345; 0.431482;,
    -0.192277; -0.972301; 0.132891;,
    0.003112; -0.978164; 0.207813;,
    0.006113; -0.912838; 0.408276;,
    0.000000; -1.000000; 0.000000;,
    -0.223852; -0.974623; -0.000684;,
    -0.000000; -0.954524; -0.298134;,
    -0.165165; -0.925092; -0.341943;,
    -0.221543; -0.975150; -0.000548;,
    -0.000000; -1.000000; 0.000000;,
    -0.223852; -0.974623; -0.000684;,
    -0.221543; -0.975150; -0.000548;,
    -0.694010; -0.576345; 0.431482;,
    -0.438176; -0.868071; 0.233354;,
    -0.446655; 0.854495; 0.265214;,
    -0.626843; 0.734392; 0.260261;,
    -0.665592; -0.746315; -0.001580;,
    -0.751206; 0.659935; 0.013241;,
    -0.642675; -0.589098; -0.489830;,
    -0.392133; 0.874556; -0.285277;,
    -0.446655; 0.854495; 0.265214;,
    -0.751319; 0.659901; -0.007109;,
    -0.694010; -0.576345; 0.431482;,
    -0.650394; -0.759596; 0.000906;,
    -0.392133; 0.874556; -0.285277;,
    -0.194524; 0.697761; -0.689413;,
    -0.642675; -0.589098; -0.489830;,
    -0.272402; -0.815292; -0.510975;,
    0.442051; -0.895138; 0.057608;,
    -0.434330; -0.898699; 0.060810;,
    0.595990; -0.553629; -0.581629;,
    -0.604529; -0.515734; -0.607094;,
    0.540899; -0.583099; 0.606155;,
    -0.546090; -0.550864; 0.631137;,
    0.530318; 0.439458; 0.725010;,
    -0.515391; 0.481899; 0.708623;,
    0.540899; -0.583099; 0.606155;,
    -0.546090; -0.550864; 0.631137;,
    0.567128; 0.602760; -0.561289;,
    -0.547721; 0.637474; -0.541875;,
    0.474631; 0.862939; 0.173383;,
    -0.449627; 0.877448; 0.167095;,
    -0.604529; -0.515734; -0.607094;,
    -0.434330; -0.898699; 0.060810;,
    -0.547721; 0.637474; -0.541875;,
    -0.546090; -0.550864; 0.631137;,
    -0.449627; 0.877448; 0.167095;,
    -0.515391; 0.481899; 0.708623;,
    0.567128; 0.602760; -0.561289;,
    0.474631; 0.862939; 0.173383;,
    0.595990; -0.553629; -0.581629;,
    0.530318; 0.439458; 0.725010;,
    0.442051; -0.895138; 0.057608;,
    0.540899; -0.583099; 0.606155;,
    0.595990; -0.553629; -0.581629;,
    -0.604529; -0.515734; -0.607094;,
    0.567128; 0.602760; -0.561289;,
    -0.547721; 0.637474; -0.541875;,
    0.530318; 0.439458; 0.725010;,
    -0.515391; 0.481899; 0.708623;,
    0.853041; 0.521524; 0.018265;,
    0.896042; 0.358339; -0.262109;,
    0.973099; -0.064111; -0.221286;,
    0.136307; 0.882001; -0.451104;,
    0.776497; -0.584088; -0.236418;,
    0.615991; -0.786079; -0.051329;,
    0.959489; -0.189716; -0.208298;,
    -0.473236; -0.484043; -0.736037;,
    0.973099; -0.064111; -0.221286;,
    0.959489; -0.189716; -0.208298;,
    0.615991; -0.786079; -0.051329;,
    0.853041; 0.521524; 0.018265;,
    0.136307; 0.882001; -0.451104;,
    -0.473236; -0.484043; -0.736037;,
    0.896042; 0.358339; -0.262109;,
    0.776497; -0.584088; -0.236418;,
    -0.856506; -0.355629; -0.374065;,
    -0.280558; -0.804354; 0.523739;,
    0.615991; -0.786079; -0.051329;,
    -0.280558; -0.804354; 0.523739;,
    0.853041; 0.521524; 0.018265;,
    0.804880; 0.048804; 0.591428;,
    0.804880; 0.048804; 0.591428;,
    -0.290706; 0.620357; -0.728455;,
    -0.290706; 0.620357; -0.728455;,
    -0.856506; -0.355629; -0.374065;,
    0.851367; -0.052619; -0.521925;,
    0.513272; -0.841331; 0.169452;,
    0.758869; 0.580617; 0.294962;,
    0.516933; -0.642187; -0.566018;,
    0.621151; 0.441071; -0.647786;,
    0.513272; -0.841331; 0.169452;,
    0.516933; -0.642187; -0.566018;,
    0.758869; 0.580617; 0.294962;,
    0.621151; 0.441071; -0.647786;,
    0.473070; 0.878180; -0.070751;,
    0.621151; 0.441071; -0.647786;,
    0.724091; -0.034587; -0.688837;,
    0.851367; -0.052619; -0.521925;,
    0.621151; 0.441071; -0.647786;,
    0.473070; 0.878180; -0.070751;,
    0.516933; -0.642187; -0.566018;,
    0.490618; -0.869656; -0.054699;,
    0.490618; -0.869656; -0.054699;,
    0.078412; -0.990303; 0.114684;,
    0.031404; -0.993114; 0.112866;,
    0.078309; -0.995992; 0.043210;,
    0.011223; -0.987505; 0.157185;,
    0.623688; 0.508256; 0.593877;,
    0.751850; -0.062353; 0.656379;,
    0.473070; 0.878180; -0.070751;,
    0.724091; -0.034587; -0.688837;,
    0.623688; 0.508256; 0.593877;,
    0.442053; 0.539389; 0.716692;,
    0.751850; -0.062353; 0.656379;,
    0.560094; -0.095271; 0.822933;,
    0.203446; 0.580190; 0.788663;,
    0.267211; -0.169077; 0.948689;,
    0.620449; -0.579333; 0.528598;,
    0.490618; -0.869656; -0.054699;,
    0.099243; -0.836935; 0.538230;,
    0.308276; -0.798486; 0.517093;,
    0.620449; -0.579333; 0.528598;,
    0.623688; 0.508256; 0.593877;,
    0.442053; 0.539389; 0.716692;,
    0.203446; 0.580190; 0.788663;,
    0.620449; -0.579333; 0.528598;,
    0.308276; -0.798486; 0.517093;,
    0.490618; -0.869656; -0.054699;,
    0.031404; -0.993114; 0.112866;,
    0.096790; -0.993700; 0.056506;,
    0.099243; -0.836935; 0.538230;,
    0.011223; -0.987505; 0.157185;,
    0.011223; -0.987505; 0.157185;,
    0.391112; 0.875243; -0.284572;,
    0.193584; 0.701302; -0.686077;,
    0.751204; 0.659934; 0.013374;,
    0.751148; 0.660132; 0.001474;,
    0.579827; 0.736308; 0.348786;,
    0.273781; -0.811640; -0.516028;,
    0.643110; -0.582037; -0.497637;,
    0.226284; -0.974015; -0.009497;,
    0.667434; -0.744542; -0.013768;,
    0.201439; -0.979488; 0.004945;,
    0.650484; -0.759484; 0.007410;,
    0.703134; -0.556567; 0.442533;,
    0.196947; -0.969376; 0.146702;,
    0.223851; -0.974623; -0.000017;,
    0.165185; -0.925203; -0.341633;,
    0.221230; -0.975222; -0.000017;,
    0.223851; -0.974623; -0.000017;,
    0.221230; -0.975222; -0.000017;,
    0.513272; -0.841331; 0.169452;,
    0.703134; -0.556567; 0.442533;,
    0.758869; 0.580617; 0.294962;,
    0.579827; 0.736308; 0.348786;,
    0.751204; 0.659934; 0.013374;,
    0.667434; -0.744542; -0.013768;,
    0.391112; 0.875243; -0.284572;,
    0.643110; -0.582037; -0.497637;,
    0.751148; 0.660132; 0.001474;,
    0.579827; 0.736308; 0.348786;,
    0.650484; -0.759484; 0.007410;,
    0.703134; -0.556567; 0.442533;,
    0.193584; 0.701302; -0.686077;,
    0.391112; 0.875243; -0.284572;,
    0.273781; -0.811640; -0.516028;,
    0.643110; -0.582037; -0.497637;;
    232;
    3;0, 1, 2;,
    3;1, 3, 2;,
    3;4, 5, 0;,
    3;5, 1, 0;,
    3;6, 7, 8;,
    3;7, 9, 8;,
    3;10, 11, 12;,
    3;11, 13, 12;,
    3;14, 15, 16;,
    3;15, 17, 16;,
    3;16, 17, 18;,
    3;17, 19, 18;,
    3;20, 21, 22;,
    3;21, 23, 22;,
    3;22, 23, 24;,
    3;23, 25, 24;,
    3;26, 27, 28;,
    3;27, 29, 28;,
    3;12, 13, 30;,
    3;13, 31, 30;,
    3;32, 33, 34;,
    3;32, 34, 35;,
    3;33, 36, 37;,
    3;33, 37, 34;,
    3;38, 39, 40;,
    3;40, 39, 41;,
    3;42, 41, 39;,
    3;42, 43, 41;,
    3;44, 45, 46;,
    3;44, 46, 47;,
    3;48, 49, 50;,
    3;49, 51, 50;,
    3;52, 53, 45;,
    3;53, 46, 45;,
    3;54, 42, 55;,
    3;42, 39, 55;,
    3;56, 57, 58;,
    3;57, 59, 58;,
    3;60, 34, 61;,
    3;34, 37, 61;,
    3;62, 49, 48;,
    3;48, 63, 62;,
    3;64, 65, 66;,
    3;65, 67, 66;,
    3;65, 64, 68;,
    3;69, 65, 68;,
    3;70, 71, 68;,
    3;71, 69, 68;,
    3;72, 73, 74;,
    3;75, 76, 77;,
    3;76, 78, 77;,
    3;79, 80, 73;,
    3;80, 74, 73;,
    3;77, 78, 81;,
    3;82, 83, 84;,
    3;85, 82, 84;,
    3;84, 83, 86;,
    3;84, 86, 87;,
    3;88, 89, 90;,
    3;91, 92, 90;,
    3;93, 94, 95;,
    3;94, 96, 95;,
    3;97, 98, 99;,
    3;98, 100, 99;,
    3;101, 97, 102;,
    3;97, 99, 102;,
    3;103, 101, 104;,
    3;101, 102, 104;,
    3;105, 106, 107;,
    3;106, 108, 107;,
    3;107, 108, 109;,
    3;91, 105, 92;,
    3;105, 107, 92;,
    3;110, 93, 111;,
    3;93, 95, 111;,
    3;104, 102, 112;,
    3;102, 113, 112;,
    3;102, 99, 113;,
    3;99, 114, 113;,
    3;99, 100, 114;,
    3;100, 115, 114;,
    3;116, 117, 118;,
    3;117, 119, 118;,
    3;118, 119, 120;,
    3;119, 121, 120;,
    3;122, 123, 124;,
    3;125, 123, 122;,
    3;125, 126, 123;,
    3;127, 128, 129;,
    3;127, 129, 130;,
    3;130, 76, 131;,
    3;130, 129, 76;,
    3;132, 133, 134;,
    3;133, 135, 134;,
    3;136, 137, 138;,
    3;137, 67, 138;,
    3;139, 140, 67;,
    3;140, 141, 67;,
    3;142, 143, 144;,
    3;143, 145, 144;,
    3;139, 146, 140;,
    3;146, 147, 140;,
    3;148, 135, 145;,
    3;135, 133, 145;,
    3;139, 67, 149;,
    3;67, 137, 149;,
    3;145, 133, 41;,
    3;41, 144, 145;,
    3;150, 151, 152;,
    3;151, 153, 152;,
    3;154, 155, 156;,
    3;155, 157, 156;,
    3;158, 159, 160;,
    3;159, 161, 160;,
    3;162, 163, 164;,
    3;163, 165, 164;,
    3;166, 167, 168;,
    3;167, 169, 168;,
    3;170, 171, 166;,
    3;171, 167, 166;,
    3;172, 173, 174;,
    3;173, 175, 174;,
    3;176, 177, 178;,
    3;177, 179, 178;,
    3;180, 181, 182;,
    3;181, 183, 182;,
    3;182, 183, 184;,
    3;183, 185, 184;,
    3;186, 187, 188;,
    3;187, 189, 188;,
    3;188, 189, 190;,
    3;189, 191, 190;,
    3;192, 193, 194;,
    3;193, 195, 194;,
    3;178, 179, 196;,
    3;179, 197, 196;,
    3;198, 33, 199;,
    3;200, 198, 199;,
    3;201, 36, 33;,
    3;198, 201, 33;,
    3;202, 203, 204;,
    3;41, 203, 202;,
    3;203, 41, 205;,
    3;41, 43, 205;,
    3;206, 207, 208;,
    3;209, 206, 208;,
    3;210, 211, 51;,
    3;211, 50, 51;,
    3;212, 213, 206;,
    3;213, 207, 206;,
    3;205, 214, 203;,
    3;214, 215, 203;,
    3;216, 217, 218;,
    3;217, 219, 218;,
    3;198, 220, 201;,
    3;220, 221, 201;,
    3;211, 210, 222;,
    3;222, 223, 211;,
    3;224, 225, 226;,
    3;224, 227, 225;,
    3;224, 226, 228;,
    3;66, 229, 230;,
    3;231, 75, 232;,
    3;75, 77, 232;,
    3;233, 234, 116;,
    3;235, 236, 237;,
    3;235, 237, 238;,
    3;239, 236, 235;,
    3;240, 239, 235;,
    3;230, 241, 242;,
    3;241, 243, 242;,
    3;244, 245, 229;,
    3;245, 66, 229;,
    3;243, 244, 242;,
    3;246, 247, 248;,
    3;247, 249, 248;,
    3;250, 251, 252;,
    3;251, 253, 252;,
    3;251, 254, 253;,
    3;254, 255, 253;,
    3;254, 103, 255;,
    3;103, 104, 255;,
    3;247, 256, 249;,
    3;256, 257, 249;,
    3;255, 104, 258;,
    3;104, 112, 258;,
    3;253, 255, 259;,
    3;255, 258, 259;,
    3;252, 253, 260;,
    3;253, 259, 260;,
    3;233, 116, 261;,
    3;116, 118, 261;,
    3;261, 118, 262;,
    3;118, 263, 262;,
    3;264, 265, 266;,
    3;265, 267, 266;,
    3;266, 267, 268;,
    3;265, 269, 267;,
    3;269, 270, 267;,
    3;90, 270, 269;,
    3;90, 89, 271;,
    3;125, 272, 273;,
    3;122, 272, 125;,
    3;122, 274, 272;,
    3;275, 127, 276;,
    3;127, 130, 276;,
    3;131, 231, 130;,
    3;277, 278, 279;,
    3;278, 280, 279;,
    3;130, 231, 276;,
    3;281, 282, 229;,
    3;282, 283, 229;,
    3;140, 284, 141;,
    3;284, 229, 141;,
    3;285, 142, 286;,
    3;142, 144, 286;,
    3;287, 284, 147;,
    3;284, 140, 147;,
    3;279, 288, 277;,
    3;288, 286, 277;,
    3;229, 284, 281;,
    3;284, 289, 281;,
    3;41, 277, 286;,
    3;286, 144, 41;,
    3;290, 291, 292;,
    3;291, 293, 292;,
    3;294, 295, 296;,
    3;295, 297, 296;,
    3;298, 299, 300;,
    3;299, 301, 300;,
    3;302, 303, 304;,
    3;303, 305, 304;;
   }

   MeshTextureCoords {
    306;
    0.550386; 0.181834;,
    0.622239; 0.181834;,
    0.550386; 1.000453;,
    0.622239; 1.000453;,
    0.550386; 0.127662;,
    0.622239; 0.127662;,
    0.844829; 0.990046;,
    0.739289; 0.990046;,
    0.844829; 0.884506;,
    0.739289; 0.884506;,
    0.550386; 0.982444;,
    0.622239; 0.982444;,
    0.550386; 0.187182;,
    0.622239; 0.187182;,
    0.632005; 0.189565;,
    0.632254; 0.999468;,
    0.638253; 0.135971;,
    0.725607; 0.981652;,
    0.705710; 0.135971;,
    0.725611; 0.194856;,
    0.725611; 0.194856;,
    0.725607; 0.981652;,
    0.705710; 0.135971;,
    0.632254; 0.999468;,
    0.638253; 0.135971;,
    0.632005; 0.189565;,
    0.743734; 0.304843;,
    0.799751; 0.304843;,
    0.743734; 0.402861;,
    0.799750; 0.402861;,
    0.550386; 0.127662;,
    0.622239; 0.127662;,
    0.115095; 0.229168;,
    -0.002069; 0.229281;,
    0.078870; 0.133892;,
    0.102643; 0.177545;,
    -0.002149; 0.080128;,
    0.075768; 0.091314;,
    0.334856; 0.820440;,
    0.311050; 0.879796;,
    0.339154; 0.768418;,
    0.232644; 0.778051;,
    0.308634; 0.922974;,
    0.232591; 0.932666;,
    0.473323; 1.003134;,
    0.473323; 0.930910;,
    0.507211; 0.931308;,
    0.507211; 0.985176;,
    0.859978; 0.801392;,
    0.929509; 0.794147;,
    0.859978; 0.991240;,
    0.929509; 0.991419;,
    0.457089; 0.867608;,
    0.530952; 0.867608;,
    0.358785; 0.990315;,
    0.358474; 0.928072;,
    0.735166; 0.676961;,
    0.859978; 0.795360;,
    0.735424; 0.623068;,
    0.929509; 0.786294;,
    0.143340; 0.064407;,
    0.142754; -0.014005;,
    0.735470; 0.624552;,
    0.735263; 0.676184;,
    0.295670; 0.212893;,
    0.339218; 0.248764;,
    0.232653; 0.220769;,
    0.339203; 0.248824;,
    0.298722; 0.212512;,
    0.346083; 0.221349;,
    0.395751; 0.200385;,
    0.346092; 0.221315;,
    0.504737; 0.204614;,
    0.530621; 0.235356;,
    0.485995; 0.203308;,
    -0.002157; 0.766997;,
    0.115143; 0.741538;,
    -0.002158; 0.767000;,
    0.112544; 0.766452;,
    0.457239; 0.235356;,
    0.458732; 0.201883;,
    0.162712; 0.787502;,
    0.924431; 0.701036;,
    0.885978; 0.697258;,
    0.885978; 0.563817;,
    0.924431; 0.574022;,
    0.830042; 0.707874;,
    0.842262; 0.583895;,
    0.288123; 0.096655;,
    0.232610; 0.100526;,
    0.232576; 0.005107;,
    0.276746; 0.006796;,
    0.289892; 0.096503;,
    0.485995; 0.000191;,
    0.504737; 0.003315;,
    0.485995; 0.049836;,
    0.504737; 0.050568;,
    0.650271; 0.115550;,
    0.558819; 0.115550;,
    0.648877; 0.075112;,
    0.552797; 0.075112;,
    0.784301; 0.115550;,
    0.789688; 0.075112;,
    0.904690; 0.115550;,
    0.904375; 0.075112;,
    0.326680; 0.025303;,
    0.360790; 0.059121;,
    0.292531; 0.096292;,
    0.381983; 0.097195;,
    0.381728; 0.097249;,
    0.465485; 0.004523;,
    0.466523; 0.050852;,
    0.904534; 0.013970;,
    0.788568; 0.015611;,
    0.657467; 0.025357;,
    0.567912; 0.030858;,
    0.019531; 0.906250;,
    0.152344; 0.921875;,
    0.000000; 0.998047;,
    0.129617; 0.948093;,
    0.041293; 0.996068;,
    0.091256; 0.975453;,
    -0.014897; 0.385793;,
    0.230559; 0.248960;,
    0.230344; 0.371629;,
    -0.002069; 0.229281;,
    0.115095; 0.229168;,
    -0.011497; 0.480217;,
    0.233567; 0.466063;,
    0.230607; 0.714108;,
    -0.002067; 0.742146;,
    -0.002157; 0.766997;,
    0.456246; 0.748347;,
    0.339154; 0.768418;,
    0.455652; 0.620777;,
    0.339167; 0.624880;,
    0.455191; 0.521724;,
    0.339177; 0.525810;,
    0.456295; 0.276640;,
    0.274032; 0.291358;,
    0.232594; 0.277958;,
    0.232653; 0.220769;,
    0.232634; 0.621096;,
    0.273992; 0.621096;,
    0.232648; 0.748460;,
    0.273997; 0.748561;,
    0.273988; 0.522291;,
    0.232622; 0.522291;,
    0.273701; 0.620736;,
    0.273471; 0.521651;,
    0.830762; 0.432740;,
    0.826977; 0.725074;,
    0.981325; 0.402124;,
    0.977540; 0.694458;,
    0.458975; 0.688344;,
    0.532696; 0.688344;,
    0.458934; 0.843185;,
    0.532797; 0.843185;,
    0.532466; 0.269204;,
    0.532617; 0.568116;,
    0.459083; 0.269204;,
    0.459006; 0.568116;,
    0.982005; 0.402246;,
    0.978220; 0.694579;,
    0.830456; 0.432862;,
    0.826671; 0.725195;,
    0.622239; 0.181834;,
    0.550386; 0.181834;,
    0.622239; 1.000453;,
    0.550386; 1.000453;,
    0.622239; 0.127662;,
    0.550386; 0.127662;,
    0.739289; 0.990046;,
    0.844829; 0.990046;,
    0.739289; 0.884506;,
    0.844829; 0.884506;,
    0.622239; 0.982444;,
    0.550386; 0.982444;,
    0.622239; 0.187182;,
    0.550386; 0.187182;,
    0.632254; 0.999468;,
    0.632005; 0.189565;,
    0.725607; 0.981652;,
    0.638253; 0.135971;,
    0.725611; 0.194856;,
    0.705710; 0.135971;,
    0.725607; 0.981652;,
    0.725611; 0.194856;,
    0.632254; 0.999468;,
    0.705710; 0.135971;,
    0.632005; 0.189565;,
    0.638253; 0.135971;,
    0.799751; 0.304843;,
    0.743734; 0.304843;,
    0.799750; 0.402861;,
    0.743734; 0.402861;,
    0.622239; 0.127662;,
    0.550386; 0.127662;,
    0.078870; 0.133892;,
    0.115095; 0.229168;,
    0.102643; 0.177545;,
    0.075768; 0.091314;,
    0.339154; 0.768418;,
    0.311050; 0.879796;,
    0.334856; 0.820440;,
    0.308634; 0.922974;,
    0.507211; 0.931308;,
    0.473323; 0.930910;,
    0.473323; 1.003134;,
    0.507211; 0.985176;,
    0.929509; 0.794147;,
    0.859978; 0.801392;,
    0.530952; 0.867608;,
    0.457089; 0.867608;,
    0.358785; 0.990315;,
    0.358474; 0.928072;,
    0.859978; 0.795360;,
    0.735166; 0.676961;,
    0.929509; 0.786294;,
    0.735424; 0.623068;,
    0.143340; 0.064407;,
    0.142754; -0.014005;,
    0.735470; 0.624552;,
    0.735263; 0.676184;,
    0.485995; 0.203308;,
    0.457239; 0.235356;,
    0.530621; 0.235356;,
    0.458732; 0.201883;,
    0.504737; 0.204614;,
    0.339203; 0.248824;,
    0.346092; 0.221315;,
    0.115143; 0.741538;,
    0.112544; 0.766452;,
    0.152344; 0.921875;,
    0.122409; 0.910514;,
    0.885978; 0.563817;,
    0.885978; 0.697258;,
    0.924431; 0.701036;,
    0.924431; 0.574022;,
    0.830042; 0.707874;,
    0.842262; 0.583895;,
    0.395751; 0.200385;,
    0.346083; 0.221349;,
    0.298722; 0.212512;,
    0.339218; 0.248764;,
    0.295670; 0.212893;,
    0.504737; 0.003315;,
    0.485995; 0.000191;,
    0.504737; 0.050568;,
    0.485995; 0.049836;,
    0.558819; 0.115550;,
    0.650271; 0.115550;,
    0.552797; 0.075112;,
    0.648877; 0.075112;,
    0.784301; 0.115550;,
    0.789688; 0.075112;,
    0.465485; 0.004523;,
    0.466523; 0.050852;,
    0.788568; 0.015611;,
    0.657467; 0.025357;,
    0.567912; 0.030858;,
    0.129617; 0.948093;,
    0.091256; 0.975453;,
    0.041293; 0.996068;,
    0.360790; 0.059121;,
    0.326680; 0.025303;,
    0.381983; 0.097195;,
    0.292531; 0.096292;,
    0.381728; 0.097249;,
    0.276746; 0.006796;,
    0.289892; 0.096503;,
    0.288123; 0.096655;,
    0.230559; 0.248960;,
    0.115095; 0.229168;,
    0.230344; 0.371629;,
    0.233567; 0.466063;,
    0.230607; 0.714108;,
    0.339154; 0.768418;,
    0.456246; 0.748347;,
    0.339167; 0.624880;,
    0.455652; 0.620777;,
    0.339177; 0.525810;,
    0.455191; 0.521724;,
    0.456295; 0.276640;,
    0.274032; 0.291358;,
    0.273992; 0.621096;,
    0.273997; 0.748561;,
    0.273988; 0.522291;,
    0.273701; 0.620736;,
    0.273471; 0.521651;,
    0.826977; 0.725074;,
    0.830762; 0.432740;,
    0.977540; 0.694458;,
    0.981325; 0.402124;,
    0.532696; 0.688344;,
    0.458975; 0.688344;,
    0.532797; 0.843185;,
    0.458934; 0.843185;,
    0.532617; 0.568116;,
    0.532466; 0.269204;,
    0.459006; 0.568116;,
    0.459083; 0.269204;,
    0.978220; 0.694579;,
    0.982005; 0.402246;,
    0.826671; 0.725195;,
    0.830456; 0.432862;;
   }

   MeshVertexColors {
    306;
    0; 1.000000; 1.000000; 1.000000; 1.000000;,
    1; 1.000000; 1.000000; 1.000000; 1.000000;,
    2; 1.000000; 1.000000; 1.000000; 1.000000;,
    3; 1.000000; 1.000000; 1.000000; 1.000000;,
    4; 1.000000; 1.000000; 1.000000; 1.000000;,
    5; 1.000000; 1.000000; 1.000000; 1.000000;,
    6; 1.000000; 1.000000; 1.000000; 1.000000;,
    7; 1.000000; 1.000000; 1.000000; 1.000000;,
    8; 1.000000; 1.000000; 1.000000; 1.000000;,
    9; 1.000000; 1.000000; 1.000000; 1.000000;,
    10; 1.000000; 1.000000; 1.000000; 1.000000;,
    11; 1.000000; 1.000000; 1.000000; 1.000000;,
    12; 1.000000; 1.000000; 1.000000; 1.000000;,
    13; 1.000000; 1.000000; 1.000000; 1.000000;,
    14; 1.000000; 1.000000; 1.000000; 1.000000;,
    15; 1.000000; 1.000000; 1.000000; 1.000000;,
    16; 1.000000; 1.000000; 1.000000; 1.000000;,
    17; 1.000000; 1.000000; 1.000000; 1.000000;,
    18; 1.000000; 1.000000; 1.000000; 1.000000;,
    19; 1.000000; 1.000000; 1.000000; 1.000000;,
    20; 1.000000; 1.000000; 1.000000; 1.000000;,
    21; 1.000000; 1.000000; 1.000000; 1.000000;,
    22; 1.000000; 1.000000; 1.000000; 1.000000;,
    23; 1.000000; 1.000000; 1.000000; 1.000000;,
    24; 1.000000; 1.000000; 1.000000; 1.000000;,
    25; 1.000000; 1.000000; 1.000000; 1.000000;,
    26; 1.000000; 1.000000; 1.000000; 1.000000;,
    27; 1.000000; 1.000000; 1.000000; 1.000000;,
    28; 1.000000; 1.000000; 1.000000; 1.000000;,
    29; 1.000000; 1.000000; 1.000000; 1.000000;,
    30; 1.000000; 1.000000; 1.000000; 1.000000;,
    31; 1.000000; 1.000000; 1.000000; 1.000000;,
    32; 1.000000; 1.000000; 1.000000; 1.000000;,
    33; 1.000000; 1.000000; 1.000000; 1.000000;,
    34; 1.000000; 1.000000; 1.000000; 1.000000;,
    35; 1.000000; 1.000000; 1.000000; 1.000000;,
    36; 1.000000; 1.000000; 1.000000; 1.000000;,
    37; 1.000000; 1.000000; 1.000000; 1.000000;,
    38; 1.000000; 1.000000; 1.000000; 1.000000;,
    39; 1.000000; 1.000000; 1.000000; 1.000000;,
    40; 1.000000; 1.000000; 1.000000; 1.000000;,
    41; 1.000000; 1.000000; 1.000000; 1.000000;,
    42; 1.000000; 1.000000; 1.000000; 1.000000;,
    43; 1.000000; 1.000000; 1.000000; 1.000000;,
    44; 1.000000; 1.000000; 1.000000; 1.000000;,
    45; 1.000000; 1.000000; 1.000000; 1.000000;,
    46; 1.000000; 1.000000; 1.000000; 1.000000;,
    47; 1.000000; 1.000000; 1.000000; 1.000000;,
    48; 1.000000; 1.000000; 1.000000; 1.000000;,
    49; 1.000000; 1.000000; 1.000000; 1.000000;,
    50; 1.000000; 1.000000; 1.000000; 1.000000;,
    51; 1.000000; 1.000000; 1.000000; 1.000000;,
    52; 1.000000; 1.000000; 1.000000; 1.000000;,
    53; 1.000000; 1.000000; 1.000000; 1.000000;,
    54; 1.000000; 1.000000; 1.000000; 1.000000;,
    55; 1.000000; 1.000000; 1.000000; 1.000000;,
    56; 1.000000; 1.000000; 1.000000; 1.000000;,
    57; 1.000000; 1.000000; 1.000000; 1.000000;,
    58; 1.000000; 1.000000; 1.000000; 1.000000;,
    59; 1.000000; 1.000000; 1.000000; 1.000000;,
    60; 1.000000; 1.000000; 1.000000; 1.000000;,
    61; 1.000000; 1.000000; 1.000000; 1.000000;,
    62; 1.000000; 1.000000; 1.000000; 1.000000;,
    63; 1.000000; 1.000000; 1.000000; 1.000000;,
    64; 1.000000; 1.000000; 1.000000; 1.000000;,
    65; 1.000000; 1.000000; 1.000000; 1.000000;,
    66; 1.000000; 1.000000; 1.000000; 1.000000;,
    67; 1.000000; 1.000000; 1.000000; 1.000000;,
    68; 1.000000; 1.000000; 1.000000; 1.000000;,
    69; 1.000000; 1.000000; 1.000000; 1.000000;,
    70; 1.000000; 1.000000; 1.000000; 1.000000;,
    71; 1.000000; 1.000000; 1.000000; 1.000000;,
    72; 1.000000; 1.000000; 1.000000; 1.000000;,
    73; 1.000000; 1.000000; 1.000000; 1.000000;,
    74; 1.000000; 1.000000; 1.000000; 1.000000;,
    75; 1.000000; 1.000000; 1.000000; 1.000000;,
    76; 1.000000; 1.000000; 1.000000; 1.000000;,
    77; 1.000000; 1.000000; 1.000000; 1.000000;,
    78; 1.000000; 1.000000; 1.000000; 1.000000;,
    79; 1.000000; 1.000000; 1.000000; 1.000000;,
    80; 1.000000; 1.000000; 1.000000; 1.000000;,
    81; 1.000000; 1.000000; 1.000000; 1.000000;,
    82; 1.000000; 1.000000; 1.000000; 1.000000;,
    83; 1.000000; 1.000000; 1.000000; 1.000000;,
    84; 1.000000; 1.000000; 1.000000; 1.000000;,
    85; 1.000000; 1.000000; 1.000000; 1.000000;,
    86; 1.000000; 1.000000; 1.000000; 1.000000;,
    87; 1.000000; 1.000000; 1.000000; 1.000000;,
    88; 1.000000; 1.000000; 1.000000; 1.000000;,
    89; 1.000000; 1.000000; 1.000000; 1.000000;,
    90; 1.000000; 1.000000; 1.000000; 1.000000;,
    91; 1.000000; 1.000000; 1.000000; 1.000000;,
    92; 1.000000; 1.000000; 1.000000; 1.000000;,
    93; 1.000000; 1.000000; 1.000000; 1.000000;,
    94; 1.000000; 1.000000; 1.000000; 1.000000;,
    95; 1.000000; 1.000000; 1.000000; 1.000000;,
    96; 1.000000; 1.000000; 1.000000; 1.000000;,
    97; 1.000000; 1.000000; 1.000000; 1.000000;,
    98; 1.000000; 1.000000; 1.000000; 1.000000;,
    99; 1.000000; 1.000000; 1.000000; 1.000000;,
    100; 1.000000; 1.000000; 1.000000; 1.000000;,
    101; 1.000000; 1.000000; 1.000000; 1.000000;,
    102; 1.000000; 1.000000; 1.000000; 1.000000;,
    103; 1.000000; 1.000000; 1.000000; 1.000000;,
    104; 1.000000; 1.000000; 1.000000; 1.000000;,
    105; 1.000000; 1.000000; 1.000000; 1.000000;,
    106; 1.000000; 1.000000; 1.000000; 1.000000;,
    107; 1.000000; 1.000000; 1.000000; 1.000000;,
    108; 1.000000; 1.000000; 1.000000; 1.000000;,
    109; 1.000000; 1.000000; 1.000000; 1.000000;,
    110; 1.000000; 1.000000; 1.000000; 1.000000;,
    111; 1.000000; 1.000000; 1.000000; 1.000000;,
    112; 1.000000; 1.000000; 1.000000; 1.000000;,
    113; 1.000000; 1.000000; 1.000000; 1.000000;,
    114; 1.000000; 1.000000; 1.000000; 1.000000;,
    115; 1.000000; 1.000000; 1.000000; 1.000000;,
    116; 1.000000; 1.000000; 1.000000; 1.000000;,
    117; 1.000000; 1.000000; 1.000000; 1.000000;,
    118; 1.000000; 1.000000; 1.000000; 1.000000;,
    119; 1.000000; 1.000000; 1.000000; 1.000000;,
    120; 1.000000; 1.000000; 1.000000; 1.000000;,
    121; 1.000000; 1.000000; 1.000000; 1.000000;,
    122; 1.000000; 1.000000; 1.000000; 1.000000;,
    123; 1.000000; 1.000000; 1.000000; 1.000000;,
    124; 1.000000; 1.000000; 1.000000; 1.000000;,
    125; 1.000000; 1.000000; 1.000000; 1.000000;,
    126; 1.000000; 1.000000; 1.000000; 1.000000;,
    127; 1.000000; 1.000000; 1.000000; 1.000000;,
    128; 1.000000; 1.000000; 1.000000; 1.000000;,
    129; 1.000000; 1.000000; 1.000000; 1.000000;,
    130; 1.000000; 1.000000; 1.000000; 1.000000;,
    131; 1.000000; 1.000000; 1.000000; 1.000000;,
    132; 1.000000; 1.000000; 1.000000; 1.000000;,
    133; 1.000000; 1.000000; 1.000000; 1.000000;,
    134; 1.000000; 1.000000; 1.000000; 1.000000;,
    135; 1.000000; 1.000000; 1.000000; 1.000000;,
    136; 1.000000; 1.000000; 1.000000; 1.000000;,
    137; 1.000000; 1.000000; 1.000000; 1.000000;,
    138; 1.000000; 1.000000; 1.000000; 1.000000;,
    139; 1.000000; 1.000000; 1.000000; 1.000000;,
    140; 1.000000; 1.000000; 1.000000; 1.000000;,
    141; 1.000000; 1.000000; 1.000000; 1.000000;,
    142; 1.000000; 1.000000; 1.000000; 1.000000;,
    143; 1.000000; 1.000000; 1.000000; 1.000000;,
    144; 1.000000; 1.000000; 1.000000; 1.000000;,
    145; 1.000000; 1.000000; 1.000000; 1.000000;,
    146; 1.000000; 1.000000; 1.000000; 1.000000;,
    147; 1.000000; 1.000000; 1.000000; 1.000000;,
    148; 1.000000; 1.000000; 1.000000; 1.000000;,
    149; 1.000000; 1.000000; 1.000000; 1.000000;,
    150; 1.000000; 1.000000; 1.000000; 1.000000;,
    151; 1.000000; 1.000000; 1.000000; 1.000000;,
    152; 1.000000; 1.000000; 1.000000; 1.000000;,
    153; 1.000000; 1.000000; 1.000000; 1.000000;,
    154; 1.000000; 1.000000; 1.000000; 1.000000;,
    155; 1.000000; 1.000000; 1.000000; 1.000000;,
    156; 1.000000; 1.000000; 1.000000; 1.000000;,
    157; 1.000000; 1.000000; 1.000000; 1.000000;,
    158; 1.000000; 1.000000; 1.000000; 1.000000;,
    159; 1.000000; 1.000000; 1.000000; 1.000000;,
    160; 1.000000; 1.000000; 1.000000; 1.000000;,
    161; 1.000000; 1.000000; 1.000000; 1.000000;,
    162; 1.000000; 1.000000; 1.000000; 1.000000;,
    163; 1.000000; 1.000000; 1.000000; 1.000000;,
    164; 1.000000; 1.000000; 1.000000; 1.000000;,
    165; 1.000000; 1.000000; 1.000000; 1.000000;,
    166; 1.000000; 1.000000; 1.000000; 1.000000;,
    167; 1.000000; 1.000000; 1.000000; 1.000000;,
    168; 1.000000; 1.000000; 1.000000; 1.000000;,
    169; 1.000000; 1.000000; 1.000000; 1.000000;,
    170; 1.000000; 1.000000; 1.000000; 1.000000;,
    171; 1.000000; 1.000000; 1.000000; 1.000000;,
    172; 1.000000; 1.000000; 1.000000; 1.000000;,
    173; 1.000000; 1.000000; 1.000000; 1.000000;,
    174; 1.000000; 1.000000; 1.000000; 1.000000;,
    175; 1.000000; 1.000000; 1.000000; 1.000000;,
    176; 1.000000; 1.000000; 1.000000; 1.000000;,
    177; 1.000000; 1.000000; 1.000000; 1.000000;,
    178; 1.000000; 1.000000; 1.000000; 1.000000;,
    179; 1.000000; 1.000000; 1.000000; 1.000000;,
    180; 1.000000; 1.000000; 1.000000; 1.000000;,
    181; 1.000000; 1.000000; 1.000000; 1.000000;,
    182; 1.000000; 1.000000; 1.000000; 1.000000;,
    183; 1.000000; 1.000000; 1.000000; 1.000000;,
    184; 1.000000; 1.000000; 1.000000; 1.000000;,
    185; 1.000000; 1.000000; 1.000000; 1.000000;,
    186; 1.000000; 1.000000; 1.000000; 1.000000;,
    187; 1.000000; 1.000000; 1.000000; 1.000000;,
    188; 1.000000; 1.000000; 1.000000; 1.000000;,
    189; 1.000000; 1.000000; 1.000000; 1.000000;,
    190; 1.000000; 1.000000; 1.000000; 1.000000;,
    191; 1.000000; 1.000000; 1.000000; 1.000000;,
    192; 1.000000; 1.000000; 1.000000; 1.000000;,
    193; 1.000000; 1.000000; 1.000000; 1.000000;,
    194; 1.000000; 1.000000; 1.000000; 1.000000;,
    195; 1.000000; 1.000000; 1.000000; 1.000000;,
    196; 1.000000; 1.000000; 1.000000; 1.000000;,
    197; 1.000000; 1.000000; 1.000000; 1.000000;,
    198; 1.000000; 1.000000; 1.000000; 1.000000;,
    199; 1.000000; 1.000000; 1.000000; 1.000000;,
    200; 1.000000; 1.000000; 1.000000; 1.000000;,
    201; 1.000000; 1.000000; 1.000000; 1.000000;,
    202; 1.000000; 1.000000; 1.000000; 1.000000;,
    203; 1.000000; 1.000000; 1.000000; 1.000000;,
    204; 1.000000; 1.000000; 1.000000; 1.000000;,
    205; 1.000000; 1.000000; 1.000000; 1.000000;,
    206; 1.000000; 1.000000; 1.000000; 1.000000;,
    207; 1.000000; 1.000000; 1.000000; 1.000000;,
    208; 1.000000; 1.000000; 1.000000; 1.000000;,
    209; 1.000000; 1.000000; 1.000000; 1.000000;,
    210; 1.000000; 1.000000; 1.000000; 1.000000;,
    211; 1.000000; 1.000000; 1.000000; 1.000000;,
    212; 1.000000; 1.000000; 1.000000; 1.000000;,
    213; 1.000000; 1.000000; 1.000000; 1.000000;,
    214; 1.000000; 1.000000; 1.000000; 1.000000;,
    215; 1.000000; 1.000000; 1.000000; 1.000000;,
    216; 1.000000; 1.000000; 1.000000; 1.000000;,
    217; 1.000000; 1.000000; 1.000000; 1.000000;,
    218; 1.000000; 1.000000; 1.000000; 1.000000;,
    219; 1.000000; 1.000000; 1.000000; 1.000000;,
    220; 1.000000; 1.000000; 1.000000; 1.000000;,
    221; 1.000000; 1.000000; 1.000000; 1.000000;,
    222; 1.000000; 1.000000; 1.000000; 1.000000;,
    223; 1.000000; 1.000000; 1.000000; 1.000000;,
    224; 1.000000; 1.000000; 1.000000; 1.000000;,
    225; 1.000000; 1.000000; 1.000000; 1.000000;,
    226; 1.000000; 1.000000; 1.000000; 1.000000;,
    227; 1.000000; 1.000000; 1.000000; 1.000000;,
    228; 1.000000; 1.000000; 1.000000; 1.000000;,
    229; 1.000000; 1.000000; 1.000000; 1.000000;,
    230; 1.000000; 1.000000; 1.000000; 1.000000;,
    231; 1.000000; 1.000000; 1.000000; 1.000000;,
    232; 1.000000; 1.000000; 1.000000; 1.000000;,
    233; 1.000000; 1.000000; 1.000000; 1.000000;,
    234; 1.000000; 1.000000; 1.000000; 1.000000;,
    235; 1.000000; 1.000000; 1.000000; 1.000000;,
    236; 1.000000; 1.000000; 1.000000; 1.000000;,
    237; 1.000000; 1.000000; 1.000000; 1.000000;,
    238; 1.000000; 1.000000; 1.000000; 1.000000;,
    239; 1.000000; 1.000000; 1.000000; 1.000000;,
    240; 1.000000; 1.000000; 1.000000; 1.000000;,
    241; 1.000000; 1.000000; 1.000000; 1.000000;,
    242; 1.000000; 1.000000; 1.000000; 1.000000;,
    243; 1.000000; 1.000000; 1.000000; 1.000000;,
    244; 1.000000; 1.000000; 1.000000; 1.000000;,
    245; 1.000000; 1.000000; 1.000000; 1.000000;,
    246; 1.000000; 1.000000; 1.000000; 1.000000;,
    247; 1.000000; 1.000000; 1.000000; 1.000000;,
    248; 1.000000; 1.000000; 1.000000; 1.000000;,
    249; 1.000000; 1.000000; 1.000000; 1.000000;,
    250; 1.000000; 1.000000; 1.000000; 1.000000;,
    251; 1.000000; 1.000000; 1.000000; 1.000000;,
    252; 1.000000; 1.000000; 1.000000; 1.000000;,
    253; 1.000000; 1.000000; 1.000000; 1.000000;,
    254; 1.000000; 1.000000; 1.000000; 1.000000;,
    255; 1.000000; 1.000000; 1.000000; 1.000000;,
    256; 1.000000; 1.000000; 1.000000; 1.000000;,
    257; 1.000000; 1.000000; 1.000000; 1.000000;,
    258; 1.000000; 1.000000; 1.000000; 1.000000;,
    259; 1.000000; 1.000000; 1.000000; 1.000000;,
    260; 1.000000; 1.000000; 1.000000; 1.000000;,
    261; 1.000000; 1.000000; 1.000000; 1.000000;,
    262; 1.000000; 1.000000; 1.000000; 1.000000;,
    263; 1.000000; 1.000000; 1.000000; 1.000000;,
    264; 1.000000; 1.000000; 1.000000; 1.000000;,
    265; 1.000000; 1.000000; 1.000000; 1.000000;,
    266; 1.000000; 1.000000; 1.000000; 1.000000;,
    267; 1.000000; 1.000000; 1.000000; 1.000000;,
    268; 1.000000; 1.000000; 1.000000; 1.000000;,
    269; 1.000000; 1.000000; 1.000000; 1.000000;,
    270; 1.000000; 1.000000; 1.000000; 1.000000;,
    271; 1.000000; 1.000000; 1.000000; 1.000000;,
    272; 1.000000; 1.000000; 1.000000; 1.000000;,
    273; 1.000000; 1.000000; 1.000000; 1.000000;,
    274; 1.000000; 1.000000; 1.000000; 1.000000;,
    275; 1.000000; 1.000000; 1.000000; 1.000000;,
    276; 1.000000; 1.000000; 1.000000; 1.000000;,
    277; 1.000000; 1.000000; 1.000000; 1.000000;,
    278; 1.000000; 1.000000; 1.000000; 1.000000;,
    279; 1.000000; 1.000000; 1.000000; 1.000000;,
    280; 1.000000; 1.000000; 1.000000; 1.000000;,
    281; 1.000000; 1.000000; 1.000000; 1.000000;,
    282; 1.000000; 1.000000; 1.000000; 1.000000;,
    283; 1.000000; 1.000000; 1.000000; 1.000000;,
    284; 1.000000; 1.000000; 1.000000; 1.000000;,
    285; 1.000000; 1.000000; 1.000000; 1.000000;,
    286; 1.000000; 1.000000; 1.000000; 1.000000;,
    287; 1.000000; 1.000000; 1.000000; 1.000000;,
    288; 1.000000; 1.000000; 1.000000; 1.000000;,
    289; 1.000000; 1.000000; 1.000000; 1.000000;,
    290; 1.000000; 1.000000; 1.000000; 1.000000;,
    291; 1.000000; 1.000000; 1.000000; 1.000000;,
    292; 1.000000; 1.000000; 1.000000; 1.000000;,
    293; 1.000000; 1.000000; 1.000000; 1.000000;,
    294; 1.000000; 1.000000; 1.000000; 1.000000;,
    295; 1.000000; 1.000000; 1.000000; 1.000000;,
    296; 1.000000; 1.000000; 1.000000; 1.000000;,
    297; 1.000000; 1.000000; 1.000000; 1.000000;,
    298; 1.000000; 1.000000; 1.000000; 1.000000;,
    299; 1.000000; 1.000000; 1.000000; 1.000000;,
    300; 1.000000; 1.000000; 1.000000; 1.000000;,
    301; 1.000000; 1.000000; 1.000000; 1.000000;,
    302; 1.000000; 1.000000; 1.000000; 1.000000;,
    303; 1.000000; 1.000000; 1.000000; 1.000000;,
    304; 1.000000; 1.000000; 1.000000; 1.000000;,
    305; 1.000000; 1.000000; 1.000000; 1.000000;;
   }

   MeshMaterialList {
    1;
    232;
    0,
    0,
    0,
    0,
    0,
    0,
    0,
    0,
    0,
    0,
    0,
    0,
    0,
    0,
    0,
    0,
    0,
    0,
    0,
    0,
    0,
    0,
    0,
    0,
    0,
    0,
    0,
    0,
    0,
    0,
    0,
    0,
    0,
    0,
    0,
    0,
    0,
    0,
    0,
    0,
    0,
    0,
    0,
    0,
    0,
    0,
    0,
    0,
    0,
    0,
    0,
    0,
    0,
    0,
    0,
    0,
    0,
    0,
    0,
    0,
    0,
    0,
    0,
    0,
    0,
    0,
    0,
    0,
    0,
    0,
    0,
    0,
    0,
    0,
    0,
    0,
    0,
    0,
    0,
    0,
    0,
    0,
    0,
    0,
    0,
    0,
    0,
    0,
    0,
    0,
    0,
    0,
    0,
    0,
    0,
    0,
    0,
    0,
    0,
    0,
    0,
    0,
    0,
    0,
    0,
    0,
    0,
    0,
    0,
    0,
    0,
    0,
    0,
    0,
    0,
    0,
    0,
    0,
    0,
    0,
    0,
    0,
    0,
    0,
    0,
    0,
    0,
    0,
    0,
    0,
    0,
    0,
    0,
    0,
    0,
    0,
    0,
    0,
    0,
    0,
    0,
    0,
    0,
    0,
    0,
    0,
    0,
    0,
    0,
    0,
    0,
    0,
    0,
    0,
    0,
    0,
    0,
    0,
    0,
    0,
    0,
    0,
    0,
    0,
    0,
    0,
    0,
    0,
    0,
    0,
    0,
    0,
    0,
    0,
    0,
    0,
    0,
    0,
    0,
    0,
    0,
    0,
    0,
    0,
    0,
    0,
    0,
    0,
    0,
    0,
    0,
    0,
    0,
    0,
    0,
    0,
    0,
    0,
    0,
    0,
    0,
    0,
    0,
    0,
    0,
    0,
    0,
    0,
    0,
    0,
    0,
    0,
    0,
    0,
    0,
    0,
    0,
    0,
    0,
    0,
    0,
    0,
    0,
    0,
    0,
    0,
    0,
    0,
    0,
    0,
    0,
    0;

    Material ht_a {
     1.000000; 1.000000; 1.000000; 1.000000;;
     128.000000;
     0.000000; 0.000000; 0.000000;;
     0.000000; 0.000000; 0.000000;;

     TextureFilename {
      "ht_a.jpg";
     }
    }

   }
  }
}
