xof 0303txt 0032

// DirectX 8.0 file
// Creator: Ultimate Unwrap3D Pro v3.44
// Website: http://www.unwrap3d.com
// Time: Fri May 10 23:09:38 2013

// Start of Templates

template VertexDuplicationIndices {
 <b8d65549-d7c9-4995-89cf-53a9a8b031e3>
 DWORD nIndices;
 DWORD nOriginalVertices;
 array DWORD indices[nIndices];
}

template FVFData {
 <b6e70a0e-8ef9-4e83-94ad-ecc8b0c04897>
 DWORD dwFVF;
 DWORD nDWords;
 array DWORD data[nDWords];
}

template Header {
 <3D82AB43-62DA-11cf-AB39-0020AF71E433>
 WORD major;
 WORD minor;
 DWORD flags;
}

template Vector {
 <3D82AB5E-62DA-11cf-AB39-0020AF71E433>
 FLOAT x;
 FLOAT y;
 FLOAT z;
}

template Coords2d {
 <F6F23F44-7686-11cf-8F52-0040333594A3>
 FLOAT u;
 FLOAT v;
}

template Matrix4x4 {
 <F6F23F45-7686-11cf-8F52-0040333594A3>
 array FLOAT matrix[16];
}

template ColorRGBA {
 <35FF44E0-6C7C-11cf-8F52-0040333594A3>
 FLOAT red;
 FLOAT green;
 FLOAT blue;
 FLOAT alpha;
}

template ColorRGB {
 <D3E16E81-7835-11cf-8F52-0040333594A3>
 FLOAT red;
 FLOAT green;
 FLOAT blue;
}

template IndexedColor {
 <1630B820-7842-11cf-8F52-0040333594A3>
 DWORD index;
 ColorRGBA indexColor;
}

template Material {
 <3D82AB4D-62DA-11cf-AB39-0020AF71E433>
 ColorRGBA faceColor;
 FLOAT power;
 ColorRGB specularColor;
 ColorRGB emissiveColor;
 [...]
}

template TextureFilename {
 <A42790E1-7810-11cf-8F52-0040333594A3>
 STRING filename;
}

template MeshFace {
 <3D82AB5F-62DA-11cf-AB39-0020AF71E433>
 DWORD nFaceVertexIndices;
 array DWORD faceVertexIndices[nFaceVertexIndices];
}

template MeshTextureCoords {
 <F6F23F40-7686-11cf-8F52-0040333594A3>
 DWORD nTextureCoords;
 array Coords2d textureCoords[nTextureCoords];
}

template MeshMaterialList {
 <F6F23F42-7686-11cf-8F52-0040333594A3>
 DWORD nMaterials;
 DWORD nFaceIndexes;
 array DWORD faceIndexes[nFaceIndexes];
 [Material]
}

template MeshNormals {
 <F6F23F43-7686-11cf-8F52-0040333594A3>
 DWORD nNormals;
 array Vector normals[nNormals];
 DWORD nFaceNormals;
 array MeshFace faceNormals[nFaceNormals];
}

template MeshVertexColors {
 <1630B821-7842-11cf-8F52-0040333594A3>
 DWORD nVertexColors;
 array IndexedColor vertexColors[nVertexColors];
}

template Mesh {
 <3D82AB44-62DA-11cf-AB39-0020AF71E433>
 DWORD nVertices;
 array Vector vertices[nVertices];
 DWORD nFaces;
 array MeshFace faces[nFaces];
 [...]
}

template FrameTransformMatrix {
 <F6F23F41-7686-11cf-8F52-0040333594A3>
 Matrix4x4 frameMatrix;
}

template Frame {
 <3D82AB46-62DA-11cf-AB39-0020AF71E433>
 [...]
}

template FloatKeys {
 <10DD46A9-775B-11cf-8F52-0040333594A3>
 DWORD nValues;
 array FLOAT values[nValues];
}

template TimedFloatKeys {
 <F406B180-7B3B-11cf-8F52-0040333594A3>
 DWORD time;
 FloatKeys tfkeys;
}

template AnimationKey {
 <10DD46A8-775B-11cf-8F52-0040333594A3>
 DWORD keyType;
 DWORD nKeys;
 array TimedFloatKeys keys[nKeys];
}

template AnimationOptions {
 <E2BF56C0-840F-11cf-8F52-0040333594A3>
 DWORD openclosed;
 DWORD positionquality;
}

template Animation {
 <3D82AB4F-62DA-11cf-AB39-0020AF71E433>
 [...]
}

template AnimationSet {
 <3D82AB50-62DA-11cf-AB39-0020AF71E433>
 [Animation]
}

template XSkinMeshHeader {
 <3CF169CE-FF7C-44ab-93C0-F78F62D172E2>
 WORD nMaxSkinWeightsPerVertex;
 WORD nMaxSkinWeightsPerFace;
 WORD nBones;
}

template SkinWeights {
 <6F0D123B-BAD2-4167-A0D0-80224F25FABB>
 STRING transformNodeName;
 DWORD nWeights;
 array DWORD vertexIndices[nWeights];
 array FLOAT weights[nWeights];
 Matrix4x4 matrixOffset;
}

template AnimTicksPerSecond {
 <9E415A43-7BA6-4a73-8743-B73D47E88476>
 DWORD AnimTicksPerSecond;
}

AnimTicksPerSecond {
 4800;
}

// Start of Frames

Frame Body {
   FrameTransformMatrix {
    1.000000, 0.000000, 0.000000, 0.000000,
    0.000000, 1.000000, 0.000000, 0.000000,
    0.000000, 0.000000, 1.000000, 0.000000,
    0.000000, 0.000000, 0.000000, 1.000000;;
   }

   Mesh staticMesh {
    378;
    2.945882; -1.129950; 6.537872;,
    3.799091; -1.129950; 4.114382;,
    2.945878; -0.629051; 6.537872;,
    3.799091; -0.629051; 4.114357;,
    -3.817580; -1.129950; 4.114381;,
    -2.964344; -1.129950; 6.537872;,
    -3.817580; -0.629051; 4.114369;,
    -2.964350; -0.629051; 6.537872;,
    3.799091; -1.129950; -0.494001;,
    3.106689; -1.129950; -1.771237;,
    3.799091; -0.629051; -0.494036;,
    3.106693; -0.629051; -1.771237;,
    -3.817580; -1.129950; -0.494001;,
    -4.630875; -1.129950; -0.494001;,
    -3.817580; -0.629051; -0.494018;,
    -4.630875; -0.629051; -0.494043;,
    -0.009225; -0.629051; -2.118470;,
    -0.009233; -1.129950; -2.120509;,
    -3.125139; -0.629051; -1.771237;,
    -3.125145; -1.129950; -1.771237;,
    4.630875; -1.129950; -0.494001;,
    4.630875; -0.629051; -0.494017;,
    -4.630875; -1.129950; 4.114381;,
    -4.630875; -0.629051; 4.114357;,
    4.630875; -1.129950; 4.114382;,
    4.630875; -0.629051; 4.114368;,
    -4.630875; -0.629051; 4.114357;,
    -4.630875; -0.629051; -0.494043;,
    -4.630875; -1.129950; 4.114381;,
    -4.630875; -1.129950; -0.494001;,
    4.630875; -0.629051; -0.494017;,
    4.630875; -0.629051; 4.114368;,
    4.630875; -1.129950; -0.494001;,
    4.630875; -1.129950; 4.114382;,
    0.856294; -1.129950; 7.446680;,
    0.856294; -0.629051; 7.446680;,
    -0.009239; -1.129950; 7.749617;,
    -0.009239; -0.629051; 7.749617;,
    -0.874771; -1.129950; 7.446680;,
    -0.874771; -0.629051; 7.446680;,
    3.799091; -0.629051; -0.494036;,
    3.799091; -0.629051; 4.114357;,
    4.630875; -0.629051; -0.494017;,
    4.630875; -0.629051; 4.114368;,
    3.106693; -0.629051; -1.771237;,
    -0.009225; -0.629051; -2.118470;,
    -4.630875; -0.629051; 4.114357;,
    -3.817580; -0.629051; 4.114369;,
    -4.630875; -0.629051; -0.494043;,
    -3.817580; -0.629051; -0.494018;,
    -0.009239; -0.629051; 7.749617;,
    0.856294; -0.629051; 7.446680;,
    -0.009238; -0.629051; 7.587273;,
    0.899571; -0.629051; 7.062572;,
    2.945878; -0.629051; 6.537872;,
    -0.874771; -0.629051; 7.446680;,
    -0.918047; -0.629051; 7.062572;,
    -2.964350; -0.629051; 6.537872;,
    -0.918047; -0.629051; 6.013170;,
    -3.125139; -0.629051; -1.771237;,
    -0.009238; -0.629051; 5.488470;,
    0.899571; -0.629051; 6.013170;,
    -3.817580; -1.881454; -2.225065;,
    -3.817580; -2.305756; -2.225066;,
    -3.817580; -1.881454; -3.848515;,
    -3.817580; -1.881454; -2.225065;,
    -4.630875; -1.881454; -2.225065;,
    -3.817580; -1.129950; -1.878852;,
    -4.630875; -1.129950; -1.878852;,
    -4.630875; -1.129950; -1.878852;,
    -4.630875; -1.129950; -0.494001;,
    -3.817580; -1.129950; -1.878852;,
    -3.817580; -1.129950; -0.494001;,
    -4.198157; -2.515039; 6.088454;,
    -4.198157; -2.099248; 6.537872;,
    -4.630875; -2.305755; 6.088453;,
    -4.630875; -1.889964; 6.537871;,
    -3.817580; -2.305756; 6.088454;,
    -3.817580; -1.889964; 6.537872;,
    -4.198157; -2.515039; 6.088454;,
    -4.630875; -2.305755; -2.225066;,
    -4.198156; -2.515039; -2.225066;,
    -4.630875; -1.881454; -3.848515;,
    -4.630875; -1.881454; -2.225065;,
    -3.817580; -1.881454; -3.848515;,
    -3.817580; -1.881454; -2.225065;,
    -4.198156; -2.515039; -2.225066;,
    -3.817580; -2.305756; -2.225066;,
    -3.817580; -1.475560; 1.509371;,
    -3.817580; -1.889964; 6.537872;,
    -3.817580; -2.305756; 6.088454;,
    -4.630875; -1.881454; -3.848515;,
    -3.817580; -1.881454; -3.848515;,
    -4.198156; -2.099248; -3.738119;,
    -3.817580; -1.129950; 6.537872;,
    -3.817580; -1.129950; -1.878852;,
    -3.817580; -1.129950; -0.494001;,
    -4.630875; -1.129950; -1.878852;,
    -4.630875; -1.881454; -2.225065;,
    -4.630875; -1.129950; 6.537872;,
    -4.630875; -2.305755; -2.225066;,
    -4.630875; -1.889964; 6.537871;,
    -4.630875; -2.305755; 6.088453;,
    -4.630875; -2.305755; -2.225066;,
    -4.630875; -1.881454; -3.848515;,
    -4.198156; -2.099248; -3.738119;,
    -4.198156; -2.099248; -3.738119;,
    -4.630875; -1.129950; 6.537872;,
    -4.630875; -1.889964; 6.537871;,
    -3.817580; -1.129950; 6.537872;,
    -4.198157; -2.099248; 6.537872;,
    -3.817580; -1.889964; 6.537872;,
    -3.817580; -1.129950; 6.537872;,
    -3.817580; -1.129950; 4.114381;,
    -4.630875; -1.129950; 6.537872;,
    -4.630875; -1.129950; 4.114381;,
    -4.198156; -2.099248; -3.738119;,
    -3.817580; -2.305756; -2.225066;,
    -3.817580; -1.881454; -3.848515;,
    -0.009239; -1.129951; -4.376248;,
    2.438856; -1.129950; -3.362214;,
    3.799091; -1.475560; 1.509371;,
    -0.009228; -1.476400; 3.075743;,
    -3.817580; -1.475560; 1.509371;,
    -3.817580; -1.129950; -0.494001;,
    -2.457334; -1.129950; -3.362213;,
    3.799091; -1.129950; 4.114382;,
    2.945882; -1.129950; 6.537872;,
    3.799091; -1.129950; 6.537872;,
    -0.009239; -1.129950; 7.749617;,
    -2.457317; -1.129950; 8.985966;,
    2.438872; -1.129950; 8.985967;,
    -0.009222; -1.129950; 10.000000;,
    -2.457328; -1.476400; 4.089777;,
    -3.817580; -1.129950; 6.537872;,
    -3.471350; -1.129950; 6.537872;,
    -2.964344; -1.129950; 6.537872;,
    -3.471350; -1.129950; 6.537872;,
    2.438863; -1.476400; 4.089778;,
    -2.457328; -1.476400; 4.089777;,
    -0.009228; -1.476400; 3.075743;,
    -2.189850; -1.819166; 4.357249;,
    -0.009228; -1.819166; 3.454007;,
    3.799091; -1.129950; -0.494001;,
    2.438863; -1.476400; 4.089778;,
    3.452907; -1.129950; 6.537872;,
    2.171392; -1.819166; 4.357250;,
    3.074635; -1.819166; 6.537872;,
    -2.457328; -1.476400; 4.089777;,
    -2.189850; -1.819166; 4.357249;,
    -3.471350; -1.129950; 6.537872;,
    -3.093095; -1.819166; 6.537871;,
    0.786393; -2.130757; 6.537872;,
    0.553357; -2.130757; 7.100467;,
    -0.009238; -2.303864; 6.537872;,
    0.553358; -2.130757; 5.975276;,
    -0.009237; -2.126571; 7.364246;,
    -0.571834; -2.130757; 7.100467;,
    -0.804869; -2.130757; 6.537872;,
    -0.571834; -2.130757; 5.975276;,
    -0.009238; -2.130757; 5.742241;,
    3.799091; -1.129950; 6.537872;,
    3.452907; -1.129950; 6.537872;,
    3.074635; -1.819166; 6.537872;,
    2.171393; -1.819166; 8.718493;,
    3.452907; -1.129950; 6.537872;,
    2.171392; -1.819166; 4.357250;,
    2.438863; -1.476400; 4.089778;,
    2.171392; -1.819166; 4.357250;,
    -0.009228; -1.819166; 3.454007;,
    -2.189850; -1.819166; 4.357249;,
    -2.457334; -1.129950; -3.362213;,
    -3.125145; -1.129950; -1.771237;,
    -0.009239; -1.129951; -4.376248;,
    -0.009233; -1.129950; -2.120509;,
    2.438856; -1.129950; -3.362214;,
    3.106689; -1.129950; -1.771237;,
    -3.093095; -1.819166; 6.537871;,
    -2.189852; -1.819166; 8.718493;,
    3.452907; -1.129950; 6.537872;,
    2.438872; -1.129950; 8.985967;,
    3.074635; -1.819166; 6.537872;,
    2.171393; -1.819166; 8.718493;,
    2.438872; -1.129950; 8.985967;,
    -0.009222; -1.129950; 10.000000;,
    2.171393; -1.819166; 8.718493;,
    -0.009232; -1.819166; 9.621737;,
    -2.457317; -1.129950; 8.985966;,
    -0.009232; -1.819166; 9.621737;,
    -2.189852; -1.819166; 8.718493;,
    -2.457317; -1.129950; 8.985966;,
    -3.471350; -1.129950; 6.537872;,
    -2.189852; -1.819166; 8.718493;,
    -3.093095; -1.819166; 6.537871;,
    -0.009232; -1.819166; 9.621737;,
    -3.817580; -1.129950; 4.114381;,
    -3.817580; -1.129950; 6.537872;,
    4.630875; -1.881454; -2.225065;,
    3.799091; -1.881454; -2.225065;,
    4.630875; -1.129950; -1.878852;,
    3.799091; -1.129950; -1.878852;,
    3.799091; -1.881454; -2.225065;,
    3.799091; -1.475560; 1.509371;,
    3.799091; -1.129950; -1.878852;,
    3.799091; -1.129950; -0.494001;,
    4.630875; -1.129950; -0.494001;,
    4.630875; -1.129950; -1.878852;,
    3.799091; -1.129950; -0.494001;,
    3.799091; -1.129950; -1.878852;,
    3.799091; -1.881454; -3.848515;,
    3.799091; -2.305756; -2.225066;,
    3.799091; -1.129950; 6.537872;,
    3.799091; -2.305756; 6.088454;,
    3.799091; -1.889964; 6.537872;,
    4.198174; -2.099248; 6.537872;,
    4.198174; -2.515039; 6.088454;,
    4.630875; -1.889964; 6.537871;,
    4.630875; -2.305755; 6.088453;,
    4.630875; -1.881454; -2.225065;,
    4.630875; -1.881454; -3.848515;,
    3.799091; -1.881454; -2.225065;,
    3.799091; -1.881454; -3.848515;,
    3.799091; -1.889964; 6.537872;,
    3.799091; -2.305756; 6.088454;,
    4.198174; -2.515039; 6.088454;,
    4.630875; -2.305755; -2.225066;,
    4.198173; -2.515039; -2.225066;,
    4.198173; -2.515039; -2.225066;,
    3.799091; -2.305756; -2.225066;,
    4.198173; -2.099248; -3.738119;,
    3.799091; -1.881454; -3.848515;,
    4.630875; -1.881454; -3.848515;,
    4.630875; -1.881454; -2.225065;,
    4.630875; -1.129950; -1.878852;,
    4.630875; -2.305755; -2.225066;,
    4.630875; -1.129950; 6.537872;,
    4.630875; -2.305755; 6.088453;,
    4.630875; -1.889964; 6.537871;,
    4.630875; -1.881454; -3.848515;,
    4.630875; -2.305755; -2.225066;,
    4.198173; -2.099248; -3.738119;,
    4.198173; -2.099248; -3.738119;,
    4.630875; -1.889964; 6.537871;,
    4.630875; -1.129950; 6.537872;,
    4.198174; -2.099248; 6.537872;,
    3.799091; -1.129950; 6.537872;,
    3.799091; -1.889964; 6.537872;,
    3.799091; -1.129950; 4.114382;,
    3.799091; -1.129950; 6.537872;,
    4.630875; -1.129950; 4.114381;,
    4.630875; -1.129950; 6.537872;,
    4.198173; -2.099248; -3.738119;,
    3.799091; -1.881454; -3.848515;,
    3.799091; -2.305756; -2.225066;,
    -3.817580; -0.629051; 4.114369;,
    -2.259663; 0.810071; 2.729472;,
    -2.259675; 1.125114; 2.729461;,
    -4.630875; -0.629051; 4.114357;,
    -3.817580; -0.629051; -0.494018;,
    -4.630875; -0.629051; -0.494043;,
    -2.259674; 1.125114; 0.457304;,
    -2.259651; 0.810059; 0.457327;,
    -3.817580; -0.629051; -0.494018;,
    -2.259651; 0.810059; 0.457327;,
    -3.817580; -0.629051; 4.114369;,
    -2.259663; 0.810071; 2.729472;,
    -4.630875; -0.629051; 4.114357;,
    -2.259675; 1.125114; 2.729461;,
    -4.630875; -0.629051; -0.494043;,
    -2.259674; 1.125114; 0.457304;,
    -2.259651; 0.810059; 0.457327;,
    -0.874815; 0.810073; 0.457314;,
    -2.259663; 0.810071; 2.729472;,
    -0.874815; 0.810073; 2.729471;,
    -2.259675; 1.125114; 2.729461;,
    -1.047899; 1.125075; 2.729501;,
    -2.259674; 1.125114; 0.457304;,
    -1.047896; 1.125071; 0.457347;,
    -2.259674; 1.125114; 0.457304;,
    -1.047896; 1.125071; 0.457347;,
    -2.259651; 0.810059; 0.457327;,
    -0.874815; 0.810073; 0.457314;,
    -2.259663; 0.810071; 2.729472;,
    -0.874815; 0.810073; 2.729471;,
    -2.259675; 1.125114; 2.729461;,
    -1.047899; 1.125075; 2.729501;,
    2.241093; 0.810082; 0.457304;,
    0.881158; 0.810082; 0.457304;,
    2.241116; 1.125091; 0.457327;,
    1.054264; 1.125114; 0.457304;,
    2.241093; 0.810082; 2.729461;,
    0.881158; 0.810082; 2.729461;,
    2.241093; 0.810082; 0.457304;,
    0.881158; 0.810082; 0.457304;,
    2.241116; 1.125091; 0.457327;,
    1.054264; 1.125114; 0.457304;,
    2.241104; 1.125103; 2.729473;,
    1.054264; 1.125114; 2.729461;,
    2.241104; 1.125103; 2.729473;,
    1.054264; 1.125114; 2.729461;,
    2.241093; 0.810082; 2.729461;,
    0.881158; 0.810082; 2.729461;,
    -0.262870; 1.467264; -9.980881;,
    -0.009290; 1.530805; -10.000000;,
    -0.292584; 1.121306; -9.907280;,
    0.233058; 1.467298; -9.980916;,
    -0.009290; 1.051862; -9.886431;,
    0.260940; 1.121334; -9.907309;,
    0.260940; 1.121334; -9.907309;,
    0.881158; 0.810082; 0.457304;,
    -0.009290; 1.051862; -9.886431;,
    -0.009290; 0.428680; 0.457304;,
    0.163815; 1.640425; 9.706672;,
    0.881158; 2.168827; 2.729461;,
    -0.009291; 2.515039; 2.729461;,
    -0.009291; 1.640425; 9.706672;,
    0.163815; 1.017242; 9.792549;,
    0.881158; 0.810082; 2.729461;,
    1.054264; 1.125114; 2.729461;,
    0.163815; 1.640425; 9.706672;,
    1.054264; 1.125114; 0.457304;,
    0.881158; 2.168827; 0.457304;,
    0.881158; 2.168827; 2.729461;,
    -1.047899; 1.125075; 2.729501;,
    -0.874791; 2.168785; 2.729503;,
    -1.047896; 1.125071; 0.457347;,
    -0.874805; 2.168803; 0.457327;,
    -0.182380; 1.017219; 9.792573;,
    0.163815; 1.017242; 9.792549;,
    -0.182377; 1.640398; 9.706699;,
    0.163815; 1.640425; 9.706672;,
    -0.874791; 2.168785; 2.729503;,
    -0.182377; 1.640398; 9.706699;,
    -0.009291; 2.515039; 0.457304;,
    0.881158; 2.168827; 0.457304;,
    -0.874805; 2.168803; 0.457327;,
    -0.009290; 1.530805; -10.000000;,
    -0.182377; 1.640398; 9.706699;,
    -0.874815; 0.810073; 2.729471;,
    -0.182380; 1.017219; 9.792573;,
    -0.262870; 1.467264; -9.980881;,
    -0.292584; 1.121306; -9.907280;,
    -0.874815; 0.810073; 0.457314;,
    0.233058; 1.467298; -9.980916;,
    -0.262870; 1.467264; -9.980881;,
    0.260940; 1.121334; -9.907309;,
    0.233058; 1.467298; -9.980916;,
    -0.182380; 1.017219; 9.792573;,
    -0.874815; 0.810073; 2.729471;,
    -0.009291; 0.428680; 2.729461;,
    0.163815; 1.017242; 9.792549;,
    0.881158; 0.810082; 2.729461;,
    -0.292584; 1.121306; -9.907280;,
    -0.874815; 0.810073; 0.457314;,
    0.881158; 0.810082; 0.457304;,
    -0.009238; -0.263815; 6.537872;,
    -0.918047; -0.629051; 7.062572;,
    -0.009238; -0.629051; 7.587273;,
    -0.918047; -0.629051; 6.013170;,
    -0.009238; -0.629051; 5.488470;,
    0.899571; -0.629051; 6.013170;,
    0.899571; -0.629051; 7.062572;,
    3.799091; -0.629051; -0.494036;,
    2.241093; 0.810082; 0.457304;,
    2.241116; 1.125091; 0.457327;,
    4.630875; -0.629051; -0.494017;,
    3.799091; -0.629051; 4.114357;,
    2.241093; 0.810082; 2.729461;,
    3.799091; -0.629051; -0.494036;,
    2.241093; 0.810082; 0.457304;,
    2.241104; 1.125103; 2.729473;,
    2.241093; 0.810082; 2.729461;,
    3.799091; -0.629051; 4.114357;,
    4.630875; -0.629051; 4.114368;,
    4.630875; -0.629051; -0.494017;,
    2.241116; 1.125091; 0.457327;,
    4.630875; -0.629051; 4.114368;,
    2.241104; 1.125103; 2.729473;;
    273;
    3;0, 1, 2;,
    3;1, 3, 2;,
    3;4, 5, 6;,
    3;5, 7, 6;,
    3;8, 9, 10;,
    3;9, 11, 10;,
    3;12, 13, 14;,
    3;13, 15, 14;,
    3;16, 17, 18;,
    3;17, 19, 18;,
    3;17, 16, 9;,
    3;16, 11, 9;,
    3;19, 12, 18;,
    3;12, 14, 18;,
    3;20, 8, 21;,
    3;8, 10, 21;,
    3;22, 4, 23;,
    3;4, 6, 23;,
    3;1, 24, 3;,
    3;24, 25, 3;,
    3;26, 27, 28;,
    3;27, 29, 28;,
    3;30, 31, 32;,
    3;31, 33, 32;,
    3;0, 2, 34;,
    3;2, 35, 34;,
    3;34, 35, 36;,
    3;35, 37, 36;,
    3;36, 37, 38;,
    3;37, 39, 38;,
    3;38, 39, 5;,
    3;39, 7, 5;,
    3;40, 41, 42;,
    3;41, 43, 42;,
    3;40, 44, 45;,
    3;46, 47, 48;,
    3;47, 49, 48;,
    3;50, 51, 52;,
    3;51, 53, 52;,
    3;53, 51, 54;,
    3;55, 50, 56;,
    3;50, 52, 56;,
    3;55, 56, 57;,
    3;47, 57, 58;,
    3;57, 56, 58;,
    3;49, 45, 59;,
    3;45, 49, 60;,
    3;45, 60, 40;,
    3;58, 60, 47;,
    3;60, 49, 47;,
    3;60, 61, 40;,
    3;61, 41, 40;,
    3;61, 53, 41;,
    3;53, 54, 41;,
    3;62, 63, 64;,
    3;65, 66, 67;,
    3;66, 68, 67;,
    3;69, 70, 71;,
    3;70, 72, 71;,
    3;73, 74, 75;,
    3;74, 76, 75;,
    3;77, 78, 79;,
    3;78, 74, 79;,
    3;75, 80, 73;,
    3;80, 81, 73;,
    3;82, 83, 84;,
    3;83, 85, 84;,
    3;79, 86, 77;,
    3;86, 87, 77;,
    3;88, 89, 62;,
    3;89, 90, 62;,
    3;62, 90, 63;,
    3;91, 92, 93;,
    3;88, 94, 89;,
    3;95, 96, 62;,
    3;96, 88, 62;,
    3;97, 98, 99;,
    3;98, 100, 99;,
    3;99, 100, 101;,
    3;100, 102, 101;,
    3;103, 98, 104;,
    3;104, 105, 103;,
    3;80, 106, 81;,
    3;107, 108, 109;,
    3;108, 110, 109;,
    3;109, 110, 111;,
    3;112, 113, 114;,
    3;113, 115, 114;,
    3;116, 87, 86;,
    3;117, 105, 118;,
    3;119, 120, 121;,
    3;122, 119, 121;,
    3;123, 124, 125;,
    3;119, 123, 125;,
    3;123, 119, 122;,
    3;126, 127, 128;,
    3;129, 130, 131;,
    3;130, 132, 131;,
    3;123, 122, 133;,
    3;134, 123, 133;,
    3;135, 134, 133;,
    3;129, 136, 130;,
    3;136, 137, 130;,
    3;138, 122, 121;,
    3;139, 140, 141;,
    3;140, 142, 141;,
    3;120, 143, 121;,
    3;144, 145, 146;,
    3;145, 147, 146;,
    3;148, 149, 150;,
    3;149, 151, 150;,
    3;152, 153, 154;,
    3;155, 152, 154;,
    3;153, 156, 154;,
    3;156, 157, 154;,
    3;157, 158, 154;,
    3;158, 159, 154;,
    3;159, 160, 154;,
    3;160, 155, 154;,
    3;161, 162, 138;,
    3;121, 161, 138;,
    3;129, 131, 127;,
    3;163, 164, 152;,
    3;164, 153, 152;,
    3;131, 165, 127;,
    3;166, 163, 155;,
    3;163, 152, 155;,
    3;140, 167, 142;,
    3;167, 168, 142;,
    3;160, 169, 155;,
    3;169, 166, 155;,
    3;159, 170, 160;,
    3;170, 169, 160;,
    3;171, 172, 173;,
    3;172, 174, 173;,
    3;173, 174, 175;,
    3;174, 176, 175;,
    3;158, 177, 159;,
    3;177, 170, 159;,
    3;157, 178, 158;,
    3;178, 177, 158;,
    3;179, 180, 181;,
    3;180, 182, 181;,
    3;183, 184, 185;,
    3;184, 186, 185;,
    3;184, 187, 188;,
    3;187, 189, 188;,
    3;190, 191, 192;,
    3;191, 193, 192;,
    3;153, 164, 156;,
    3;164, 194, 156;,
    3;156, 194, 157;,
    3;194, 178, 157;,
    3;136, 195, 196;,
    3;197, 198, 199;,
    3;198, 200, 199;,
    3;201, 202, 203;,
    3;202, 204, 203;,
    3;205, 206, 207;,
    3;206, 208, 207;,
    3;201, 209, 202;,
    3;209, 210, 202;,
    3;202, 210, 211;,
    3;210, 212, 211;,
    3;211, 212, 213;,
    3;214, 215, 216;,
    3;215, 217, 216;,
    3;218, 219, 220;,
    3;219, 221, 220;,
    3;222, 223, 214;,
    3;223, 224, 214;,
    3;225, 217, 226;,
    3;217, 215, 226;,
    3;227, 224, 228;,
    3;224, 223, 228;,
    3;229, 230, 231;,
    3;232, 233, 234;,
    3;233, 235, 234;,
    3;234, 235, 236;,
    3;235, 237, 236;,
    3;238, 232, 239;,
    3;239, 240, 238;,
    3;226, 241, 225;,
    3;242, 243, 244;,
    3;243, 245, 244;,
    3;244, 245, 246;,
    3;247, 248, 249;,
    3;248, 250, 249;,
    3;227, 228, 251;,
    3;252, 240, 253;,
    3;254, 255, 256;,
    3;257, 254, 256;,
    3;258, 259, 260;,
    3;260, 261, 258;,
    3;262, 263, 264;,
    3;263, 265, 264;,
    3;266, 267, 268;,
    3;267, 269, 268;,
    3;270, 271, 272;,
    3;271, 273, 272;,
    3;274, 275, 276;,
    3;275, 277, 276;,
    3;278, 279, 280;,
    3;279, 281, 280;,
    3;282, 283, 284;,
    3;283, 285, 284;,
    3;286, 287, 288;,
    3;287, 289, 288;,
    3;290, 291, 292;,
    3;291, 293, 292;,
    3;294, 295, 296;,
    3;295, 297, 296;,
    3;298, 299, 300;,
    3;299, 301, 300;,
    3;302, 303, 304;,
    3;303, 305, 304;,
    3;304, 305, 306;,
    3;305, 307, 306;,
    3;308, 309, 310;,
    3;309, 311, 310;,
    3;312, 313, 314;,
    3;315, 312, 314;,
    3;316, 317, 318;,
    3;319, 316, 318;,
    3;320, 321, 318;,
    3;321, 322, 318;,
    3;323, 324, 325;,
    3;324, 326, 325;,
    3;327, 328, 329;,
    3;328, 330, 329;,
    3;314, 331, 332;,
    3;314, 313, 333;,
    3;313, 334, 333;,
    3;331, 314, 335;,
    3;314, 333, 335;,
    3;336, 333, 334;,
    3;335, 333, 336;,
    3;324, 323, 337;,
    3;323, 338, 339;,
    3;339, 337, 323;,
    3;325, 326, 340;,
    3;341, 342, 325;,
    3;325, 340, 341;,
    3;334, 343, 336;,
    3;336, 344, 335;,
    3;345, 346, 320;,
    3;318, 322, 319;,
    3;347, 348, 349;,
    3;347, 349, 350;,
    3;349, 351, 350;,
    3;352, 310, 353;,
    3;310, 311, 353;,
    3;332, 315, 314;,
    3;346, 321, 320;,
    3;320, 354, 345;,
    3;351, 349, 309;,
    3;349, 311, 309;,
    3;349, 348, 311;,
    3;348, 353, 311;,
    3;355, 356, 357;,
    3;355, 358, 356;,
    3;355, 359, 358;,
    3;355, 360, 359;,
    3;355, 361, 360;,
    3;355, 357, 361;,
    3;362, 363, 364;,
    3;365, 362, 364;,
    3;366, 367, 368;,
    3;367, 369, 368;,
    3;370, 371, 372;,
    3;372, 373, 370;,
    3;374, 375, 376;,
    3;375, 377, 376;;

   MeshNormals {
    378;
    0.381719; 0.853272; 0.355272;,
    0.365384; 0.774749; 0.516002;,
    0.494648; 0.737140; 0.460377;,
    -0.097832; 0.706250; 0.701171;,
    -0.365385; 0.774743; 0.516010;,
    -0.381721; 0.853269; 0.355277;,
    0.097827; 0.706254; 0.701167;,
    -0.494651; 0.737134; 0.460384;,
    0.131061; 0.043742; -0.990409;,
    0.485907; 0.492857; -0.721794;,
    -0.064867; 0.757506; -0.649598;,
    0.485907; 0.492857; -0.721794;,
    -0.131052; 0.043726; -0.990411;,
    -0.577366; 0.577318; -0.577366;,
    0.064903; 0.757490; -0.649613;,
    -0.474924; 0.679179; -0.559610;,
    -0.000144; 0.895892; -0.444272;,
    -0.000288; 0.452335; -0.891848;,
    -0.486155; 0.492790; -0.721673;,
    -0.486155; 0.492790; -0.721673;,
    0.707107; -0.000049; -0.707107;,
    0.474025; 0.679832; -0.559580;,
    -0.577345; 0.577359; 0.577346;,
    -0.468174; 0.711510; 0.523991;,
    0.707107; 0.000020; 0.707107;,
    0.467265; 0.712123; 0.523970;,
    -0.468174; 0.711510; 0.523991;,
    -0.474924; 0.679179; -0.559610;,
    -0.577345; 0.577359; 0.577346;,
    -0.577366; 0.577318; -0.577366;,
    0.474025; 0.679832; -0.559580;,
    0.467265; 0.712123; 0.523970;,
    0.707107; -0.000049; -0.707107;,
    0.707107; 0.000020; 0.707107;,
    0.364839; 0.000002; 0.931071;,
    0.257893; 0.707347; 0.658143;,
    0.000000; 0.846382; 0.532576;,
    0.000000; 0.727226; 0.686398;,
    -0.364840; 0.000000; 0.931070;,
    -0.257893; 0.707346; 0.658143;,
    -0.064867; 0.757506; -0.649598;,
    -0.097832; 0.706250; 0.701171;,
    0.474025; 0.679832; -0.559580;,
    0.467265; 0.712123; 0.523970;,
    0.485907; 0.492857; -0.721794;,
    -0.000144; 0.895892; -0.444272;,
    -0.468174; 0.711510; 0.523991;,
    0.097827; 0.706254; 0.701167;,
    -0.474924; 0.679179; -0.559610;,
    0.064903; 0.757490; -0.649613;,
    0.000000; 0.727226; 0.686398;,
    0.257893; 0.707347; 0.658143;,
    -0.000000; 0.986259; 0.165209;,
    0.114187; 0.991269; 0.065926;,
    0.494648; 0.737140; 0.460377;,
    -0.257893; 0.707346; 0.658143;,
    -0.114187; 0.991269; 0.065926;,
    -0.494651; 0.737134; 0.460384;,
    -0.143075; 0.986259; -0.082604;,
    -0.486155; 0.492790; -0.721673;,
    -0.000000; 0.993972; -0.109633;,
    0.143075; 0.986259; -0.082604;,
    0.871973; 0.412276; -0.263990;,
    0.788274; -0.605834; -0.107650;,
    0.775691; -0.175511; -0.606217;,
    0.871973; 0.412276; -0.263990;,
    -0.764895; 0.542473; -0.347359;,
    0.510520; 0.724134; -0.463680;,
    -0.510520; 0.724134; -0.463680;,
    -0.510520; 0.724134; -0.463680;,
    -0.577366; 0.577318; -0.577366;,
    0.510520; 0.724134; -0.463680;,
    -0.131052; 0.043726; -0.990411;,
    0.025384; -0.927142; 0.373850;,
    0.014985; -0.517366; 0.855633;,
    -0.718008; -0.645805; 0.259616;,
    -0.599896; -0.310941; 0.737184;,
    0.741522; -0.621975; 0.251577;,
    0.802355; -0.230021; 0.550743;,
    0.025384; -0.927142; 0.373850;,
    -0.768102; -0.630473; -0.111904;,
    0.026099; -0.990618; -0.134142;,
    -0.763198; -0.188639; -0.618016;,
    -0.764895; 0.542473; -0.347359;,
    0.775691; -0.175511; -0.606217;,
    0.871973; 0.412276; -0.263990;,
    0.026099; -0.990618; -0.134142;,
    0.788274; -0.605834; -0.107650;,
    0.455919; -0.889141; -0.039582;,
    0.802355; -0.230021; 0.550743;,
    0.741522; -0.621975; 0.251577;,
    -0.763198; -0.188639; -0.618016;,
    0.775691; -0.175511; -0.606217;,
    0.020629; -0.907061; -0.420493;,
    0.584500; 0.013854; 0.811275;,
    0.510520; 0.724134; -0.463680;,
    -0.131052; 0.043726; -0.990411;,
    -0.510520; 0.724134; -0.463680;,
    -0.764895; 0.542473; -0.347359;,
    -0.577351; 0.577350; 0.577350;,
    -0.768102; -0.630473; -0.111904;,
    -0.599896; -0.310941; 0.737184;,
    -0.718008; -0.645805; 0.259616;,
    -0.768102; -0.630473; -0.111904;,
    -0.763198; -0.188639; -0.618016;,
    0.020629; -0.907061; -0.420493;,
    0.020629; -0.907061; -0.420493;,
    -0.577351; 0.577350; 0.577350;,
    -0.599896; -0.310941; 0.737184;,
    0.584500; 0.013854; 0.811275;,
    0.014985; -0.517366; 0.855633;,
    0.802355; -0.230021; 0.550743;,
    0.584500; 0.013854; 0.811275;,
    -0.365385; 0.774743; 0.516010;,
    -0.577351; 0.577350; 0.577350;,
    -0.577345; 0.577359; 0.577346;,
    0.020629; -0.907061; -0.420493;,
    0.788274; -0.605834; -0.107650;,
    0.775691; -0.175511; -0.606217;,
    -0.000000; -0.996447; -0.084218;,
    0.361884; -0.902288; -0.234342;,
    -0.295112; -0.954517; -0.042492;,
    0.000000; -0.968830; -0.247728;,
    0.455919; -0.889141; -0.039582;,
    -0.131052; 0.043726; -0.990411;,
    -0.361881; -0.902289; -0.234342;,
    0.365384; 0.774749; 0.516002;,
    0.381719; 0.853272; 0.355272;,
    -0.584499; 0.013855; 0.811276;,
    0.000000; 0.846382; 0.532576;,
    -0.437116; 0.786040; 0.437116;,
    0.437117; 0.786039; 0.437117;,
    -0.000001; 0.057863; 0.998325;,
    -0.227867; -0.961399; -0.154235;,
    0.584500; 0.013854; 0.811275;,
    -0.781104; -0.614024; 0.113361;,
    -0.381721; 0.853269; 0.355277;,
    -0.781104; -0.614024; 0.113361;,
    0.281784; -0.945309; -0.164284;,
    -0.227867; -0.961399; -0.154235;,
    0.000000; -0.968830; -0.247728;,
    -0.294927; -0.908865; -0.294928;,
    0.000000; -0.908864; -0.417092;,
    0.131061; 0.043742; -0.990409;,
    0.281784; -0.945309; -0.164284;,
    0.874048; -0.474535; 0.104195;,
    0.361875; -0.878447; -0.312054;,
    0.555818; -0.831135; 0.016764;,
    -0.227867; -0.961399; -0.154235;,
    -0.294927; -0.908865; -0.294928;,
    -0.781104; -0.614024; 0.113361;,
    -0.484108; -0.874770; 0.020404;,
    0.173852; -0.984772; 0.000000;,
    0.123669; -0.984771; 0.122200;,
    0.000000; -1.000000; -0.000738;,
    0.122932; -0.984772; -0.122932;,
    0.000000; -0.985023; 0.172424;,
    -0.123669; -0.984771; 0.122201;,
    -0.173853; -0.984772; -0.000000;,
    -0.122932; -0.984772; -0.122932;,
    -0.000000; -0.984772; -0.173852;,
    -0.584499; 0.013855; 0.811276;,
    0.874048; -0.474535; 0.104195;,
    0.555818; -0.831135; 0.016764;,
    0.391576; -0.832668; 0.391576;,
    0.874048; -0.474535; 0.104195;,
    0.361875; -0.878447; -0.312054;,
    0.281784; -0.945309; -0.164284;,
    0.361875; -0.878447; -0.312054;,
    0.000000; -0.908864; -0.417092;,
    -0.294927; -0.908865; -0.294928;,
    -0.361881; -0.902289; -0.234342;,
    -0.486155; 0.492790; -0.721673;,
    -0.000000; -0.996447; -0.084218;,
    -0.000288; 0.452335; -0.891848;,
    0.361884; -0.902288; -0.234342;,
    0.485907; 0.492857; -0.721794;,
    -0.484108; -0.874770; 0.020404;,
    -0.391580; -0.832665; 0.391579;,
    0.874048; -0.474535; 0.104195;,
    0.437117; 0.786039; 0.437117;,
    0.555818; -0.831135; 0.016764;,
    0.391576; -0.832668; 0.391576;,
    0.437117; 0.786039; 0.437117;,
    -0.000001; 0.057863; 0.998325;,
    0.391576; -0.832668; 0.391576;,
    -0.000001; -0.832667; 0.553774;,
    -0.437116; 0.786040; 0.437116;,
    -0.000001; -0.832667; 0.553774;,
    -0.391580; -0.832665; 0.391579;,
    -0.437116; 0.786040; 0.437116;,
    -0.781104; -0.614024; 0.113361;,
    -0.391580; -0.832665; 0.391579;,
    -0.484108; -0.874770; 0.020404;,
    -0.000001; -0.832667; 0.553774;,
    -0.365385; 0.774743; 0.516010;,
    0.584500; 0.013854; 0.811275;,
    0.764895; 0.542473; -0.347359;,
    -0.764895; 0.542473; -0.347359;,
    0.510520; 0.724134; -0.463680;,
    -0.510520; 0.724134; -0.463680;,
    -0.764895; 0.542473; -0.347359;,
    -0.295112; -0.954517; -0.042492;,
    -0.510520; 0.724134; -0.463680;,
    0.131061; 0.043742; -0.990409;,
    0.000000; 1.000000; 0.000000;,
    0.510520; 0.724134; -0.463680;,
    0.131061; 0.043742; -0.990409;,
    -0.510520; 0.724134; -0.463680;,
    -0.771024; -0.180574; -0.610667;,
    -0.658290; -0.741165; -0.131640;,
    -0.584499; 0.013855; 0.811276;,
    -0.732735; -0.631074; 0.254648;,
    -0.608721; -0.306785; 0.731670;,
    -0.009280; -0.517931; 0.855372;,
    -0.015742; -0.927478; 0.373546;,
    0.599900; -0.310939; 0.737182;,
    0.718015; -0.645798; 0.259614;,
    0.764895; 0.542473; -0.347359;,
    0.763202; -0.188636; -0.618012;,
    -0.764895; 0.542473; -0.347359;,
    -0.771024; -0.180574; -0.610667;,
    -0.608721; -0.306785; 0.731670;,
    -0.732735; -0.631074; 0.254648;,
    -0.015742; -0.927478; 0.373546;,
    0.768108; -0.630466; -0.111902;,
    -0.016211; -0.990828; -0.134151;,
    -0.016211; -0.990828; -0.134151;,
    -0.658290; -0.741165; -0.131640;,
    -0.012811; -0.907454; -0.419956;,
    -0.771024; -0.180574; -0.610667;,
    0.763202; -0.188636; -0.618012;,
    0.764895; 0.542473; -0.347359;,
    0.510520; 0.724134; -0.463680;,
    0.768108; -0.630466; -0.111902;,
    0.577350; 0.577350; 0.577350;,
    0.718015; -0.645798; 0.259614;,
    0.599900; -0.310939; 0.737182;,
    0.763202; -0.188636; -0.618012;,
    0.768108; -0.630466; -0.111902;,
    -0.012811; -0.907454; -0.419956;,
    -0.012811; -0.907454; -0.419956;,
    0.599900; -0.310939; 0.737182;,
    0.577350; 0.577350; 0.577350;,
    -0.009280; -0.517931; 0.855372;,
    -0.584499; 0.013855; 0.811276;,
    -0.608721; -0.306785; 0.731670;,
    0.365384; 0.774749; 0.516002;,
    -0.584499; 0.013855; 0.811276;,
    0.000000; 1.000000; -0.000000;,
    0.577350; 0.577350; 0.577350;,
    -0.012811; -0.907454; -0.419956;,
    -0.771024; -0.180574; -0.610667;,
    -0.658290; -0.741165; -0.131640;,
    0.097827; 0.706254; 0.701167;,
    0.478824; -0.618488; 0.623057;,
    0.019867; 0.691290; 0.722305;,
    -0.468174; 0.711510; 0.523991;,
    0.064903; 0.757490; -0.649613;,
    -0.474924; 0.679179; -0.559610;,
    -0.020633; 0.640652; -0.767554;,
    0.427315; -0.617759; -0.660134;,
    0.064903; 0.757490; -0.649613;,
    0.427315; -0.617759; -0.660134;,
    0.097827; 0.706254; 0.701167;,
    0.478824; -0.618488; 0.623057;,
    -0.468174; 0.711510; 0.523991;,
    0.019867; 0.691290; 0.722305;,
    -0.474924; 0.679179; -0.559610;,
    -0.020633; 0.640652; -0.767554;,
    0.427315; -0.617759; -0.660134;,
    -0.391901; -0.872796; -0.290931;,
    0.478824; -0.618488; 0.623057;,
    -0.431544; -0.850790; 0.299876;,
    0.019867; 0.691290; 0.722305;,
    -0.923906; 0.208287; 0.320959;,
    -0.020633; 0.640652; -0.767554;,
    -0.930336; 0.222011; -0.291867;,
    -0.020633; 0.640652; -0.767554;,
    -0.930336; 0.222011; -0.291867;,
    0.427315; -0.617759; -0.660134;,
    -0.391901; -0.872796; -0.290931;,
    0.478824; -0.618488; 0.623057;,
    -0.431544; -0.850790; 0.299876;,
    0.019867; 0.691290; 0.722305;,
    -0.923906; 0.208287; 0.320959;,
    -0.427262; -0.617765; -0.660162;,
    0.428723; -0.856146; -0.288463;,
    0.019849; 0.641032; -0.767257;,
    0.929957; 0.220453; -0.294246;,
    -0.478830; -0.618482; 0.623059;,
    0.426628; -0.852928; 0.300837;,
    -0.427262; -0.617765; -0.660162;,
    0.428723; -0.856146; -0.288463;,
    0.019849; 0.641032; -0.767257;,
    0.929957; 0.220453; -0.294246;,
    -0.020711; 0.691610; 0.721974;,
    0.923125; 0.208324; 0.323174;,
    -0.020711; 0.691610; 0.721974;,
    0.923125; 0.208324; 0.323174;,
    -0.478830; -0.618482; 0.623059;,
    0.426628; -0.852928; 0.300837;,
    -0.831269; 0.339961; -0.439794;,
    0.000434; 0.937893; -0.346924;,
    -0.719833; -0.571252; -0.394349;,
    0.832268; 0.335436; -0.441376;,
    0.065678; -0.895937; -0.439299;,
    0.750951; -0.538491; -0.382231;,
    0.750951; -0.538491; -0.382231;,
    0.428723; -0.856146; -0.288463;,
    0.065678; -0.895937; -0.439299;,
    0.040266; -0.998756; -0.029395;,
    0.657883; 0.630450; 0.411975;,
    0.774585; 0.629279; 0.063452;,
    -0.003191; 0.996713; 0.080955;,
    -0.000070; 0.992235; 0.124380;,
    0.652051; -0.646920; 0.395378;,
    0.426628; -0.852928; 0.300837;,
    0.923125; 0.208324; 0.323174;,
    0.657883; 0.630450; 0.411975;,
    0.929957; 0.220453; -0.294246;,
    0.682813; 0.728478; -0.055550;,
    0.774585; 0.629279; 0.063452;,
    -0.923906; 0.208287; 0.320959;,
    -0.777734; 0.625519; 0.062095;,
    -0.930336; 0.222011; -0.291867;,
    -0.684277; 0.727194; -0.054357;,
    -0.654649; -0.645643; 0.393167;,
    0.652051; -0.646920; 0.395378;,
    -0.660491; 0.629184; 0.409730;,
    0.657883; 0.630450; 0.411975;,
    -0.777734; 0.625519; 0.062095;,
    -0.660491; 0.629184; 0.409730;,
    -0.004862; 0.998887; -0.046918;,
    0.682813; 0.728478; -0.055550;,
    -0.684277; 0.727194; -0.054357;,
    0.000434; 0.937893; -0.346924;,
    -0.660491; 0.629184; 0.409730;,
    -0.431544; -0.850790; 0.299876;,
    -0.654649; -0.645643; 0.393167;,
    -0.831269; 0.339961; -0.439794;,
    -0.719833; -0.571252; -0.394349;,
    -0.391901; -0.872796; -0.290931;,
    0.832268; 0.335436; -0.441376;,
    -0.831269; 0.339961; -0.439794;,
    0.750951; -0.538491; -0.382231;,
    0.832268; 0.335436; -0.441376;,
    -0.654649; -0.645643; 0.393167;,
    -0.431544; -0.850790; 0.299876;,
    -0.004058; -0.998919; 0.046304;,
    0.652051; -0.646920; 0.395378;,
    0.426628; -0.852928; 0.300837;,
    -0.719833; -0.571252; -0.394349;,
    -0.391901; -0.872796; -0.290931;,
    0.428723; -0.856146; -0.288463;,
    -0.000000; 1.000000; 0.000000;,
    -0.114187; 0.991269; 0.065926;,
    -0.000000; 0.986259; 0.165209;,
    -0.143075; 0.986259; -0.082604;,
    -0.000000; 0.993972; -0.109633;,
    0.143075; 0.986259; -0.082604;,
    0.114187; 0.991269; 0.065926;,
    -0.064867; 0.757506; -0.649598;,
    -0.427262; -0.617765; -0.660162;,
    0.019849; 0.641032; -0.767257;,
    0.474025; 0.679832; -0.559580;,
    -0.097832; 0.706250; 0.701171;,
    -0.478830; -0.618482; 0.623059;,
    -0.064867; 0.757506; -0.649598;,
    -0.427262; -0.617765; -0.660162;,
    -0.020711; 0.691610; 0.721974;,
    -0.478830; -0.618482; 0.623059;,
    -0.097832; 0.706250; 0.701171;,
    0.467265; 0.712123; 0.523970;,
    0.474025; 0.679832; -0.559580;,
    0.019849; 0.641032; -0.767257;,
    0.467265; 0.712123; 0.523970;,
    -0.020711; 0.691610; 0.721974;;
    273;
    3;0, 1, 2;,
    3;1, 3, 2;,
    3;4, 5, 6;,
    3;5, 7, 6;,
    3;8, 9, 10;,
    3;9, 11, 10;,
    3;12, 13, 14;,
    3;13, 15, 14;,
    3;16, 17, 18;,
    3;17, 19, 18;,
    3;17, 16, 9;,
    3;16, 11, 9;,
    3;19, 12, 18;,
    3;12, 14, 18;,
    3;20, 8, 21;,
    3;8, 10, 21;,
    3;22, 4, 23;,
    3;4, 6, 23;,
    3;1, 24, 3;,
    3;24, 25, 3;,
    3;26, 27, 28;,
    3;27, 29, 28;,
    3;30, 31, 32;,
    3;31, 33, 32;,
    3;0, 2, 34;,
    3;2, 35, 34;,
    3;34, 35, 36;,
    3;35, 37, 36;,
    3;36, 37, 38;,
    3;37, 39, 38;,
    3;38, 39, 5;,
    3;39, 7, 5;,
    3;40, 41, 42;,
    3;41, 43, 42;,
    3;40, 44, 45;,
    3;46, 47, 48;,
    3;47, 49, 48;,
    3;50, 51, 52;,
    3;51, 53, 52;,
    3;53, 51, 54;,
    3;55, 50, 56;,
    3;50, 52, 56;,
    3;55, 56, 57;,
    3;47, 57, 58;,
    3;57, 56, 58;,
    3;49, 45, 59;,
    3;45, 49, 60;,
    3;45, 60, 40;,
    3;58, 60, 47;,
    3;60, 49, 47;,
    3;60, 61, 40;,
    3;61, 41, 40;,
    3;61, 53, 41;,
    3;53, 54, 41;,
    3;62, 63, 64;,
    3;65, 66, 67;,
    3;66, 68, 67;,
    3;69, 70, 71;,
    3;70, 72, 71;,
    3;73, 74, 75;,
    3;74, 76, 75;,
    3;77, 78, 79;,
    3;78, 74, 79;,
    3;75, 80, 73;,
    3;80, 81, 73;,
    3;82, 83, 84;,
    3;83, 85, 84;,
    3;79, 86, 77;,
    3;86, 87, 77;,
    3;88, 89, 62;,
    3;89, 90, 62;,
    3;62, 90, 63;,
    3;91, 92, 93;,
    3;88, 94, 89;,
    3;95, 96, 62;,
    3;96, 88, 62;,
    3;97, 98, 99;,
    3;98, 100, 99;,
    3;99, 100, 101;,
    3;100, 102, 101;,
    3;103, 98, 104;,
    3;104, 105, 103;,
    3;80, 106, 81;,
    3;107, 108, 109;,
    3;108, 110, 109;,
    3;109, 110, 111;,
    3;112, 113, 114;,
    3;113, 115, 114;,
    3;116, 87, 86;,
    3;117, 105, 118;,
    3;119, 120, 121;,
    3;122, 119, 121;,
    3;123, 124, 125;,
    3;119, 123, 125;,
    3;123, 119, 122;,
    3;126, 127, 128;,
    3;129, 130, 131;,
    3;130, 132, 131;,
    3;123, 122, 133;,
    3;134, 123, 133;,
    3;135, 134, 133;,
    3;129, 136, 130;,
    3;136, 137, 130;,
    3;138, 122, 121;,
    3;139, 140, 141;,
    3;140, 142, 141;,
    3;120, 143, 121;,
    3;144, 145, 146;,
    3;145, 147, 146;,
    3;148, 149, 150;,
    3;149, 151, 150;,
    3;152, 153, 154;,
    3;155, 152, 154;,
    3;153, 156, 154;,
    3;156, 157, 154;,
    3;157, 158, 154;,
    3;158, 159, 154;,
    3;159, 160, 154;,
    3;160, 155, 154;,
    3;161, 162, 138;,
    3;121, 161, 138;,
    3;129, 131, 127;,
    3;163, 164, 152;,
    3;164, 153, 152;,
    3;131, 165, 127;,
    3;166, 163, 155;,
    3;163, 152, 155;,
    3;140, 167, 142;,
    3;167, 168, 142;,
    3;160, 169, 155;,
    3;169, 166, 155;,
    3;159, 170, 160;,
    3;170, 169, 160;,
    3;171, 172, 173;,
    3;172, 174, 173;,
    3;173, 174, 175;,
    3;174, 176, 175;,
    3;158, 177, 159;,
    3;177, 170, 159;,
    3;157, 178, 158;,
    3;178, 177, 158;,
    3;179, 180, 181;,
    3;180, 182, 181;,
    3;183, 184, 185;,
    3;184, 186, 185;,
    3;184, 187, 188;,
    3;187, 189, 188;,
    3;190, 191, 192;,
    3;191, 193, 192;,
    3;153, 164, 156;,
    3;164, 194, 156;,
    3;156, 194, 157;,
    3;194, 178, 157;,
    3;136, 195, 196;,
    3;197, 198, 199;,
    3;198, 200, 199;,
    3;201, 202, 203;,
    3;202, 204, 203;,
    3;205, 206, 207;,
    3;206, 208, 207;,
    3;201, 209, 202;,
    3;209, 210, 202;,
    3;202, 210, 211;,
    3;210, 212, 211;,
    3;211, 212, 213;,
    3;214, 215, 216;,
    3;215, 217, 216;,
    3;218, 219, 220;,
    3;219, 221, 220;,
    3;222, 223, 214;,
    3;223, 224, 214;,
    3;225, 217, 226;,
    3;217, 215, 226;,
    3;227, 224, 228;,
    3;224, 223, 228;,
    3;229, 230, 231;,
    3;232, 233, 234;,
    3;233, 235, 234;,
    3;234, 235, 236;,
    3;235, 237, 236;,
    3;238, 232, 239;,
    3;239, 240, 238;,
    3;226, 241, 225;,
    3;242, 243, 244;,
    3;243, 245, 244;,
    3;244, 245, 246;,
    3;247, 248, 249;,
    3;248, 250, 249;,
    3;227, 228, 251;,
    3;252, 240, 253;,
    3;254, 255, 256;,
    3;257, 254, 256;,
    3;258, 259, 260;,
    3;260, 261, 258;,
    3;262, 263, 264;,
    3;263, 265, 264;,
    3;266, 267, 268;,
    3;267, 269, 268;,
    3;270, 271, 272;,
    3;271, 273, 272;,
    3;274, 275, 276;,
    3;275, 277, 276;,
    3;278, 279, 280;,
    3;279, 281, 280;,
    3;282, 283, 284;,
    3;283, 285, 284;,
    3;286, 287, 288;,
    3;287, 289, 288;,
    3;290, 291, 292;,
    3;291, 293, 292;,
    3;294, 295, 296;,
    3;295, 297, 296;,
    3;298, 299, 300;,
    3;299, 301, 300;,
    3;302, 303, 304;,
    3;303, 305, 304;,
    3;304, 305, 306;,
    3;305, 307, 306;,
    3;308, 309, 310;,
    3;309, 311, 310;,
    3;312, 313, 314;,
    3;315, 312, 314;,
    3;316, 317, 318;,
    3;319, 316, 318;,
    3;320, 321, 318;,
    3;321, 322, 318;,
    3;323, 324, 325;,
    3;324, 326, 325;,
    3;327, 328, 329;,
    3;328, 330, 329;,
    3;314, 331, 332;,
    3;314, 313, 333;,
    3;313, 334, 333;,
    3;331, 314, 335;,
    3;314, 333, 335;,
    3;336, 333, 334;,
    3;335, 333, 336;,
    3;324, 323, 337;,
    3;323, 338, 339;,
    3;339, 337, 323;,
    3;325, 326, 340;,
    3;341, 342, 325;,
    3;325, 340, 341;,
    3;334, 343, 336;,
    3;336, 344, 335;,
    3;345, 346, 320;,
    3;318, 322, 319;,
    3;347, 348, 349;,
    3;347, 349, 350;,
    3;349, 351, 350;,
    3;352, 310, 353;,
    3;310, 311, 353;,
    3;332, 315, 314;,
    3;346, 321, 320;,
    3;320, 354, 345;,
    3;351, 349, 309;,
    3;349, 311, 309;,
    3;349, 348, 311;,
    3;348, 353, 311;,
    3;355, 356, 357;,
    3;355, 358, 356;,
    3;355, 359, 358;,
    3;355, 360, 359;,
    3;355, 361, 360;,
    3;355, 357, 361;,
    3;362, 363, 364;,
    3;365, 362, 364;,
    3;366, 367, 368;,
    3;367, 369, 368;,
    3;370, 371, 372;,
    3;372, 373, 370;,
    3;374, 375, 376;,
    3;375, 377, 376;;
   }

   MeshTextureCoords {
    378;
    0.498033; 0.921866;,
    0.452073; 0.921876;,
    0.498968; 0.962880;,
    0.453009; 0.962892;,
    0.862110; 0.921875;,
    0.816398; 0.921865;,
    0.863294; 0.962889;,
    0.817333; 0.962879;,
    0.861151; 0.924893;,
    0.823607; 0.924969;,
    0.861150; 0.962003;,
    0.823608; 0.962077;,
    0.448456; 0.925699;,
    0.405956; 0.925782;,
    0.448170; 0.962809;,
    0.406897; 0.962891;,
    0.654661; 0.962408;,
    0.654660; 0.925300;,
    0.485714; 0.962737;,
    0.485713; 0.925629;,
    0.906250; 0.924805;,
    0.906250; 0.961914;,
    0.904297; 0.921875;,
    0.904297; 0.962891;,
    0.407268; 0.921876;,
    0.408203; 0.962891;,
    0.514648; 0.874023;,
    0.748047; 0.875000;,
    0.514649; 0.847657;,
    0.748047; 0.848633;,
    0.517578; 0.872070;,
    0.750000; 0.873047;,
    0.517578; 0.847656;,
    0.750000; 0.848633;,
    0.610592; 0.921862;,
    0.611527; 0.962876;,
    0.657216; 0.921861;,
    0.658150; 0.962874;,
    0.703839; 0.921862;,
    0.704774; 0.962875;,
    0.306509; 0.133547;,
    0.302921; 0.292393;,
    0.338284; 0.133303;,
    0.334696; 0.292149;,
    0.281053; 0.089726;,
    0.162291; 0.078671;,
    -0.017125; 0.294850;,
    0.011954; 0.294627;,
    -0.013538; 0.136004;,
    0.015541; 0.135781;,
    0.154607; 0.418814;,
    0.187908; 0.408118;,
    0.154734; 0.413218;,
    0.189860; 0.394866;,
    0.268440; 0.376179;,
    0.121779; 0.408626;,
    0.120424; 0.395399;,
    0.042661; 0.377913;,
    0.121241; 0.359227;,
    0.042988; 0.091554;,
    0.156368; 0.340875;,
    0.190677; 0.358694;,
    0.830078; 0.755859;,
    0.830078; 0.740234;,
    0.906422; 0.754801;,
    0.792969; 0.759766;,
    0.767578; 0.759766;,
    0.794922; 0.777344;,
    0.769531; 0.777344;,
    0.880337; 0.731753;,
    0.806102; 0.734687;,
    0.878022; 0.738145;,
    0.803920; 0.740711;,
    0.439779; 0.758819;,
    0.417969; 0.753906;,
    0.439779; 0.747100;,
    0.417969; 0.742188;,
    0.439779; 0.745107;,
    0.417969; 0.738281;,
    0.439779; 0.760732;,
    0.830078; 0.738281;,
    0.830078; 0.750000;,
    0.830078; 0.750000;,
    0.830078; 0.750000;,
    0.830078; 0.750000;,
    0.830078; 0.750000;,
    0.830078; 0.753906;,
    0.830078; 0.738281;,
    0.654450; 0.773147;,
    0.417973; 0.761110;,
    0.439112; 0.745540;,
    0.886719; 0.787109;,
    0.904297; 0.787109;,
    0.902344; 0.757813;,
    0.417969; 0.789063;,
    0.813790; 0.783702;,
    0.748660; 0.784565;,
    0.813753; 0.783358;,
    0.830078; 0.755859;,
    0.417969; 0.789063;,
    0.830078; 0.740234;,
    0.417989; 0.761258;,
    0.439147; 0.745869;,
    0.831380; 0.736979;,
    0.905873; 0.755601;,
    0.901345; 0.743937;,
    0.900401; 0.743006;,
    0.415625; 0.791016;,
    0.418590; 0.758209;,
    0.441406; 0.790234;,
    0.430859; 0.748828;,
    0.442394; 0.757488;,
    0.427448; 0.754299;,
    0.557209; 0.749582;,
    0.429743; 0.747963;,
    0.559389; 0.743563;,
    0.900401; 0.745469;,
    0.831380; 0.736979;,
    0.905873; 0.755601;,
    0.207031; 0.406250;,
    0.107762; 0.444162;,
    0.050020; 0.620961;,
    0.202560; 0.675627;,
    0.356607; 0.617055;,
    0.357969; 0.544634;,
    0.305083; 0.441649;,
    0.731616; 0.060000;,
    0.684424; 0.201086;,
    0.732506; 0.201231;,
    0.518869; 0.271201;,
    0.381789; 0.342836;,
    0.656678; 0.343665;,
    0.519531; 0.402344;,
    0.300612; 0.711026;,
    0.353516; 0.798828;,
    0.340009; 0.799000;,
    0.352603; 0.200086;,
    0.324138; 0.200000;,
    0.103291; 0.713540;,
    0.091797; 0.359375;,
    0.160156; 0.359375;,
    0.099266; 0.310547;,
    0.160156; 0.310547;,
    0.051222; 0.548542;,
    0.220703; 0.367188;,
    0.214844; 0.138672;,
    0.294922; 0.302734;,
    0.322368; 0.078107;,
    0.220703; 0.367188;,
    0.294922; 0.302734;,
    0.214844; 0.138672;,
    0.322366; 0.078108;,
    0.565153; 0.202227;,
    0.550557; 0.165255;,
    0.511832; 0.201572;,
    0.550023; 0.238833;,
    0.514862; 0.147566;,
    0.478792; 0.164373;,
    0.463662; 0.200980;,
    0.478258; 0.237952;,
    0.514029; 0.253631;,
    0.046875; 0.802734;,
    0.060955; 0.802555;,
    0.715733; 0.204077;,
    0.659160; 0.060774;,
    0.712891; 0.201172;,
    0.657088; 0.345964;,
    0.091797; 0.359375;,
    0.099266; 0.310547;,
    0.517578; 0.403320;,
    0.378926; 0.342547;,
    0.069752; 0.035671;,
    0.043002; 0.090706;,
    0.164063; 0.000000;,
    0.162306; 0.077753;,
    0.256794; 0.034235;,
    0.281067; 0.088878;,
    0.322353; 0.199244;,
    0.380998; 0.057356;,
    0.831621; 0.679944;,
    0.735012; 0.679944;,
    0.831621; 0.626256;,
    0.745567; 0.626256;,
    0.774414; 0.610352;,
    0.875000; 0.611328;,
    0.784427; 0.555771;,
    0.874023; 0.556641;,
    0.773438; 0.611328;,
    0.873047; 0.556641;,
    0.782581; 0.556641;,
    0.735012; 0.679944;,
    0.831621; 0.679944;,
    0.745567; 0.626256;,
    0.831621; 0.626257;,
    0.520508; 0.000000;,
    0.304247; 0.058712;,
    0.305322; 0.199943;,
    0.767578; 0.759766;,
    0.792969; 0.759766;,
    0.769531; 0.777344;,
    0.794922; 0.777344;,
    0.830078; 0.755859;,
    0.654450; 0.773147;,
    0.813790; 0.783702;,
    0.748660; 0.784565;,
    0.806102; 0.734687;,
    0.880337; 0.731753;,
    0.803920; 0.740711;,
    0.878022; 0.738145;,
    0.906422; 0.754801;,
    0.830078; 0.740234;,
    0.417969; 0.789063;,
    0.439112; 0.745540;,
    0.417973; 0.761110;,
    0.417969; 0.753906;,
    0.439779; 0.758819;,
    0.417969; 0.742188;,
    0.439779; 0.747100;,
    0.417969; 0.753906;,
    0.417969; 0.753906;,
    0.417969; 0.753906;,
    0.417969; 0.753906;,
    0.417969; 0.738281;,
    0.439779; 0.745107;,
    0.439779; 0.760732;,
    0.830078; 0.738281;,
    0.830078; 0.750000;,
    0.830078; 0.753906;,
    0.830078; 0.738281;,
    0.902344; 0.757813;,
    0.904297; 0.787109;,
    0.886719; 0.787109;,
    0.830078; 0.755859;,
    0.813753; 0.783358;,
    0.830078; 0.740234;,
    0.417969; 0.789063;,
    0.439147; 0.745869;,
    0.417989; 0.761258;,
    0.905873; 0.755601;,
    0.831380; 0.736979;,
    0.901345; 0.743937;,
    0.900401; 0.743006;,
    0.418590; 0.758209;,
    0.415625; 0.791016;,
    0.430859; 0.748828;,
    0.441406; 0.790234;,
    0.442394; 0.757488;,
    0.557209; 0.749582;,
    0.427448; 0.754299;,
    0.559389; 0.743563;,
    0.429743; 0.747963;,
    0.900401; 0.745469;,
    0.905873; 0.755601;,
    0.831380; 0.736979;,
    0.507963; 0.409857;,
    0.414021; 0.473510;,
    0.414567; 0.511428;,
    0.550850; 0.409317;,
    0.609049; 0.408253;,
    0.566262; 0.408247;,
    0.708919; 0.514520;,
    0.708919; 0.477486;,
    0.734167; 0.692362;,
    0.765103; 0.726989;,
    0.884020; 0.692362;,
    0.838988; 0.726989;,
    0.385994; 0.010102;,
    0.356260; 0.066313;,
    0.227479; 0.010102;,
    0.274686; 0.066313;,
    0.410543; 0.682788;,
    0.511108; 0.682788;,
    0.410543; 0.534751;,
    0.511108; 0.534751;,
    0.275546; 0.994234;,
    0.275546; 0.918844;,
    0.128291; 0.994234;,
    0.128291; 0.918844;,
    0.887639; 0.561722;,
    0.977820; 0.561736;,
    0.887639; 0.510196;,
    0.990703; 0.510212;,
    0.884746; 0.510675;,
    0.987810; 0.510691;,
    0.884746; 0.562201;,
    0.974927; 0.562215;,
    0.890270; 0.512474;,
    0.991480; 0.512490;,
    0.890270; 0.564000;,
    0.978597; 0.564014;,
    0.510726; 0.532680;,
    0.411970; 0.532680;,
    0.510726; 0.680717;,
    0.411970; 0.680717;,
    0.126388; 0.991946;,
    0.126388; 0.918106;,
    0.273643; 0.991946;,
    0.273643; 0.918106;,
    0.888696; 0.562788;,
    0.977023; 0.562801;,
    0.888696; 0.511262;,
    0.989906; 0.511277;,
    0.973545; 0.828267;,
    0.949723; 0.834323;,
    0.976336; 0.795277;,
    0.926959; 0.828267;,
    0.949723; 0.788652;,
    0.924340; 0.795277;,
    0.839408; 0.010120;,
    0.808436; 0.264893;,
    0.852902; 0.010633;,
    0.852902; 0.264893;,
    0.978022; 0.005643;,
    0.996747; 0.180529;,
    0.973504; 0.180529;,
    0.973504; 0.005643;,
    0.934784; 0.006873;,
    0.944210; 0.182159;,
    0.928149; 0.182159;,
    0.920329; 0.009005;,
    0.928149; 0.238548;,
    0.908072; 0.238548;,
    0.908072; 0.182159;,
    0.928149; 0.182159;,
    0.908072; 0.182159;,
    0.928149; 0.238548;,
    0.908072; 0.238548;,
    0.993025; 0.693331;,
    0.948224; 0.693331;,
    0.993025; 0.775195;,
    0.948224; 0.775195;,
    0.950911; 0.180529;,
    0.968985; 0.005643;,
    0.973504; 0.237482;,
    0.996747; 0.237482;,
    0.950911; 0.237482;,
    0.973504; 0.499597;,
    0.920329; 0.009005;,
    0.944210; 0.182159;,
    0.934784; 0.006873;,
    0.924345; 0.497594;,
    0.932370; 0.495768;,
    0.944210; 0.238548;,
    0.979830; 0.499119;,
    0.966884; 0.499119;,
    0.932370; 0.495768;,
    0.924345; 0.497594;,
    0.861547; 0.494363;,
    0.896125; 0.320745;,
    0.852902; 0.320745;,
    0.844258; 0.494363;,
    0.808436; 0.320745;,
    0.867050; 0.010120;,
    0.896125; 0.264893;,
    0.944210; 0.238548;,
    0.945745; 0.625821;,
    0.991283; 0.599530;,
    0.945745; 0.573239;,
    0.991283; 0.652112;,
    0.945745; 0.678403;,
    0.900208; 0.652112;,
    0.900208; 0.599530;,
    0.619580; 0.408759;,
    0.709959; 0.471695;,
    0.709959; 0.513822;,
    0.565438; 0.408063;,
    0.887691; 0.692504;,
    0.842659; 0.727132;,
    0.737838; 0.692504;,
    0.768775; 0.727132;,
    0.414449; 0.511485;,
    0.415312; 0.471256;,
    0.508369; 0.408565;,
    0.548877; 0.410297;,
    0.230810; 0.009757;,
    0.274124; 0.065366;,
    0.386370; 0.009757;,
    0.354756; 0.065366;;
   }

   MeshVertexColors {
    378;
    0; 1.000000; 1.000000; 1.000000; 1.000000;,
    1; 1.000000; 1.000000; 1.000000; 1.000000;,
    2; 1.000000; 1.000000; 1.000000; 1.000000;,
    3; 1.000000; 1.000000; 1.000000; 1.000000;,
    4; 1.000000; 1.000000; 1.000000; 1.000000;,
    5; 1.000000; 1.000000; 1.000000; 1.000000;,
    6; 1.000000; 1.000000; 1.000000; 1.000000;,
    7; 1.000000; 1.000000; 1.000000; 1.000000;,
    8; 1.000000; 1.000000; 1.000000; 1.000000;,
    9; 1.000000; 1.000000; 1.000000; 1.000000;,
    10; 1.000000; 1.000000; 1.000000; 1.000000;,
    11; 1.000000; 1.000000; 1.000000; 1.000000;,
    12; 1.000000; 1.000000; 1.000000; 1.000000;,
    13; 1.000000; 1.000000; 1.000000; 1.000000;,
    14; 1.000000; 1.000000; 1.000000; 1.000000;,
    15; 1.000000; 1.000000; 1.000000; 1.000000;,
    16; 1.000000; 1.000000; 1.000000; 1.000000;,
    17; 1.000000; 1.000000; 1.000000; 1.000000;,
    18; 1.000000; 1.000000; 1.000000; 1.000000;,
    19; 1.000000; 1.000000; 1.000000; 1.000000;,
    20; 1.000000; 1.000000; 1.000000; 1.000000;,
    21; 1.000000; 1.000000; 1.000000; 1.000000;,
    22; 1.000000; 1.000000; 1.000000; 1.000000;,
    23; 1.000000; 1.000000; 1.000000; 1.000000;,
    24; 1.000000; 1.000000; 1.000000; 1.000000;,
    25; 1.000000; 1.000000; 1.000000; 1.000000;,
    26; 1.000000; 1.000000; 1.000000; 1.000000;,
    27; 1.000000; 1.000000; 1.000000; 1.000000;,
    28; 1.000000; 1.000000; 1.000000; 1.000000;,
    29; 1.000000; 1.000000; 1.000000; 1.000000;,
    30; 1.000000; 1.000000; 1.000000; 1.000000;,
    31; 1.000000; 1.000000; 1.000000; 1.000000;,
    32; 1.000000; 1.000000; 1.000000; 1.000000;,
    33; 1.000000; 1.000000; 1.000000; 1.000000;,
    34; 1.000000; 1.000000; 1.000000; 1.000000;,
    35; 1.000000; 1.000000; 1.000000; 1.000000;,
    36; 1.000000; 1.000000; 1.000000; 1.000000;,
    37; 1.000000; 1.000000; 1.000000; 1.000000;,
    38; 1.000000; 1.000000; 1.000000; 1.000000;,
    39; 1.000000; 1.000000; 1.000000; 1.000000;,
    40; 1.000000; 1.000000; 1.000000; 1.000000;,
    41; 1.000000; 1.000000; 1.000000; 1.000000;,
    42; 1.000000; 1.000000; 1.000000; 1.000000;,
    43; 1.000000; 1.000000; 1.000000; 1.000000;,
    44; 1.000000; 1.000000; 1.000000; 1.000000;,
    45; 1.000000; 1.000000; 1.000000; 1.000000;,
    46; 1.000000; 1.000000; 1.000000; 1.000000;,
    47; 1.000000; 1.000000; 1.000000; 1.000000;,
    48; 1.000000; 1.000000; 1.000000; 1.000000;,
    49; 1.000000; 1.000000; 1.000000; 1.000000;,
    50; 1.000000; 1.000000; 1.000000; 1.000000;,
    51; 1.000000; 1.000000; 1.000000; 1.000000;,
    52; 1.000000; 1.000000; 1.000000; 1.000000;,
    53; 1.000000; 1.000000; 1.000000; 1.000000;,
    54; 1.000000; 1.000000; 1.000000; 1.000000;,
    55; 1.000000; 1.000000; 1.000000; 1.000000;,
    56; 1.000000; 1.000000; 1.000000; 1.000000;,
    57; 1.000000; 1.000000; 1.000000; 1.000000;,
    58; 1.000000; 1.000000; 1.000000; 1.000000;,
    59; 1.000000; 1.000000; 1.000000; 1.000000;,
    60; 1.000000; 1.000000; 1.000000; 1.000000;,
    61; 1.000000; 1.000000; 1.000000; 1.000000;,
    62; 1.000000; 1.000000; 1.000000; 1.000000;,
    63; 1.000000; 1.000000; 1.000000; 1.000000;,
    64; 1.000000; 1.000000; 1.000000; 1.000000;,
    65; 1.000000; 1.000000; 1.000000; 1.000000;,
    66; 1.000000; 1.000000; 1.000000; 1.000000;,
    67; 1.000000; 1.000000; 1.000000; 1.000000;,
    68; 1.000000; 1.000000; 1.000000; 1.000000;,
    69; 1.000000; 1.000000; 1.000000; 1.000000;,
    70; 1.000000; 1.000000; 1.000000; 1.000000;,
    71; 1.000000; 1.000000; 1.000000; 1.000000;,
    72; 1.000000; 1.000000; 1.000000; 1.000000;,
    73; 1.000000; 1.000000; 1.000000; 1.000000;,
    74; 1.000000; 1.000000; 1.000000; 1.000000;,
    75; 1.000000; 1.000000; 1.000000; 1.000000;,
    76; 1.000000; 1.000000; 1.000000; 1.000000;,
    77; 1.000000; 1.000000; 1.000000; 1.000000;,
    78; 1.000000; 1.000000; 1.000000; 1.000000;,
    79; 1.000000; 1.000000; 1.000000; 1.000000;,
    80; 1.000000; 1.000000; 1.000000; 1.000000;,
    81; 1.000000; 1.000000; 1.000000; 1.000000;,
    82; 1.000000; 1.000000; 1.000000; 1.000000;,
    83; 1.000000; 1.000000; 1.000000; 1.000000;,
    84; 1.000000; 1.000000; 1.000000; 1.000000;,
    85; 1.000000; 1.000000; 1.000000; 1.000000;,
    86; 1.000000; 1.000000; 1.000000; 1.000000;,
    87; 1.000000; 1.000000; 1.000000; 1.000000;,
    88; 1.000000; 1.000000; 1.000000; 1.000000;,
    89; 1.000000; 1.000000; 1.000000; 1.000000;,
    90; 1.000000; 1.000000; 1.000000; 1.000000;,
    91; 1.000000; 1.000000; 1.000000; 1.000000;,
    92; 1.000000; 1.000000; 1.000000; 1.000000;,
    93; 1.000000; 1.000000; 1.000000; 1.000000;,
    94; 1.000000; 1.000000; 1.000000; 1.000000;,
    95; 1.000000; 1.000000; 1.000000; 1.000000;,
    96; 1.000000; 1.000000; 1.000000; 1.000000;,
    97; 1.000000; 1.000000; 1.000000; 1.000000;,
    98; 1.000000; 1.000000; 1.000000; 1.000000;,
    99; 1.000000; 1.000000; 1.000000; 1.000000;,
    100; 1.000000; 1.000000; 1.000000; 1.000000;,
    101; 1.000000; 1.000000; 1.000000; 1.000000;,
    102; 1.000000; 1.000000; 1.000000; 1.000000;,
    103; 1.000000; 1.000000; 1.000000; 1.000000;,
    104; 1.000000; 1.000000; 1.000000; 1.000000;,
    105; 1.000000; 1.000000; 1.000000; 1.000000;,
    106; 1.000000; 1.000000; 1.000000; 1.000000;,
    107; 1.000000; 1.000000; 1.000000; 1.000000;,
    108; 1.000000; 1.000000; 1.000000; 1.000000;,
    109; 1.000000; 1.000000; 1.000000; 1.000000;,
    110; 1.000000; 1.000000; 1.000000; 1.000000;,
    111; 1.000000; 1.000000; 1.000000; 1.000000;,
    112; 1.000000; 1.000000; 1.000000; 1.000000;,
    113; 1.000000; 1.000000; 1.000000; 1.000000;,
    114; 1.000000; 1.000000; 1.000000; 1.000000;,
    115; 1.000000; 1.000000; 1.000000; 1.000000;,
    116; 1.000000; 1.000000; 1.000000; 1.000000;,
    117; 1.000000; 1.000000; 1.000000; 1.000000;,
    118; 1.000000; 1.000000; 1.000000; 1.000000;,
    119; 1.000000; 1.000000; 1.000000; 1.000000;,
    120; 1.000000; 1.000000; 1.000000; 1.000000;,
    121; 1.000000; 1.000000; 1.000000; 1.000000;,
    122; 1.000000; 1.000000; 1.000000; 1.000000;,
    123; 1.000000; 1.000000; 1.000000; 1.000000;,
    124; 1.000000; 1.000000; 1.000000; 1.000000;,
    125; 1.000000; 1.000000; 1.000000; 1.000000;,
    126; 1.000000; 1.000000; 1.000000; 1.000000;,
    127; 1.000000; 1.000000; 1.000000; 1.000000;,
    128; 1.000000; 1.000000; 1.000000; 1.000000;,
    129; 1.000000; 1.000000; 1.000000; 1.000000;,
    130; 1.000000; 1.000000; 1.000000; 1.000000;,
    131; 1.000000; 1.000000; 1.000000; 1.000000;,
    132; 1.000000; 1.000000; 1.000000; 1.000000;,
    133; 1.000000; 1.000000; 1.000000; 1.000000;,
    134; 1.000000; 1.000000; 1.000000; 1.000000;,
    135; 1.000000; 1.000000; 1.000000; 1.000000;,
    136; 1.000000; 1.000000; 1.000000; 1.000000;,
    137; 1.000000; 1.000000; 1.000000; 1.000000;,
    138; 1.000000; 1.000000; 1.000000; 1.000000;,
    139; 1.000000; 1.000000; 1.000000; 1.000000;,
    140; 1.000000; 1.000000; 1.000000; 1.000000;,
    141; 1.000000; 1.000000; 1.000000; 1.000000;,
    142; 1.000000; 1.000000; 1.000000; 1.000000;,
    143; 1.000000; 1.000000; 1.000000; 1.000000;,
    144; 1.000000; 1.000000; 1.000000; 1.000000;,
    145; 1.000000; 1.000000; 1.000000; 1.000000;,
    146; 1.000000; 1.000000; 1.000000; 1.000000;,
    147; 1.000000; 1.000000; 1.000000; 1.000000;,
    148; 1.000000; 1.000000; 1.000000; 1.000000;,
    149; 1.000000; 1.000000; 1.000000; 1.000000;,
    150; 1.000000; 1.000000; 1.000000; 1.000000;,
    151; 1.000000; 1.000000; 1.000000; 1.000000;,
    152; 1.000000; 1.000000; 1.000000; 1.000000;,
    153; 1.000000; 1.000000; 1.000000; 1.000000;,
    154; 1.000000; 1.000000; 1.000000; 1.000000;,
    155; 1.000000; 1.000000; 1.000000; 1.000000;,
    156; 1.000000; 1.000000; 1.000000; 1.000000;,
    157; 1.000000; 1.000000; 1.000000; 1.000000;,
    158; 1.000000; 1.000000; 1.000000; 1.000000;,
    159; 1.000000; 1.000000; 1.000000; 1.000000;,
    160; 1.000000; 1.000000; 1.000000; 1.000000;,
    161; 1.000000; 1.000000; 1.000000; 1.000000;,
    162; 1.000000; 1.000000; 1.000000; 1.000000;,
    163; 1.000000; 1.000000; 1.000000; 1.000000;,
    164; 1.000000; 1.000000; 1.000000; 1.000000;,
    165; 1.000000; 1.000000; 1.000000; 1.000000;,
    166; 1.000000; 1.000000; 1.000000; 1.000000;,
    167; 1.000000; 1.000000; 1.000000; 1.000000;,
    168; 1.000000; 1.000000; 1.000000; 1.000000;,
    169; 1.000000; 1.000000; 1.000000; 1.000000;,
    170; 1.000000; 1.000000; 1.000000; 1.000000;,
    171; 1.000000; 1.000000; 1.000000; 1.000000;,
    172; 1.000000; 1.000000; 1.000000; 1.000000;,
    173; 1.000000; 1.000000; 1.000000; 1.000000;,
    174; 1.000000; 1.000000; 1.000000; 1.000000;,
    175; 1.000000; 1.000000; 1.000000; 1.000000;,
    176; 1.000000; 1.000000; 1.000000; 1.000000;,
    177; 1.000000; 1.000000; 1.000000; 1.000000;,
    178; 1.000000; 1.000000; 1.000000; 1.000000;,
    179; 1.000000; 1.000000; 1.000000; 1.000000;,
    180; 1.000000; 1.000000; 1.000000; 1.000000;,
    181; 1.000000; 1.000000; 1.000000; 1.000000;,
    182; 1.000000; 1.000000; 1.000000; 1.000000;,
    183; 1.000000; 1.000000; 1.000000; 1.000000;,
    184; 1.000000; 1.000000; 1.000000; 1.000000;,
    185; 1.000000; 1.000000; 1.000000; 1.000000;,
    186; 1.000000; 1.000000; 1.000000; 1.000000;,
    187; 1.000000; 1.000000; 1.000000; 1.000000;,
    188; 1.000000; 1.000000; 1.000000; 1.000000;,
    189; 1.000000; 1.000000; 1.000000; 1.000000;,
    190; 1.000000; 1.000000; 1.000000; 1.000000;,
    191; 1.000000; 1.000000; 1.000000; 1.000000;,
    192; 1.000000; 1.000000; 1.000000; 1.000000;,
    193; 1.000000; 1.000000; 1.000000; 1.000000;,
    194; 1.000000; 1.000000; 1.000000; 1.000000;,
    195; 1.000000; 1.000000; 1.000000; 1.000000;,
    196; 1.000000; 1.000000; 1.000000; 1.000000;,
    197; 1.000000; 1.000000; 1.000000; 1.000000;,
    198; 1.000000; 1.000000; 1.000000; 1.000000;,
    199; 1.000000; 1.000000; 1.000000; 1.000000;,
    200; 1.000000; 1.000000; 1.000000; 1.000000;,
    201; 1.000000; 1.000000; 1.000000; 1.000000;,
    202; 1.000000; 1.000000; 1.000000; 1.000000;,
    203; 1.000000; 1.000000; 1.000000; 1.000000;,
    204; 1.000000; 1.000000; 1.000000; 1.000000;,
    205; 1.000000; 1.000000; 1.000000; 1.000000;,
    206; 1.000000; 1.000000; 1.000000; 1.000000;,
    207; 1.000000; 1.000000; 1.000000; 1.000000;,
    208; 1.000000; 1.000000; 1.000000; 1.000000;,
    209; 1.000000; 1.000000; 1.000000; 1.000000;,
    210; 1.000000; 1.000000; 1.000000; 1.000000;,
    211; 1.000000; 1.000000; 1.000000; 1.000000;,
    212; 1.000000; 1.000000; 1.000000; 1.000000;,
    213; 1.000000; 1.000000; 1.000000; 1.000000;,
    214; 1.000000; 1.000000; 1.000000; 1.000000;,
    215; 1.000000; 1.000000; 1.000000; 1.000000;,
    216; 1.000000; 1.000000; 1.000000; 1.000000;,
    217; 1.000000; 1.000000; 1.000000; 1.000000;,
    218; 1.000000; 1.000000; 1.000000; 1.000000;,
    219; 1.000000; 1.000000; 1.000000; 1.000000;,
    220; 1.000000; 1.000000; 1.000000; 1.000000;,
    221; 1.000000; 1.000000; 1.000000; 1.000000;,
    222; 1.000000; 1.000000; 1.000000; 1.000000;,
    223; 1.000000; 1.000000; 1.000000; 1.000000;,
    224; 1.000000; 1.000000; 1.000000; 1.000000;,
    225; 1.000000; 1.000000; 1.000000; 1.000000;,
    226; 1.000000; 1.000000; 1.000000; 1.000000;,
    227; 1.000000; 1.000000; 1.000000; 1.000000;,
    228; 1.000000; 1.000000; 1.000000; 1.000000;,
    229; 1.000000; 1.000000; 1.000000; 1.000000;,
    230; 1.000000; 1.000000; 1.000000; 1.000000;,
    231; 1.000000; 1.000000; 1.000000; 1.000000;,
    232; 1.000000; 1.000000; 1.000000; 1.000000;,
    233; 1.000000; 1.000000; 1.000000; 1.000000;,
    234; 1.000000; 1.000000; 1.000000; 1.000000;,
    235; 1.000000; 1.000000; 1.000000; 1.000000;,
    236; 1.000000; 1.000000; 1.000000; 1.000000;,
    237; 1.000000; 1.000000; 1.000000; 1.000000;,
    238; 1.000000; 1.000000; 1.000000; 1.000000;,
    239; 1.000000; 1.000000; 1.000000; 1.000000;,
    240; 1.000000; 1.000000; 1.000000; 1.000000;,
    241; 1.000000; 1.000000; 1.000000; 1.000000;,
    242; 1.000000; 1.000000; 1.000000; 1.000000;,
    243; 1.000000; 1.000000; 1.000000; 1.000000;,
    244; 1.000000; 1.000000; 1.000000; 1.000000;,
    245; 1.000000; 1.000000; 1.000000; 1.000000;,
    246; 1.000000; 1.000000; 1.000000; 1.000000;,
    247; 1.000000; 1.000000; 1.000000; 1.000000;,
    248; 1.000000; 1.000000; 1.000000; 1.000000;,
    249; 1.000000; 1.000000; 1.000000; 1.000000;,
    250; 1.000000; 1.000000; 1.000000; 1.000000;,
    251; 1.000000; 1.000000; 1.000000; 1.000000;,
    252; 1.000000; 1.000000; 1.000000; 1.000000;,
    253; 1.000000; 1.000000; 1.000000; 1.000000;,
    254; 1.000000; 1.000000; 1.000000; 1.000000;,
    255; 1.000000; 1.000000; 1.000000; 1.000000;,
    256; 1.000000; 1.000000; 1.000000; 1.000000;,
    257; 1.000000; 1.000000; 1.000000; 1.000000;,
    258; 1.000000; 1.000000; 1.000000; 1.000000;,
    259; 1.000000; 1.000000; 1.000000; 1.000000;,
    260; 1.000000; 1.000000; 1.000000; 1.000000;,
    261; 1.000000; 1.000000; 1.000000; 1.000000;,
    262; 1.000000; 1.000000; 1.000000; 1.000000;,
    263; 1.000000; 1.000000; 1.000000; 1.000000;,
    264; 1.000000; 1.000000; 1.000000; 1.000000;,
    265; 1.000000; 1.000000; 1.000000; 1.000000;,
    266; 1.000000; 1.000000; 1.000000; 1.000000;,
    267; 1.000000; 1.000000; 1.000000; 1.000000;,
    268; 1.000000; 1.000000; 1.000000; 1.000000;,
    269; 1.000000; 1.000000; 1.000000; 1.000000;,
    270; 1.000000; 1.000000; 1.000000; 1.000000;,
    271; 1.000000; 1.000000; 1.000000; 1.000000;,
    272; 1.000000; 1.000000; 1.000000; 1.000000;,
    273; 1.000000; 1.000000; 1.000000; 1.000000;,
    274; 1.000000; 1.000000; 1.000000; 1.000000;,
    275; 1.000000; 1.000000; 1.000000; 1.000000;,
    276; 1.000000; 1.000000; 1.000000; 1.000000;,
    277; 1.000000; 1.000000; 1.000000; 1.000000;,
    278; 1.000000; 1.000000; 1.000000; 1.000000;,
    279; 1.000000; 1.000000; 1.000000; 1.000000;,
    280; 1.000000; 1.000000; 1.000000; 1.000000;,
    281; 1.000000; 1.000000; 1.000000; 1.000000;,
    282; 1.000000; 1.000000; 1.000000; 1.000000;,
    283; 1.000000; 1.000000; 1.000000; 1.000000;,
    284; 1.000000; 1.000000; 1.000000; 1.000000;,
    285; 1.000000; 1.000000; 1.000000; 1.000000;,
    286; 1.000000; 1.000000; 1.000000; 1.000000;,
    287; 1.000000; 1.000000; 1.000000; 1.000000;,
    288; 1.000000; 1.000000; 1.000000; 1.000000;,
    289; 1.000000; 1.000000; 1.000000; 1.000000;,
    290; 1.000000; 1.000000; 1.000000; 1.000000;,
    291; 1.000000; 1.000000; 1.000000; 1.000000;,
    292; 1.000000; 1.000000; 1.000000; 1.000000;,
    293; 1.000000; 1.000000; 1.000000; 1.000000;,
    294; 1.000000; 1.000000; 1.000000; 1.000000;,
    295; 1.000000; 1.000000; 1.000000; 1.000000;,
    296; 1.000000; 1.000000; 1.000000; 1.000000;,
    297; 1.000000; 1.000000; 1.000000; 1.000000;,
    298; 1.000000; 1.000000; 1.000000; 1.000000;,
    299; 1.000000; 1.000000; 1.000000; 1.000000;,
    300; 1.000000; 1.000000; 1.000000; 1.000000;,
    301; 1.000000; 1.000000; 1.000000; 1.000000;,
    302; 1.000000; 1.000000; 1.000000; 1.000000;,
    303; 1.000000; 1.000000; 1.000000; 1.000000;,
    304; 1.000000; 1.000000; 1.000000; 1.000000;,
    305; 1.000000; 1.000000; 1.000000; 1.000000;,
    306; 1.000000; 1.000000; 1.000000; 1.000000;,
    307; 1.000000; 1.000000; 1.000000; 1.000000;,
    308; 1.000000; 1.000000; 1.000000; 1.000000;,
    309; 1.000000; 1.000000; 1.000000; 1.000000;,
    310; 1.000000; 1.000000; 1.000000; 1.000000;,
    311; 1.000000; 1.000000; 1.000000; 1.000000;,
    312; 1.000000; 1.000000; 1.000000; 1.000000;,
    313; 1.000000; 1.000000; 1.000000; 1.000000;,
    314; 1.000000; 1.000000; 1.000000; 1.000000;,
    315; 1.000000; 1.000000; 1.000000; 1.000000;,
    316; 1.000000; 1.000000; 1.000000; 1.000000;,
    317; 1.000000; 1.000000; 1.000000; 1.000000;,
    318; 1.000000; 1.000000; 1.000000; 1.000000;,
    319; 1.000000; 1.000000; 1.000000; 1.000000;,
    320; 1.000000; 1.000000; 1.000000; 1.000000;,
    321; 1.000000; 1.000000; 1.000000; 1.000000;,
    322; 1.000000; 1.000000; 1.000000; 1.000000;,
    323; 1.000000; 1.000000; 1.000000; 1.000000;,
    324; 1.000000; 1.000000; 1.000000; 1.000000;,
    325; 1.000000; 1.000000; 1.000000; 1.000000;,
    326; 1.000000; 1.000000; 1.000000; 1.000000;,
    327; 1.000000; 1.000000; 1.000000; 1.000000;,
    328; 1.000000; 1.000000; 1.000000; 1.000000;,
    329; 1.000000; 1.000000; 1.000000; 1.000000;,
    330; 1.000000; 1.000000; 1.000000; 1.000000;,
    331; 1.000000; 1.000000; 1.000000; 1.000000;,
    332; 1.000000; 1.000000; 1.000000; 1.000000;,
    333; 1.000000; 1.000000; 1.000000; 1.000000;,
    334; 1.000000; 1.000000; 1.000000; 1.000000;,
    335; 1.000000; 1.000000; 1.000000; 1.000000;,
    336; 1.000000; 1.000000; 1.000000; 1.000000;,
    337; 1.000000; 1.000000; 1.000000; 1.000000;,
    338; 1.000000; 1.000000; 1.000000; 1.000000;,
    339; 1.000000; 1.000000; 1.000000; 1.000000;,
    340; 1.000000; 1.000000; 1.000000; 1.000000;,
    341; 1.000000; 1.000000; 1.000000; 1.000000;,
    342; 1.000000; 1.000000; 1.000000; 1.000000;,
    343; 1.000000; 1.000000; 1.000000; 1.000000;,
    344; 1.000000; 1.000000; 1.000000; 1.000000;,
    345; 1.000000; 1.000000; 1.000000; 1.000000;,
    346; 1.000000; 1.000000; 1.000000; 1.000000;,
    347; 1.000000; 1.000000; 1.000000; 1.000000;,
    348; 1.000000; 1.000000; 1.000000; 1.000000;,
    349; 1.000000; 1.000000; 1.000000; 1.000000;,
    350; 1.000000; 1.000000; 1.000000; 1.000000;,
    351; 1.000000; 1.000000; 1.000000; 1.000000;,
    352; 1.000000; 1.000000; 1.000000; 1.000000;,
    353; 1.000000; 1.000000; 1.000000; 1.000000;,
    354; 1.000000; 1.000000; 1.000000; 1.000000;,
    355; 1.000000; 1.000000; 1.000000; 1.000000;,
    356; 1.000000; 1.000000; 1.000000; 1.000000;,
    357; 1.000000; 1.000000; 1.000000; 1.000000;,
    358; 1.000000; 1.000000; 1.000000; 1.000000;,
    359; 1.000000; 1.000000; 1.000000; 1.000000;,
    360; 1.000000; 1.000000; 1.000000; 1.000000;,
    361; 1.000000; 1.000000; 1.000000; 1.000000;,
    362; 1.000000; 1.000000; 1.000000; 1.000000;,
    363; 1.000000; 1.000000; 1.000000; 1.000000;,
    364; 1.000000; 1.000000; 1.000000; 1.000000;,
    365; 1.000000; 1.000000; 1.000000; 1.000000;,
    366; 1.000000; 1.000000; 1.000000; 1.000000;,
    367; 1.000000; 1.000000; 1.000000; 1.000000;,
    368; 1.000000; 1.000000; 1.000000; 1.000000;,
    369; 1.000000; 1.000000; 1.000000; 1.000000;,
    370; 1.000000; 1.000000; 1.000000; 1.000000;,
    371; 1.000000; 1.000000; 1.000000; 1.000000;,
    372; 1.000000; 1.000000; 1.000000; 1.000000;,
    373; 1.000000; 1.000000; 1.000000; 1.000000;,
    374; 1.000000; 1.000000; 1.000000; 1.000000;,
    375; 1.000000; 1.000000; 1.000000; 1.000000;,
    376; 1.000000; 1.000000; 1.000000; 1.000000;,
    377; 1.000000; 1.000000; 1.000000; 1.000000;;
   }

   MeshMaterialList {
    1;
    273;
    0,
    0,
    0,
    0,
    0,
    0,
    0,
    0,
    0,
    0,
    0,
    0,
    0,
    0,
    0,
    0,
    0,
    0,
    0,
    0,
    0,
    0,
    0,
    0,
    0,
    0,
    0,
    0,
    0,
    0,
    0,
    0,
    0,
    0,
    0,
    0,
    0,
    0,
    0,
    0,
    0,
    0,
    0,
    0,
    0,
    0,
    0,
    0,
    0,
    0,
    0,
    0,
    0,
    0,
    0,
    0,
    0,
    0,
    0,
    0,
    0,
    0,
    0,
    0,
    0,
    0,
    0,
    0,
    0,
    0,
    0,
    0,
    0,
    0,
    0,
    0,
    0,
    0,
    0,
    0,
    0,
    0,
    0,
    0,
    0,
    0,
    0,
    0,
    0,
    0,
    0,
    0,
    0,
    0,
    0,
    0,
    0,
    0,
    0,
    0,
    0,
    0,
    0,
    0,
    0,
    0,
    0,
    0,
    0,
    0,
    0,
    0,
    0,
    0,
    0,
    0,
    0,
    0,
    0,
    0,
    0,
    0,
    0,
    0,
    0,
    0,
    0,
    0,
    0,
    0,
    0,
    0,
    0,
    0,
    0,
    0,
    0,
    0,
    0,
    0,
    0,
    0,
    0,
    0,
    0,
    0,
    0,
    0,
    0,
    0,
    0,
    0,
    0,
    0,
    0,
    0,
    0,
    0,
    0,
    0,
    0,
    0,
    0,
    0,
    0,
    0,
    0,
    0,
    0,
    0,
    0,
    0,
    0,
    0,
    0,
    0,
    0,
    0,
    0,
    0,
    0,
    0,
    0,
    0,
    0,
    0,
    0,
    0,
    0,
    0,
    0,
    0,
    0,
    0,
    0,
    0,
    0,
    0,
    0,
    0,
    0,
    0,
    0,
    0,
    0,
    0,
    0,
    0,
    0,
    0,
    0,
    0,
    0,
    0,
    0,
    0,
    0,
    0,
    0,
    0,
    0,
    0,
    0,
    0,
    0,
    0,
    0,
    0,
    0,
    0,
    0,
    0,
    0,
    0,
    0,
    0,
    0,
    0,
    0,
    0,
    0,
    0,
    0,
    0,
    0,
    0,
    0,
    0,
    0,
    0,
    0,
    0,
    0,
    0,
    0,
    0,
    0,
    0,
    0,
    0,
    0,
    0,
    0,
    0,
    0,
    0,
    0,
    0,
    0,
    0,
    0,
    0,
    0;

    Material hu_a {
     1.000000; 1.000000; 1.000000; 1.000000;;
     128.000000;
     0.000000; 0.000000; 0.000000;;
     0.000000; 0.000000; 0.000000;;

     TextureFilename {
      "hu_a.jpg";
     }
    }

   }
  }
}
